EESchema Schematic File Version 2
LIBS:power
LIBS:device
LIBS:transistors
LIBS:conn
LIBS:linear
LIBS:regul
LIBS:74xx
LIBS:cmos4000
LIBS:adc-dac
LIBS:memory
LIBS:xilinx
LIBS:microcontrollers
LIBS:dsp
LIBS:microchip
LIBS:analog_switches
LIBS:motorola
LIBS:texas
LIBS:intel
LIBS:audio
LIBS:interface
LIBS:digital-audio
LIBS:philips
LIBS:display
LIBS:cypress
LIBS:siliconi
LIBS:opto
LIBS:atmel
LIBS:contrib
LIBS:valves
LIBS:air
LIBS:air_fi_03D-cache
EELAYER 25 0
EELAYER END
$Descr A4 11693 8268
encoding utf-8
Sheet 1 1
Title ""
Date ""
Rev ""
Comp ""
Comment1 ""
Comment2 ""
Comment3 ""
Comment4 ""
$EndDescr
$Comp
L MPU9250-RESCUE-air_fi_03 U1
U 1 1 5A50FFCC
P 2450 3750
F 0 "U1" H 2500 4250 60  0000 C CNN
F 1 "MPU9250" H 2450 3250 60  0000 C CNN
F 2 "Housings_DFN_QFN:QFN-24-1EP_3x3mm_Pitch0.4mm" H 2600 3250 60  0000 C CNN
F 3 "" H 2600 3250 60  0000 C CNN
	1    2450 3750
	1    0    0    -1  
$EndComp
Text GLabel 4400 5850 2    60   BiDi ~ 0
SCL
Text GLabel 4400 5750 2    60   BiDi ~ 0
SDA
Text GLabel 4400 5350 2    60   Input ~ 0
SW0
Text GLabel 4400 5250 2    60   Input ~ 0
SW1
Text GLabel 1850 3450 0    60   BiDi ~ 0
SDA
Text GLabel 1850 3550 0    60   BiDi ~ 0
SCL
$Comp
L C_Small C2
U 1 1 5A510ABA
P 3550 4250
F 0 "C2" H 3560 4320 50  0000 L CNN
F 1 "0.1µF" H 3560 4170 50  0000 L CNN
F 2 "Capacitors_SMD:C_0603" H 3550 4250 50  0001 C CNN
F 3 "" H 3550 4250 50  0001 C CNN
	1    3550 4250
	1    0    0    -1  
$EndComp
$Comp
L GNDD #PWR01
U 1 1 5A510C1C
P 4550 6050
F 0 "#PWR01" H 4550 5800 50  0001 C CNN
F 1 "GNDD" H 4550 5925 50  0000 C CNN
F 2 "" H 4550 6050 50  0001 C CNN
F 3 "" H 4550 6050 50  0001 C CNN
	1    4550 6050
	1    0    0    -1  
$EndComp
$Comp
L +3V3 #PWR02
U 1 1 5A510CF0
P 3550 3100
F 0 "#PWR02" H 3550 2950 50  0001 C CNN
F 1 "+3V3" H 3550 3240 50  0000 C CNN
F 2 "" H 3550 3100 50  0001 C CNN
F 3 "" H 3550 3100 50  0001 C CNN
	1    3550 3100
	1    0    0    -1  
$EndComp
$Comp
L GNDD #PWR03
U 1 1 5A510D78
P 3550 4450
F 0 "#PWR03" H 3550 4200 50  0001 C CNN
F 1 "GNDD" H 3550 4325 50  0000 C CNN
F 2 "" H 3550 4450 50  0001 C CNN
F 3 "" H 3550 4450 50  0001 C CNN
	1    3550 4450
	1    0    0    -1  
$EndComp
$Comp
L R_Small R2
U 1 1 5A510EFB
P 3350 3650
F 0 "R2" H 3380 3670 50  0000 L CNN
F 1 "10K" H 3380 3610 50  0000 L CNN
F 2 "Resistors_SMD:R_0603" H 3350 3650 50  0001 C CNN
F 3 "" H 3350 3650 50  0001 C CNN
	1    3350 3650
	0    1    -1   0   
$EndComp
$Comp
L C_Small C1
U 1 1 5A5111E7
P 3250 4250
F 0 "C1" H 3260 4320 50  0000 L CNN
F 1 "0.1µF" H 3260 4170 50  0000 L CNN
F 2 "Capacitors_SMD:C_0603" H 3250 4250 50  0001 C CNN
F 3 "" H 3250 4250 50  0001 C CNN
	1    3250 4250
	1    0    0    -1  
$EndComp
$Comp
L GNDD #PWR04
U 1 1 5A51121A
P 3250 4450
F 0 "#PWR04" H 3250 4200 50  0001 C CNN
F 1 "GNDD" H 3250 4325 50  0000 C CNN
F 2 "" H 3250 4450 50  0001 C CNN
F 3 "" H 3250 4450 50  0001 C CNN
	1    3250 4450
	1    0    0    -1  
$EndComp
$Comp
L GNDD #PWR05
U 1 1 5A51141C
P 1750 4450
F 0 "#PWR05" H 1750 4200 50  0001 C CNN
F 1 "GNDD" H 1750 4325 50  0000 C CNN
F 2 "" H 1750 4450 50  0001 C CNN
F 3 "" H 1750 4450 50  0001 C CNN
	1    1750 4450
	1    0    0    -1  
$EndComp
NoConn ~ 3050 3450
NoConn ~ 3050 3550
NoConn ~ 3050 3850
NoConn ~ 1850 3950
NoConn ~ 1850 3750
$Comp
L GNDD #PWR06
U 1 1 5A51154C
P 1450 4450
F 0 "#PWR06" H 1450 4200 50  0001 C CNN
F 1 "GNDD" H 1450 4325 50  0000 C CNN
F 2 "" H 1450 4450 50  0001 C CNN
F 3 "" H 1450 4450 50  0001 C CNN
	1    1450 4450
	1    0    0    -1  
$EndComp
$Comp
L SW_SPST_SMD S2
U 1 1 5A526E14
P 6150 2450
F 0 "S2" H 5950 2500 45  0000 L BNN
F 1 "AIR12" H 5950 2250 45  0000 L BNN
F 2 "air:SW_AIR12" H 6150 2700 20  0001 C CNN
F 3 "" H 6150 2450 50  0001 C CNN
	1    6150 2450
	1    0    0    -1  
$EndComp
$Comp
L SW_SPST_SMD S1
U 1 1 5A526F1A
P 6150 1600
F 0 "S1" H 5950 1650 45  0000 L BNN
F 1 "AIR12" H 5950 1400 45  0000 L BNN
F 2 "air:SW_AIR12" H 6150 1850 20  0001 C CNN
F 3 "" H 6150 1600 50  0001 C CNN
	1    6150 1600
	1    0    0    -1  
$EndComp
$Comp
L +3V3 #PWR07
U 1 1 5A5281B4
P 5450 1200
F 0 "#PWR07" H 5450 1050 50  0001 C CNN
F 1 "+3V3" H 5450 1340 50  0000 C CNN
F 2 "" H 5450 1200 50  0001 C CNN
F 3 "" H 5450 1200 50  0001 C CNN
	1    5450 1200
	1    0    0    -1  
$EndComp
Text GLabel 6800 3050 2    60   Output ~ 0
SW2
Text GLabel 6800 1300 2    60   Output ~ 0
SW0
$Comp
L Conn_01x02 J2
U 1 1 5A568D09
P 10100 1700
F 0 "J2" H 10100 1800 50  0000 C CNN
F 1 "Conn_01x02" H 10100 1500 50  0000 C CNN
F 2 "Wire_Connections_Bridges:WireConnection_0.80mmDrill" H 10100 1700 50  0001 C CNN
F 3 "" H 10100 1700 50  0001 C CNN
	1    10100 1700
	1    0    0    1   
$EndComp
Text GLabel 9900 1600 0    60   Input ~ 0
OUT-
Text GLabel 9900 1700 0    60   Input ~ 0
OUT+
$Comp
L +3V3 #PWR08
U 1 1 5A569D74
P 4550 4950
F 0 "#PWR08" H 4550 4800 50  0001 C CNN
F 1 "+3V3" H 4550 5090 50  0000 C CNN
F 2 "" H 4550 4950 50  0001 C CNN
F 3 "" H 4550 4950 50  0001 C CNN
	1    4550 4950
	1    0    0    -1  
$EndComp
$Comp
L Air_Conn_01x06 J1
U 1 1 5A510815
P 4200 5750
F 0 "J1" H 4200 6050 50  0000 C CNN
F 1 "Air_Conn_01x10" H 4350 4950 50  0000 C CNN
F 2 "air:conn_IDC_10pin_1.27_SMD" H 4200 5750 50  0001 C CNN
F 3 "" H 4200 5750 50  0001 C CNN
	1    4200 5750
	-1   0    0    1   
$EndComp
NoConn ~ 3050 3950
Text GLabel 4400 5550 2    60   Output ~ 0
OUT-
Text GLabel 4400 5450 2    60   Output ~ 0
OUT+
NoConn ~ 4400 5650
$Comp
L SW_SPST_SMD S3
U 1 1 5A796B56
P 6150 3350
F 0 "S3" H 5950 3400 45  0000 L BNN
F 1 "AIR12" H 5950 3150 45  0000 L BNN
F 2 "air:SW_AIR12" H 6150 3600 20  0001 C CNN
F 3 "" H 6150 3350 50  0001 C CNN
	1    6150 3350
	1    0    0    -1  
$EndComp
Text GLabel 6800 2150 2    60   Output ~ 0
SW1
Text GLabel 4400 5150 2    60   Input ~ 0
SW2
$Comp
L R_Small R5
U 1 1 5A797CB4
P 6150 1300
F 0 "R5" H 6180 1320 50  0000 L CNN
F 1 "10K" H 6180 1260 50  0000 L CNN
F 2 "Resistors_SMD:R_0603" H 6150 1300 50  0001 C CNN
F 3 "" H 6150 1300 50  0001 C CNN
	1    6150 1300
	0    -1   -1   0   
$EndComp
$Comp
L C_Small C3
U 1 1 5A79977F
P 6700 1500
F 0 "C3" H 6710 1570 50  0000 L CNN
F 1 "0.1µF" H 6710 1420 50  0000 L CNN
F 2 "Capacitors_SMD:C_0603" H 6700 1500 50  0001 C CNN
F 3 "" H 6700 1500 50  0001 C CNN
	1    6700 1500
	1    0    0    -1  
$EndComp
$Comp
L C_Small C4
U 1 1 5A79A037
P 6700 2350
F 0 "C4" H 6710 2420 50  0000 L CNN
F 1 "0.1µF" H 6710 2270 50  0000 L CNN
F 2 "Capacitors_SMD:C_0603" H 6700 2350 50  0001 C CNN
F 3 "" H 6700 2350 50  0001 C CNN
	1    6700 2350
	1    0    0    -1  
$EndComp
$Comp
L C_Small C5
U 1 1 5A79A096
P 6700 3250
F 0 "C5" H 6710 3320 50  0000 L CNN
F 1 "0.1µF" H 6710 3170 50  0000 L CNN
F 2 "Capacitors_SMD:C_0603" H 6700 3250 50  0001 C CNN
F 3 "" H 6700 3250 50  0001 C CNN
	1    6700 3250
	1    0    0    -1  
$EndComp
$Comp
L R_Small R6
U 1 1 5A79A134
P 6150 2150
F 0 "R6" H 6180 2170 50  0000 L CNN
F 1 "10K" H 6180 2110 50  0000 L CNN
F 2 "Resistors_SMD:R_0603" H 6150 2150 50  0001 C CNN
F 3 "" H 6150 2150 50  0001 C CNN
	1    6150 2150
	0    -1   -1   0   
$EndComp
$Comp
L R_Small R7
U 1 1 5A79A199
P 6150 3050
F 0 "R7" H 6180 3070 50  0000 L CNN
F 1 "10K" H 6180 3010 50  0000 L CNN
F 2 "Resistors_SMD:R_0603" H 6150 3050 50  0001 C CNN
F 3 "" H 6150 3050 50  0001 C CNN
	1    6150 3050
	0    -1   -1   0   
$EndComp
$Comp
L R_Small R4
U 1 1 5A798D0C
P 5650 3050
F 0 "R4" H 5680 3070 50  0000 L CNN
F 1 "10K" H 5680 3010 50  0000 L CNN
F 2 "Resistors_SMD:R_0603" H 5650 3050 50  0001 C CNN
F 3 "" H 5650 3050 50  0001 C CNN
	1    5650 3050
	0    -1   -1   0   
$EndComp
$Comp
L R_Small R3
U 1 1 5A798CB7
P 5650 2150
F 0 "R3" H 5680 2170 50  0000 L CNN
F 1 "10K" H 5680 2110 50  0000 L CNN
F 2 "Resistors_SMD:R_0603" H 5650 2150 50  0001 C CNN
F 3 "" H 5650 2150 50  0001 C CNN
	1    5650 2150
	0    -1   -1   0   
$EndComp
$Comp
L R_Small R1
U 1 1 5A798797
P 5650 1300
F 0 "R1" H 5680 1320 50  0000 L CNN
F 1 "10K" H 5680 1260 50  0000 L CNN
F 2 "Resistors_SMD:R_0603" H 5650 1300 50  0001 C CNN
F 3 "" H 5650 1300 50  0001 C CNN
	1    5650 1300
	0    -1   -1   0   
$EndComp
NoConn ~ 6350 3450
NoConn ~ 5950 3450
NoConn ~ 6350 2550
NoConn ~ 5950 2550
$Comp
L GNDD #PWR09
U 1 1 5A79D2C8
P 6700 2650
F 0 "#PWR09" H 6700 2400 50  0001 C CNN
F 1 "GNDD" H 6700 2525 50  0000 C CNN
F 2 "" H 6700 2650 50  0001 C CNN
F 3 "" H 6700 2650 50  0001 C CNN
	1    6700 2650
	1    0    0    -1  
$EndComp
$Comp
L GNDD #PWR010
U 1 1 5A79D4F3
P 6450 2650
F 0 "#PWR010" H 6450 2400 50  0001 C CNN
F 1 "GNDD" H 6450 2525 50  0000 C CNN
F 2 "" H 6450 2650 50  0001 C CNN
F 3 "" H 6450 2650 50  0001 C CNN
	1    6450 2650
	1    0    0    -1  
$EndComp
$Comp
L GNDD #PWR011
U 1 1 5A79D662
P 6450 3550
F 0 "#PWR011" H 6450 3300 50  0001 C CNN
F 1 "GNDD" H 6450 3425 50  0000 C CNN
F 2 "" H 6450 3550 50  0001 C CNN
F 3 "" H 6450 3550 50  0001 C CNN
	1    6450 3550
	1    0    0    -1  
$EndComp
Wire Wire Line
	4550 5950 4550 6050
Wire Wire Line
	4400 5950 4550 5950
Wire Wire Line
	4550 5050 4550 4950
Wire Wire Line
	4400 5050 4550 5050
Wire Wire Line
	1450 3850 1850 3850
Wire Wire Line
	1450 4450 1450 3850
Wire Wire Line
	1750 4050 1850 4050
Wire Wire Line
	1750 4450 1750 4050
Connection ~ 3550 3650
Wire Wire Line
	3450 3650 3550 3650
Wire Wire Line
	3250 4450 3250 4350
Wire Wire Line
	3250 3750 3250 4150
Wire Wire Line
	3050 3750 3250 3750
Wire Wire Line
	1450 3650 1850 3650
Wire Wire Line
	3050 3650 3250 3650
Wire Wire Line
	3550 4450 3550 4350
Connection ~ 3550 4050
Wire Wire Line
	3550 4050 3050 4050
Wire Wire Line
	3550 3100 3550 4150
Wire Wire Line
	3150 3650 3150 3150
Wire Wire Line
	3150 3150 1450 3150
Wire Wire Line
	1450 3150 1450 3650
Connection ~ 3150 3650
Wire Wire Line
	5450 1200 5450 1300
Wire Wire Line
	5450 2050 5450 2150
Wire Wire Line
	5450 1300 5550 1300
Wire Wire Line
	5750 3050 6050 3050
Wire Wire Line
	5750 1300 6050 1300
Wire Wire Line
	5750 2150 6050 2150
Wire Wire Line
	6250 1300 6800 1300
Wire Wire Line
	6700 1400 6700 1300
Connection ~ 6700 1300
Wire Wire Line
	6250 3050 6800 3050
Wire Wire Line
	6700 3150 6700 3050
Connection ~ 6700 3050
Wire Wire Line
	6250 2150 6800 2150
Wire Wire Line
	6700 2250 6700 2150
Connection ~ 6700 2150
Wire Wire Line
	5850 1300 5850 1600
Connection ~ 5850 1300
Wire Wire Line
	5850 2150 5850 2450
Connection ~ 5850 2150
Wire Wire Line
	5850 3050 5850 3350
Connection ~ 5850 3050
Wire Wire Line
	5450 3050 5550 3050
Wire Wire Line
	5450 2150 5550 2150
Wire Wire Line
	5850 3350 5950 3350
Wire Wire Line
	6350 3350 6450 3350
Wire Wire Line
	5850 2450 5950 2450
Wire Wire Line
	6350 2450 6450 2450
Wire Wire Line
	6700 3550 6700 3350
Wire Wire Line
	6700 2650 6700 2450
Wire Wire Line
	6450 2450 6450 2650
$Comp
L GNDD #PWR012
U 1 1 5A799863
P 6700 3550
F 0 "#PWR012" H 6700 3300 50  0001 C CNN
F 1 "GNDD" H 6700 3425 50  0000 C CNN
F 2 "" H 6700 3550 50  0001 C CNN
F 3 "" H 6700 3550 50  0001 C CNN
	1    6700 3550
	1    0    0    -1  
$EndComp
Wire Wire Line
	5850 1600 5950 1600
$Comp
L GNDD #PWR013
U 1 1 5A79DF0C
P 6700 1800
F 0 "#PWR013" H 6700 1550 50  0001 C CNN
F 1 "GNDD" H 6700 1675 50  0000 C CNN
F 2 "" H 6700 1800 50  0001 C CNN
F 3 "" H 6700 1800 50  0001 C CNN
	1    6700 1800
	1    0    0    -1  
$EndComp
Wire Wire Line
	6700 1800 6700 1600
$Comp
L GNDD #PWR014
U 1 1 5A79E000
P 6450 1800
F 0 "#PWR014" H 6450 1550 50  0001 C CNN
F 1 "GNDD" H 6450 1675 50  0000 C CNN
F 2 "" H 6450 1800 50  0001 C CNN
F 3 "" H 6450 1800 50  0001 C CNN
	1    6450 1800
	1    0    0    -1  
$EndComp
Wire Wire Line
	6450 1600 6350 1600
$Comp
L +3V3 #PWR015
U 1 1 5A79E2BE
P 5450 2050
F 0 "#PWR015" H 5450 1900 50  0001 C CNN
F 1 "+3V3" H 5450 2190 50  0000 C CNN
F 2 "" H 5450 2050 50  0001 C CNN
F 3 "" H 5450 2050 50  0001 C CNN
	1    5450 2050
	1    0    0    -1  
$EndComp
$Comp
L +3V3 #PWR016
U 1 1 5A79E45A
P 5450 2950
F 0 "#PWR016" H 5450 2800 50  0001 C CNN
F 1 "+3V3" H 5450 3090 50  0000 C CNN
F 2 "" H 5450 2950 50  0001 C CNN
F 3 "" H 5450 2950 50  0001 C CNN
	1    5450 2950
	1    0    0    -1  
$EndComp
Wire Wire Line
	5450 2950 5450 3050
NoConn ~ 6350 1700
NoConn ~ 5950 1700
Wire Wire Line
	6450 1600 6450 1800
Wire Wire Line
	6450 3350 6450 3550
$EndSCHEMATC
