EESchema Schematic File Version 2
LIBS:power
LIBS:device
LIBS:transistors
LIBS:conn
LIBS:linear
LIBS:regul
LIBS:74xx
LIBS:cmos4000
LIBS:adc-dac
LIBS:memory
LIBS:xilinx
LIBS:microcontrollers
LIBS:dsp
LIBS:microchip
LIBS:analog_switches
LIBS:motorola
LIBS:texas
LIBS:intel
LIBS:audio
LIBS:interface
LIBS:digital-audio
LIBS:philips
LIBS:display
LIBS:cypress
LIBS:siliconi
LIBS:opto
LIBS:atmel
LIBS:contrib
LIBS:valves
LIBS:air
LIBS:air_04-cache
EELAYER 25 0
EELAYER END
$Descr A3 16535 11693
encoding utf-8
Sheet 1 1
Title "air 0.4A"
Date "2017-02-28"
Rev "A"
Comp ""
Comment1 ""
Comment2 ""
Comment3 ""
Comment4 ""
$EndDescr
$Comp
L LED D1
U 1 1 5A3D750E
P 11250 2100
F 0 "D1" H 11250 2200 50  0000 C CNN
F 1 "LEDGREEN" H 11350 2000 50  0000 C CNN
F 2 "LEDs:LED_0603" H 11250 2100 50  0001 C CNN
F 3 "http://optoelectronics.liteon.com/upload/download/DS22-2000-228/LTST-C191KGKT.PDF" H 11250 2100 50  0001 C CNN
F 4 "160-1446-1-ND" H 11250 2300 50  0001 C CNN "digikey"
	1    11250 2100
	-1   0    0    1   
$EndComp
$Comp
L CONN_TO_SSD1306 J3
U 1 1 5A3EDF7E
P -14150 5850
F 0 "J3" H -14350 6650 45  0000 L BNN
F 1 "SPI" H -14550 5700 45  0000 L BNN
F 2 "air:1X08" V -14450 6200 30  0000 C CNN
F 3 "" H -14150 5850 50  0001 C CNN
F 4 "OLED HEADER" H -14150 6800 60  0000 C CNN "Field4"
	1    -14150 5850
	1    0    0    1   
$EndComp
$Comp
L MPU9250 U2
U 1 1 5A400063
P 2550 8750
F 0 "U2" H 2550 9300 60  0000 C CNN
F 1 "MPU9250" H 2550 8250 60  0000 C CNN
F 2 "Housings_DFN_QFN:QFN-24-1EP_3x3mm_Pitch0.4mm" H 2550 9200 30  0000 C CNN
F 3 "https://store.invensense.com/datasheets/invensense/MPU9250REV1.0.pdf" H 2700 8250 60  0001 C CNN
F 4 "1428-1019-1-ND" H 2550 9400 50  0001 C CNN "digikey"
	1    2550 8750
	1    0    0    -1  
$EndComp
$Comp
L R_Small R28
U 1 1 5A44A81D
P 12800 2000
F 0 "R28" H 12830 2020 50  0000 L CNN
F 1 "4.3K" H 12830 1960 50  0000 L CNN
F 2 "Resistors_SMD:R_0603" H 12800 2000 50  0001 C CNN
F 3 "http://www.yageo.com/documents/recent/PYu-RC_Group_51_RoHS_L_8.pdf" H 12800 2000 50  0001 C CNN
F 4 "311-4.3KGRCT-ND" H 12800 2000 60  0001 C CNN "digikey"
	1    12800 2000
	0    1    1    0   
$EndComp
$Comp
L R_Small R21
U 1 1 5A44E1E7
P 14100 2000
F 0 "R21" H 14130 2020 50  0000 L CNN
F 1 "800K" H 14130 1960 50  0000 L CNN
F 2 "Resistors_SMD:R_0603" H 14100 2000 50  0001 C CNN
F 3 "http://www.yageo.com/documents/recent/PYu-RC_Group_51_RoHS_L_8.pdf" H 14100 2000 50  0001 C CNN
F 4 "311-100KGRCT-ND" H 14130 2120 50  0001 C CNN "digikey"
	1    14100 2000
	-1   0    0    1   
$EndComp
$Comp
L R_Small R22
U 1 1 5A44E40E
P 14100 2450
F 0 "R22" H 14130 2470 50  0000 L CNN
F 1 "2M" H 14130 2410 50  0000 L CNN
F 2 "Resistors_SMD:R_0603" H 14100 2450 50  0001 C CNN
F 3 "http://www.yageo.com/documents/recent/PYu-RC_Group_51_RoHS_L_8.pdf" H 14100 2450 50  0001 C CNN
F 4 "311-100KGRCT-ND" H 14130 2570 50  0001 C CNN "digikey"
	1    14100 2450
	-1   0    0    1   
$EndComp
$Comp
L C_Small C13
U 1 1 5A486B5C
P -14050 4850
F 0 "C13" H -14040 4920 50  0000 L CNN
F 1 "0.1µF" H -14040 4770 50  0000 L CNN
F 2 "Capacitors_SMD:C_0603" H -14050 4850 50  0001 C CNN
F 3 "https://www.murata.com/~/media/webrenewal/support/library/catalog/products/capacitor/mlcc/c02e.ashx?la=en-us" H -14050 4850 50  0001 C CNN
F 4 "490-1532-1-ND" H -14040 5020 50  0001 C CNN "digikey"
	1    -14050 4850
	1    0    0    -1  
$EndComp
$Comp
L CP1_Small C14
U 1 1 5A48C21B
P -13800 4850
F 0 "C14" H -13790 4920 50  0000 L CNN
F 1 "100µF" H -13790 4770 50  0000 L CNN
F 2 "Capacitors_SMD:C_1206" H -13800 4850 30  0001 C CNN
F 3 "https://www.murata.com/~/media/webrenewal/support/library/catalog/products/capacitor/mlcc/c02e.ashx?la=en-us" H -13800 4850 50  0001 C CNN
F 4 "490-13982-1-ND" H -13790 5020 50  0001 C CNN "digikey"
	1    -13800 4850
	1    0    0    -1  
$EndComp
$Comp
L C_Small C17
U 1 1 5A438393
P -8850 7300
F 0 "C17" H -8840 7370 50  0000 L CNN
F 1 "0.01µF" H -8840 7220 50  0000 L CNN
F 2 "Capacitors_SMD:C_0603" H -8850 7300 50  0001 C CNN
F 3 "https://www.murata.com/~/media/webrenewal/support/library/catalog/products/capacitor/mlcc/c02e.ashx?la=en-us" H -8850 7300 50  0001 C CNN
F 4 "490-1525-1-ND" H -8840 7470 50  0001 C CNN "digikey"
	1    -8850 7300
	1    0    0    -1  
$EndComp
$Comp
L C_Small C16
U 1 1 5A438822
P -9100 7300
F 0 "C16" H -9090 7370 50  0000 L CNN
F 1 "0.01µF" H -9090 7220 50  0000 L CNN
F 2 "Capacitors_SMD:C_0603" H -9100 7300 50  0001 C CNN
F 3 "https://www.murata.com/~/media/webrenewal/support/library/catalog/products/capacitor/mlcc/c02e.ashx?la=en-us" H -9100 7300 50  0001 C CNN
F 4 "490-1525-1-ND" H -9090 7470 50  0001 C CNN "digikey"
	1    -9100 7300
	-1   0    0    -1  
$EndComp
$Comp
L GNDD #PWR01
U 1 1 5A438F81
P -8850 7450
F 0 "#PWR01" H -8850 7200 50  0001 C CNN
F 1 "GNDD" H -8850 7325 50  0000 C CNN
F 2 "" H -8850 7450 50  0001 C CNN
F 3 "" H -8850 7450 50  0001 C CNN
	1    -8850 7450
	1    0    0    -1  
$EndComp
$Comp
L GNDD #PWR02
U 1 1 5A43932C
P -8050 7450
F 0 "#PWR02" H -8050 7200 50  0001 C CNN
F 1 "GNDD" H -8050 7325 50  0000 C CNN
F 2 "" H -8050 7450 50  0001 C CNN
F 3 "" H -8050 7450 50  0001 C CNN
	1    -8050 7450
	1    0    0    -1  
$EndComp
$Comp
L +3V3 #PWR03
U 1 1 5A4398CB
P -8450 6500
F 0 "#PWR03" H -8450 6350 50  0001 C CNN
F 1 "+3V3" H -8450 6640 50  0000 C CNN
F 2 "" H -8450 6500 50  0001 C CNN
F 3 "" H -8450 6500 50  0001 C CNN
	1    -8450 6500
	1    0    0    -1  
$EndComp
$Comp
L GNDD #PWR04
U 1 1 5A439A0C
P -9100 7450
F 0 "#PWR04" H -9100 7200 50  0001 C CNN
F 1 "GNDD" H -9100 7325 50  0000 C CNN
F 2 "" H -9100 7450 50  0001 C CNN
F 3 "" H -9100 7450 50  0001 C CNN
	1    -9100 7450
	1    0    0    -1  
$EndComp
$Comp
L +3V3 #PWR05
U 1 1 5A43BE66
P -7200 6550
F 0 "#PWR05" H -7200 6400 50  0001 C CNN
F 1 "+3V3" H -7200 6690 50  0000 C CNN
F 2 "" H -7200 6550 50  0001 C CNN
F 3 "" H -7200 6550 50  0001 C CNN
	1    -7200 6550
	1    0    0    -1  
$EndComp
$Comp
L +3V3 #PWR06
U 1 1 5A448D61
P -7850 1650
F 0 "#PWR06" H -7850 1500 50  0001 C CNN
F 1 "+3V3" H -7850 1790 50  0000 C CNN
F 2 "" H -7850 1650 50  0001 C CNN
F 3 "" H -7850 1650 50  0001 C CNN
	1    -7850 1650
	1    0    0    -1  
$EndComp
$Comp
L GNDD #PWR07
U 1 1 5A44DAFB
P 14800 2650
F 0 "#PWR07" H 14800 2400 50  0001 C CNN
F 1 "GNDD" H 14800 2525 50  0000 C CNN
F 2 "" H 14800 2650 50  0001 C CNN
F 3 "" H 14800 2650 50  0001 C CNN
	1    14800 2650
	1    0    0    -1  
$EndComp
$Comp
L GNDD #PWR08
U 1 1 5A44E034
P 12950 2650
F 0 "#PWR08" H 12950 2400 50  0001 C CNN
F 1 "GNDD" H 12950 2525 50  0000 C CNN
F 2 "" H 12950 2650 50  0001 C CNN
F 3 "" H 12950 2650 50  0001 C CNN
	1    12950 2650
	1    0    0    -1  
$EndComp
$Comp
L GNDD #PWR010
U 1 1 5A44FF59
P 14100 2650
F 0 "#PWR010" H 14100 2400 50  0001 C CNN
F 1 "GNDD" H 14100 2525 50  0000 C CNN
F 2 "" H 14100 2650 50  0001 C CNN
F 3 "" H 14100 2650 50  0001 C CNN
	1    14100 2650
	1    0    0    -1  
$EndComp
$Comp
L C_Small C21
U 1 1 5A45813D
P 3700 9300
F 0 "C21" H 3710 9370 50  0000 L CNN
F 1 "0.1µF" H 3710 9220 50  0000 L CNN
F 2 "Capacitors_SMD:C_0603" H 3700 9300 50  0001 C CNN
F 3 "https://www.murata.com/~/media/webrenewal/support/library/catalog/products/capacitor/mlcc/c02e.ashx?la=en-us" H 3700 9300 50  0001 C CNN
F 4 "490-1532-1-ND" H 3710 9470 50  0001 C CNN "digikey"
	1    3700 9300
	1    0    0    -1  
$EndComp
$Comp
L C_Small C20
U 1 1 5A458498
P 3450 9300
F 0 "C20" H 3460 9370 50  0000 L CNN
F 1 "0.1µF" H 3460 9220 50  0000 L CNN
F 2 "Capacitors_SMD:C_0603" H 3450 9300 50  0001 C CNN
F 3 "https://www.murata.com/~/media/webrenewal/support/library/catalog/products/capacitor/mlcc/c02e.ashx?la=en-us" H 3450 9300 50  0001 C CNN
F 4 "490-1532-1-ND" H 3460 9470 50  0001 C CNN "digikey"
	1    3450 9300
	1    0    0    -1  
$EndComp
$Comp
L GNDD #PWR011
U 1 1 5A458A95
P 3700 9550
F 0 "#PWR011" H 3700 9300 50  0001 C CNN
F 1 "GNDD" H 3700 9425 50  0000 C CNN
F 2 "" H 3700 9550 50  0001 C CNN
F 3 "" H 3700 9550 50  0001 C CNN
	1    3700 9550
	1    0    0    -1  
$EndComp
$Comp
L GNDD #PWR012
U 1 1 5A458BCF
P 3450 9550
F 0 "#PWR012" H 3450 9300 50  0001 C CNN
F 1 "GNDD" H 3450 9425 50  0000 C CNN
F 2 "" H 3450 9550 50  0001 C CNN
F 3 "" H 3450 9550 50  0001 C CNN
	1    3450 9550
	1    0    0    -1  
$EndComp
$Comp
L GNDD #PWR013
U 1 1 5A458EA8
P 3200 9550
F 0 "#PWR013" H 3200 9300 50  0001 C CNN
F 1 "GNDD" H 3200 9425 50  0000 C CNN
F 2 "" H 3200 9550 50  0001 C CNN
F 3 "" H 3200 9550 50  0001 C CNN
	1    3200 9550
	1    0    0    -1  
$EndComp
$Comp
L GNDD #PWR014
U 1 1 5A458FE2
P 1900 9550
F 0 "#PWR014" H 1900 9300 50  0001 C CNN
F 1 "GNDD" H 1900 9425 50  0000 C CNN
F 2 "" H 1900 9550 50  0001 C CNN
F 3 "" H 1900 9550 50  0001 C CNN
	1    1900 9550
	1    0    0    -1  
$EndComp
$Comp
L +3V3 #PWR015
U 1 1 5A459181
P 3700 8000
F 0 "#PWR015" H 3700 7850 50  0001 C CNN
F 1 "+3V3" H 3700 8140 50  0000 C CNN
F 2 "" H 3700 8000 50  0001 C CNN
F 3 "" H 3700 8000 50  0001 C CNN
	1    3700 8000
	1    0    0    -1  
$EndComp
$Comp
L R_Small R9
U 1 1 5A459575
P 1900 8300
F 0 "R9" H 1930 8320 50  0000 L CNN
F 1 "10K" H 1930 8260 50  0000 L CNN
F 2 "Resistors_SMD:R_0603" H 1900 8300 50  0001 C CNN
F 3 "http://www.yageo.com/documents/recent/PYu-RC_Group_51_RoHS_L_8.pdf" H 1900 8300 50  0001 C CNN
F 4 "311-10KGRCT-ND" H 1930 8420 50  0001 C CNN "digikey"
	1    1900 8300
	-1   0    0    1   
$EndComp
$Comp
L GNDD #PWR016
U 1 1 5A460F1E
P -13800 5100
F 0 "#PWR016" H -13800 4850 50  0001 C CNN
F 1 "GNDD" H -13800 4975 50  0000 C CNN
F 2 "" H -13800 5100 50  0001 C CNN
F 3 "" H -13800 5100 50  0001 C CNN
	1    -13800 5100
	1    0    0    -1  
$EndComp
$Comp
L GNDD #PWR017
U 1 1 5A4612C3
P -14050 5100
F 0 "#PWR017" H -14050 4850 50  0001 C CNN
F 1 "GNDD" H -14050 4975 50  0000 C CNN
F 2 "" H -14050 5100 50  0001 C CNN
F 3 "" H -14050 5100 50  0001 C CNN
	1    -14050 5100
	1    0    0    -1  
$EndComp
$Comp
L GNDD #PWR018
U 1 1 5A4613FD
P -14550 5100
F 0 "#PWR018" H -14550 4850 50  0001 C CNN
F 1 "GNDD" H -14550 4975 50  0000 C CNN
F 2 "" H -14550 5100 50  0001 C CNN
F 3 "" H -14550 5100 50  0001 C CNN
	1    -14550 5100
	1    0    0    -1  
$EndComp
$Comp
L +3V3 #PWR019
U 1 1 5A461537
P -13600 3750
F 0 "#PWR019" H -13600 3600 50  0001 C CNN
F 1 "+3V3" H -13600 3890 50  0000 C CNN
F 2 "" H -13600 3750 50  0001 C CNN
F 3 "" H -13600 3750 50  0001 C CNN
	1    -13600 3750
	1    0    0    -1  
$EndComp
$Comp
L +3V3 #PWR020
U 1 1 5A4657A5
P -9150 900
F 0 "#PWR020" H -9150 750 50  0001 C CNN
F 1 "+3V3" H -9150 1040 50  0000 C CNN
F 2 "" H -9150 900 50  0001 C CNN
F 3 "" H -9150 900 50  0001 C CNN
	1    -9150 900 
	1    0    0    -1  
$EndComp
$Comp
L GNDD #PWR021
U 1 1 5A465C01
P -12850 950
F 0 "#PWR021" H -12850 700 50  0001 C CNN
F 1 "GNDD" H -12850 825 50  0000 C CNN
F 2 "" H -12850 950 50  0001 C CNN
F 3 "" H -12850 950 50  0001 C CNN
	1    -12850 950 
	1    0    0    -1  
$EndComp
$Comp
L GNDA #PWR022
U 1 1 5A46C62D
P -9400 1600
F 0 "#PWR022" H -9400 1350 50  0001 C CNN
F 1 "GNDA" H -9400 1450 50  0000 C CNN
F 2 "" H -9400 1600 50  0001 C CNN
F 3 "" H -9400 1600 50  0001 C CNN
	1    -9400 1600
	1    0    0    -1  
$EndComp
$Comp
L Teensy3.2-RESCUE-air_01 U4
U 1 1 5A44EE8A
P -11150 2800
F 0 "U4" H -11150 5075 60  0000 C CNN
F 1 "Teensy3.2" H -11150 4975 60  0000 C CNN
F 2 "air:Teensy32_minimal" H -11150 4850 30  0000 C CNN
F 3 "" H -11150 2500 60  0000 C CNN
	1    -11150 2800
	1    0    0    -1  
$EndComp
$Comp
L MCP73831_AIR U6
U 1 1 5A4518AF
P 12200 2000
F 0 "U6" H 12200 2325 45  0000 C CNN
F 1 "MCP73831_AIR" H 12200 2250 45  0000 C CNN
F 2 "TO_SOT_Packages_SMD:SOT-23-5" H 12200 1750 30  0000 C CNN
F 3 "http://ww1.microchip.com/downloads/en/DeviceDoc/20001984g.pdf" H 11900 2250 60  0001 C CNN
F 4 "MCP73831T-2ATI/OTCT-ND" H 12200 2425 50  0001 C CNN "digikey"
	1    12200 2000
	1    0    0    -1  
$EndComp
$Comp
L LIPO_JST_PH-S2B-SM4 J6
U 1 1 5A4540A1
P 14950 2000
F 0 "J6" H 14750 2200 45  0000 L BNN
F 1 "LIPO_JST_PH-S2B-SM4" H 14150 1850 45  0000 L BNN
F 2 "Connectors_JST:JST_PH_S2B-PH-SM4-TB_02x2.00mm_Angled" H 14950 2300 30  0001 C CNN
F 3 "http://www.jst-mfg.com/product/pdf/eng/ePH.pdf" H 14750 2200 50  0001 C CNN
F 4 "455-1749-1-ND" H 14750 2300 50  0001 C CNN "digikey"
	1    14950 2000
	-1   0    0    1   
$EndComp
$Comp
L LED D3
U 1 1 5A48528F
P 11250 2350
F 0 "D3" H 11250 2450 50  0000 C CNN
F 1 "LEDRED" H 11300 2250 50  0000 C CNN
F 2 "LEDs:LED_0603" H 11250 2350 50  0001 C CNN
F 3 "http://optoelectronics.liteon.com/upload/download/DS-22-99-0151/LTST-C190KRKT.pdf" H 11250 2350 50  0001 C CNN
F 4 "160-1436-1-ND" H 11250 2550 50  0001 C CNN "digikey"
	1    11250 2350
	1    0    0    -1  
$EndComp
$Comp
L GNDD #PWR023
U 1 1 5A485383
P 11000 2650
F 0 "#PWR023" H 11000 2400 50  0001 C CNN
F 1 "GNDD" H 11000 2525 50  0000 C CNN
F 2 "" H 11000 2650 50  0001 C CNN
F 3 "" H 11000 2650 50  0001 C CNN
	1    11000 2650
	1    0    0    -1  
$EndComp
$Comp
L SK6812RGBW_NEOPIXEL U1
U 1 1 5A488D28
P -12000 5400
F 0 "U1" H -12000 5800 60  0000 C CNN
F 1 "SK6812RGBW_NEOPIXEL" H -12000 5700 60  0000 C CNN
F 2 "air:LED_WS2812B-PLCC4" H -12000 5100 30  0000 C CNN
F 3 "https://cdn-shop.adafruit.com/product-files/2757/p2757_SK6812RGBW_REV01.pdf" H -12250 5500 60  0001 C CNN
F 4 "1528-2386-ND" H -12000 5900 50  0001 C CNN "digikey"
	1    -12000 5400
	-1   0    0    -1  
$EndComp
$Comp
L +3V3 #PWR024
U 1 1 5A48934A
P -11150 5150
F 0 "#PWR024" H -11150 5000 50  0001 C CNN
F 1 "+3V3" H -11150 5290 50  0000 C CNN
F 2 "" H -11150 5150 50  0001 C CNN
F 3 "" H -11150 5150 50  0001 C CNN
	1    -11150 5150
	1    0    0    -1  
$EndComp
$Comp
L C_Small C1
U 1 1 5A489433
P -11150 5750
F 0 "C1" H -11140 5820 50  0000 L CNN
F 1 "1µF" H -11140 5670 50  0000 L CNN
F 2 "Capacitors_SMD:C_0603" H -11150 5750 50  0001 C CNN
F 3 "https://www.murata.com/~/media/webrenewal/support/library/catalog/products/capacitor/mlcc/c02e.ashx?la=en-us" H -11150 5750 50  0001 C CNN
F 4 "490-1543-1-ND" H -11140 5920 50  0001 C CNN "digikey"
	1    -11150 5750
	1    0    0    -1  
$EndComp
$Comp
L GNDD #PWR025
U 1 1 5A489D01
P -11150 5950
F 0 "#PWR025" H -11150 5700 50  0001 C CNN
F 1 "GNDD" H -11150 5825 50  0000 C CNN
F 2 "" H -11150 5950 50  0001 C CNN
F 3 "" H -11150 5950 50  0001 C CNN
	1    -11150 5950
	1    0    0    -1  
$EndComp
$Comp
L GNDD #PWR026
U 1 1 5A48A9D8
P -11350 5950
F 0 "#PWR026" H -11350 5700 50  0001 C CNN
F 1 "GNDD" H -11350 5825 50  0000 C CNN
F 2 "" H -11350 5950 50  0001 C CNN
F 3 "" H -11350 5950 50  0001 C CNN
	1    -11350 5950
	1    0    0    -1  
$EndComp
$Comp
L SK6812RGBW_NEOPIXEL U7
U 1 1 5A48C65B
P 2050 6550
F 0 "U7" H 2050 6950 60  0000 C CNN
F 1 "SK6812RGBW_NEOPIXEL" H 2050 6850 60  0000 C CNN
F 2 "air:LED_WS2812B-PLCC4" H 2050 6250 30  0000 C CNN
F 3 "https://cdn-shop.adafruit.com/product-files/2757/p2757_SK6812RGBW_REV01.pdf" H 1800 6650 60  0001 C CNN
F 4 "1528-2386-ND" H 2050 7050 50  0001 C CNN "digikey"
	1    2050 6550
	-1   0    0    -1  
$EndComp
$Comp
L +3V3 #PWR027
U 1 1 5A48C661
P 2900 6300
F 0 "#PWR027" H 2900 6150 50  0001 C CNN
F 1 "+3V3" H 2900 6440 50  0000 C CNN
F 2 "" H 2900 6300 50  0001 C CNN
F 3 "" H 2900 6300 50  0001 C CNN
	1    2900 6300
	1    0    0    -1  
$EndComp
$Comp
L C_Small C5
U 1 1 5A48C667
P 2900 6900
F 0 "C5" H 2910 6970 50  0000 L CNN
F 1 "1µF" H 2910 6820 50  0000 L CNN
F 2 "Capacitors_SMD:C_0603" H 2900 6900 50  0001 C CNN
F 3 "https://www.murata.com/~/media/webrenewal/support/library/catalog/products/capacitor/mlcc/c02e.ashx?la=en-us" H 2900 6900 50  0001 C CNN
F 4 "490-1543-1-ND" H 2910 7070 50  0001 C CNN "digikey"
	1    2900 6900
	1    0    0    -1  
$EndComp
$Comp
L GNDD #PWR028
U 1 1 5A48C670
P 2900 7100
F 0 "#PWR028" H 2900 6850 50  0001 C CNN
F 1 "GNDD" H 2900 6975 50  0000 C CNN
F 2 "" H 2900 7100 50  0001 C CNN
F 3 "" H 2900 7100 50  0001 C CNN
	1    2900 7100
	1    0    0    -1  
$EndComp
$Comp
L GNDD #PWR029
U 1 1 5A48C679
P 2700 7100
F 0 "#PWR029" H 2700 6850 50  0001 C CNN
F 1 "GNDD" H 2700 6975 50  0000 C CNN
F 2 "" H 2700 7100 50  0001 C CNN
F 3 "" H 2700 7100 50  0001 C CNN
	1    2700 7100
	1    0    0    -1  
$EndComp
$Comp
L VBUS #PWR030
U 1 1 5A490E7E
P 11000 1450
F 0 "#PWR030" H 11000 1300 50  0001 C CNN
F 1 "VBUS" H 11000 1600 50  0000 C CNN
F 2 "" H 11000 1450 50  0001 C CNN
F 3 "" H 11000 1450 50  0001 C CNN
	1    11000 1450
	1    0    0    -1  
$EndComp
$Comp
L VBUS #PWR031
U 1 1 5A492414
P -9400 900
F 0 "#PWR031" H -9400 750 50  0001 C CNN
F 1 "VBUS" H -9400 1050 50  0000 C CNN
F 2 "" H -9400 900 50  0001 C CNN
F 3 "" H -9400 900 50  0001 C CNN
	1    -9400 900 
	1    0    0    -1  
$EndComp
$Comp
L GS2 J10
U 1 1 5A4CCD26
P -11000 4700
F 0 "J10" V -11200 4700 50  0000 C CNN
F 1 "GS2" V -11100 4700 50  0000 C CNN
F 2 "Connectors:GS2" V -10926 4700 30  0000 C CNN
F 3 "" H -11000 4700 50  0001 C CNN
	1    -11000 4700
	0    1    1    0   
$EndComp
$Comp
L GS2 J11
U 1 1 5A4CF29D
P -10100 4700
F 0 "J11" V -10300 4700 50  0000 C CNN
F 1 "GS2" V -10200 4700 50  0000 C CNN
F 2 "Connectors:GS2" V -10026 4700 30  0000 C CNN
F 3 "" H -10100 4700 50  0001 C CNN
	1    -10100 4700
	0    1    1    0   
$EndComp
$Comp
L R_Small R18
U 1 1 5A48459D
P -7350 2200
F 0 "R18" H -7320 2220 50  0000 L CNN
F 1 "10K" H -7320 2160 50  0000 L CNN
F 2 "Resistors_SMD:R_0603" H -7350 2200 50  0001 C CNN
F 3 "http://www.yageo.com/documents/recent/PYu-RC_Group_51_RoHS_L_8.pdf" H -7350 2200 39  0001 C CNN
F 4 "311-10KGRCT-ND" H -7350 2200 39  0001 C CNN "digikey"
	1    -7350 2200
	-1   0    0    1   
$EndComp
$Comp
L R_Small R20
U 1 1 5A4846AA
P -7100 2200
F 0 "R20" H -7070 2220 50  0000 L CNN
F 1 "10K" H -7070 2160 50  0000 L CNN
F 2 "Resistors_SMD:R_0603" H -7100 2200 50  0001 C CNN
F 3 "http://www.yageo.com/documents/recent/PYu-RC_Group_51_RoHS_L_8.pdf" H -7100 2200 39  0001 C CNN
F 4 "311-10KGRCT-ND" H -7100 2200 39  0001 C CNN "digikey"
	1    -7100 2200
	-1   0    0    1   
$EndComp
$Comp
L R_Small R13
U 1 1 5A486221
P 3200 9300
F 0 "R13" H 3230 9320 50  0000 L CNN
F 1 "10K" H 3230 9260 50  0000 L CNN
F 2 "Resistors_SMD:R_0603" H 3200 9300 50  0001 C CNN
F 3 "http://www.yageo.com/documents/recent/PYu-RC_Group_51_RoHS_L_8.pdf" H 3200 9300 39  0001 C CNN
F 4 "311-10KGRCT-ND" H 3200 9300 39  0001 C CNN "digikey"
	1    3200 9300
	-1   0    0    1   
$EndComp
$Comp
L R_Small R1
U 1 1 5A48752F
P 11600 2350
F 0 "R1" H 11630 2380 39  0000 L CNN
F 1 "1K" H 11630 2310 39  0000 L CNN
F 2 "Resistors_SMD:R_0603" H 11600 2350 39  0001 C CNN
F 3 "http://www.yageo.com/documents/recent/PYu-RC_Group_51_RoHS_L_8.pdf" H 11600 2350 39  0001 C CNN
F 4 "311-1.0KGRCT-ND" H 11600 2350 39  0001 C CNN "digikey"
	1    11600 2350
	0    -1   -1   0   
$EndComp
$Comp
L R_Small R23
U 1 1 5A487B49
P 11600 2100
F 0 "R23" H 11630 2130 39  0000 L CNN
F 1 "1K" H 11630 2060 39  0000 L CNN
F 2 "Resistors_SMD:R_0603" H 11600 2100 39  0001 C CNN
F 3 "http://www.yageo.com/documents/recent/PYu-RC_Group_51_RoHS_L_8.pdf" H 11600 2100 39  0001 C CNN
F 4 "311-1.0KGRCT-ND" H 11600 2100 39  0001 C CNN "digikey"
	1    11600 2100
	0    -1   -1   0   
$EndComp
$Comp
L R_Small R5
U 1 1 5A489C27
P -8650 6700
F 0 "R5" H -8620 6720 50  0000 L CNN
F 1 "10K" H -8620 6660 50  0000 L CNN
F 2 "Resistors_SMD:R_0603" H -8650 6700 50  0001 C CNN
F 3 "http://www.yageo.com/documents/recent/PYu-RC_Group_51_RoHS_L_8.pdf" H -8650 6700 39  0001 C CNN
F 4 "311-10KGRCT-ND" H -8650 6700 39  0001 C CNN "digikey"
	1    -8650 6700
	0    -1   -1   0   
$EndComp
$Comp
L R_Small R7
U 1 1 5A489D78
P -8250 6700
F 0 "R7" H -8220 6720 50  0000 L CNN
F 1 "10K" H -8220 6660 50  0000 L CNN
F 2 "Resistors_SMD:R_0603" H -8250 6700 50  0001 C CNN
F 3 "http://www.yageo.com/documents/recent/PYu-RC_Group_51_RoHS_L_8.pdf" H -8250 6700 39  0001 C CNN
F 4 "311-10KGRCT-ND" H -8250 6700 39  0001 C CNN "digikey"
	1    -8250 6700
	0    -1   -1   0   
$EndComp
$Comp
L R_Small R8
U 1 1 5A489E8B
P -8250 7100
F 0 "R8" H -8220 7120 50  0000 L CNN
F 1 "10K" H -8220 7060 50  0000 L CNN
F 2 "Resistors_SMD:R_0603" H -8250 7100 50  0001 C CNN
F 3 "http://www.yageo.com/documents/recent/PYu-RC_Group_51_RoHS_L_8.pdf" H -8250 7100 39  0001 C CNN
F 4 "311-10KGRCT-ND" H -8250 7100 39  0001 C CNN "digikey"
	1    -8250 7100
	0    -1   -1   0   
$EndComp
$Comp
L R_Small R6
U 1 1 5A489FA7
P -8650 7100
F 0 "R6" H -8620 7120 50  0000 L CNN
F 1 "10K" H -8620 7060 50  0000 L CNN
F 2 "Resistors_SMD:R_0603" H -8650 7100 50  0001 C CNN
F 3 "http://www.yageo.com/documents/recent/PYu-RC_Group_51_RoHS_L_8.pdf" H -8650 7100 39  0001 C CNN
F 4 "311-10KGRCT-ND" H -8650 7100 39  0001 C CNN "digikey"
	1    -8650 7100
	0    -1   -1   0   
$EndComp
$Comp
L GNDD #PWR032
U 1 1 5A490B65
P -7250 7450
F 0 "#PWR032" H -7250 7200 50  0001 C CNN
F 1 "GNDD" H -7250 7325 50  0000 C CNN
F 2 "" H -7250 7450 50  0001 C CNN
F 3 "" H -7250 7450 50  0001 C CNN
	1    -7250 7450
	1    0    0    -1  
$EndComp
$Comp
L R_Small R26
U 1 1 5A49140B
P -7250 7300
F 0 "R26" H -7220 7320 50  0000 L CNN
F 1 "10K" H -7220 7260 50  0000 L CNN
F 2 "Resistors_SMD:R_0603" H -7250 7300 50  0001 C CNN
F 3 "http://www.yageo.com/documents/recent/PYu-RC_Group_51_RoHS_L_8.pdf" H -7250 7300 39  0001 C CNN
F 4 "311-10KGRCT-ND" H -7250 7300 39  0001 C CNN "digikey"
	1    -7250 7300
	-1   0    0    1   
$EndComp
Text GLabel -12150 900  0    60   Input ~ 0
TeensyRX1
Text GLabel -12150 1000 0    60   Output ~ 0
TeensyTX1
Text GLabel -12150 1100 0    60   Input ~ 0
ENCSW
Text GLabel -12150 1500 0    60   Output ~ 0
NEODATA
Text GLabel 1800 8550 0    60   BiDi ~ 0
SCL0
Text GLabel 1800 8450 0    60   BiDi ~ 0
SDA0
Text GLabel -12150 2000 0    60   Output ~ 0
SPI_MOSI
Text GLabel -10150 2500 2    60   Output ~ 0
SPI_SCK
Text GLabel -12150 1900 0    60   Output ~ 0
SPI_CS_OLED
Text GLabel -14050 5950 2    60   Input ~ 0
SPI_SCK
Text GLabel -14050 5850 2    60   Input ~ 0
SPI_MOSI
Text GLabel -14050 6150 2    60   Input ~ 0
SPI_RST
Text GLabel -14050 6250 2    60   Input ~ 0
SPI_CS_OLED
Text GLabel -12150 1800 0    60   Output ~ 0
SPI_DC
Text GLabel -14050 6050 2    60   Input ~ 0
SPI_DC
Text GLabel -10150 2400 2    60   Output ~ 0
SPI_RST
Text GLabel -7100 7100 2    60   Output ~ 0
ENCSW
Text GLabel -12150 1600 0    60   Input ~ 0
ENCA
Text GLabel -12150 1700 0    60   Input ~ 0
ENCB
Text GLabel -9350 7100 0    60   Output ~ 0
ENCB
Text GLabel -9350 6700 0    60   Output ~ 0
ENCA
Text GLabel -10150 2100 2    60   BiDi ~ 0
SDA0
Text GLabel -10150 2000 2    60   BiDi ~ 0
SCL0
Text GLabel -10150 2200 2    60   Input ~ 0
SW1
Text GLabel 13950 2200 0    60   Output ~ 0
VSENSE
Text GLabel -10150 800  2    60   Input ~ 0
VSENSE
Text Notes 13100 1450 2    60   ~ 0
BATTERY CHARGING
Text Notes -15200 6450 2    121  ~ 0
I/O
Text GLabel -6950 2550 2    60   UnSpc ~ 0
SCL0
Text GLabel -6950 2400 2    60   UnSpc ~ 0
SDA0
Text Notes -6650 700  2    60   ~ 0
PULLUP & INPUT DEBOUNCE
Text GLabel -10150 1700 2    60   Input ~ 0
MINSW0
Text Notes -13950 5550 2    60   ~ 0
OLED 128x64
Text GLabel -13450 4050 2    60   Output ~ 0
SW1
Text GLabel -13450 4150 2    60   Output ~ 0
SW0
Text GLabel -13450 4450 2    60   Input ~ 0
NEODATA_2
Text GLabel -13450 4550 2    60   BiDi ~ 0
SDA1
Text GLabel -13450 4650 2    60   BiDi ~ 0
SCL1
Text Notes -10850 7550 2    60   ~ 0
VIBRATION MOTOR DRIVER
Text GLabel -13450 3950 2    60   Output ~ 0
SW2
Text Notes -7400 6200 2    60   ~ 0
ENCODER FILTER
Text Notes 2700 7800 2    60   ~ 0
ONBOARD IMU
Text Notes 13100 1800 2    41   ~ 0
2.2K = 450mA
Text Notes 13100 1700 2    41   ~ 0
4.3K = 200mA
Text Notes 13100 1600 2    41   ~ 0
6.7K = 100mA
Text GLabel -12150 1300 0    60   Input ~ 0
HF_EN
Text GLabel -10150 1900 2    60   Input ~ 0
SW2
Text GLabel -10900 5550 2    60   Input ~ 0
NEODATA_0
Text GLabel -10900 5350 2    60   Output ~ 0
NEODATA_1
Text GLabel 3000 6700 2    60   Input ~ 0
NEODATA_0
Text GLabel 3000 6500 2    60   Output ~ 0
NEODATA_1
Text GLabel -12150 1200 0    60   Input ~ 0
HF_RST
Text GLabel -12150 1400 0    60   Input ~ 0
GPIO0
Text GLabel -9750 4700 2    60   Output ~ 0
NEODATA_2
Text GLabel -11300 4700 0    60   Input ~ 0
NEODATA_0
Text GLabel -11300 4550 0    60   Input ~ 0
NEODATA_1
NoConn ~ -14050 6350
NoConn ~ 1950 8950
NoConn ~ -10150 2600
NoConn ~ -12150 2500
NoConn ~ -12150 2400
NoConn ~ -12150 2300
NoConn ~ -12150 2600
NoConn ~ -10150 1000
NoConn ~ -10150 900 
NoConn ~ 3150 8850
NoConn ~ 3150 8450
NoConn ~ 1950 8750
NoConn ~ -10150 3200
NoConn ~ -12150 3200
NoConn ~ -10150 3300
NoConn ~ -12150 3300
NoConn ~ -12150 2900
$Comp
L ENC_SW S1
U 1 1 5A4C1195
P -7700 6900
F 0 "S1" H -7700 7350 45  0000 C CNN
F 1 "ENC_SW" H -7700 7275 45  0000 C CNN
F 2 "air:ENC_EVEU" H -7700 6550 20  0000 C CNN
F 3 "" H -7725 7350 50  0001 C CNN
	1    -7700 6900
	1    0    0    -1  
$EndComp
Text GLabel -10150 2300 2    60   Input ~ 0
SW0
$Comp
L Conn_01x01 J1
U 1 1 5A4CC8BD
P -14400 7250
F 0 "J1" H -14400 7450 50  0001 C CNN
F 1 "GPIO" H -14400 7050 50  0000 C CNN
F 2 "Connectors_Sparkfun:1X01_NO_SILK" H -14400 7250 50  0001 C CNN
F 3 "" H -14400 7250 50  0001 C CNN
	1    -14400 7250
	-1   0    0    1   
$EndComp
Text GLabel -14200 7250 2    60   BiDi ~ 0
GPIO0
$Comp
L SW_SPST_SMD S2
U 1 1 5A4D2FB9
P 9800 8100
F 0 "S2" H 9600 8150 45  0000 L BNN
F 1 "SW_SPST_SMD" H 9600 7900 45  0000 L BNN
F 2 "air:SW_SPST_EVQQ2" H 9800 8350 20  0001 C CNN
F 3 "" H 9800 8100 50  0001 C CNN
	1    9800 8100
	1    0    0    -1  
$EndComp
Text GLabel 10150 8100 2    60   Output ~ 0
MINSW1
NoConn ~ -10150 3600
NoConn ~ -10150 3500
NoConn ~ -10150 3400
NoConn ~ -12150 3600
NoConn ~ -12150 3500
NoConn ~ -12150 3400
$Comp
L +3V3 #PWR035
U 1 1 5A4DDCC3
P -13300 5700
F 0 "#PWR035" H -13300 5550 50  0001 C CNN
F 1 "+3V3" H -13300 5840 50  0000 C CNN
F 2 "" H -13300 5700 50  0001 C CNN
F 3 "" H -13300 5700 50  0001 C CNN
	1    -13300 5700
	1    0    0    -1  
$EndComp
$Comp
L R_Small R3
U 1 1 5A4ECB81
P -11550 6400
F 0 "R3" H -11520 6420 50  0000 L CNN
F 1 "470" H -11520 6360 50  0000 L CNN
F 2 "Resistors_SMD:R_0805" H -11550 6400 50  0001 C CNN
F 3 "http://www.yageo.com/documents/recent/PYu-RC_Group_51_RoHS_L_8.pdf" H -11550 6400 50  0001 C CNN
F 4 "311-470ARCT-ND" H -11520 6520 50  0001 C CNN "digikey"
	1    -11550 6400
	0    1    -1   0   
$EndComp
$Comp
L GNDD #PWR036
U 1 1 5A4F4794
P -13600 6600
F 0 "#PWR036" H -13600 6350 50  0001 C CNN
F 1 "GNDD" H -13600 6475 50  0000 C CNN
F 2 "" H -13600 6600 50  0001 C CNN
F 3 "" H -13600 6600 50  0001 C CNN
	1    -13600 6600
	1    0    0    -1  
$EndComp
NoConn ~ -12150 2700
Text GLabel -11250 6400 2    60   Output ~ 0
NEODATA_0
Text GLabel -11800 6400 0    60   Input ~ 0
NEODATA
$Comp
L Conn_01x10 J5
U 1 1 5A4C7E7F
P -14850 3050
F 0 "J5" H -14850 3550 50  0000 C CNN
F 1 "AIR" H -14850 2450 50  0000 C CNN
F 2 "air:2X5_NO_SILK" V -14750 3000 30  0000 C CNN
F 3 "" H -14850 3050 50  0001 C CNN
	1    -14850 3050
	-1   0    0    1   
$EndComp
$Comp
L SW_SPST_SMD S3
U 1 1 5A4D3FB4
P 9800 8550
F 0 "S3" H 9600 8600 45  0000 L BNN
F 1 "SW_SPST_SMD" H 9600 8350 45  0000 L BNN
F 2 "air:SW_SPST_EVQQ2" H 9800 8800 20  0001 C CNN
F 3 "" H 9800 8550 50  0001 C CNN
	1    9800 8550
	1    0    0    -1  
$EndComp
$Comp
L GNDD #PWR037
U 1 1 5A4D4418
P 9450 8800
F 0 "#PWR037" H 9450 8550 50  0001 C CNN
F 1 "GNDD" H 9450 8675 50  0000 C CNN
F 2 "" H 9450 8800 50  0001 C CNN
F 3 "" H 9450 8800 50  0001 C CNN
	1    9450 8800
	1    0    0    -1  
$EndComp
Text GLabel 10150 8550 2    60   Output ~ 0
MINSW0
$Comp
L ER-OLED013-1 U3
U 1 1 5A4DCCE9
P -14400 9200
F 0 "U3" H -14925 10700 60  0000 C CNN
F 1 "ER-OLED013-1" H -14675 7500 60  0000 C CNN
F 2 "air:conn_FPC_molex_30x0.5mm_ER-CON30HT-1" V -15100 9200 60  0000 C CNN
F 3 "" H -14400 10400 60  0001 C CNN
	1    -14400 9200
	-1   0    0    -1  
$EndComp
$Comp
L GNDD #PWR038
U 1 1 5A4DDCEF
P -15500 10800
F 0 "#PWR038" H -15500 10550 50  0001 C CNN
F 1 "GNDD" H -15500 10675 50  0000 C CNN
F 2 "" H -15500 10800 50  0001 C CNN
F 3 "" H -15500 10800 50  0001 C CNN
	1    -15500 10800
	1    0    0    -1  
$EndComp
$Comp
L R_Small R12
U 1 1 5A4DEA3C
P -14800 10300
F 0 "R12" H -14770 10320 50  0000 L CNN
F 1 "390K" H -14770 10260 50  0000 L CNN
F 2 "Resistors_SMD:R_0603" H -14800 10300 50  0001 C CNN
F 3 "http://www.yageo.com/documents/recent/PYu-RC_Group_51_RoHS_L_8.pdf" H -14800 10300 39  0001 C CNN
F 4 "311-10KGRCT-ND" H -14800 10300 39  0001 C CNN "digikey"
	1    -14800 10300
	0    1    -1   0   
$EndComp
Text GLabel -14600 9500 0    60   Input ~ 0
SPI_SCK
Text GLabel -14600 9600 0    60   Input ~ 0
SPI_MOSI
Text GLabel -14600 9200 0    60   Input ~ 0
SPI_DC
Text GLabel -14600 9100 0    60   Input ~ 0
SPI_RST
Text GLabel -14600 9000 0    60   Input ~ 0
SPI_CS_OLED
$Comp
L R_Small R11
U 1 1 5A4E0561
P -15100 8800
F 0 "R11" H -15070 8820 50  0000 L CNN
F 1 "10K" H -15070 8760 50  0000 L CNN
F 2 "Resistors_SMD:R_0603" H -15100 8800 50  0001 C CNN
F 3 "http://www.yageo.com/documents/recent/PYu-RC_Group_51_RoHS_L_8.pdf" H -15100 8800 39  0001 C CNN
F 4 "311-10KGRCT-ND" H -15100 8800 39  0001 C CNN "digikey"
	1    -15100 8800
	0    1    1    0   
$EndComp
$Comp
L C_Small C7
U 1 1 5A4E0D40
P -14800 8100
F 0 "C7" H -14790 8170 50  0000 L CNN
F 1 "2.2µF" H -14790 8020 50  0000 L CNN
F 2 "Capacitors_SMD:C_0603" H -14800 8100 50  0001 C CNN
F 3 "http://search.murata.co.jp/Ceramy/image/img/A01X/G101/ENG/GRM188R61C225KE15-01.pdf" H -14800 8100 50  0001 C CNN
F 4 "490-3296-1-ND " H -14800 8100 60  0001 C CNN "digikey"
	1    -14800 8100
	0    1    1    0   
$EndComp
$Comp
L +3V3 #PWR039
U 1 1 5A4E2994
P -14600 7700
F 0 "#PWR039" H -14600 7550 50  0001 C CNN
F 1 "+3V3" H -14600 7840 50  0000 C CNN
F 2 "" H -14600 7700 50  0001 C CNN
F 3 "" H -14600 7700 50  0001 C CNN
	1    -14600 7700
	1    0    0    -1  
$EndComp
NoConn ~ -14500 9400
NoConn ~ -14500 9300
NoConn ~ -14500 10200
NoConn ~ -14500 10100
NoConn ~ -14500 10000
NoConn ~ -14500 9900
NoConn ~ -14500 9800
NoConn ~ -14500 9700
NoConn ~ -14500 8400
$Comp
L Conn_01x10 J2
U 1 1 5A4834A2
P -14850 4350
F 0 "J2" H -14850 4850 50  0000 C CNN
F 1 "RCPT-MQ212-10" H -14850 3750 50  0000 C CNN
F 2 "air:conn_IDC_header_angle_THT_2x10_1.27mm" V -14750 4300 30  0000 C CNN
F 3 "" H -14850 4350 50  0001 C CNN
	1    -14850 4350
	-1   0    0    1   
$EndComp
$Comp
L C_Small C3
U 1 1 5A4F1323
P -15050 7900
F 0 "C3" H -15040 7970 50  0000 L CNN
F 1 "2.2µF" H -15040 7820 50  0000 L CNN
F 2 "Capacitors_SMD:C_0603" H -15050 7900 50  0001 C CNN
F 3 "http://search.murata.co.jp/Ceramy/image/img/A01X/G101/ENG/GRM188R61C225KE15-01.pdf" H -15050 7900 50  0001 C CNN
F 4 "490-3296-1-ND " H -15050 7900 60  0001 C CNN "digikey"
	1    -15050 7900
	0    1    1    0   
$EndComp
$Comp
L C_Small C4
U 1 1 5A4F140C
P -15050 8300
F 0 "C4" H -15040 8370 50  0000 L CNN
F 1 "2.2µF" H -15040 8220 50  0000 L CNN
F 2 "Capacitors_SMD:C_0603" H -15050 8300 50  0001 C CNN
F 3 "http://search.murata.co.jp/Ceramy/image/img/A01X/G101/ENG/GRM188R61C225KE15-01.pdf" H -15050 8300 50  0001 C CNN
F 4 "490-3296-1-ND " H -15050 8300 60  0001 C CNN "digikey"
	1    -15050 8300
	0    1    1    0   
$EndComp
$Comp
L C_Small C8
U 1 1 5A4F153E
P -14800 8600
F 0 "C8" H -14790 8670 50  0000 L CNN
F 1 "2.2µF" H -14790 8520 50  0000 L CNN
F 2 "Capacitors_SMD:C_0603" H -14800 8600 50  0001 C CNN
F 3 "http://search.murata.co.jp/Ceramy/image/img/A01X/G101/ENG/GRM188R61C225KE15-01.pdf" H -14800 8600 50  0001 C CNN
F 4 "490-3296-1-ND " H -14800 8600 60  0001 C CNN "digikey"
	1    -14800 8600
	0    1    1    0   
$EndComp
$Comp
L C_Small C6
U 1 1 5A4F1675
P -15050 10400
F 0 "C6" H -15040 10470 50  0000 L CNN
F 1 "2.2µF" H -15040 10320 50  0000 L CNN
F 2 "Capacitors_SMD:C_0603" H -15050 10400 50  0001 C CNN
F 3 "http://search.murata.co.jp/Ceramy/image/img/A01X/G101/ENG/GRM188R61C225KE15-01.pdf" H -15050 10400 50  0001 C CNN
F 4 "490-3296-1-ND " H -15050 10400 60  0001 C CNN "digikey"
	1    -15050 10400
	0    1    1    0   
$EndComp
$Comp
L C_Small C9
U 1 1 5A4F177E
P -14750 10500
F 0 "C9" H -14740 10570 50  0000 L CNN
F 1 "10µF" H -14740 10420 50  0000 L CNN
F 2 "Capacitors_SMD:C_0805" H -14750 10500 50  0001 C CNN
F 3 "http://search.murata.co.jp/Ceramy/image/img/A01X/G101/ENG/GRM188R61C225KE15-01.pdf" H -14750 10500 50  0001 C CNN
F 4 "490-3296-1-ND " H -14750 10500 60  0001 C CNN "digikey"
	1    -14750 10500
	0    1    1    0   
$EndComp
$Comp
L D_Schottky D6
U 1 1 5A4F879B
P 11250 3700
F 0 "D6" H 11250 3800 50  0000 C CNN
F 1 "MBR120" H 11250 3600 50  0000 C CNN
F 2 "Diodes_SMD:SOD-123" H 11250 3700 50  0001 C CNN
F 3 "http://www.onsemi.com/pub/Collateral/MBR120LSFT1-D.PDF" H 11250 3700 50  0001 C CNN
F 4 "MBR120LSFT3GOSCT-ND" H 11250 3900 50  0001 C CNN "digikey"
	1    11250 3700
	-1   0    0    1   
$EndComp
$Comp
L ATWINC15x0 U8
U 1 1 5A4F06A0
P 13750 5550
F 0 "U8" H 13750 5725 60  0000 C CNN
F 1 "ATWINC15x0" H 13750 5625 60  0000 C CNN
F 2 "air:ATWINC15x0_MIN" H 13150 5550 60  0001 C CNN
F 3 "" H 13150 5550 60  0001 C CNN
	1    13750 5550
	1    0    0    -1  
$EndComp
Text GLabel 12900 6650 0    60   Input ~ 0
SPI_SCK
Text GLabel 12900 6350 0    60   Input ~ 0
SPI_MOSI
Text GLabel 12900 6450 0    60   Input ~ 0
SPI_CS_HF
Text GLabel -10150 1800 2    60   Output ~ 0
SPI_CS_HF
Text GLabel -10150 1600 2    60   Input ~ 0
MINSW1
Text GLabel -12150 2100 0    60   Input ~ 0
SPI_MISO
Text GLabel 12900 6550 0    60   Input ~ 0
SPI_MISO
Text GLabel 12900 6250 0    60   Output ~ 0
UART_RX
Text GLabel 15100 6450 2    60   Input ~ 0
HF_RST
Text GLabel 12850 7750 0    60   Input ~ 0
HF_EN
$Comp
L GNDD #PWR040
U 1 1 5A4F4D63
P 14300 7700
F 0 "#PWR040" H 14300 7450 50  0001 C CNN
F 1 "GNDD" H 14300 7575 50  0000 C CNN
F 2 "" H 14300 7700 50  0001 C CNN
F 3 "" H 14300 7700 50  0001 C CNN
	1    14300 7700
	1    0    0    -1  
$EndComp
$Comp
L +3V3 #PWR041
U 1 1 5A4F51FD
P 12800 5450
F 0 "#PWR041" H 12800 5300 50  0001 C CNN
F 1 "+3V3" H 12800 5590 50  0000 C CNN
F 2 "" H 12800 5450 50  0001 C CNN
F 3 "" H 12800 5450 50  0001 C CNN
	1    12800 5450
	1    0    0    -1  
$EndComp
NoConn ~ 14600 6750
NoConn ~ 13800 7550
$Comp
L C_Small C11
U 1 1 5A4F5B77
P 13950 8700
F 0 "C11" H 13960 8770 50  0000 L CNN
F 1 "0.01µF" H 13960 8620 50  0000 L CNN
F 2 "Capacitors_SMD:C_0603" H 13950 8700 50  0001 C CNN
F 3 "https://www.murata.com/~/media/webrenewal/support/library/catalog/products/capacitor/mlcc/c02e.ashx?la=en-us" H 13950 8700 50  0001 C CNN
F 4 "490-1525-1-ND" H 13960 8870 50  0001 C CNN "digikey"
	1    13950 8700
	1    0    0    -1  
$EndComp
$Comp
L C_Small C10
U 1 1 5A4F5C9E
P 13700 8700
F 0 "C10" H 13710 8770 50  0000 L CNN
F 1 "10µF" H 13710 8620 50  0000 L CNN
F 2 "Capacitors_SMD:C_0805" H 13700 8700 50  0001 C CNN
F 3 "https://www.murata.com/~/media/webrenewal/support/library/catalog/products/capacitor/mlcc/c02e.ashx?la=en-us" H 13700 8700 50  0001 C CNN
F 4 "490-1543-1-ND" H 13710 8870 50  0001 C CNN "digikey"
	1    13700 8700
	1    0    0    -1  
$EndComp
$Comp
L GNDD #PWR042
U 1 1 5A4F5FD5
P 13950 8800
F 0 "#PWR042" H 13950 8550 50  0001 C CNN
F 1 "GNDD" H 13950 8675 50  0000 C CNN
F 2 "" H 13950 8800 50  0001 C CNN
F 3 "" H 13950 8800 50  0001 C CNN
	1    13950 8800
	1    0    0    -1  
$EndComp
$Comp
L GNDD #PWR043
U 1 1 5A4F623A
P 13700 8800
F 0 "#PWR043" H 13700 8550 50  0001 C CNN
F 1 "GNDD" H 13700 8675 50  0000 C CNN
F 2 "" H 13700 8800 50  0001 C CNN
F 3 "" H 13700 8800 50  0001 C CNN
	1    13700 8800
	1    0    0    -1  
$EndComp
$Comp
L GNDD #PWR044
U 1 1 5A4F6C7A
P 14800 5750
F 0 "#PWR044" H 14800 5500 50  0001 C CNN
F 1 "GNDD" H 14800 5625 50  0000 C CNN
F 2 "" H 14800 5750 50  0001 C CNN
F 3 "" H 14800 5750 50  0001 C CNN
	1    14800 5750
	1    0    0    -1  
$EndComp
$Comp
L GNDD #PWR045
U 1 1 5A4F6F6C
P 12200 6200
F 0 "#PWR045" H 12200 5950 50  0001 C CNN
F 1 "GNDD" H 12200 6075 50  0000 C CNN
F 2 "" H 12200 6200 50  0001 C CNN
F 3 "" H 12200 6200 50  0001 C CNN
	1    12200 6200
	1    0    0    -1  
$EndComp
NoConn ~ 13400 7550
$Comp
L +3V3 #PWR046
U 1 1 5A4F73D3
P 12900 7550
F 0 "#PWR046" H 12900 7400 50  0001 C CNN
F 1 "+3V3" H 12900 7690 50  0000 C CNN
F 2 "" H 12900 7550 50  0001 C CNN
F 3 "" H 12900 7550 50  0001 C CNN
	1    12900 7550
	1    0    0    -1  
$EndComp
$Comp
L R_Small R31
U 1 1 5A4F7BE3
P 14950 6700
F 0 "R31" H 14980 6720 50  0000 L CNN
F 1 "100K" H 14980 6660 50  0000 L CNN
F 2 "Resistors_SMD:R_0603" H 14950 6700 50  0001 C CNN
F 3 "http://www.yageo.com/documents/recent/PYu-RC_Group_51_RoHS_L_8.pdf" H 14950 6700 39  0001 C CNN
F 4 "311-10KGRCT-ND" H 14950 6700 39  0001 C CNN "digikey"
	1    14950 6700
	-1   0    0    1   
$EndComp
$Comp
L GNDD #PWR047
U 1 1 5A4F821A
P 14950 6800
F 0 "#PWR047" H 14950 6550 50  0001 C CNN
F 1 "GNDD" H 14950 6675 50  0000 C CNN
F 2 "" H 14950 6800 50  0001 C CNN
F 3 "" H 14950 6800 50  0001 C CNN
	1    14950 6800
	1    0    0    -1  
$EndComp
$Comp
L R_Small R27
U 1 1 5A4F8684
P 13500 7950
F 0 "R27" H 13530 7970 50  0000 L CNN
F 1 "100K" H 13530 7910 50  0000 L CNN
F 2 "Resistors_SMD:R_0603" H 13500 7950 50  0001 C CNN
F 3 "http://www.yageo.com/documents/recent/PYu-RC_Group_51_RoHS_L_8.pdf" H 13500 7950 39  0001 C CNN
F 4 "311-10KGRCT-ND" H 13500 7950 39  0001 C CNN "digikey"
	1    13500 7950
	-1   0    0    1   
$EndComp
$Comp
L GNDD #PWR048
U 1 1 5A4F87B4
P 13500 8050
F 0 "#PWR048" H 13500 7800 50  0001 C CNN
F 1 "GNDD" H 13500 7925 50  0000 C CNN
F 2 "" H 13500 8050 50  0001 C CNN
F 3 "" H 13500 8050 50  0001 C CNN
	1    13500 8050
	1    0    0    -1  
$EndComp
NoConn ~ 14600 6650
NoConn ~ 14600 6550
$Comp
L R_Small R17
U 1 1 5A4F96A8
P 12800 5650
F 0 "R17" H 12830 5670 50  0000 L CNN
F 1 "100K" H 12830 5610 50  0000 L CNN
F 2 "Resistors_SMD:R_0603" H 12800 5650 50  0001 C CNN
F 3 "http://www.yageo.com/documents/recent/PYu-RC_Group_51_RoHS_L_8.pdf" H 12800 5650 39  0001 C CNN
F 4 "311-10KGRCT-ND" H 12800 5650 39  0001 C CNN "digikey"
	1    12800 5650
	-1   0    0    1   
$EndComp
Text GLabel -12150 3700 0    60   Input ~ 0
HF_IRQ
Text GLabel -12150 3800 0    60   Input ~ 0
HF_WAKE
Text GLabel 12900 6150 0    60   Input ~ 0
HF_IRQ
Text GLabel 12900 5950 0    60   Input ~ 0
HF_WAKE
$Comp
L LED D7
U 1 1 5A4FA924
P 14500 8400
F 0 "D7" H 14500 8500 50  0000 C CNN
F 1 "GREEN" H 14600 8300 50  0000 C CNN
F 2 "LEDs:LED_0603" H 14500 8400 50  0001 C CNN
F 3 "http://optoelectronics.liteon.com/upload/download/DS22-2000-228/LTST-C191KGKT.PDF" H 14500 8400 50  0001 C CNN
F 4 "160-1446-1-ND" H 14500 8600 50  0001 C CNN "digikey"
	1    14500 8400
	1    0    0    -1  
$EndComp
$Comp
L LED D5
U 1 1 5A4FB1E0
P 14500 8100
F 0 "D5" H 14500 8200 50  0000 C CNN
F 1 "YELLOW" H 14550 8000 50  0000 C CNN
F 2 "LEDs:LED_0603" H 14500 8100 50  0001 C CNN
F 3 "http://optoelectronics.liteon.com/upload/download/DS22-2000-224/LTST-C191KSKT.PDF" H 14500 8100 50  0001 C CNN
F 4 "160-1448-1-ND" H 14500 8300 50  0001 C CNN "digikey"
	1    14500 8100
	1    0    0    -1  
$EndComp
$Comp
L R_Small R29
U 1 1 5A4FB6EF
P 14150 8100
F 0 "R29" H 14180 8120 50  0000 L CNN
F 1 "1K" H 14180 8060 50  0000 L CNN
F 2 "Resistors_SMD:R_0603" H 14150 8100 50  0001 C CNN
F 3 "http://www.yageo.com/documents/recent/PYu-RC_Group_51_RoHS_L_8.pdf" H 14150 8100 39  0001 C CNN
F 4 "311-10KGRCT-ND" H 14150 8100 39  0001 C CNN "digikey"
	1    14150 8100
	0    -1   -1   0   
$EndComp
$Comp
L R_Small R30
U 1 1 5A4FB902
P 14150 8400
F 0 "R30" H 14180 8420 50  0000 L CNN
F 1 "1K" H 14180 8360 50  0000 L CNN
F 2 "Resistors_SMD:R_0603" H 14150 8400 50  0001 C CNN
F 3 "http://www.yageo.com/documents/recent/PYu-RC_Group_51_RoHS_L_8.pdf" H 14150 8400 39  0001 C CNN
F 4 "311-10KGRCT-ND" H 14150 8400 39  0001 C CNN "digikey"
	1    14150 8400
	0    -1   -1   0   
$EndComp
$Comp
L +3V3 #PWR049
U 1 1 5A4FC4F9
P 14800 7950
F 0 "#PWR049" H 14800 7800 50  0001 C CNN
F 1 "+3V3" H 14800 8090 50  0000 C CNN
F 2 "" H 14800 7950 50  0001 C CNN
F 3 "" H 14800 7950 50  0001 C CNN
	1    14800 7950
	1    0    0    -1  
$EndComp
$Comp
L GNDD #PWR050
U 1 1 5A5119AA
P 1650 9550
F 0 "#PWR050" H 1650 9300 50  0001 C CNN
F 1 "GNDD" H 1650 9425 50  0000 C CNN
F 2 "" H 1650 9550 50  0001 C CNN
F 3 "" H 1650 9550 50  0001 C CNN
	1    1650 9550
	1    0    0    -1  
$EndComp
Text Notes 2050 8000 0    60   ~ 0
AD0 pulled to 0V: I2C Addr 0x68\nAD0 pulled to 3V3: I2C Addr 0x69
Text GLabel -10150 3800 2    60   Input ~ 0
SCL1
Text GLabel -10150 3700 2    60   Input ~ 0
SDA1
$Comp
L DRV2650L U5
U 1 1 5A5B5BD8
P -11550 8100
F 0 "U5" H -11550 8275 60  0000 C CNN
F 1 "DRV2650L" H -11550 8175 60  0000 C CNN
F 2 "Housings_SSOP:TSSOP-10_3x3mm_Pitch0.5mm" H -11550 8100 60  0001 C CNN
F 3 "" H -11550 8100 60  0001 C CNN
	1    -11550 8100
	1    0    0    -1  
$EndComp
Text GLabel -12000 8400 0    60   BiDi ~ 0
SDA1
Text GLabel -12000 8300 0    60   BiDi ~ 0
SCL1
$Comp
L C_Small C12
U 1 1 5A5B5BD9
P -10350 8450
F 0 "C12" H -10340 8520 50  0000 L CNN
F 1 "0.1µF" H -10340 8370 50  0000 L CNN
F 2 "Capacitors_SMD:C_0603" H -10350 8450 50  0001 C CNN
F 3 "" H -10350 8450 50  0001 C CNN
	1    -10350 8450
	1    0    0    -1  
$EndComp
$Comp
L C_Small C2
U 1 1 5A5B5BDA
P -12650 8450
F 0 "C2" H -12640 8520 50  0000 L CNN
F 1 "1µF" H -12640 8370 50  0000 L CNN
F 2 "Capacitors_SMD:C_0603" H -12650 8450 50  0001 C CNN
F 3 "" H -12650 8450 50  0001 C CNN
	1    -12650 8450
	-1   0    0    1   
$EndComp
$Comp
L GNDD #PWR051
U 1 1 5A5B5BDB
P -10350 8700
F 0 "#PWR051" H -10350 8450 50  0001 C CNN
F 1 "GNDD" H -10350 8575 50  0000 C CNN
F 2 "" H -10350 8700 50  0001 C CNN
F 3 "" H -10350 8700 50  0001 C CNN
	1    -10350 8700
	1    0    0    -1  
$EndComp
$Comp
L GNDD #PWR052
U 1 1 5A5B5BDC
P -12650 8700
F 0 "#PWR052" H -12650 8450 50  0001 C CNN
F 1 "GNDD" H -12650 8575 50  0000 C CNN
F 2 "" H -12650 8700 50  0001 C CNN
F 3 "" H -12650 8700 50  0001 C CNN
	1    -12650 8700
	1    0    0    -1  
$EndComp
$Comp
L +3V3 #PWR053
U 1 1 5A5B5BDD
P -12450 8100
F 0 "#PWR053" H -12450 7950 50  0001 C CNN
F 1 "+3V3" H -12450 8240 50  0000 C CNN
F 2 "" H -12450 8100 50  0001 C CNN
F 3 "" H -12450 8100 50  0001 C CNN
	1    -12450 8100
	1    0    0    -1  
$EndComp
$Comp
L GNDD #PWR054
U 1 1 5A5B5BDE
P -10600 8700
F 0 "#PWR054" H -10600 8450 50  0001 C CNN
F 1 "GNDD" H -10600 8575 50  0000 C CNN
F 2 "" H -10600 8700 50  0001 C CNN
F 3 "" H -10600 8700 50  0001 C CNN
	1    -10600 8700
	1    0    0    -1  
$EndComp
Text GLabel -11050 8300 2    60   Output ~ 0
OUT-
Text GLabel -11050 8500 2    60   Output ~ 0
OUT+
$Comp
L +3V3 #PWR055
U 1 1 5A5B5BE0
P -10350 8050
F 0 "#PWR055" H -10350 7900 50  0001 C CNN
F 1 "+3V3" H -10350 8190 50  0000 C CNN
F 2 "" H -10350 8050 50  0001 C CNN
F 3 "" H -10350 8050 50  0001 C CNN
	1    -10350 8050
	1    0    0    -1  
$EndComp
$Comp
L GNDD #PWR056
U 1 1 5A5B5BE1
P -12150 8700
F 0 "#PWR056" H -12150 8450 50  0001 C CNN
F 1 "GNDD" H -12150 8575 50  0000 C CNN
F 2 "" H -12150 8700 50  0001 C CNN
F 3 "" H -12150 8700 50  0001 C CNN
	1    -12150 8700
	1    0    0    -1  
$EndComp
Text GLabel -13450 4250 2    60   Input ~ 0
OUT+
Text GLabel -13450 4350 2    60   Input ~ 0
OUT-
NoConn ~ 3150 8950
Text GLabel -6950 2700 2    60   UnSpc ~ 0
SDA1
Text GLabel -6950 2850 2    60   UnSpc ~ 0
SCL1
$Comp
L R_Small R15
U 1 1 5A5BAE14
P -7600 2200
F 0 "R15" H -7570 2220 50  0000 L CNN
F 1 "10K" H -7570 2160 50  0000 L CNN
F 2 "Resistors_SMD:R_0603" H -7600 2200 50  0001 C CNN
F 3 "http://www.yageo.com/documents/recent/PYu-RC_Group_51_RoHS_L_8.pdf" H -7600 2200 39  0001 C CNN
F 4 "311-10KGRCT-ND" H -7600 2200 39  0001 C CNN "digikey"
	1    -7600 2200
	-1   0    0    1   
$EndComp
$Comp
L R_Small R4
U 1 1 5A5BAF50
P -7850 2200
F 0 "R4" H -7820 2220 50  0000 L CNN
F 1 "10K" H -7820 2160 50  0000 L CNN
F 2 "Resistors_SMD:R_0603" H -7850 2200 50  0001 C CNN
F 3 "http://www.yageo.com/documents/recent/PYu-RC_Group_51_RoHS_L_8.pdf" H -7850 2200 39  0001 C CNN
F 4 "311-10KGRCT-ND" H -7850 2200 39  0001 C CNN "digikey"
	1    -7850 2200
	-1   0    0    1   
$EndComp
$Comp
L USB_OTG J7
U 1 1 5A5F503C
P 8850 6400
F 0 "J7" H 8650 6850 50  0000 L CNN
F 1 "USB_OTG" H 8650 6750 50  0000 L CNN
F 2 "air:USB_Micro-B_FCI" H 9000 6350 50  0001 C CNN
F 3 "" H 9000 6350 50  0001 C CNN
	1    8850 6400
	1    0    0    -1  
$EndComp
Text GLabel 9150 6500 2    60   BiDi ~ 0
D-
Text GLabel 9150 6400 2    60   BiDi ~ 0
D+
NoConn ~ 9150 6600
NoConn ~ 8750 6800
$Comp
L VBUS #PWR057
U 1 1 5A5F55FE
P 9300 6050
F 0 "#PWR057" H 9300 5900 50  0001 C CNN
F 1 "VBUS" H 9300 6200 50  0000 C CNN
F 2 "" H 9300 6050 50  0001 C CNN
F 3 "" H 9300 6050 50  0001 C CNN
	1    9300 6050
	1    0    0    -1  
$EndComp
$Comp
L GNDD #PWR058
U 1 1 5A5F5874
P 8850 6900
F 0 "#PWR058" H 8850 6650 50  0001 C CNN
F 1 "GNDD" H 8850 6775 50  0000 C CNN
F 2 "" H 8850 6900 50  0001 C CNN
F 3 "" H 8850 6900 50  0001 C CNN
	1    8850 6900
	1    0    0    -1  
$EndComp
Text GLabel -10150 3000 2    60   BiDi ~ 0
D-
Text GLabel -12150 3000 0    60   BiDi ~ 0
D+
$Comp
L C_Small C15
U 1 1 5A77E649
P 13250 2300
F 0 "C15" H 13260 2370 50  0000 L CNN
F 1 "10µF" H 13260 2220 50  0000 L CNN
F 2 "Capacitors_SMD:C_0805" H 13250 2300 50  0001 C CNN
F 3 "https://www.murata.com/~/media/webrenewal/support/library/catalog/products/capacitor/mlcc/c02e.ashx?la=en-us" H 13250 2300 50  0001 C CNN
F 4 "490-3340-1-ND" H 13260 2470 50  0001 C CNN "digikey"
	1    13250 2300
	1    0    0    -1  
$EndComp
$Comp
L GNDD #PWR059
U 1 1 5A77E73D
P 13250 2650
F 0 "#PWR059" H 13250 2400 50  0001 C CNN
F 1 "GNDD" H 13250 2525 50  0000 C CNN
F 2 "" H 13250 2650 50  0001 C CNN
F 3 "" H 13250 2650 50  0001 C CNN
	1    13250 2650
	1    0    0    -1  
$EndComp
Text GLabel -10150 1300 2    60   Input ~ 0
VIN
$Comp
L SAML21G18B-A U?
U 1 1 5A91F223
P 4100 3400
F 0 "U?" H 2000 5400 50  0000 C CNN
F 1 "SAML21G18B-A" H 5950 1450 50  0000 C CNN
F 2 "Housings_QFP:TQFP-48-1EP_7x7mm_Pitch0.5mm" H 4100 2700 50  0001 C CIN
F 3 "" H 4100 3650 50  0000 C CNN
	1    4100 3400
	1    0    0    -1  
$EndComp
$Comp
L V_REG_AP2112K-3.3V U?
U 1 1 5A9209D8
P 13100 3850
F 0 "U?" H 13100 4175 45  0000 C TNN
F 1 "V_REG_AP2112K-3.3V" H 13100 3600 45  0000 C BNN
F 2 "SOT25-5" H 13100 3725 30  0000 C CNN
F 3 "" H 13100 4175 60  0001 C CNN
	1    13100 3850
	1    0    0    -1  
$EndComp
$Comp
L VBUS #PWR?
U 1 1 5A920B65
P 11000 3100
F 0 "#PWR?" H 11000 2950 50  0001 C CNN
F 1 "VBUS" H 11000 3250 50  0000 C CNN
F 2 "" H 11000 3100 50  0001 C CNN
F 3 "" H 11000 3100 50  0001 C CNN
	1    11000 3100
	1    0    0    -1  
$EndComp
$Comp
L R_Small R?
U 1 1 5A92115C
P 12350 4000
F 0 "R?" H 12380 4020 50  0000 L CNN
F 1 "100K" H 12380 3960 50  0000 L CNN
F 2 "Resistors_SMD:R_0603" H 12350 4000 50  0001 C CNN
F 3 "http://www.yageo.com/documents/recent/PYu-RC_Group_51_RoHS_L_8.pdf" H 12350 4000 50  0001 C CNN
F 4 "311-100KGRCT-ND" H 12380 4120 50  0001 C CNN "digikey"
	1    12350 4000
	0    -1   1    0   
$EndComp
$Comp
L GNDD #PWR?
U 1 1 5A921ADD
P 12650 4450
F 0 "#PWR?" H 12650 4200 50  0001 C CNN
F 1 "GNDD" H 12650 4325 50  0000 C CNN
F 2 "" H 12650 4450 50  0001 C CNN
F 3 "" H 12650 4450 50  0001 C CNN
	1    12650 4450
	1    0    0    -1  
$EndComp
$Comp
L GNDD #PWR?
U 1 1 5A921DD8
P 11000 4450
F 0 "#PWR?" H 11000 4200 50  0001 C CNN
F 1 "GNDD" H 11000 4325 50  0000 C CNN
F 2 "" H 11000 4450 50  0001 C CNN
F 3 "" H 11000 4450 50  0001 C CNN
	1    11000 4450
	1    0    0    -1  
$EndComp
$Comp
L +3V3 #PWR?
U 1 1 5A92211F
P 13900 3550
F 0 "#PWR?" H 13900 3400 50  0001 C CNN
F 1 "+3V3" H 13900 3690 50  0000 C CNN
F 2 "" H 13900 3550 50  0001 C CNN
F 3 "" H 13900 3550 50  0001 C CNN
	1    13900 3550
	1    0    0    -1  
$EndComp
$Comp
L C_Small C?
U 1 1 5A922390
P 13650 4000
F 0 "C?" H 13660 4070 50  0000 L CNN
F 1 "10µF" H 13660 3920 50  0000 L CNN
F 2 "Capacitors_SMD:C_0805" H 13650 4000 50  0001 C CNN
F 3 "https://www.murata.com/~/media/webrenewal/support/library/catalog/products/capacitor/mlcc/c02e.ashx?la=en-us" H 13650 4000 50  0001 C CNN
F 4 "490-3340-1-ND" H 13660 4170 50  0001 C CNN "digikey"
	1    13650 4000
	1    0    0    -1  
$EndComp
$Comp
L C_Small C?
U 1 1 5A92248C
P 13900 4000
F 0 "C?" H 13910 4070 50  0000 L CNN
F 1 "1µF" H 13910 3920 50  0000 L CNN
F 2 "Capacitors_SMD:C_0805" H 13900 4000 50  0001 C CNN
F 3 "https://www.murata.com/~/media/webrenewal/support/library/catalog/products/capacitor/mlcc/c02e.ashx?la=en-us" H 13900 4000 50  0001 C CNN
F 4 "490-3340-1-ND" H 13910 4170 50  0001 C CNN "digikey"
	1    13900 4000
	1    0    0    -1  
$EndComp
$Comp
L Crystal_Small Y?
U 1 1 5A922C30
P 8200 1800
F 0 "Y?" H 8200 1900 50  0000 C CNN
F 1 "32kHz" H 8200 1700 50  0000 C CNN
F 2 "" H 8200 1800 50  0001 C CNN
F 3 "" H 8200 1800 50  0001 C CNN
	1    8200 1800
	1    0    0    -1  
$EndComp
$Comp
L C_Small C?
U 1 1 5A92338A
P 7900 2000
F 0 "C?" H 7910 2070 50  0000 L CNN
F 1 "22pF" H 7910 1920 50  0000 L CNN
F 2 "Capacitors_SMD:C_0805" H 7900 2000 50  0001 C CNN
F 3 "https://www.murata.com/~/media/webrenewal/support/library/catalog/products/capacitor/mlcc/c02e.ashx?la=en-us" H 7900 2000 50  0001 C CNN
F 4 "490-3340-1-ND" H 7910 2170 50  0001 C CNN "digikey"
	1    7900 2000
	1    0    0    -1  
$EndComp
$Comp
L C_Small C?
U 1 1 5A923599
P 8500 2000
F 0 "C?" H 8510 2070 50  0000 L CNN
F 1 "22pF" H 8510 1920 50  0000 L CNN
F 2 "Capacitors_SMD:C_0805" H 8500 2000 50  0001 C CNN
F 3 "https://www.murata.com/~/media/webrenewal/support/library/catalog/products/capacitor/mlcc/c02e.ashx?la=en-us" H 8500 2000 50  0001 C CNN
F 4 "490-3340-1-ND" H 8510 2170 50  0001 C CNN "digikey"
	1    8500 2000
	1    0    0    -1  
$EndComp
$Comp
L GNDD #PWR?
U 1 1 5A924217
P 8500 2200
F 0 "#PWR?" H 8500 1950 50  0001 C CNN
F 1 "GNDD" H 8500 2075 50  0000 C CNN
F 2 "" H 8500 2200 50  0001 C CNN
F 3 "" H 8500 2200 50  0001 C CNN
	1    8500 2200
	1    0    0    -1  
$EndComp
$Comp
L GNDD #PWR?
U 1 1 5A9244FF
P 7900 2200
F 0 "#PWR?" H 7900 1950 50  0001 C CNN
F 1 "GNDD" H 7900 2075 50  0000 C CNN
F 2 "" H 7900 2200 50  0001 C CNN
F 3 "" H 7900 2200 50  0001 C CNN
	1    7900 2200
	1    0    0    -1  
$EndComp
$Comp
L GNDD #PWR?
U 1 1 5A925F94
P 13650 4450
F 0 "#PWR?" H 13650 4200 50  0001 C CNN
F 1 "GNDD" H 13650 4325 50  0000 C CNN
F 2 "" H 13650 4450 50  0001 C CNN
F 3 "" H 13650 4450 50  0001 C CNN
	1    13650 4450
	1    0    0    -1  
$EndComp
$Comp
L GNDD #PWR?
U 1 1 5A92608C
P 13900 4450
F 0 "#PWR?" H 13900 4200 50  0001 C CNN
F 1 "GNDD" H 13900 4325 50  0000 C CNN
F 2 "" H 13900 4450 50  0001 C CNN
F 3 "" H 13900 4450 50  0001 C CNN
	1    13900 4450
	1    0    0    -1  
$EndComp
$Comp
L GNDD #PWR?
U 1 1 5A92672E
P 14400 4450
F 0 "#PWR?" H 14400 4200 50  0001 C CNN
F 1 "GNDD" H 14400 4325 50  0000 C CNN
F 2 "" H 14400 4450 50  0001 C CNN
F 3 "" H 14400 4450 50  0001 C CNN
	1    14400 4450
	1    0    0    -1  
$EndComp
$Comp
L C_Small C?
U 1 1 5A926827
P 14400 4000
F 0 "C?" H 14410 4070 50  0000 L CNN
F 1 "1µF" H 14410 3920 50  0000 L CNN
F 2 "Capacitors_SMD:C_0805" H 14400 4000 50  0001 C CNN
F 3 "https://www.murata.com/~/media/webrenewal/support/library/catalog/products/capacitor/mlcc/c02e.ashx?la=en-us" H 14400 4000 50  0001 C CNN
F 4 "490-3340-1-ND" H 14410 4170 50  0001 C CNN "digikey"
	1    14400 4000
	1    0    0    -1  
$EndComp
Text GLabel 14500 3700 2    60   Input ~ 0
AREF
$Comp
L SWITCH-SPDT S?
U 1 1 5A928370
P 12050 4000
F 0 "S?" H 12050 4125 45  0000 C CNN
F 1 "SWITCH-SPDT" H 12050 3800 45  0000 C CNN
F 2 "air:SW_SPDT_PCM12SMTR" H 12100 3750 30  0001 C CNN
F 3 "" H 11950 4150 50  0001 C CNN
	1    12050 4000
	-1   0    0    -1  
$EndComp
$Comp
L GNDD #PWR?
U 1 1 5A92A28F
P 11750 4450
F 0 "#PWR?" H 11750 4200 50  0001 C CNN
F 1 "GNDD" H 11750 4325 50  0000 C CNN
F 2 "" H 11750 4450 50  0001 C CNN
F 3 "" H 11750 4450 50  0001 C CNN
	1    11750 4450
	1    0    0    -1  
$EndComp
Text GLabel 6400 4100 2    60   BiDi ~ 0
D+
Text GLabel 6400 4000 2    60   BiDi ~ 0
D-
$Comp
L SW_SPST_SMD S?
U 1 1 5A92C5FB
P 9800 7150
F 0 "S?" H 9600 7200 45  0000 L BNN
F 1 "SW_SPST_SMD" H 9600 6950 45  0000 L BNN
F 2 "air:SW_SPST_EVQQ2" H 9800 7400 20  0001 C CNN
F 3 "" H 9800 7150 50  0001 C CNN
	1    9800 7150
	1    0    0    -1  
$EndComp
$Comp
L C_Small C?
U 1 1 5A92ED09
P 1650 3650
F 0 "C?" H 1660 3720 50  0000 L CNN
F 1 "1µF" H 1660 3570 50  0000 L CNN
F 2 "Capacitors_SMD:C_0805" H 1650 3650 50  0001 C CNN
F 3 "https://www.murata.com/~/media/webrenewal/support/library/catalog/products/capacitor/mlcc/c02e.ashx?la=en-us" H 1650 3650 50  0001 C CNN
F 4 "490-3340-1-ND" H 1660 3820 50  0001 C CNN "digikey"
	1    1650 3650
	1    0    0    -1  
$EndComp
$Comp
L GNDD #PWR?
U 1 1 5A92F1CE
P 1650 3900
F 0 "#PWR?" H 1650 3650 50  0001 C CNN
F 1 "GNDD" H 1650 3775 50  0000 C CNN
F 2 "" H 1650 3900 50  0001 C CNN
F 3 "" H 1650 3900 50  0001 C CNN
	1    1650 3900
	1    0    0    -1  
$EndComp
$Comp
L GNDD #PWR?
U 1 1 5A92F727
P 1600 5400
F 0 "#PWR?" H 1600 5150 50  0001 C CNN
F 1 "GNDD" H 1600 5275 50  0000 C CNN
F 2 "" H 1600 5400 50  0001 C CNN
F 3 "" H 1600 5400 50  0001 C CNN
	1    1600 5400
	1    0    0    -1  
$EndComp
Text GLabel 6400 1900 2    60   Output ~ 0
AREF
$Comp
L LED D?
U 1 1 5A93F65C
P 4800 6400
F 0 "D?" H 4800 6500 50  0000 C CNN
F 1 "GREEN" H 4850 6300 50  0000 C CNN
F 2 "LEDs:LED_0603" H 4800 6400 50  0001 C CNN
F 3 "http://optoelectronics.liteon.com/upload/download/DS-22-99-0151/LTST-C190KRKT.pdf" H 4800 6400 50  0001 C CNN
F 4 "160-1436-1-ND" H 4800 6600 50  0001 C CNN "digikey"
	1    4800 6400
	-1   0    0    1   
$EndComp
$Comp
L R_Small R?
U 1 1 5A93FB49
P 4400 6400
F 0 "R?" H 4430 6430 39  0000 L CNN
F 1 "2.2K" H 4430 6360 39  0000 L CNN
F 2 "Resistors_SMD:R_0603" H 4400 6400 39  0001 C CNN
F 3 "http://www.yageo.com/documents/recent/PYu-RC_Group_51_RoHS_L_8.pdf" H 4400 6400 39  0001 C CNN
F 4 "311-1.0KGRCT-ND" H 4400 6400 39  0001 C CNN "digikey"
	1    4400 6400
	0    -1   1    0   
$EndComp
$Comp
L GNDD #PWR?
U 1 1 5A940008
P 5050 6500
F 0 "#PWR?" H 5050 6250 50  0001 C CNN
F 1 "GNDD" H 5050 6375 50  0000 C CNN
F 2 "" H 5050 6500 50  0001 C CNN
F 3 "" H 5050 6500 50  0001 C CNN
	1    5050 6500
	1    0    0    -1  
$EndComp
Text GLabel 4150 6400 0    60   Input ~ 0
LED1
Text GLabel 6400 3300 2    60   Output ~ 0
STDLED
Text GLabel 6400 2200 2    60   Output ~ 0
SPI_CS_HF
Text GLabel 6400 2400 2    60   Output ~ 0
HF_RST
Text GLabel 6400 3700 2    60   Input ~ 0
HF_IRQ
Text GLabel 6400 3000 2    60   Output ~ 0
HF_EN
Text GLabel 6400 5100 2    60   Output ~ 0
UART_TX
Text GLabel 6400 5200 2    60   Input ~ 0
UART_RX
Text GLabel 6400 2800 2    60   Input ~ 0
SPI_MISO
Text GLabel 6400 4900 2    60   Output ~ 0
SPI_MOSI
Text GLabel 7300 5000 2    60   Output ~ 0
SPI_SCK
Text GLabel 6400 4300 2    60   BiDi ~ 0
SWCLK
Text GLabel 6400 4400 2    60   BiDi ~ 0
SWDIO
$Comp
L R_Small R?
U 1 1 5A94409B
P 7000 5000
F 0 "R?" H 7030 5030 39  0000 L CNN
F 1 "2.2K" H 7030 4960 39  0000 L CNN
F 2 "Resistors_SMD:R_0603" H 7000 5000 39  0001 C CNN
F 3 "http://www.yageo.com/documents/recent/PYu-RC_Group_51_RoHS_L_8.pdf" H 7000 5000 39  0001 C CNN
F 4 "311-1.0KGRCT-ND" H 7000 5000 39  0001 C CNN "digikey"
	1    7000 5000
	0    -1   1    0   
$EndComp
$Comp
L +3V3 #PWR?
U 1 1 5A944592
P 7200 4900
F 0 "#PWR?" H 7200 4750 50  0001 C CNN
F 1 "+3V3" H 7200 5040 50  0000 C CNN
F 2 "" H 7200 4900 50  0001 C CNN
F 3 "" H 7200 4900 50  0001 C CNN
	1    7200 4900
	1    0    0    -1  
$EndComp
Connection ~ 7200 5000
Wire Wire Line
	7100 5000 7200 5000
Wire Wire Line
	7200 5000 7300 5000
Wire Wire Line
	7200 4900 7200 5000
Wire Wire Line
	6400 5000 6900 5000
Wire Wire Line
	4150 6400 4300 6400
Wire Wire Line
	5050 6400 5050 6500
Wire Wire Line
	4950 6400 5050 6400
Wire Wire Line
	4500 6400 4650 6400
Connection ~ 1450 2000
Wire Wire Line
	1800 2000 1450 2000
Connection ~ 1450 1800
Wire Wire Line
	1000 1800 1450 1800
Wire Wire Line
	1450 1800 1800 1800
Connection ~ 1450 2400
Wire Wire Line
	1450 2600 1800 2600
Connection ~ 1450 2200
Wire Wire Line
	1450 2400 1800 2400
Wire Wire Line
	1450 1800 1450 2000
Wire Wire Line
	1450 2000 1450 2200
Wire Wire Line
	1450 2200 1450 2400
Wire Wire Line
	1450 2400 1450 2600
Wire Wire Line
	1450 2200 1800 2200
Connection ~ 1600 5000
Wire Wire Line
	1800 4600 1600 4600
Connection ~ 1600 5100
Wire Wire Line
	1800 5000 1600 5000
Connection ~ 1600 5200
Wire Wire Line
	1600 5100 1800 5100
Wire Wire Line
	1600 5200 1800 5200
Wire Wire Line
	1600 4600 1600 5000
Wire Wire Line
	1600 5000 1600 5100
Wire Wire Line
	1600 5100 1600 5200
Wire Wire Line
	1600 5200 1600 5400
Wire Wire Line
	1650 3900 1650 3750
Wire Wire Line
	1650 3400 1800 3400
Wire Wire Line
	1650 3550 1650 3400
Wire Wire Line
	10000 7150 10000 7250
Wire Wire Line
	9600 7250 9600 7150
Wire Wire Line
	12550 4000 12450 4000
Wire Wire Line
	12550 3800 12550 4000
Wire Wire Line
	12750 3800 12550 3800
Wire Wire Line
	11750 4100 11850 4100
Connection ~ 11000 3900
Wire Wire Line
	11000 3900 11850 3900
Wire Wire Line
	11750 4450 11750 4100
Connection ~ 11000 3700
Wire Wire Line
	11400 3700 11500 3700
Wire Wire Line
	11500 3700 12750 3700
Wire Wire Line
	11000 3100 11000 3400
Wire Wire Line
	11000 3400 11000 3700
Wire Wire Line
	11000 3700 11000 3900
Wire Wire Line
	11000 3900 11000 4150
Wire Wire Line
	14400 3700 14500 3700
Wire Wire Line
	14400 3900 14400 3700
Wire Wire Line
	14400 4100 14400 4450
Wire Wire Line
	13650 4450 13650 4100
Wire Wire Line
	13900 4450 13900 4100
Connection ~ 7900 1800
Wire Wire Line
	7900 1800 8100 1800
Connection ~ 8500 1800
Wire Wire Line
	8500 2200 8500 2100
Wire Wire Line
	7900 2200 7900 2100
Wire Wire Line
	8500 1600 8500 1800
Wire Wire Line
	8500 1800 8500 1900
Wire Wire Line
	8300 1800 8500 1800
Wire Wire Line
	7900 1600 7900 1800
Wire Wire Line
	7900 1800 7900 1900
Connection ~ 13650 3700
Wire Wire Line
	13650 3900 13650 3700
Connection ~ 13900 3700
Wire Wire Line
	13900 3550 13900 3700
Wire Wire Line
	13900 3700 13900 3900
Wire Wire Line
	13450 3700 13650 3700
Wire Wire Line
	13650 3700 13900 3700
Wire Wire Line
	11000 4450 11000 4350
Wire Wire Line
	12650 3900 12750 3900
Wire Wire Line
	12650 4450 12650 3900
Wire Wire Line
	12250 4000 12150 4000
Wire Wire Line
	13600 7650 13600 7550
Connection ~ 13200 7650
Wire Wire Line
	14100 1800 14100 1900
Connection ~ 13250 1900
Wire Wire Line
	13250 1800 13250 1900
Wire Wire Line
	13250 1900 13250 2200
Wire Wire Line
	13250 2650 13250 2400
Wire Wire Line
	-9400 1400 -9400 1600
Wire Wire Line
	8850 6900 8850 6800
Wire Wire Line
	9300 6200 9300 6050
Wire Wire Line
	9150 6200 9300 6200
Connection ~ -7350 1950
Connection ~ -7600 1950
Wire Wire Line
	-7850 1950 -7600 1950
Wire Wire Line
	-7600 1950 -7350 1950
Wire Wire Line
	-7350 1950 -7100 1950
Wire Wire Line
	-7600 2100 -7600 1950
Wire Wire Line
	-7850 2850 -7850 2300
Wire Wire Line
	-6950 2850 -7850 2850
Wire Wire Line
	-7600 2700 -7600 2300
Wire Wire Line
	-6950 2700 -7600 2700
Wire Wire Line
	-12450 8600 -12000 8600
Wire Wire Line
	-11050 8400 -10600 8400
Wire Wire Line
	-10600 8400 -10600 8700
Wire Wire Line
	-10350 8050 -10350 8200
Wire Wire Line
	-10350 8200 -10350 8350
Connection ~ -10350 8200
Wire Wire Line
	-10350 8550 -10350 8700
Wire Wire Line
	-11050 8200 -10700 8200
Wire Wire Line
	-10700 8200 -10350 8200
Wire Wire Line
	-12650 8550 -12650 8700
Wire Wire Line
	-12650 8350 -12650 8200
Wire Wire Line
	-12650 8200 -12000 8200
Wire Wire Line
	-12450 8100 -12450 8600
Wire Wire Line
	-11050 8600 -10700 8600
Wire Wire Line
	-10700 8600 -10700 8200
Connection ~ -10700 8200
Wire Wire Line
	-12150 8700 -12150 8500
Wire Wire Line
	-12150 8500 -12000 8500
Wire Wire Line
	1650 8850 1950 8850
Wire Wire Line
	1650 9550 1650 8850
Connection ~ 3700 8550
Wire Wire Line
	3700 8550 3150 8550
Wire Wire Line
	13700 7550 13700 8500
Wire Wire Line
	13700 8500 13700 8600
Wire Wire Line
	13900 8400 14050 8400
Wire Wire Line
	13900 7550 13900 8400
Wire Wire Line
	14000 8100 14050 8100
Wire Wire Line
	14000 7550 14000 8100
Connection ~ 14800 8100
Wire Wire Line
	14800 8400 14650 8400
Wire Wire Line
	14800 7950 14800 8100
Wire Wire Line
	14800 8100 14800 8400
Wire Wire Line
	14650 8100 14800 8100
Wire Wire Line
	14250 8400 14350 8400
Wire Wire Line
	14250 8100 14350 8100
Wire Wire Line
	12800 5450 12800 5550
Connection ~ 13500 7750
Wire Wire Line
	12850 7750 13500 7750
Wire Wire Line
	13500 7550 13500 7750
Wire Wire Line
	13500 7750 13500 7850
Connection ~ 14950 6450
Wire Wire Line
	14950 6450 14950 6600
Wire Wire Line
	14600 6450 14950 6450
Wire Wire Line
	14950 6450 15100 6450
Wire Wire Line
	13200 7650 13200 7550
Wire Wire Line
	12900 7650 13200 7650
Wire Wire Line
	13200 7650 13600 7650
Wire Wire Line
	12900 7550 12900 7650
Wire Wire Line
	12200 6050 12200 6200
Wire Wire Line
	12900 6050 12200 6050
Wire Wire Line
	14800 5650 14800 5750
Wire Wire Line
	14600 5650 14800 5650
Connection ~ 13700 8500
Wire Wire Line
	13950 8500 13950 8600
Wire Wire Line
	13700 8500 13950 8500
Wire Wire Line
	12800 5850 12900 5850
Wire Wire Line
	12800 5750 12800 5850
Connection ~ 14300 7650
Wire Wire Line
	14300 7550 14300 7650
Wire Wire Line
	14300 7650 14300 7700
Wire Wire Line
	14100 7650 14300 7650
Wire Wire Line
	14100 7550 14100 7650
Connection ~ -14600 4250
Wire Wire Line
	-14600 2950 -14600 4250
Wire Wire Line
	-14650 2950 -14600 2950
Connection ~ -7850 1950
Wire Wire Line
	-14650 4250 -14600 4250
Wire Wire Line
	-14600 4250 -13450 4250
Wire Wire Line
	-15000 8800 -14500 8800
Connection ~ -15500 8800
Wire Wire Line
	-15500 8800 -15200 8800
Connection ~ -15500 10300
Wire Wire Line
	-15500 10300 -14900 10300
Connection ~ -15500 8600
Connection ~ -15500 8500
Connection ~ -15500 8300
Connection ~ -15500 8900
Wire Wire Line
	-15500 8900 -14500 8900
Connection ~ -15500 8700
Wire Wire Line
	-15500 7800 -14500 7800
Connection ~ -14600 8600
Connection ~ -14600 8300
Wire Wire Line
	-14600 7700 -14600 8300
Wire Wire Line
	-14600 8300 -14600 8600
Wire Wire Line
	-15500 8500 -14500 8500
Wire Wire Line
	-15500 8300 -15150 8300
Wire Wire Line
	-15500 8600 -14900 8600
Wire Wire Line
	-15300 8200 -14500 8200
Wire Wire Line
	-15300 8100 -15300 8200
Wire Wire Line
	-14900 8100 -15300 8100
Wire Wire Line
	-14500 8100 -14700 8100
Wire Wire Line
	-15300 8000 -14500 8000
Wire Wire Line
	-15300 7900 -15300 8000
Wire Wire Line
	-15150 7900 -15300 7900
Wire Wire Line
	-14500 7900 -14950 7900
Wire Wire Line
	-14950 8300 -14600 8300
Wire Wire Line
	-14600 8300 -14500 8300
Wire Wire Line
	-14700 8600 -14600 8600
Wire Wire Line
	-14600 8600 -14500 8600
Wire Wire Line
	-15500 8700 -14500 8700
Wire Wire Line
	-14600 9000 -14500 9000
Wire Wire Line
	-14600 9100 -14500 9100
Wire Wire Line
	-14600 9200 -14500 9200
Wire Wire Line
	-14500 9500 -14600 9500
Wire Wire Line
	-14600 9600 -14500 9600
Connection ~ -15500 10400
Wire Wire Line
	-14500 10300 -14700 10300
Connection ~ -15500 10500
Wire Wire Line
	-15500 10400 -15150 10400
Connection ~ -15500 10600
Wire Wire Line
	-15500 10500 -14850 10500
Connection ~ -15500 10700
Wire Wire Line
	-15500 10600 -14500 10600
Wire Wire Line
	-15500 7800 -15500 8300
Wire Wire Line
	-15500 8300 -15500 8500
Wire Wire Line
	-15500 8500 -15500 8600
Wire Wire Line
	-15500 8600 -15500 8700
Wire Wire Line
	-15500 8700 -15500 8800
Wire Wire Line
	-15500 8800 -15500 8900
Wire Wire Line
	-15500 8900 -15500 10300
Wire Wire Line
	-15500 10300 -15500 10400
Wire Wire Line
	-15500 10400 -15500 10500
Wire Wire Line
	-15500 10500 -15500 10600
Wire Wire Line
	-15500 10600 -15500 10700
Wire Wire Line
	-15500 10700 -15500 10800
Wire Wire Line
	-15500 10700 -14500 10700
Wire Wire Line
	-14500 10500 -14650 10500
Wire Wire Line
	-14950 10400 -14500 10400
Wire Wire Line
	14800 2000 14850 2000
Wire Wire Line
	10000 8550 10150 8550
Connection ~ -14150 3850
Wire Wire Line
	-14150 2550 -14150 3850
Wire Wire Line
	-14650 2550 -14150 2550
Connection ~ -14200 3950
Wire Wire Line
	-14200 2650 -14200 3950
Wire Wire Line
	-14650 2650 -14200 2650
Connection ~ -14250 4050
Wire Wire Line
	-14250 2750 -14250 4050
Wire Wire Line
	-14650 2750 -14250 2750
Connection ~ -14300 4150
Wire Wire Line
	-14300 2850 -14300 4150
Wire Wire Line
	-14650 2850 -14300 2850
Connection ~ -14350 4350
Wire Wire Line
	-14350 3050 -14350 4350
Wire Wire Line
	-14650 3050 -14350 3050
Connection ~ -14400 4450
Wire Wire Line
	-14400 3150 -14400 4450
Wire Wire Line
	-14650 3150 -14400 3150
Connection ~ -14450 4550
Wire Wire Line
	-14450 3250 -14450 4550
Wire Wire Line
	-14650 3250 -14450 3250
Connection ~ -14500 4650
Wire Wire Line
	-14500 3350 -14500 4650
Wire Wire Line
	-14650 3350 -14500 3350
Connection ~ -14550 4750
Wire Wire Line
	-14650 3450 -14550 3450
Wire Wire Line
	-11450 6400 -11250 6400
Wire Wire Line
	-11800 6400 -11650 6400
Wire Wire Line
	-13600 6550 -13600 6600
Wire Wire Line
	-14050 6550 -13600 6550
Wire Wire Line
	-13300 6450 -13300 5700
Wire Wire Line
	-14050 6450 -13300 6450
Wire Wire Line
	-10150 1500 -9150 1500
Wire Wire Line
	9600 8100 9600 8200
Wire Wire Line
	10000 8100 10150 8100
Wire Wire Line
	-7100 1950 -7100 2100
Wire Wire Line
	-7350 1950 -7350 2100
Wire Wire Line
	-7850 1650 -7850 1950
Wire Wire Line
	-7850 1950 -7850 2100
Wire Wire Line
	-7200 6700 -7200 6550
Wire Wire Line
	-7350 6700 -7200 6700
Connection ~ -7250 7100
Connection ~ -10400 4700
Connection ~ 2900 6400
Connection ~ -11150 5250
Connection ~ 11750 2100
Connection ~ 3700 8100
Connection ~ 3700 9050
Connection ~ -8850 7100
Connection ~ -8450 6700
Connection ~ -8450 7100
Connection ~ 12950 2250
Connection ~ 11000 1900
Connection ~ 14100 2200
Connection ~ -14050 3850
Connection ~ -13800 3850
Connection ~ -9100 6700
Wire Wire Line
	-7250 7200 -7250 7100
Wire Wire Line
	-7250 7450 -7250 7400
Wire Wire Line
	-10400 4550 -10400 4700
Wire Wire Line
	-11300 4550 -10400 4550
Wire Wire Line
	-11300 4700 -11200 4700
Wire Wire Line
	-10800 4700 -10400 4700
Wire Wire Line
	-10400 4700 -10300 4700
Wire Wire Line
	-9900 4700 -9750 4700
Wire Wire Line
	-9400 1100 -9400 900 
Wire Wire Line
	-10150 1100 -9400 1100
Wire Wire Line
	11000 1900 11800 1900
Wire Wire Line
	2500 6500 3000 6500
Wire Wire Line
	2700 6600 2500 6600
Wire Wire Line
	2700 7100 2700 6600
Wire Wire Line
	3000 6700 2500 6700
Wire Wire Line
	2900 7100 2900 7000
Wire Wire Line
	2500 6400 2900 6400
Wire Wire Line
	2900 6300 2900 6400
Wire Wire Line
	2900 6400 2900 6800
Wire Wire Line
	-11550 5350 -10900 5350
Wire Wire Line
	-11350 5450 -11550 5450
Wire Wire Line
	-11350 5950 -11350 5450
Wire Wire Line
	-11550 5550 -10900 5550
Wire Wire Line
	-11150 5950 -11150 5850
Wire Wire Line
	-11550 5250 -11150 5250
Wire Wire Line
	-11150 5150 -11150 5250
Wire Wire Line
	-11150 5250 -11150 5650
Wire Wire Line
	11750 2350 11750 2100
Wire Wire Line
	11700 2350 11750 2350
Wire Wire Line
	11400 2350 11500 2350
Wire Wire Line
	11000 2350 11100 2350
Wire Wire Line
	11000 2650 11000 2350
Wire Wire Line
	-10150 1400 -9400 1400
Wire Wire Line
	14800 2100 14850 2100
Wire Wire Line
	14800 2650 14800 2100
Wire Wire Line
	1900 8650 1950 8650
Wire Wire Line
	3150 8650 3200 8650
Wire Wire Line
	-9150 1500 -9150 900 
Wire Wire Line
	-12850 800  -12850 950 
Wire Wire Line
	-12850 800  -12150 800 
Wire Wire Line
	-13600 3850 -13600 3750
Wire Wire Line
	-7350 2550 -6950 2550
Wire Wire Line
	-7350 2300 -7350 2550
Wire Wire Line
	-7100 2400 -7100 2300
Wire Wire Line
	-6950 2400 -7100 2400
Wire Wire Line
	1900 8100 3700 8100
Wire Wire Line
	1900 8200 1900 8100
Wire Wire Line
	1900 8400 1900 8650
Wire Wire Line
	1950 8550 1800 8550
Wire Wire Line
	1800 8450 1950 8450
Wire Wire Line
	3200 9550 3200 9400
Wire Wire Line
	3200 8650 3200 9200
Wire Wire Line
	3700 9050 3150 9050
Wire Wire Line
	3450 9400 3450 9550
Wire Wire Line
	3450 8750 3450 9200
Wire Wire Line
	3150 8750 3450 8750
Wire Wire Line
	3700 8000 3700 8100
Wire Wire Line
	3700 8100 3700 8550
Wire Wire Line
	3700 8550 3700 9050
Wire Wire Line
	3700 9050 3700 9200
Wire Wire Line
	3700 9400 3700 9550
Wire Wire Line
	1900 9050 1900 9550
Wire Wire Line
	1900 9050 1950 9050
Wire Wire Line
	-8850 7100 -8850 7200
Wire Wire Line
	-8150 6700 -8000 6700
Wire Wire Line
	-8050 6900 -8050 7450
Wire Wire Line
	-8000 6900 -8050 6900
Wire Wire Line
	-8850 7400 -8850 7450
Wire Wire Line
	-9350 7100 -8850 7100
Wire Wire Line
	-8850 7100 -8750 7100
Wire Wire Line
	-9350 6700 -9100 6700
Wire Wire Line
	-9100 6700 -8750 6700
Wire Wire Line
	-8550 7100 -8450 7100
Wire Wire Line
	-8450 7100 -8350 7100
Wire Wire Line
	-8550 6700 -8450 6700
Wire Wire Line
	-8450 6700 -8350 6700
Wire Wire Line
	-8450 6500 -8450 6700
Wire Wire Line
	-8450 6700 -8450 7100
Wire Wire Line
	-8150 7100 -8000 7100
Wire Wire Line
	-7350 7100 -7250 7100
Wire Wire Line
	-7250 7100 -7100 7100
Wire Wire Line
	12900 2000 12950 2000
Wire Wire Line
	12650 2100 12650 2250
Wire Wire Line
	12600 2100 12650 2100
Wire Wire Line
	12650 2250 12950 2250
Wire Wire Line
	12600 2000 12700 2000
Wire Wire Line
	12950 2000 12950 2250
Wire Wire Line
	12950 2250 12950 2650
Wire Wire Line
	11000 1450 11000 1900
Wire Wire Line
	11000 1900 11000 2100
Wire Wire Line
	11000 2100 11100 2100
Wire Wire Line
	11700 2100 11750 2100
Wire Wire Line
	11750 2100 11800 2100
Wire Wire Line
	11400 2100 11500 2100
Wire Wire Line
	13950 2200 14100 2200
Wire Wire Line
	14100 2200 14350 2200
Wire Wire Line
	14100 2550 14100 2650
Wire Wire Line
	14100 2100 14100 2200
Wire Wire Line
	14100 2200 14100 2350
Wire Wire Line
	-14650 4750 -14550 4750
Wire Wire Line
	-14550 3450 -14550 4750
Wire Wire Line
	-14550 4750 -14550 5100
Wire Wire Line
	-14650 3850 -14150 3850
Wire Wire Line
	-14150 3850 -14050 3850
Wire Wire Line
	-14050 3850 -13800 3850
Wire Wire Line
	-13800 3850 -13600 3850
Wire Wire Line
	-14650 4550 -14450 4550
Wire Wire Line
	-14450 4550 -13450 4550
Wire Wire Line
	-14650 4650 -14500 4650
Wire Wire Line
	-14500 4650 -13450 4650
Wire Wire Line
	-14650 4050 -14250 4050
Wire Wire Line
	-14250 4050 -13450 4050
Wire Wire Line
	-14650 4150 -14300 4150
Wire Wire Line
	-14300 4150 -13450 4150
Wire Wire Line
	-14650 4350 -14350 4350
Wire Wire Line
	-14350 4350 -13450 4350
Wire Wire Line
	-14650 3950 -14200 3950
Wire Wire Line
	-14200 3950 -13450 3950
Wire Wire Line
	-14650 4450 -14400 4450
Wire Wire Line
	-14400 4450 -13450 4450
Wire Wire Line
	-14050 3850 -14050 4750
Wire Wire Line
	-14050 5100 -14050 4950
Wire Wire Line
	-13800 3850 -13800 4750
Wire Wire Line
	-13800 5100 -13800 4950
Wire Wire Line
	-9100 7200 -9100 6700
Wire Wire Line
	-9100 7400 -9100 7450
$Comp
L SWD10 J?
U 1 1 5A94AB03
P 7250 6300
F 0 "J?" H 7250 6675 60  0000 C CNN
F 1 "SWD10" H 7250 5925 60  0000 C CNN
F 2 "" H 6950 6900 60  0001 C CNN
F 3 "" H 6950 6900 60  0001 C CNN
	1    7250 6300
	1    0    0    -1  
$EndComp
Text GLabel 7900 6100 2    60   BiDi ~ 0
SWDIO
Text GLabel 7900 6200 2    60   Output ~ 0
SWCLK
Text GLabel 7900 6500 2    60   Output ~ 0
RESET
Text GLabel 1800 1600 0    60   Input ~ 0
RESET
$Comp
L +3V3 #PWR?
U 1 1 5A930155
P 1000 1400
F 0 "#PWR?" H 1000 1250 50  0001 C CNN
F 1 "+3V3" H 1000 1540 50  0000 C CNN
F 2 "" H 1000 1400 50  0001 C CNN
F 3 "" H 1000 1400 50  0001 C CNN
	1    1000 1400
	1    0    0    -1  
$EndComp
Wire Wire Line
	1000 1400 1000 1800
$Comp
L +3V3 #PWR?
U 1 1 5A94C44A
P 6500 6000
F 0 "#PWR?" H 6500 5850 50  0001 C CNN
F 1 "+3V3" H 6500 6140 50  0000 C CNN
F 2 "" H 6500 6000 50  0001 C CNN
F 3 "" H 6500 6000 50  0001 C CNN
	1    6500 6000
	1    0    0    -1  
$EndComp
Wire Wire Line
	6500 6000 6500 6100
Wire Wire Line
	6500 6100 6600 6100
$Comp
L GNDD #PWR?
U 1 1 5A94C77B
P 6500 6600
F 0 "#PWR?" H 6500 6350 50  0001 C CNN
F 1 "GNDD" H 6500 6475 50  0000 C CNN
F 2 "" H 6500 6600 50  0001 C CNN
F 3 "" H 6500 6600 50  0001 C CNN
	1    6500 6600
	1    0    0    -1  
$EndComp
Wire Wire Line
	6500 6200 6500 6300
Wire Wire Line
	6500 6300 6500 6600
Wire Wire Line
	6500 6200 6600 6200
Wire Wire Line
	6600 6300 6500 6300
Connection ~ 6500 6300
NoConn ~ 6600 6500
NoConn ~ 6600 6400
NoConn ~ 7900 6400
$Comp
L BMD300 A?
U 1 1 5A95EA86
P 6850 8750
F 0 "A?" H 6850 10075 60  0000 C CNN
F 1 "BMD300" H 6850 7400 60  0000 C CNN
F 2 "" H 5975 10000 60  0001 C CNN
F 3 "" H 5975 10000 60  0001 C CNN
	1    6850 8750
	1    0    0    -1  
$EndComp
Text GLabel 7700 9000 2    60   Input ~ 0
RESET
Text GLabel 7700 9500 2    60   BiDi ~ 0
SWDIO
Text GLabel 7700 9400 2    60   Input ~ 0
SWCLK
Text GLabel 7900 6300 2    60   BiDi ~ 0
SWO
Text GLabel 7700 8700 2    60   BiDi ~ 0
SWO
$Comp
L +3V3 #PWR?
U 1 1 5A95F715
P 5300 9100
F 0 "#PWR?" H 5300 8950 50  0001 C CNN
F 1 "+3V3" H 5300 9240 50  0000 C CNN
F 2 "" H 5300 9100 50  0001 C CNN
F 3 "" H 5300 9100 50  0001 C CNN
	1    5300 9100
	1    0    0    -1  
$EndComp
Wire Wire Line
	5300 9200 6000 9200
$Comp
L GNDD #PWR?
U 1 1 5A95FBAF
P 7800 10100
F 0 "#PWR?" H 7800 9850 50  0001 C CNN
F 1 "GNDD" H 7800 9975 50  0000 C CNN
F 2 "" H 7800 10100 50  0001 C CNN
F 3 "" H 7800 10100 50  0001 C CNN
	1    7800 10100
	1    0    0    -1  
$EndComp
Wire Wire Line
	7800 9600 7800 9700
Wire Wire Line
	7800 9700 7800 9800
Wire Wire Line
	7800 9800 7800 10100
Wire Wire Line
	7800 9800 7700 9800
Wire Wire Line
	7700 9700 7800 9700
Connection ~ 7800 9800
Wire Wire Line
	7700 9600 7800 9600
Connection ~ 7800 9700
$Comp
L GNDD #PWR?
U 1 1 5A960354
P 5300 8100
F 0 "#PWR?" H 5300 7850 50  0001 C CNN
F 1 "GNDD" H 5300 7975 50  0000 C CNN
F 2 "" H 5300 8100 50  0001 C CNN
F 3 "" H 5300 8100 50  0001 C CNN
	1    5300 8100
	1    0    0    -1  
$EndComp
Wire Wire Line
	7700 8100 7800 8100
Wire Wire Line
	7800 8100 8350 8100
Wire Wire Line
	7700 8000 7800 8000
Wire Wire Line
	7800 8000 7800 8100
Connection ~ 7800 8100
Wire Wire Line
	5300 8100 5300 8000
Wire Wire Line
	5300 8000 5900 8000
Wire Wire Line
	5900 8000 6000 8000
Wire Wire Line
	5900 7900 6000 7900
Wire Wire Line
	5900 7600 5900 7700
Wire Wire Line
	5900 7700 5900 7800
Wire Wire Line
	5900 7800 5900 7900
Wire Wire Line
	5900 7900 5900 8000
Connection ~ 5900 8000
Wire Wire Line
	6000 7800 5900 7800
Connection ~ 5900 7900
Wire Wire Line
	6000 7700 5900 7700
Connection ~ 5900 7800
Wire Wire Line
	6000 7600 5900 7600
Connection ~ 5900 7700
$Comp
L GNDD #PWR?
U 1 1 5A961E12
P 5300 9700
F 0 "#PWR?" H 5300 9450 50  0001 C CNN
F 1 "GNDD" H 5300 9575 50  0000 C CNN
F 2 "" H 5300 9700 50  0001 C CNN
F 3 "" H 5300 9700 50  0001 C CNN
	1    5300 9700
	1    0    0    -1  
$EndComp
Wire Wire Line
	5300 9300 5900 9300
Wire Wire Line
	5900 9300 6000 9300
Wire Wire Line
	5300 9300 5300 9700
Wire Wire Line
	6000 9100 5900 9100
Wire Wire Line
	5900 9100 5900 9300
Connection ~ 5900 9300
Text GLabel 6000 8100 0    60   BiDi ~ 0
SDA0
Text GLabel 6000 8200 0    60   BiDi ~ 0
SCL0
$Comp
L SW_SPST_SMD S?
U 1 1 5A967B42
P 9800 7650
F 0 "S?" H 9600 7700 45  0000 L BNN
F 1 "SW_SPST_SMD" H 9600 7450 45  0000 L BNN
F 2 "air:SW_SPST_EVQQ2" H 9800 7900 20  0001 C CNN
F 3 "" H 9800 7650 50  0001 C CNN
	1    9800 7650
	1    0    0    -1  
$EndComp
Text GLabel 10150 7650 2    60   Output ~ 0
MINSW2
Wire Wire Line
	10150 7650 10000 7650
Wire Wire Line
	9450 7150 9450 7650
Wire Wire Line
	9450 7650 9450 8100
Wire Wire Line
	9450 8100 9450 8550
Wire Wire Line
	9450 8550 9450 8800
Wire Wire Line
	9450 8550 9600 8550
Wire Wire Line
	9450 8100 9600 8100
Connection ~ 9450 8550
Wire Wire Line
	9450 7650 9600 7650
Connection ~ 9450 8100
Wire Wire Line
	9600 7650 9600 7750
Wire Wire Line
	10000 7650 10000 7750
Wire Wire Line
	10000 8200 10000 8100
Wire Wire Line
	10000 8650 10000 8550
Wire Wire Line
	9600 8550 9600 8650
Text GLabel 6000 9600 0    60   Input ~ 0
MINSW2
Text GLabel 6000 9500 0    60   Input ~ 0
MINSW1
Text GLabel 6000 9400 0    60   Input ~ 0
MINSW0
Text GLabel 10150 7150 2    60   Output ~ 0
RESET
Wire Wire Line
	9600 7150 9450 7150
Connection ~ 9450 7650
Wire Wire Line
	10150 7150 10000 7150
Text GLabel 7700 8300 2    60   Input ~ 0
SPI_MISO
Text GLabel 7700 7900 2    60   Output ~ 0
SPI_SCK
Text GLabel 7700 8200 2    60   Output ~ 0
SPI_MOSI
Text GLabel 7700 8500 2    60   Output ~ 0
NEODATA_0
Text GLabel 8250 7200 2    60   Input ~ 0
UART_RX
Text GLabel 12000 8950 2    60   Output ~ 0
UART_RX
Wire Wire Line
	5300 9200 5300 9100
Wire Wire Line
	8350 8100 8350 8200
$Comp
L GNDD #PWR?
U 1 1 5A9742F0
P 8350 8200
F 0 "#PWR?" H 8350 7950 50  0001 C CNN
F 1 "GNDD" H 8350 8075 50  0000 C CNN
F 2 "" H 8350 8200 50  0001 C CNN
F 3 "" H 8350 8200 50  0001 C CNN
	1    8350 8200
	1    0    0    -1  
$EndComp
Text GLabel 8500 1600 1    60   UnSpc ~ 0
XL2
Text GLabel 7900 1600 1    60   UnSpc ~ 0
XL1
Text GLabel 6000 8800 0    60   UnSpc ~ 0
XL1
Text GLabel 6000 8900 0    60   UnSpc ~ 0
XL2
Text GLabel 6400 1700 2    60   UnSpc ~ 0
XL2
Text GLabel 6400 1600 2    60   UnSpc ~ 0
XL1
$Comp
L DMG3415U Q?
U 1 1 5A977197
P 11400 3400
F 0 "Q?" H 11650 3475 50  0000 L CNN
F 1 "DMG3415U" H 11650 3400 50  0000 L CNN
F 2 "TO_SOT_Packages_SMD:SOT-23" H 11650 3325 50  0001 L CIN
F 3 "" H 11400 3400 50  0001 L CNN
	1    11400 3400
	1    0    0    -1  
$EndComp
$Comp
L +BATT #PWR?
U 1 1 5A9789AF
P 14800 1800
F 0 "#PWR?" H 14800 1650 50  0001 C CNN
F 1 "+BATT" H 14800 1940 50  0000 C CNN
F 2 "" H 14800 1800 50  0001 C CNN
F 3 "" H 14800 1800 50  0001 C CNN
	1    14800 1800
	1    0    0    -1  
$EndComp
Wire Wire Line
	14800 1800 14800 2000
$Comp
L +BATT #PWR?
U 1 1 5A978FB3
P 13250 1800
F 0 "#PWR?" H 13250 1650 50  0001 C CNN
F 1 "+BATT" H 13250 1940 50  0000 C CNN
F 2 "" H 13250 1800 50  0001 C CNN
F 3 "" H 13250 1800 50  0001 C CNN
	1    13250 1800
	1    0    0    -1  
$EndComp
$Comp
L +BATT #PWR?
U 1 1 5A97948C
P 11500 3100
F 0 "#PWR?" H 11500 2950 50  0001 C CNN
F 1 "+BATT" H 11500 3240 50  0000 C CNN
F 2 "" H 11500 3100 50  0001 C CNN
F 3 "" H 11500 3100 50  0001 C CNN
	1    11500 3100
	1    0    0    -1  
$EndComp
Wire Wire Line
	11500 3100 11500 3200
Wire Wire Line
	11200 3400 11000 3400
Connection ~ 11000 3400
Wire Wire Line
	11500 3600 11500 3700
Wire Wire Line
	11500 3700 11500 4150
Connection ~ 11500 3700
Wire Wire Line
	11100 3700 11000 3700
$Comp
L R_Small R?
U 1 1 5A97B56B
P 11000 4250
F 0 "R?" H 11030 4270 50  0000 L CNN
F 1 "100K" H 11030 4210 50  0000 L CNN
F 2 "Resistors_SMD:R_0603" H 11000 4250 50  0001 C CNN
F 3 "http://www.yageo.com/documents/recent/PYu-RC_Group_51_RoHS_L_8.pdf" H 11000 4250 50  0001 C CNN
F 4 "311-100KGRCT-ND" H 11030 4370 50  0001 C CNN "digikey"
	1    11000 4250
	-1   0    0    -1  
$EndComp
$Comp
L GNDD #PWR?
U 1 1 5A97BADE
P 11500 4450
F 0 "#PWR?" H 11500 4200 50  0001 C CNN
F 1 "GNDD" H 11500 4325 50  0000 C CNN
F 2 "" H 11500 4450 50  0001 C CNN
F 3 "" H 11500 4450 50  0001 C CNN
	1    11500 4450
	1    0    0    -1  
$EndComp
$Comp
L C_Small C?
U 1 1 5A97C0A9
P 11500 4250
F 0 "C?" H 11510 4320 50  0000 L CNN
F 1 "10µF" H 11510 4170 50  0000 L CNN
F 2 "Capacitors_SMD:C_0805" H 11500 4250 50  0001 C CNN
F 3 "https://www.murata.com/~/media/webrenewal/support/library/catalog/products/capacitor/mlcc/c02e.ashx?la=en-us" H 11500 4250 50  0001 C CNN
F 4 "490-3340-1-ND" H 11510 4420 50  0001 C CNN "digikey"
	1    11500 4250
	1    0    0    -1  
$EndComp
Wire Wire Line
	11500 4350 11500 4450
Text GLabel 8850 1600 1    60   UnSpc ~ 0
NFC1
Text GLabel 9450 1600 1    60   UnSpc ~ 0
NFC2
$Comp
L C_Small C?
U 1 1 5A97F85F
P 9450 2000
F 0 "C?" H 9460 2070 50  0000 L CNN
F 1 "300pF" H 9460 1920 50  0000 L CNN
F 2 "Capacitors_SMD:C_0805" H 9450 2000 50  0001 C CNN
F 3 "https://www.murata.com/~/media/webrenewal/support/library/catalog/products/capacitor/mlcc/c02e.ashx?la=en-us" H 9450 2000 50  0001 C CNN
F 4 "490-3340-1-ND" H 9460 2170 50  0001 C CNN "digikey"
	1    9450 2000
	1    0    0    -1  
$EndComp
$Comp
L C_Small C?
U 1 1 5A97F98D
P 8850 2000
F 0 "C?" H 8860 2070 50  0000 L CNN
F 1 "300pF" H 8860 1920 50  0000 L CNN
F 2 "Capacitors_SMD:C_0805" H 8850 2000 50  0001 C CNN
F 3 "https://www.murata.com/~/media/webrenewal/support/library/catalog/products/capacitor/mlcc/c02e.ashx?la=en-us" H 8850 2000 50  0001 C CNN
F 4 "490-3340-1-ND" H 8860 2170 50  0001 C CNN "digikey"
	1    8850 2000
	1    0    0    -1  
$EndComp
$Comp
L GNDD #PWR?
U 1 1 5A97FBE4
P 8850 2150
F 0 "#PWR?" H 8850 1900 50  0001 C CNN
F 1 "GNDD" H 8850 2025 50  0000 C CNN
F 2 "" H 8850 2150 50  0001 C CNN
F 3 "" H 8850 2150 50  0001 C CNN
	1    8850 2150
	1    0    0    -1  
$EndComp
$Comp
L GNDD #PWR?
U 1 1 5A97FD09
P 9450 2150
F 0 "#PWR?" H 9450 1900 50  0001 C CNN
F 1 "GNDD" H 9450 2025 50  0000 C CNN
F 2 "" H 9450 2150 50  0001 C CNN
F 3 "" H 9450 2150 50  0001 C CNN
	1    9450 2150
	1    0    0    -1  
$EndComp
Wire Wire Line
	9450 2150 9450 2100
Wire Wire Line
	9450 1600 9450 1800
Wire Wire Line
	9450 1800 9450 1900
Wire Wire Line
	8850 1600 8850 1800
Wire Wire Line
	8850 1800 8850 1900
Wire Wire Line
	8850 2150 8850 2100
Wire Wire Line
	9100 1800 8850 1800
Connection ~ 8850 1800
Wire Wire Line
	9200 1800 9450 1800
Connection ~ 9450 1800
$Comp
L Conn_01x02 J?
U 1 1 5A981255
P 9100 1600
F 0 "J?" H 9100 1700 50  0000 C CNN
F 1 "Conn_01x02" H 9100 1400 50  0000 C CNN
F 2 "" H 9100 1600 50  0001 C CNN
F 3 "" H 9100 1600 50  0001 C CNN
	1    9100 1600
	0    -1   -1   0   
$EndComp
Text GLabel 7700 7600 2    60   UnSpc ~ 0
NFC1
Text GLabel 7700 7700 2    60   UnSpc ~ 0
NFC2
Text GLabel 6000 9700 0    60   Output ~ 0
UART_TX
Text GLabel 6000 9800 0    60   Input ~ 0
UART_RX
Text GLabel 12900 6750 0    60   Input ~ 0
UART_TX
$Comp
L GNDD #PWR?
U 1 1 5A9846DD
P 14350 2650
F 0 "#PWR?" H 14350 2400 50  0001 C CNN
F 1 "GNDD" H 14350 2525 50  0000 C CNN
F 2 "" H 14350 2650 50  0001 C CNN
F 3 "" H 14350 2650 50  0001 C CNN
	1    14350 2650
	1    0    0    -1  
$EndComp
$Comp
L C_Small C?
U 1 1 5A984924
P 14350 2450
F 0 "C?" H 14360 2520 50  0000 L CNN
F 1 "1nF" H 14360 2370 50  0000 L CNN
F 2 "Capacitors_SMD:C_0805" H 14350 2450 50  0001 C CNN
F 3 "https://www.murata.com/~/media/webrenewal/support/library/catalog/products/capacitor/mlcc/c02e.ashx?la=en-us" H 14350 2450 50  0001 C CNN
F 4 "490-3340-1-ND" H 14360 2620 50  0001 C CNN "digikey"
	1    14350 2450
	1    0    0    -1  
$EndComp
Wire Wire Line
	14350 2550 14350 2650
Wire Wire Line
	14350 2200 14350 2350
Wire Wire Line
	12600 1900 13250 1900
$Comp
L +BATT #PWR?
U 1 1 5A9856E5
P 14100 1800
F 0 "#PWR?" H 14100 1650 50  0001 C CNN
F 1 "+BATT" H 14100 1940 50  0000 C CNN
F 2 "" H 14100 1800 50  0001 C CNN
F 3 "" H 14100 1800 50  0001 C CNN
	1    14100 1800
	1    0    0    -1  
$EndComp
$Comp
L GNDD #PWR?
U 1 1 5A9868F7
P 5050 6950
F 0 "#PWR?" H 5050 6700 50  0001 C CNN
F 1 "GNDD" H 5050 6825 50  0000 C CNN
F 2 "" H 5050 6950 50  0001 C CNN
F 3 "" H 5050 6950 50  0001 C CNN
	1    5050 6950
	1    0    0    -1  
$EndComp
$Comp
L LED D?
U 1 1 5A986A20
P 4800 6850
F 0 "D?" H 4800 6950 50  0000 C CNN
F 1 "RED" H 4850 6750 50  0000 C CNN
F 2 "LEDs:LED_0603" H 4800 6850 50  0001 C CNN
F 3 "http://optoelectronics.liteon.com/upload/download/DS-22-99-0151/LTST-C190KRKT.pdf" H 4800 6850 50  0001 C CNN
F 4 "160-1436-1-ND" H 4800 7050 50  0001 C CNN "digikey"
	1    4800 6850
	-1   0    0    1   
$EndComp
$Comp
L R_Small R?
U 1 1 5A986B54
P 4400 6850
F 0 "R?" H 4430 6880 39  0000 L CNN
F 1 "2.2K" H 4430 6810 39  0000 L CNN
F 2 "Resistors_SMD:R_0603" H 4400 6850 39  0001 C CNN
F 3 "http://www.yageo.com/documents/recent/PYu-RC_Group_51_RoHS_L_8.pdf" H 4400 6850 39  0001 C CNN
F 4 "311-1.0KGRCT-ND" H 4400 6850 39  0001 C CNN "digikey"
	1    4400 6850
	0    -1   1    0   
$EndComp
Wire Wire Line
	4500 6850 4650 6850
Wire Wire Line
	4950 6850 5050 6850
Wire Wire Line
	5050 6850 5050 6950
Text GLabel 4150 6850 0    60   Input ~ 0
LED2
Wire Wire Line
	4150 6850 4300 6850
Text GLabel 7700 8800 2    60   Output ~ 0
LED2
Text GLabel 7700 8600 2    60   Output ~ 0
LED1
$Comp
L CP2102N_QFN20 U?
U 1 1 5A988CD6
P 11400 9200
F 0 "U?" H 11400 9800 60  0000 C CNN
F 1 "CP2102N_QFN20" H 11400 8575 60  0000 C CNN
F 2 "" H 10775 9750 60  0001 C CNN
F 3 "" H 10775 9750 60  0001 C CNN
	1    11400 9200
	1    0    0    -1  
$EndComp
Text GLabel 12000 9050 2    60   Input ~ 0
UART_TX
Text GLabel 10800 9050 0    60   BiDi ~ 0
D+
Text GLabel 10800 9150 0    60   BiDi ~ 0
D-
$Comp
L GNDD #PWR?
U 1 1 5A98A305
P 12200 9700
F 0 "#PWR?" H 12200 9450 50  0001 C CNN
F 1 "GNDD" H 12200 9575 50  0000 C CNN
F 2 "" H 12200 9700 50  0001 C CNN
F 3 "" H 12200 9700 50  0001 C CNN
	1    12200 9700
	1    0    0    -1  
$EndComp
Wire Wire Line
	12000 9550 12200 9550
Wire Wire Line
	12200 9550 12200 9700
$Comp
L GNDD #PWR?
U 1 1 5A98A62A
P 10400 9100
F 0 "#PWR?" H 10400 8850 50  0001 C CNN
F 1 "GNDD" H 10400 8975 50  0000 C CNN
F 2 "" H 10400 9100 50  0001 C CNN
F 3 "" H 10400 9100 50  0001 C CNN
	1    10400 9100
	1    0    0    -1  
$EndComp
Wire Wire Line
	10400 9100 10400 8950
Wire Wire Line
	10400 8950 10800 8950
$EndSCHEMATC
