EESchema Schematic File Version 2
LIBS:power
LIBS:device
LIBS:transistors
LIBS:conn
LIBS:linear
LIBS:regul
LIBS:74xx
LIBS:cmos4000
LIBS:adc-dac
LIBS:memory
LIBS:xilinx
LIBS:microcontrollers
LIBS:dsp
LIBS:microchip
LIBS:analog_switches
LIBS:motorola
LIBS:texas
LIBS:intel
LIBS:audio
LIBS:interface
LIBS:digital-audio
LIBS:philips
LIBS:display
LIBS:cypress
LIBS:siliconi
LIBS:opto
LIBS:atmel
LIBS:contrib
LIBS:valves
LIBS:teensy
LIBS:ESP8266
LIBS:SparkFun-Aesthetics
LIBS:SparkFun-Batteries
LIBS:SparkFun-Boards
LIBS:SparkFun-Capacitors
LIBS:SparkFun-Clocks
LIBS:SparkFun-Coils
LIBS:SparkFun-Connectors
LIBS:SparkFun-DiscreteSemi
LIBS:SparkFun-Displays
LIBS:SparkFun-Electromechanical
LIBS:SparkFun-Fuses
LIBS:SparkFun-GPS
LIBS:SparkFun-Hardware
LIBS:SparkFun-IC-Amplifiers
LIBS:SparkFun-IC-Comms
LIBS:SparkFun-IC-Conversion
LIBS:SparkFun-IC-Logic
LIBS:SparkFun-IC-Memory
LIBS:SparkFun-IC-Microcontroller
LIBS:SparkFun-IC-Power
LIBS:SparkFun-IC-Special-Function
LIBS:SparkFun-Jumpers
LIBS:SparkFun-LED
LIBS:SparkFun-PowerSymbols
LIBS:SparkFun-Resistors
LIBS:SparkFun-RF
LIBS:SparkFun-Sensors
LIBS:SparkFun-Switches
LIBS:air
EELAYER 25 0
EELAYER END
$Descr A3 16535 11693
encoding utf-8
Sheet 1 1
Title "air 0.2 PCB"
Date "2017-12-26"
Rev "1"
Comp "Ylenia Gerold Emil"
Comment1 ""
Comment2 ""
Comment3 ""
Comment4 ""
$EndDescr
Text GLabel 4150 1100 0    60   Input ~ 0
TeensyRX1
Text GLabel 4150 1200 0    60   Output ~ 0
TeensyTX1
Text GLabel 4150 1300 0    60   Input ~ 0
ENCSW
Text GLabel 4150 1400 0    60   Output ~ 0
ENCRed
Text GLabel 4150 1700 0    60   Output ~ 0
NEODATA
Text GLabel 4150 1600 0    60   Output ~ 0
ENCBlue
$Comp
L LED D1
U 1 1 5A3D750E
P 13000 2250
F 0 "D1" H 13000 2350 50  0000 C CNN
F 1 "LED" H 13000 2150 50  0000 C CNN
F 2 "LEDs:LED_0805" H 13000 2250 50  0001 C CNN
F 3 "" H 13000 2250 50  0001 C CNN
	1    13000 2250
	-1   0    0    1   
$EndComp
Text GLabel 9550 1900 2    60   Input ~ 0
TeensyTX1
Text GLabel 9550 1800 2    60   Output ~ 0
TeensyRX1
Text GLabel 4150 3100 0    60   UnSpc ~ 0
VBAT
Text GLabel 12750 2900 0    60   UnSpc ~ 0
VBAT
Text GLabel 6150 1300 2    60   UnSpc ~ 0
VUSB
Text GLabel 12650 2050 0    60   Input ~ 0
VUSB
Text GLabel 15200 1950 2    60   UnSpc ~ 0
VBAT
$Comp
L GS2 J11
U 1 1 5A3DAB0F
P 14650 1950
F 0 "J11" H 14750 2100 50  0000 C CNN
F 1 "GS2" H 14750 1801 50  0000 C CNN
F 2 "Connectors:GS2" V 14724 1950 50  0001 C CNN
F 3 "" H 14650 1950 50  0001 C CNN
	1    14650 1950
	0    1    1    0   
$EndComp
$Comp
L MMBT3904 Q1
U 1 1 5A3E8B51
P 12550 11850
F 0 "Q1" H 12750 11925 50  0000 L CNN
F 1 "MMBT3904" H 12750 11850 50  0000 L CNN
F 2 "TO_SOT_Packages_SMD:SOT-23" H 12750 11775 50  0001 L CIN
F 3 "" H 12550 11850 50  0001 L CNN
	1    12550 11850
	1    0    0    -1  
$EndComp
$Comp
L MMBT3904 Q2
U 1 1 5A3E8D7B
P 12550 12450
F 0 "Q2" H 12750 12525 50  0000 L CNN
F 1 "MMBT3904" H 12750 12450 50  0000 L CNN
F 2 "TO_SOT_Packages_SMD:SOT-23" H 12750 12375 50  0001 L CIN
F 3 "" H 12550 12450 50  0001 L CNN
	1    12550 12450
	1    0    0    1   
$EndComp
Text GLabel 11750 11850 0    60   Input ~ 0
DTR
Text GLabel 11750 12450 0    60   Input ~ 0
RTS
Text GLabel 9550 2200 2    60   Input ~ 0
ESP_GPIO0
Text GLabel 13400 11550 2    60   Output ~ 0
ESP_REST
Text GLabel 13400 12750 2    60   Output ~ 0
ESP_GPIO0
Text GLabel 8100 1800 0    60   Input ~ 0
ESP_REST
Text GLabel 6150 3900 2    60   BiDi ~ 0
SDA1
Text GLabel 6150 4000 2    60   BiDi ~ 0
SCL1
Text GLabel 9000 4450 0    60   BiDi ~ 0
SCL1
Text GLabel 9000 4350 0    60   BiDi ~ 0
SDA1
$Comp
L CONN_TO_SSD1306 J3
U 1 1 5A3EDF7E
P 7800 10450
F 0 "J3" H 7600 11250 45  0000 L BNN
F 1 "CONN_TO_SSD1306" H 7400 10300 45  0000 L BNN
F 2 "Connectors_Sparkfun:1X08_NO_SILK" V 7500 10800 30  0000 C CNN
F 3 "" H 7800 10450 50  0001 C CNN
F 4 "OLED HEADER" H 7800 11400 60  0000 C CNN "Field4"
	1    7800 10450
	1    0    0    -1  
$EndComp
Text GLabel 4150 2200 0    60   Output ~ 0
SPI_MOSI
Text GLabel 6150 2700 2    60   Output ~ 0
SPI_SCLK
Text GLabel 4150 2100 0    60   Output ~ 0
SPI_CS
Text GLabel 7900 10350 2    60   Input ~ 0
SPI_SCLK
Text GLabel 7900 10450 2    60   Input ~ 0
SPI_MOSI
Text GLabel 7900 10150 2    60   Input ~ 0
SPI_RST
Text GLabel 7900 10050 2    60   Input ~ 0
SPI_CS
Text GLabel 4150 2000 0    60   Output ~ 0
SPI_DC
Text GLabel 7900 10250 2    60   Input ~ 0
SPI_DC
Text GLabel 6150 2600 2    60   Output ~ 0
SPI_RST
Text GLabel 7900 9750 2    60   UnSpc ~ 0
GND
Text GLabel 7900 9850 2    60   UnSpc ~ 0
3V3
NoConn ~ 7900 9950
Text GLabel 4150 1500 0    60   Output ~ 0
ENCGreen
Text GLabel 10250 7900 2    60   Input ~ 0
ENCRed
Text GLabel 10250 8000 2    60   Input ~ 0
ENCGreen
Text GLabel 10250 8100 2    60   Input ~ 0
ENCBlue
Text GLabel 10250 8200 2    60   Output ~ 0
ENCSW
Text GLabel 4150 1800 0    60   Input ~ 0
ENCA
Text GLabel 4150 1900 0    60   Input ~ 0
ENCB
Text GLabel 7000 8100 0    60   Output ~ 0
ENCB
Text GLabel 7000 7700 0    60   Output ~ 0
ENCA
$Comp
L MOMENTARY-SWITCH-SPST-2-SMD-5.2MM S4
U 1 1 5A3F9C2E
P 14050 7300
F 0 "S4" H 13850 7350 45  0000 L BNN
F 1 "SW_SPST_EVQQ2" H 13850 7100 45  0000 L BNN
F 2 "Buttons_Switches_SMD:SW_SPST_EVQQ2" H 14050 7550 20  0001 C CNN
F 3 "" H 14050 7300 50  0001 C CNN
	1    14050 7300
	1    0    0    -1  
$EndComp
$Comp
L MPU9250 U2
U 1 1 5A400063
P 9950 4650
F 0 "U2" H 9950 5200 60  0000 C CNN
F 1 "MPU9250" H 9950 4150 60  0000 C CNN
F 2 "Housings_DFN_QFN:QFN-24-1EP_3x3mm_Pitch0.4mm" H 9950 5100 30  0000 C CNN
F 3 "" H 10100 4150 60  0000 C CNN
	1    9950 4650
	1    0    0    -1  
$EndComp
NoConn ~ 9350 4850
NoConn ~ 9350 4750
$Comp
L Audio-Jack-4 J9
U 1 1 5A4087FB
P 14150 8800
F 0 "J9" H 14100 8880 50  0000 C CNN
F 1 "Audio-Jack-4" H 14270 8430 50  0000 C CNN
F 2 "" H 14400 8900 50  0001 C CNN
F 3 "" H 14400 8900 50  0001 C CNN
	1    14150 8800
	1    0    0    -1  
$EndComp
Text GLabel 6150 2100 2    60   BiDi ~ 0
PHONE_R2
Text GLabel 6150 2000 2    60   BiDi ~ 0
PHONE_R1
Text GLabel 15250 8900 2    60   BiDi ~ 0
PHONE_R1
Text GLabel 15250 8800 2    60   BiDi ~ 0
PHONE_R2
Text GLabel 6150 2300 2    60   BiDi ~ 0
SDA0
Text GLabel 6150 2200 2    60   BiDi ~ 0
SCL0
Text GLabel 6150 2500 2    60   Input ~ 0
SW0
Text GLabel 6150 2400 2    60   Input ~ 0
SW1
Text GLabel 4250 8750 2    60   BiDi ~ 0
SCL0
Text GLabel 4250 8650 2    60   BiDi ~ 0
SDA0
Text GLabel 4250 8450 2    60   Output ~ 0
HAPTIC_DRV
Text GLabel 4250 8250 2    60   Output ~ 0
SW0
Text GLabel 4250 8150 2    60   Output ~ 0
SW1
Text GLabel 13300 1250 2    60   Output ~ 0
VSENSE
Text GLabel 6150 1000 2    60   Input ~ 0
VSENSE
Text GLabel 4150 3600 0    60   Input ~ 0
MINSW0
Text GLabel 6150 3600 2    60   Input ~ 0
MINSW1
Text GLabel 6150 1500 2    60   UnSpc ~ 0
VBAT
NoConn ~ 6150 2800
NoConn ~ 4150 2300
NoConn ~ 6150 3200
NoConn ~ 4150 3200
Text GLabel 4150 2900 0    60   Output ~ 0
DAC
Text GLabel 15250 9000 2    60   Input ~ 0
DAC
Text GLabel 12850 900  0    60   Input ~ 0
VIN
$Comp
L MOMENTARY-SWITCH-SPST-2-SMD-5.2MM S5
U 1 1 5A42FE61
P 14050 7750
F 0 "S5" H 13850 7800 45  0000 L BNN
F 1 "SW_SPST_EVQQ2" H 13850 7550 45  0000 L BNN
F 2 "Buttons_Switches_SMD:SW_SPST_EVQQ2" H 14050 8000 20  0001 C CNN
F 3 "" H 14050 7750 50  0001 C CNN
	1    14050 7750
	1    0    0    -1  
$EndComp
Text GLabel 14950 7300 2    60   Output ~ 0
MINSW1
Text GLabel 14950 7750 2    60   Output ~ 0
MINSW0
NoConn ~ 14250 7400
NoConn ~ 13850 7400
NoConn ~ 13850 7850
NoConn ~ 14250 7850
$Comp
L CP1_Small C19
U 1 1 5A43D4BB
P 7800 2700
F 0 "C19" H 7810 2770 50  0000 L CNN
F 1 "47µF" H 7810 2620 50  0000 L CNN
F 2 "Capacitors_SMD:C_1206" H 7800 2700 50  0001 C CNN
F 3 "" H 7800 2700 50  0001 C CNN
	1    7800 2700
	1    0    0    -1  
$EndComp
$Comp
L C_Small C18
U 1 1 5A43D69F
P 7550 2700
F 0 "C18" H 7560 2770 50  0000 L CNN
F 1 "0.1µF" H 7560 2620 50  0000 L CNN
F 2 "Capacitors_SMD:C_0603" H 7550 2700 50  0001 C CNN
F 3 "" H 7550 2700 50  0001 C CNN
	1    7550 2700
	1    0    0    -1  
$EndComp
$Comp
L V_REG_AP2112K-3.3V U7
U 1 1 5A443222
P 14100 4150
F 0 "U7" H 14100 4475 45  0000 C TNN
F 1 "V_REG_AP2112K-3.3V" H 14100 3900 45  0000 C BNN
F 2 "TO_SOT_Packages_SMD:SOT-23-5" H 14100 3850 30  0000 C CNN
F 3 "" H 14100 4475 60  0001 C CNN
	1    14100 4150
	1    0    0    -1  
$EndComp
$Comp
L SW S3
U 1 1 5A444054
P 13250 4100
F 0 "S3" H 13050 4150 45  0000 L BNN
F 1 "SW" H 13250 4000 45  0000 C BNN
F 2 "Buttons_Switches_SMD:SW_SPST_EVQPE1" H 13250 4300 20  0001 C CNN
F 3 "" H 13050 4200 50  0001 C CNN
	1    13250 4100
	1    0    0    -1  
$EndComp
Text GLabel 12650 4100 0    60   Input ~ 0
VUSB
Text GLabel 12650 3900 0    60   Input ~ 0
VBAT
$Comp
L C_Small C25
U 1 1 5A447974
P 13000 4300
F 0 "C25" H 13010 4370 50  0000 L CNN
F 1 "10µF" H 13010 4220 50  0000 L CNN
F 2 "Capacitors_SMD:C_0805" H 13000 4300 50  0001 C CNN
F 3 "" H 13000 4300 50  0001 C CNN
	1    13000 4300
	1    0    0    -1  
$EndComp
$Comp
L C_Small C26
U 1 1 5A448BD2
P 14650 4300
F 0 "C26" H 14660 4370 50  0000 L CNN
F 1 "10µF" H 14660 4220 50  0000 L CNN
F 2 "Capacitors_SMD:C_0805" H 14650 4300 50  0001 C CNN
F 3 "" H 14650 4300 50  0001 C CNN
	1    14650 4300
	1    0    0    -1  
$EndComp
$Comp
L C_Small C28
U 1 1 5A448CC2
P 14900 4300
F 0 "C28" H 14910 4370 50  0000 L CNN
F 1 "1µF" H 14910 4220 50  0000 L CNN
F 2 "Capacitors_SMD:C_0805" H 14900 4300 50  0001 C CNN
F 3 "" H 14900 4300 50  0001 C CNN
	1    14900 4300
	1    0    0    -1  
$EndComp
$Comp
L R_Small R28
U 1 1 5A44A81D
P 14650 2150
F 0 "R28" H 14680 2170 50  0000 L CNN
F 1 "4.3K" H 14680 2110 50  0000 L CNN
F 2 "Resistors_SMD:R_0805" H 14650 2150 50  0001 C CNN
F 3 "" H 14650 2150 50  0001 C CNN
	1    14650 2150
	0    1    1    0   
$EndComp
$Comp
L C_Small C29
U 1 1 5A44ACCA
P 15000 2150
F 0 "C29" H 15010 2220 50  0000 L CNN
F 1 "10µF" H 15010 2070 50  0000 L CNN
F 2 "Capacitors_SMD:C_0805" H 15000 2150 50  0001 C CNN
F 3 "" H 15000 2150 50  0001 C CNN
	1    15000 2150
	1    0    0    -1  
$EndComp
$Comp
L R_Small R23
U 1 1 5A44B216
P 13350 2250
F 0 "R23" H 13380 2270 50  0000 L CNN
F 1 "1K" H 13380 2210 50  0000 L CNN
F 2 "Resistors_SMD:R_0805" H 13350 2250 50  0001 C CNN
F 3 "" H 13350 2250 50  0001 C CNN
	1    13350 2250
	0    1    1    0   
$EndComp
Text GLabel 12650 5350 0    60   Input ~ 0
VBAT
Text GLabel 13650 5350 2    60   Output ~ 0
VIN
$Comp
L R_Small R21
U 1 1 5A44E1E7
P 13100 1050
F 0 "R21" H 13130 1070 50  0000 L CNN
F 1 "100K" H 13130 1010 50  0000 L CNN
F 2 "Resistors_SMD:R_0805" H 13100 1050 50  0001 C CNN
F 3 "" H 13100 1050 50  0001 C CNN
	1    13100 1050
	-1   0    0    1   
$EndComp
$Comp
L R_Small R22
U 1 1 5A44E40E
P 13100 1450
F 0 "R22" H 13130 1470 50  0000 L CNN
F 1 "100K" H 13130 1410 50  0000 L CNN
F 2 "Resistors_SMD:R_0805" H 13100 1450 50  0001 C CNN
F 3 "" H 13100 1450 50  0001 C CNN
	1    13100 1450
	-1   0    0    1   
$EndComp
$Comp
L SW S2
U 1 1 5A44F34F
P 12950 5350
F 0 "S2" H 12750 5400 45  0000 L BNN
F 1 "SW" H 12950 5250 45  0000 C BNN
F 2 "Buttons_Switches_SMD:SW_SPST_EVQPE1" H 12950 5550 20  0001 C CNN
F 3 "" H 12750 5450 50  0001 C CNN
	1    12950 5350
	1    0    0    -1  
$EndComp
Text Notes 14550 3700 2    60   ~ 0
POWER AND FILTERING (ONLY FOR TEENSY 3.1)\n
Text Notes 14450 1050 2    60   ~ 0
BATTERY CHARGING
Text Notes 1100 6650 2    121  ~ 0
I/O
Text Notes 9050 1200 2    60   ~ 0
WIFI
Text Notes 14550 5050 2    60   ~ 0
POWER AND FILTERING (ONLY FOR TEENSY 3.2)\n
Text GLabel 11800 1950 2    60   UnSpc ~ 0
SDA1
Text GLabel 11800 1850 2    60   UnSpc ~ 0
SCL0
Text GLabel 11800 1750 2    60   UnSpc ~ 0
SDA0
$Comp
L C_Small C22
U 1 1 5A4572EA
P 11350 2750
F 0 "C22" H 11360 2820 50  0000 L CNN
F 1 "0.01µF" H 11360 2670 50  0000 L CNN
F 2 "Capacitors_SMD:C_0603" H 11350 2750 50  0001 C CNN
F 3 "" H 11350 2750 50  0001 C CNN
	1    11350 2750
	1    0    0    -1  
$EndComp
$Comp
L C_Small C23
U 1 1 5A457401
P 11650 2750
F 0 "C23" H 11660 2820 50  0000 L CNN
F 1 "0.01µF" H 11660 2670 50  0000 L CNN
F 2 "Capacitors_SMD:C_0603" H 11650 2750 50  0001 C CNN
F 3 "" H 11650 2750 50  0001 C CNN
	1    11650 2750
	1    0    0    -1  
$EndComp
Text GLabel 11800 2450 2    60   UnSpc ~ 0
SW0
Text GLabel 11800 2550 2    60   UnSpc ~ 0
SW1
$Comp
L R_Small R20
U 1 1 5A459797
P 11700 1550
F 0 "R20" H 11730 1570 50  0000 L CNN
F 1 "10K" H 11730 1510 50  0000 L CNN
F 2 "Resistors_SMD:R_0805" H 11700 1550 50  0001 C CNN
F 3 "" H 11700 1550 50  0001 C CNN
	1    11700 1550
	-1   0    0    1   
$EndComp
$Comp
L R_Small R18
U 1 1 5A459DD1
P 11450 1550
F 0 "R18" H 11480 1570 50  0000 L CNN
F 1 "10K" H 11480 1510 50  0000 L CNN
F 2 "Resistors_SMD:R_0805" H 11450 1550 50  0001 C CNN
F 3 "" H 11450 1550 50  0001 C CNN
	1    11450 1550
	-1   0    0    1   
$EndComp
$Comp
L R_Small R17
U 1 1 5A459EE4
P 11200 1550
F 0 "R17" H 11230 1570 50  0000 L CNN
F 1 "10K" H 11230 1510 50  0000 L CNN
F 2 "Resistors_SMD:R_0805" H 11200 1550 50  0001 C CNN
F 3 "" H 11200 1550 50  0001 C CNN
	1    11200 1550
	-1   0    0    1   
$EndComp
$Comp
L R_Small R15
U 1 1 5A459FFC
P 10950 1550
F 0 "R15" H 10980 1570 50  0000 L CNN
F 1 "10K" H 10980 1510 50  0000 L CNN
F 2 "Resistors_SMD:R_0805" H 10950 1550 50  0001 C CNN
F 3 "" H 10950 1550 50  0001 C CNN
	1    10950 1550
	-1   0    0    1   
$EndComp
Text Notes 11650 900  2    60   ~ 0
PULLUP & INPUT DEBOUNCE
Text GLabel 10400 2500 0    60   UnSpc ~ 0
GND
Text GLabel 4150 3800 0    60   BiDi ~ 0
GPIO2
Text GLabel 6150 3800 2    60   BiDi ~ 0
GPIO3
Text GLabel 10000 10350 2    60   BiDi ~ 0
GPIO0
Text GLabel 10000 10250 2    60   BiDi ~ 0
GPIO1
Text GLabel 10000 10150 2    60   BiDi ~ 0
GPIO2
Text GLabel 10000 10050 2    60   BiDi ~ 0
GPIO3
Text GLabel 6150 1900 2    60   BiDi ~ 0
GPIO0
Text GLabel 6150 1800 2    60   BiDi ~ 0
GPIO1
Text GLabel 6150 3700 2    60   BiDi ~ 0
GPIO5
Text GLabel 4150 3700 0    60   BiDi ~ 0
GPIO4
$Comp
L Conn_01x08 J5
U 1 1 5A4652CF
P 9800 10150
F 0 "J5" H 9800 10550 50  0000 C CNN
F 1 "Conn_01x08" H 9800 9650 50  0000 C CNN
F 2 "Connectors_Sparkfun:1X08_NO_SILK" V 9900 10100 30  0000 C CNN
F 3 "" H 9800 10150 50  0001 C CNN
	1    9800 10150
	-1   0    0    1   
$EndComp
Text GLabel 10000 9850 2    60   BiDi ~ 0
GPIO5
Text GLabel 10000 9950 2    60   BiDi ~ 0
GPIO4
Text Notes 3200 7700 2    60   ~ 0
MQ212 MIRROR
Text Notes 9800 9450 2    60   ~ 0
GPIO
Text Notes 8100 9450 2    60   ~ 0
OLED 128x64
$Comp
L R_Small R29
U 1 1 5A46C361
P 14500 7100
F 0 "R29" H 14530 7120 50  0000 L CNN
F 1 "10K" H 14530 7060 50  0000 L CNN
F 2 "Resistors_SMD:R_0805" H 14500 7100 50  0001 C CNN
F 3 "" H 14500 7100 50  0001 C CNN
	1    14500 7100
	-1   0    0    1   
$EndComp
$Comp
L R_Small R30
U 1 1 5A46C471
P 14800 7500
F 0 "R30" H 14830 7520 50  0000 L CNN
F 1 "10K" H 14830 7460 50  0000 L CNN
F 2 "Resistors_SMD:R_0805" H 14800 7500 50  0001 C CNN
F 3 "" H 14800 7500 50  0001 C CNN
	1    14800 7500
	-1   0    0    1   
$EndComp
$Comp
L C_Small C31
U 1 1 5A46CDB4
P 14800 8000
F 0 "C31" H 14810 8070 50  0000 L CNN
F 1 "0.01µF" H 14810 7920 50  0000 L CNN
F 2 "" H 14800 8000 50  0001 C CNN
F 3 "" H 14800 8000 50  0001 C CNN
	1    14800 8000
	1    0    0    -1  
$EndComp
$Comp
L C_Small C30
U 1 1 5A46CEC1
P 14500 8000
F 0 "C30" H 14510 8070 50  0000 L CNN
F 1 "0.01µF" H 14510 7920 50  0000 L CNN
F 2 "" H 14500 8000 50  0001 C CNN
F 3 "" H 14500 8000 50  0001 C CNN
	1    14500 8000
	1    0    0    -1  
$EndComp
Text GLabel 11350 8050 0    60   Input ~ 0
HAPTIC
$Comp
L C_Small C24
U 1 1 5A4734F2
P 12350 7450
F 0 "C24" H 12360 7520 50  0000 L CNN
F 1 "0.1µF" H 12360 7370 50  0000 L CNN
F 2 "Capacitors_SMD:C_0603" H 12350 7450 50  0001 C CNN
F 3 "" H 12350 7450 50  0001 C CNN
	1    12350 7450
	1    0    0    -1  
$EndComp
$Comp
L PN2222A Q4
U 1 1 5A4737FE
P 11950 8050
F 0 "Q4" H 12150 8125 50  0000 L CNN
F 1 "MMBT3904" H 12150 8050 50  0000 L CNN
F 2 "TO_SOT_Packages_SMD:TSOT-23" H 12150 7975 30  0000 L CIN
F 3 "" H 11950 8050 50  0001 L CNN
	1    11950 8050
	1    0    0    -1  
$EndComp
Text GLabel 12550 7700 2    60   Output ~ 0
HAPTIC_DRV
Text Notes 12500 6800 2    60   ~ 0
VIBRATION MOTOR DRIVER
$Comp
L R_Small R14
U 1 1 5A45A46F
P 10850 2750
F 0 "R14" H 10880 2770 50  0000 L CNN
F 1 "10K" H 10880 2710 50  0000 L CNN
F 2 "Resistors_SMD:R_0805" H 10850 2750 50  0001 C CNN
F 3 "" H 10850 2750 50  0001 C CNN
	1    10850 2750
	-1   0    0    1   
$EndComp
$Comp
L R_Small R16
U 1 1 5A45A34A
P 11100 2750
F 0 "R16" H 11130 2770 50  0000 L CNN
F 1 "10K" H 11130 2710 50  0000 L CNN
F 2 "Resistors_SMD:R_0805" H 11100 2750 50  0001 C CNN
F 3 "" H 11100 2750 50  0001 C CNN
	1    11100 2750
	-1   0    0    1   
$EndComp
Text GLabel 11800 2050 2    60   UnSpc ~ 0
SCL0
Text GLabel 11800 2250 2    60   UnSpc ~ 0
SW1
Text GLabel 11800 2150 2    60   UnSpc ~ 0
SW0
$Comp
L Conn_01x10 J2
U 1 1 5A4834A2
P 2850 9750
F 0 "J2" H 2850 10250 50  0000 C CNN
F 1 "RCPT-MQ212-10" H 2850 9150 50  0000 C CNN
F 2 "air:MQ212_SMD_RCPT" V 2950 9700 30  0000 C CNN
F 3 "" H 2850 9750 50  0001 C CNN
	1    2850 9750
	-1   0    0    1   
$EndComp
Text GLabel 4250 9450 2    60   Output ~ 0
SW1
Text GLabel 4250 9550 2    60   Output ~ 0
SW0
Text GLabel 4250 9750 2    60   Input ~ 0
HAPTIC_DRV
Text GLabel 4250 9650 2    60   Input ~ 0
3V3_DRV
Text GLabel 4250 9850 2    60   Input ~ 0
NEODATA
Text GLabel 4250 9950 2    60   BiDi ~ 0
SDA0
Text GLabel 4250 10050 2    60   BiDi ~ 0
SCL0
Text GLabel 4250 9350 2    60   BiDi ~ 0
GPIO0
$Comp
L R_Small R3
U 1 1 5A485F74
P 3450 9850
F 0 "R3" H 3480 9870 50  0000 L CNN
F 1 "450" H 3480 9810 50  0000 L CNN
F 2 "Resistors_SMD:R_0805" H 3450 9850 50  0001 C CNN
F 3 "" H 3450 9850 50  0001 C CNN
	1    3450 9850
	0    1    1    0   
$EndComp
$Comp
L C_Small C13
U 1 1 5A486B5C
P 3650 10250
F 0 "C13" H 3660 10320 50  0000 L CNN
F 1 "0.1µF" H 3660 10170 50  0000 L CNN
F 2 "Capacitors_SMD:C_0603" H 3650 10250 50  0001 C CNN
F 3 "" H 3650 10250 50  0001 C CNN
	1    3650 10250
	1    0    0    -1  
$EndComp
Text GLabel 12550 7200 2    60   Output ~ 0
3V3_DRV
Text GLabel 5500 9750 0    60   Output ~ 0
HAPTIC_DRV
Text Notes 6700 9250 2    60   ~ 0
VIBRATION MOTOR DRIVER
Text GLabel 5500 9650 0    60   Output ~ 0
3V3_DRV
Text GLabel 6750 9750 2    60   Input ~ 0
HAPTIC
$Comp
L R_Small R4
U 1 1 5A489285
P 6600 10150
F 0 "R4" H 6630 10170 50  0000 L CNN
F 1 "10K" H 6630 10110 50  0000 L CNN
F 2 "Resistors_SMD:R_0805" H 6600 10150 50  0001 C CNN
F 3 "" H 6600 10150 50  0001 C CNN
	1    6600 10150
	-1   0    0    1   
$EndComp
$Comp
L PN2222A Q3
U 1 1 5A48994A
P 6300 10450
F 0 "Q3" H 6500 10525 50  0000 L CNN
F 1 "MMBT3904" H 6500 10450 50  0000 L CNN
F 2 "TO_SOT_Packages_SMD:TSOT-23" H 6500 10375 30  0000 L CIN
F 3 "" H 6300 10450 50  0001 L CNN
	1    6300 10450
	-1   0    0    -1  
$EndComp
$Comp
L D_Schottky D2
U 1 1 5A489C6F
P 6200 9900
F 0 "D2" H 6200 10000 50  0000 C CNN
F 1 "MBR120" H 6200 9800 50  0000 C CNN
F 2 "Diodes_SMD:SOD-123" H 6200 9900 50  0001 C CNN
F 3 "" H 6200 9900 50  0001 C CNN
	1    6200 9900
	0    1    1    0   
$EndComp
$Comp
L C_Small C15
U 1 1 5A489D92
P 5800 9900
F 0 "C15" H 5810 9970 50  0000 L CNN
F 1 "0.1µF" H 5810 9820 50  0000 L CNN
F 2 "Capacitors_SMD:C_0603" H 5800 9900 50  0001 C CNN
F 3 "" H 5800 9900 50  0001 C CNN
	1    5800 9900
	1    0    0    -1  
$EndComp
$Comp
L CP1_Small C14
U 1 1 5A48C21B
P 3900 10250
F 0 "C14" H 3910 10320 50  0000 L CNN
F 1 "1000µF" H 3910 10170 50  0000 L CNN
F 2 "Capacitors_SMD:CP_Elec_8x10.5" H 3900 10250 30  0001 C CNN
F 3 "" H 3900 10250 50  0001 C CNN
	1    3900 10250
	1    0    0    -1  
$EndComp
Text GLabel 4250 8050 2    60   BiDi ~ 0
GPIO0
Text GLabel 4250 8350 2    60   Input ~ 0
3V3_DRV
$Comp
L Conn_01x08 J4
U 1 1 5A49006F
P 8800 10150
F 0 "J4" H 8800 10550 50  0000 C CNN
F 1 "Conn_01x08" H 8800 9650 50  0000 C CNN
F 2 "" H 8800 10150 50  0001 C CNN
F 3 "" H 8800 10150 50  0001 C CNN
	1    8800 10150
	-1   0    0    1   
$EndComp
Text GLabel 9000 10450 2    60   Input ~ 0
SPI_CS
Text GLabel 9000 10350 2    60   Input ~ 0
SPI_RST
Text GLabel 9000 10250 2    60   Input ~ 0
SPI_DC
Text GLabel 9000 10150 2    60   Input ~ 0
SPI_SCLK
Text GLabel 9000 10050 2    60   Input ~ 0
SPI_MOSI
Text Notes 9150 9450 2    60   ~ 0
OLED 128x32
Text GLabel 2600 5600 2    60   Input ~ 0
SPI_MOSI
Text GLabel 2600 5500 2    60   Input ~ 0
SPI_SCLK
$Comp
L R_Small R2
U 1 1 5A496632
P 1800 5700
F 0 "R2" H 1830 5720 50  0000 L CNN
F 1 "390K" H 1830 5660 50  0000 L CNN
F 2 "" H 1800 5700 50  0001 C CNN
F 3 "" H 1800 5700 50  0001 C CNN
	1    1800 5700
	0    -1   -1   0   
$EndComp
Text GLabel 2600 5400 2    60   Input ~ 0
SPI_DC
Text GLabel 2600 5300 2    60   Input ~ 0
SPI_RST
Text GLabel 2600 5200 2    60   Input ~ 0
SPI_CS
$Comp
L C_Small C4
U 1 1 5A49847E
P 2000 5800
F 0 "C4" H 2010 5870 50  0000 L CNN
F 1 "2.2µF" H 2010 5720 50  0000 L CNN
F 2 "Capacitors_SMD:C_0805" H 2000 5800 50  0001 C CNN
F 3 "" H 2000 5800 50  0001 C CNN
	1    2000 5800
	0    -1   -1   0   
$EndComp
$Comp
L C_Small C9
U 1 1 5A498879
P 2200 5900
F 0 "C9" H 2210 5970 50  0000 L CNN
F 1 "2.2µF" H 2210 5820 50  0000 L CNN
F 2 "Capacitors_SMD:C_0805" H 2200 5900 50  0001 C CNN
F 3 "" H 2200 5900 50  0001 C CNN
	1    2200 5900
	0    -1   -1   0   
$EndComp
$Comp
L C_Small C3
U 1 1 5A4A4A10
P 2000 4900
F 0 "C3" H 2010 4970 50  0000 L CNN
F 1 "1µF" H 2010 4820 50  0000 L CNN
F 2 "Capacitors_SMD:C_0805" H 2000 4900 50  0001 C CNN
F 3 "" H 2000 4900 50  0001 C CNN
	1    2000 4900
	0    -1   -1   0   
$EndComp
$Comp
L C_Small C8
U 1 1 5A4A4B40
P 2200 5100
F 0 "C8" H 2210 5170 50  0000 L CNN
F 1 "1µF" H 2210 5020 50  0000 L CNN
F 2 "Capacitors_SMD:C_0805" H 2200 5100 50  0001 C CNN
F 3 "" H 2200 5100 50  0001 C CNN
	1    2200 5100
	0    -1   -1   0   
$EndComp
$Comp
L C_Small C2
U 1 1 5A4A56CC
P 2000 4500
F 0 "C2" H 2010 4570 50  0000 L CNN
F 1 "1µF" H 2010 4420 50  0000 L CNN
F 2 "Capacitors_SMD:C_0805" H 2000 4500 50  0001 C CNN
F 3 "" H 2000 4500 50  0001 C CNN
	1    2000 4500
	0    -1   -1   0   
$EndComp
$Comp
L C_Small C7
U 1 1 5A4A5800
P 2200 4700
F 0 "C7" H 2210 4770 50  0000 L CNN
F 1 "1µF" H 2210 4620 50  0000 L CNN
F 2 "Capacitors_SMD:C_0805" H 2200 4700 50  0001 C CNN
F 3 "" H 2200 4700 50  0001 C CNN
	1    2200 4700
	0    -1   -1   0   
$EndComp
$Comp
L C_Small C10
U 1 1 5A4A8300
P 2300 3750
F 0 "C10" H 2310 3820 50  0000 L CNN
F 1 "2.2µF" H 2310 3670 50  0000 L CNN
F 2 "Capacitors_SMD:C_0805" H 2300 3750 50  0001 C CNN
F 3 "" H 2300 3750 50  0001 C CNN
	1    2300 3750
	0    -1   -1   0   
$EndComp
$Comp
L C_Small C6
U 1 1 5A4A8508
P 2050 3650
F 0 "C6" H 2060 3720 50  0000 L CNN
F 1 "2.2µF" H 2060 3570 50  0000 L CNN
F 2 "Capacitors_SMD:C_0805" H 2050 3650 50  0001 C CNN
F 3 "" H 2050 3650 50  0001 C CNN
	1    2050 3650
	0    -1   -1   0   
$EndComp
$Comp
L R_Small R1
U 1 1 5A4A91EF
P 1800 3550
F 0 "R1" H 1830 3570 50  0000 L CNN
F 1 "390K" H 1830 3510 50  0000 L CNN
F 2 "Resistors_SMD:R_0805" H 1800 3550 50  0001 C CNN
F 3 "" H 1800 3550 50  0001 C CNN
	1    1800 3550
	0    -1   -1   0   
$EndComp
Text GLabel 1800 2850 2    60   Input ~ 0
SPI_MOSI
Text GLabel 1800 2750 2    60   Input ~ 0
SPI_SCLK
Text GLabel 1800 2250 2    60   Input ~ 0
SPI_CS
Text GLabel 1800 2350 2    60   Input ~ 0
SPI_RST
Text GLabel 1800 2450 2    60   Input ~ 0
SPI_DC
$Comp
L C_Small C12
U 1 1 5A4AA6D3
P 2400 1850
F 0 "C12" H 2410 1920 50  0000 L CNN
F 1 "1µF" H 2410 1770 50  0000 L CNN
F 2 "Capacitors_SMD:C_0805" H 2400 1850 50  0001 C CNN
F 3 "" H 2400 1850 50  0001 C CNN
	1    2400 1850
	0    -1   -1   0   
$EndComp
$Comp
L C_Small C11
U 1 1 5A4AA812
P 2400 1550
F 0 "C11" H 2410 1620 50  0000 L CNN
F 1 "1µF" H 2410 1470 50  0000 L CNN
F 2 "Capacitors_SMD:C_0805" H 2400 1550 50  0001 C CNN
F 3 "" H 2400 1550 50  0001 C CNN
	1    2400 1550
	0    -1   -1   0   
$EndComp
$Comp
L C_Small C1
U 1 1 5A4AB06E
P 1900 1150
F 0 "C1" H 1910 1220 50  0000 L CNN
F 1 "1µF" H 1910 1070 50  0000 L CNN
F 2 "Capacitors_SMD:C_0805" H 1900 1150 50  0001 C CNN
F 3 "" H 1900 1150 50  0001 C CNN
	1    1900 1150
	0    -1   -1   0   
$EndComp
$Comp
L C_Small C5
U 1 1 5A4AB1B0
P 2050 1350
F 0 "C5" H 2060 1420 50  0000 L CNN
F 1 "1µF" H 2060 1270 50  0000 L CNN
F 2 "Capacitors_SMD:C_0805" H 2050 1350 50  0001 C CNN
F 3 "" H 2050 1350 50  0001 C CNN
	1    2050 1350
	0    -1   -1   0   
$EndComp
$Comp
L UG-2832HSWEG01 U1
U 1 1 5A4B2334
P 1500 2550
F 0 "U1" H 1225 4225 60  0000 C CNN
F 1 "UG-2832HSWEG01" H 1200 950 60  0000 C CNN
F 2 "air:UG-2864HSWEG01" V 850 2550 30  0000 C CNN
F 3 "" H 1500 4150 60  0001 C CNN
	1    1500 2550
	1    0    0    -1  
$EndComp
$Comp
L UG-2832HSWEG04 U3
U 1 1 5A4B3A31
P 1500 5900
F 0 "U3" H 1225 7500 60  0000 C CNN
F 1 "UG-2832HSWEG04" H 1200 5700 60  0000 C CNN
F 2 "air:UG-2832HSWEG04" V 850 6625 30  0000 C CNN
F 3 "" H 1500 7500 60  0001 C CNN
	1    1500 5900
	1    0    0    -1  
$EndComp
$Comp
L ESP8266-12E U5
U 1 1 5A42F77D
P 8700 2050
F 0 "U5" H 8700 2650 50  0000 C CNN
F 1 "ESP8266-12E" H 8700 2550 50  0000 C CNN
F 2 "ESP8266:ESP-12E_SMD" H 8700 2425 30  0000 C CNN
F 3 "" H 8700 2050 50  0001 C CNN
	1    8700 2050
	1    0    0    -1  
$EndComp
$Comp
L R_Small R6
U 1 1 5A436286
P 7700 8100
F 0 "R6" H 7730 8120 50  0000 L CNN
F 1 "10K" H 7730 8060 50  0000 L CNN
F 2 "Resistors_SMD:R_0805" H 7700 8100 50  0001 C CNN
F 3 "" H 7700 8100 50  0001 C CNN
	1    7700 8100
	0    -1   -1   0   
$EndComp
$Comp
L R_Small R5
U 1 1 5A436777
P 7700 7700
F 0 "R5" H 7730 7720 50  0000 L CNN
F 1 "10K" H 7730 7660 50  0000 L CNN
F 2 "Resistors_SMD:R_0805" H 7700 7700 50  0001 C CNN
F 3 "" H 7700 7700 50  0001 C CNN
	1    7700 7700
	0    -1   -1   0   
$EndComp
$Comp
L R_Small R7
U 1 1 5A4368B1
P 8100 7700
F 0 "R7" H 8130 7720 50  0000 L CNN
F 1 "10K" H 8130 7660 50  0000 L CNN
F 2 "Resistors_SMD:R_0805" H 8100 7700 50  0001 C CNN
F 3 "" H 8100 7700 50  0001 C CNN
	1    8100 7700
	0    -1   -1   0   
$EndComp
$Comp
L R_Small R8
U 1 1 5A4369F0
P 8100 8100
F 0 "R8" H 8130 8120 50  0000 L CNN
F 1 "10K" H 8130 8060 50  0000 L CNN
F 2 "Resistors_SMD:R_0805" H 8100 8100 50  0001 C CNN
F 3 "" H 8100 8100 50  0001 C CNN
	1    8100 8100
	0    -1   -1   0   
$EndComp
$Comp
L R_Small R10
U 1 1 5A437136
P 9700 8100
F 0 "R10" H 9730 8120 50  0000 L CNN
F 1 "220" H 9730 8060 50  0000 L CNN
F 2 "Resistors_SMD:R_0805" H 9700 8100 50  0001 C CNN
F 3 "" H 9700 8100 50  0001 C CNN
	1    9700 8100
	0    -1   -1   0   
$EndComp
$Comp
L R_Small R11
U 1 1 5A437C5D
P 9900 8000
F 0 "R11" H 9930 8020 50  0000 L CNN
F 1 "220" H 9930 7960 50  0000 L CNN
F 2 "Resistors_SMD:R_0805" H 9900 8000 50  0001 C CNN
F 3 "" H 9900 8000 50  0001 C CNN
	1    9900 8000
	0    -1   -1   0   
$EndComp
$Comp
L R_Small R12
U 1 1 5A437D9C
P 10100 7900
F 0 "R12" H 10130 7920 50  0000 L CNN
F 1 "220" H 10130 7860 50  0000 L CNN
F 2 "Resistors_SMD:R_0805" H 10100 7900 50  0001 C CNN
F 3 "" H 10100 7900 50  0001 C CNN
	1    10100 7900
	0    -1   -1   0   
$EndComp
$Comp
L C_Small C17
U 1 1 5A438393
P 7500 8300
F 0 "C17" H 7510 8370 50  0000 L CNN
F 1 "0.01µF" H 7510 8220 50  0000 L CNN
F 2 "Capacitors_SMD:C_0603" H 7500 8300 50  0001 C CNN
F 3 "" H 7500 8300 50  0001 C CNN
	1    7500 8300
	1    0    0    -1  
$EndComp
$Comp
L C_Small C16
U 1 1 5A438822
P 7250 8300
F 0 "C16" H 7260 8370 50  0000 L CNN
F 1 "0.01µF" H 7260 8220 50  0000 L CNN
F 2 "Capacitors_SMD:C_0603" H 7250 8300 50  0001 C CNN
F 3 "" H 7250 8300 50  0001 C CNN
	1    7250 8300
	-1   0    0    -1  
$EndComp
$Comp
L GNDD #PWR01
U 1 1 5A438F81
P 7500 8450
F 0 "#PWR01" H 7500 8200 50  0001 C CNN
F 1 "GNDD" H 7500 8325 50  0000 C CNN
F 2 "" H 7500 8450 50  0001 C CNN
F 3 "" H 7500 8450 50  0001 C CNN
	1    7500 8450
	1    0    0    -1  
$EndComp
$Comp
L GNDD #PWR02
U 1 1 5A43932C
P 8300 8450
F 0 "#PWR02" H 8300 8200 50  0001 C CNN
F 1 "GNDD" H 8300 8325 50  0000 C CNN
F 2 "" H 8300 8450 50  0001 C CNN
F 3 "" H 8300 8450 50  0001 C CNN
	1    8300 8450
	1    0    0    -1  
$EndComp
$Comp
L GNDD #PWR03
U 1 1 5A43978F
P 12050 8350
F 0 "#PWR03" H 12050 8100 50  0001 C CNN
F 1 "GNDD" H 12050 8225 50  0000 C CNN
F 2 "" H 12050 8350 50  0001 C CNN
F 3 "" H 12050 8350 50  0001 C CNN
	1    12050 8350
	1    0    0    -1  
$EndComp
$Comp
L +3V3 #PWR04
U 1 1 5A4398CB
P 7900 7500
F 0 "#PWR04" H 7900 7350 50  0001 C CNN
F 1 "+3V3" H 7900 7640 50  0000 C CNN
F 2 "" H 7900 7500 50  0001 C CNN
F 3 "" H 7900 7500 50  0001 C CNN
	1    7900 7500
	1    0    0    -1  
$EndComp
$Comp
L GNDD #PWR05
U 1 1 5A439A0C
P 7250 8450
F 0 "#PWR05" H 7250 8200 50  0001 C CNN
F 1 "GNDD" H 7250 8325 50  0000 C CNN
F 2 "" H 7250 8450 50  0001 C CNN
F 3 "" H 7250 8450 50  0001 C CNN
	1    7250 8450
	1    0    0    -1  
$EndComp
$Comp
L +3V3 #PWR06
U 1 1 5A43BE66
P 9650 7500
F 0 "#PWR06" H 9650 7350 50  0001 C CNN
F 1 "+3V3" H 9650 7640 50  0000 C CNN
F 2 "" H 9650 7500 50  0001 C CNN
F 3 "" H 9650 7500 50  0001 C CNN
	1    9650 7500
	1    0    0    -1  
$EndComp
$Comp
L +3V3 #PWR07
U 1 1 5A43C70D
P 12050 7100
F 0 "#PWR07" H 12050 6950 50  0001 C CNN
F 1 "+3V3" H 12050 7240 50  0000 C CNN
F 2 "" H 12050 7100 50  0001 C CNN
F 3 "" H 12050 7100 50  0001 C CNN
	1    12050 7100
	1    0    0    -1  
$EndComp
$Comp
L +3V3 #PWR08
U 1 1 5A43E6D5
P 6200 9500
F 0 "#PWR08" H 6200 9350 50  0001 C CNN
F 1 "+3V3" H 6200 9640 50  0000 C CNN
F 2 "" H 6200 9500 50  0001 C CNN
F 3 "" H 6200 9500 50  0001 C CNN
	1    6200 9500
	1    0    0    -1  
$EndComp
$Comp
L GNDD #PWR09
U 1 1 5A43EE0B
P 6200 10750
F 0 "#PWR09" H 6200 10500 50  0001 C CNN
F 1 "GNDD" H 6200 10625 50  0000 C CNN
F 2 "" H 6200 10750 50  0001 C CNN
F 3 "" H 6200 10750 50  0001 C CNN
	1    6200 10750
	1    0    0    -1  
$EndComp
$Comp
L D_Schottky D3
U 1 1 5A440315
P 12050 7450
F 0 "D3" H 12050 7550 50  0000 C CNN
F 1 "MBR120" H 12050 7350 50  0000 C CNN
F 2 "Diodes_SMD:SOD-123" H 12050 7450 50  0001 C CNN
F 3 "" H 12050 7450 50  0001 C CNN
	1    12050 7450
	0    1    1    0   
$EndComp
$Comp
L R_Small R19
U 1 1 5A44074B
P 11550 8050
F 0 "R19" H 11580 8070 50  0000 L CNN
F 1 "10K" H 11580 8010 50  0000 L CNN
F 2 "Resistors_SMD:R_0805" H 11550 8050 50  0001 C CNN
F 3 "" H 11550 8050 50  0001 C CNN
	1    11550 8050
	0    -1   -1   0   
$EndComp
$Comp
L ENCODER_SW_RGB S1
U 1 1 5A442891
P 8950 7900
F 0 "S1" H 8950 8425 45  0000 C CNN
F 1 "ENCODER_SW_RGB" H 8950 8350 45  0000 C CNN
F 2 "air:BOURNS_PEL12T" H 8950 7550 30  0000 C CNN
F 3 "" H 8925 8350 50  0001 C CNN
	1    8950 7900
	1    0    0    -1  
$EndComp
$Comp
L +3V3 #PWR010
U 1 1 5A446286
P 14500 6800
F 0 "#PWR010" H 14500 6650 50  0001 C CNN
F 1 "+3V3" H 14500 6940 50  0000 C CNN
F 2 "" H 14500 6800 50  0001 C CNN
F 3 "" H 14500 6800 50  0001 C CNN
	1    14500 6800
	1    0    0    -1  
$EndComp
$Comp
L GNDD #PWR011
U 1 1 5A447FA1
P 2600 4100
F 0 "#PWR011" H 2600 3850 50  0001 C CNN
F 1 "GNDD" H 2600 3975 50  0000 C CNN
F 2 "" H 2600 4100 50  0001 C CNN
F 3 "" H 2600 4100 50  0001 C CNN
	1    2600 4100
	1    0    0    -1  
$EndComp
$Comp
L GNDD #PWR012
U 1 1 5A4482DF
P 11100 2950
F 0 "#PWR012" H 11100 2700 50  0001 C CNN
F 1 "GNDD" H 11100 2825 50  0000 C CNN
F 2 "" H 11100 2950 50  0001 C CNN
F 3 "" H 11100 2950 50  0001 C CNN
	1    11100 2950
	1    0    0    -1  
$EndComp
$Comp
L GNDD #PWR013
U 1 1 5A4488E7
P 10850 2950
F 0 "#PWR013" H 10850 2700 50  0001 C CNN
F 1 "GNDD" H 10850 2825 50  0000 C CNN
F 2 "" H 10850 2950 50  0001 C CNN
F 3 "" H 10850 2950 50  0001 C CNN
	1    10850 2950
	1    0    0    -1  
$EndComp
$Comp
L GNDD #PWR014
U 1 1 5A448AED
P 11650 2950
F 0 "#PWR014" H 11650 2700 50  0001 C CNN
F 1 "GNDD" H 11650 2825 50  0000 C CNN
F 2 "" H 11650 2950 50  0001 C CNN
F 3 "" H 11650 2950 50  0001 C CNN
	1    11650 2950
	1    0    0    -1  
$EndComp
$Comp
L GNDD #PWR015
U 1 1 5A448C27
P 11350 2950
F 0 "#PWR015" H 11350 2700 50  0001 C CNN
F 1 "GNDD" H 11350 2825 50  0000 C CNN
F 2 "" H 11350 2950 50  0001 C CNN
F 3 "" H 11350 2950 50  0001 C CNN
	1    11350 2950
	1    0    0    -1  
$EndComp
$Comp
L +3V3 #PWR016
U 1 1 5A448D61
P 10950 1200
F 0 "#PWR016" H 10950 1050 50  0001 C CNN
F 1 "+3V3" H 10950 1340 50  0000 C CNN
F 2 "" H 10950 1200 50  0001 C CNN
F 3 "" H 10950 1200 50  0001 C CNN
	1    10950 1200
	1    0    0    -1  
$EndComp
$Comp
L GNDD #PWR017
U 1 1 5A4498FB
P 10600 2950
F 0 "#PWR017" H 10600 2700 50  0001 C CNN
F 1 "GNDD" H 10600 2825 50  0000 C CNN
F 2 "" H 10600 2950 50  0001 C CNN
F 3 "" H 10600 2950 50  0001 C CNN
	1    10600 2950
	1    0    0    -1  
$EndComp
$Comp
L GNDD #PWR018
U 1 1 5A44A365
P 9450 2950
F 0 "#PWR018" H 9450 2700 50  0001 C CNN
F 1 "GNDD" H 9450 2825 50  0000 C CNN
F 2 "" H 9450 2950 50  0001 C CNN
F 3 "" H 9450 2950 50  0001 C CNN
	1    9450 2950
	1    0    0    -1  
$EndComp
$Comp
L GNDD #PWR019
U 1 1 5A44A8AC
P 7800 2950
F 0 "#PWR019" H 7800 2700 50  0001 C CNN
F 1 "GNDD" H 7800 2825 50  0000 C CNN
F 2 "" H 7800 2950 50  0001 C CNN
F 3 "" H 7800 2950 50  0001 C CNN
	1    7800 2950
	1    0    0    -1  
$EndComp
$Comp
L GNDD #PWR020
U 1 1 5A44A9E6
P 7550 2950
F 0 "#PWR020" H 7550 2700 50  0001 C CNN
F 1 "GNDD" H 7550 2825 50  0000 C CNN
F 2 "" H 7550 2950 50  0001 C CNN
F 3 "" H 7550 2950 50  0001 C CNN
	1    7550 2950
	1    0    0    -1  
$EndComp
$Comp
L +3V3 #PWR021
U 1 1 5A44B58F
P 7550 1650
F 0 "#PWR021" H 7550 1500 50  0001 C CNN
F 1 "+3V3" H 7550 1790 50  0000 C CNN
F 2 "" H 7550 1650 50  0001 C CNN
F 3 "" H 7550 1650 50  0001 C CNN
	1    7550 1650
	1    0    0    -1  
$EndComp
$Comp
L GNDD #PWR022
U 1 1 5A44DAFB
P 12750 3100
F 0 "#PWR022" H 12750 2850 50  0001 C CNN
F 1 "GNDD" H 12750 2975 50  0000 C CNN
F 2 "" H 12750 3100 50  0001 C CNN
F 3 "" H 12750 3100 50  0001 C CNN
	1    12750 3100
	1    0    0    -1  
$EndComp
$Comp
L GNDD #PWR023
U 1 1 5A44E034
P 14850 2550
F 0 "#PWR023" H 14850 2300 50  0001 C CNN
F 1 "GNDD" H 14850 2425 50  0000 C CNN
F 2 "" H 14850 2550 50  0001 C CNN
F 3 "" H 14850 2550 50  0001 C CNN
	1    14850 2550
	1    0    0    -1  
$EndComp
$Comp
L GNDD #PWR024
U 1 1 5A44E16E
P 15000 2550
F 0 "#PWR024" H 15000 2300 50  0001 C CNN
F 1 "GNDD" H 15000 2425 50  0000 C CNN
F 2 "" H 15000 2550 50  0001 C CNN
F 3 "" H 15000 2550 50  0001 C CNN
	1    15000 2550
	1    0    0    -1  
$EndComp
$Comp
L GNDD #PWR025
U 1 1 5A44FF59
P 13100 1600
F 0 "#PWR025" H 13100 1350 50  0001 C CNN
F 1 "GNDD" H 13100 1475 50  0000 C CNN
F 2 "" H 13100 1600 50  0001 C CNN
F 3 "" H 13100 1600 50  0001 C CNN
	1    13100 1600
	1    0    0    -1  
$EndComp
$Comp
L D_Schottky D4
U 1 1 5A452DAA
P 12800 3900
F 0 "D4" H 12800 4000 50  0000 C CNN
F 1 "MBR120" H 12800 3800 50  0000 C CNN
F 2 "Diodes_SMD:SOD-123" H 12800 3900 50  0001 C CNN
F 3 "" H 12800 3900 50  0001 C CNN
	1    12800 3900
	-1   0    0    1   
$EndComp
$Comp
L R_Small R24
U 1 1 5A45358F
P 13550 4100
F 0 "R24" H 13580 4120 50  0000 L CNN
F 1 "10K" H 13580 4060 50  0000 L CNN
F 2 "Resistors_SMD:R_0805" H 13550 4100 50  0001 C CNN
F 3 "" H 13550 4100 50  0001 C CNN
	1    13550 4100
	0    1    1    0   
$EndComp
$Comp
L +3V3 #PWR026
U 1 1 5A4544F3
P 15100 3800
F 0 "#PWR026" H 15100 3650 50  0001 C CNN
F 1 "+3V3" H 15100 3940 50  0000 C CNN
F 2 "" H 15100 3800 50  0001 C CNN
F 3 "" H 15100 3800 50  0001 C CNN
	1    15100 3800
	1    0    0    -1  
$EndComp
$Comp
L GNDD #PWR027
U 1 1 5A454BE2
P 14900 4500
F 0 "#PWR027" H 14900 4250 50  0001 C CNN
F 1 "GNDD" H 14900 4375 50  0000 C CNN
F 2 "" H 14900 4500 50  0001 C CNN
F 3 "" H 14900 4500 50  0001 C CNN
	1    14900 4500
	1    0    0    -1  
$EndComp
$Comp
L GNDD #PWR028
U 1 1 5A454F1F
P 14650 4500
F 0 "#PWR028" H 14650 4250 50  0001 C CNN
F 1 "GNDD" H 14650 4375 50  0000 C CNN
F 2 "" H 14650 4500 50  0001 C CNN
F 3 "" H 14650 4500 50  0001 C CNN
	1    14650 4500
	1    0    0    -1  
$EndComp
$Comp
L GNDD #PWR029
U 1 1 5A455059
P 13650 4500
F 0 "#PWR029" H 13650 4250 50  0001 C CNN
F 1 "GNDD" H 13650 4375 50  0000 C CNN
F 2 "" H 13650 4500 50  0001 C CNN
F 3 "" H 13650 4500 50  0001 C CNN
	1    13650 4500
	1    0    0    -1  
$EndComp
$Comp
L GNDD #PWR030
U 1 1 5A455193
P 13000 4500
F 0 "#PWR030" H 13000 4250 50  0001 C CNN
F 1 "GNDD" H 13000 4375 50  0000 C CNN
F 2 "" H 13000 4500 50  0001 C CNN
F 3 "" H 13000 4500 50  0001 C CNN
	1    13000 4500
	1    0    0    -1  
$EndComp
$Comp
L D_Schottky D5
U 1 1 5A45579F
P 13400 5350
F 0 "D5" H 13400 5450 50  0000 C CNN
F 1 "MBR120" H 13400 5250 50  0000 C CNN
F 2 "Diodes_SMD:SOD-123" H 13400 5350 50  0001 C CNN
F 3 "" H 13400 5350 50  0001 C CNN
	1    13400 5350
	-1   0    0    1   
$EndComp
$Comp
L C_Small C21
U 1 1 5A45813D
P 11300 5200
F 0 "C21" H 11310 5270 50  0000 L CNN
F 1 "0.1µF" H 11310 5120 50  0000 L CNN
F 2 "Capacitors_SMD:C_0603" H 11300 5200 50  0001 C CNN
F 3 "" H 11300 5200 50  0001 C CNN
	1    11300 5200
	1    0    0    -1  
$EndComp
$Comp
L C_Small C20
U 1 1 5A458498
P 10950 5200
F 0 "C20" H 10960 5270 50  0000 L CNN
F 1 "0.1µF" H 10960 5120 50  0000 L CNN
F 2 "Capacitors_SMD:C_0603" H 10950 5200 50  0001 C CNN
F 3 "" H 10950 5200 50  0001 C CNN
	1    10950 5200
	1    0    0    -1  
$EndComp
$Comp
L GNDD #PWR031
U 1 1 5A458A95
P 11300 5450
F 0 "#PWR031" H 11300 5200 50  0001 C CNN
F 1 "GNDD" H 11300 5325 50  0000 C CNN
F 2 "" H 11300 5450 50  0001 C CNN
F 3 "" H 11300 5450 50  0001 C CNN
	1    11300 5450
	1    0    0    -1  
$EndComp
$Comp
L GNDD #PWR032
U 1 1 5A458BCF
P 10950 5450
F 0 "#PWR032" H 10950 5200 50  0001 C CNN
F 1 "GNDD" H 10950 5325 50  0000 C CNN
F 2 "" H 10950 5450 50  0001 C CNN
F 3 "" H 10950 5450 50  0001 C CNN
	1    10950 5450
	1    0    0    -1  
$EndComp
$Comp
L GNDD #PWR033
U 1 1 5A458EA8
P 10700 5450
F 0 "#PWR033" H 10700 5200 50  0001 C CNN
F 1 "GNDD" H 10700 5325 50  0000 C CNN
F 2 "" H 10700 5450 50  0001 C CNN
F 3 "" H 10700 5450 50  0001 C CNN
	1    10700 5450
	1    0    0    -1  
$EndComp
$Comp
L GNDD #PWR034
U 1 1 5A458FE2
P 9200 5450
F 0 "#PWR034" H 9200 5200 50  0001 C CNN
F 1 "GNDD" H 9200 5325 50  0000 C CNN
F 2 "" H 9200 5450 50  0001 C CNN
F 3 "" H 9200 5450 50  0001 C CNN
	1    9200 5450
	1    0    0    -1  
$EndComp
$Comp
L +3V3 #PWR035
U 1 1 5A459181
P 11500 3850
F 0 "#PWR035" H 11500 3700 50  0001 C CNN
F 1 "+3V3" H 11500 3990 50  0000 C CNN
F 2 "" H 11500 3850 50  0001 C CNN
F 3 "" H 11500 3850 50  0001 C CNN
	1    11500 3850
	1    0    0    -1  
$EndComp
$Comp
L R_Small R9
U 1 1 5A459575
P 9200 4150
F 0 "R9" H 9230 4170 50  0000 L CNN
F 1 "10K" H 9230 4110 50  0000 L CNN
F 2 "Resistors_SMD:R_0805" H 9200 4150 50  0001 C CNN
F 3 "" H 9200 4150 50  0001 C CNN
	1    9200 4150
	-1   0    0    1   
$EndComp
$Comp
L R_Small R13
U 1 1 5A459A4D
P 10700 5200
F 0 "R13" H 10730 5220 50  0000 L CNN
F 1 "10K" H 10730 5160 50  0000 L CNN
F 2 "Resistors_SMD:R_0805" H 10700 5200 50  0001 C CNN
F 3 "" H 10700 5200 50  0001 C CNN
	1    10700 5200
	-1   0    0    1   
$EndComp
$Comp
L GNDA #PWR036
U 1 1 5A45C8BE
P 13950 9700
F 0 "#PWR036" H 13950 9450 50  0001 C CNN
F 1 "GNDA" H 13950 9550 50  0000 C CNN
F 2 "" H 13950 9700 50  0001 C CNN
F 3 "" H 13950 9700 50  0001 C CNN
	1    13950 9700
	1    0    0    -1  
$EndComp
$Comp
L GNDD #PWR037
U 1 1 5A460F1E
P 3900 10500
F 0 "#PWR037" H 3900 10250 50  0001 C CNN
F 1 "GNDD" H 3900 10375 50  0000 C CNN
F 2 "" H 3900 10500 50  0001 C CNN
F 3 "" H 3900 10500 50  0001 C CNN
	1    3900 10500
	1    0    0    -1  
$EndComp
$Comp
L GNDD #PWR038
U 1 1 5A4612C3
P 3650 10500
F 0 "#PWR038" H 3650 10250 50  0001 C CNN
F 1 "GNDD" H 3650 10375 50  0000 C CNN
F 2 "" H 3650 10500 50  0001 C CNN
F 3 "" H 3650 10500 50  0001 C CNN
	1    3650 10500
	1    0    0    -1  
$EndComp
$Comp
L GNDD #PWR039
U 1 1 5A4613FD
P 3150 10500
F 0 "#PWR039" H 3150 10250 50  0001 C CNN
F 1 "GNDD" H 3150 10375 50  0000 C CNN
F 2 "" H 3150 10500 50  0001 C CNN
F 3 "" H 3150 10500 50  0001 C CNN
	1    3150 10500
	1    0    0    -1  
$EndComp
$Comp
L +3V3 #PWR040
U 1 1 5A461537
P 4100 9150
F 0 "#PWR040" H 4100 9000 50  0001 C CNN
F 1 "+3V3" H 4100 9290 50  0000 C CNN
F 2 "" H 4100 9150 50  0001 C CNN
F 3 "" H 4100 9150 50  0001 C CNN
	1    4100 9150
	1    0    0    -1  
$EndComp
$Comp
L Conn_01x10 J1
U 1 1 5A461DD3
P 2850 8450
F 0 "J1" H 2850 8950 50  0000 C CNN
F 1 "Conn_01x10" H 2850 7850 50  0000 C CNN
F 2 "Connectors_Sparkfun:1X10_NO_SILK" V 2950 8400 30  0000 C CNN
F 3 "" H 2850 8450 50  0001 C CNN
	1    2850 8450
	-1   0    0    1   
$EndComp
$Comp
L +3V3 #PWR041
U 1 1 5A4657A5
P 6600 1500
F 0 "#PWR041" H 6600 1350 50  0001 C CNN
F 1 "+3V3" H 6600 1640 50  0000 C CNN
F 2 "" H 6600 1500 50  0001 C CNN
F 3 "" H 6600 1500 50  0001 C CNN
	1    6600 1500
	1    0    0    -1  
$EndComp
$Comp
L GNDD #PWR042
U 1 1 5A465C01
P 3450 1150
F 0 "#PWR042" H 3450 900 50  0001 C CNN
F 1 "GNDD" H 3450 1025 50  0000 C CNN
F 2 "" H 3450 1150 50  0001 C CNN
F 3 "" H 3450 1150 50  0001 C CNN
	1    3450 1150
	1    0    0    -1  
$EndComp
NoConn ~ 4150 2700
NoConn ~ 4150 2600
NoConn ~ 4150 2500
NoConn ~ 4150 2800
NoConn ~ 6150 1200
NoConn ~ 8450 3050
NoConn ~ 8550 3050
NoConn ~ 8650 3050
NoConn ~ 8750 3050
NoConn ~ 8850 3050
NoConn ~ 8950 3050
NoConn ~ 9300 2400
NoConn ~ 9300 2300
NoConn ~ 9300 2100
NoConn ~ 9300 2000
NoConn ~ 8100 2400
NoConn ~ 8100 2300
NoConn ~ 8100 2200
NoConn ~ 8100 2100
NoConn ~ 8100 1900
NoConn ~ 6150 1100
Text GLabel 6700 1700 2    60   UnSpc ~ 0
3V3
Text GLabel 3300 1000 0    60   UnSpc ~ 0
GND
$Comp
L +3V3 #PWR043
U 1 1 5A468B17
P 1750 4400
F 0 "#PWR043" H 1750 4250 50  0001 C CNN
F 1 "+3V3" H 1750 4540 50  0000 C CNN
F 2 "" H 1750 4400 50  0001 C CNN
F 3 "" H 1750 4400 50  0001 C CNN
	1    1750 4400
	1    0    0    -1  
$EndComp
$Comp
L +3V3 #PWR044
U 1 1 5A468C30
P 1700 950
F 0 "#PWR044" H 1700 800 50  0001 C CNN
F 1 "+3V3" H 1700 1090 50  0000 C CNN
F 2 "" H 1700 950 50  0001 C CNN
F 3 "" H 1700 950 50  0001 C CNN
	1    1700 950 
	1    0    0    -1  
$EndComp
NoConn ~ 1600 3450
NoConn ~ 1600 3350
NoConn ~ 1600 3250
NoConn ~ 1600 3150
NoConn ~ 1600 3050
NoConn ~ 1600 2950
NoConn ~ 1600 2650
NoConn ~ 1600 2550
NoConn ~ 10550 4450
$Comp
L GNDA #PWR045
U 1 1 5A46C62D
P 7000 1800
F 0 "#PWR045" H 7000 1550 50  0001 C CNN
F 1 "GNDA" H 7000 1650 50  0000 C CNN
F 2 "" H 7000 1800 50  0001 C CNN
F 3 "" H 7000 1800 50  0001 C CNN
	1    7000 1800
	1    0    0    -1  
$EndComp
NoConn ~ 10550 4750
NoConn ~ 10550 4350
NoConn ~ 10550 4850
NoConn ~ 9000 9950
NoConn ~ 9350 4650
NoConn ~ 6150 3400
$Comp
L R_Small R27
U 1 1 5A437591
P 13300 12300
F 0 "R27" H 13330 12320 50  0000 L CNN
F 1 "10K" H 13330 12260 50  0000 L CNN
F 2 "Resistors_SMD:R_0805" H 13300 12300 50  0001 C CNN
F 3 "" H 13300 12300 50  0001 C CNN
	1    13300 12300
	-1   0    0    1   
$EndComp
$Comp
L +3V3 #PWR046
U 1 1 5A437A3C
P 13300 12100
F 0 "#PWR046" H 13300 11950 50  0001 C CNN
F 1 "+3V3" H 13300 12240 50  0000 C CNN
F 2 "" H 13300 12100 50  0001 C CNN
F 3 "" H 13300 12100 50  0001 C CNN
	1    13300 12100
	1    0    0    -1  
$EndComp
$Comp
L R_Small R25
U 1 1 5A438002
P 12150 11850
F 0 "R25" H 12180 11870 50  0000 L CNN
F 1 "12K" H 12180 11810 50  0000 L CNN
F 2 "Resistors_SMD:R_0805" H 12150 11850 50  0001 C CNN
F 3 "" H 12150 11850 50  0001 C CNN
	1    12150 11850
	0    -1   -1   0   
$EndComp
$Comp
L R_Small R26
U 1 1 5A43852E
P 12150 12450
F 0 "R26" H 12180 12470 50  0000 L CNN
F 1 "12K" H 12180 12410 50  0000 L CNN
F 2 "Resistors_SMD:R_0805" H 12150 12450 50  0001 C CNN
F 3 "" H 12150 12450 50  0001 C CNN
	1    12150 12450
	0    -1   -1   0   
$EndComp
$Comp
L GNDD #PWR047
U 1 1 5A43A99F
P 2450 6050
F 0 "#PWR047" H 2450 5800 50  0001 C CNN
F 1 "GNDD" H 2450 5925 50  0000 C CNN
F 2 "" H 2450 6050 50  0001 C CNN
F 3 "" H 2450 6050 50  0001 C CNN
	1    2450 6050
	1    0    0    -1  
$EndComp
Text Notes 9350 7050 2    60   ~ 0
ENCODER FILTER
Text Notes 14200 6750 2    60   ~ 0
MINI BUTTONS
Text Notes 14200 8600 2    60   ~ 0
PHONE JACK
Text Notes 10050 3700 2    60   ~ 0
ONBOARD IMU
Text Notes 1800 700  2    60   ~ 0
OLED DISPLAY
$Comp
L C_Small C27
U 1 1 5A43E325
P 14750 9500
F 0 "C27" H 14760 9570 50  0000 L CNN
F 1 "0.1µF" H 14760 9420 50  0000 L CNN
F 2 "" H 14750 9500 50  0001 C CNN
F 3 "" H 14750 9500 50  0001 C CNN
	1    14750 9500
	1    0    0    -1  
$EndComp
$Comp
L R_Small R31
U 1 1 5A43E7E9
P 14550 9000
F 0 "R31" H 14580 9020 50  0000 L CNN
F 1 "67" H 14580 8960 50  0000 L CNN
F 2 "Resistors_SMD:R_0805" H 14550 9000 50  0001 C CNN
F 3 "" H 14550 9000 50  0001 C CNN
	1    14550 9000
	0    -1   -1   0   
$EndComp
$Comp
L GNDA #PWR048
U 1 1 5A43EAEB
P 14750 9700
F 0 "#PWR048" H 14750 9450 50  0001 C CNN
F 1 "GNDA" H 14750 9550 50  0001 C CNN
F 2 "" H 14750 9700 50  0001 C CNN
F 3 "" H 14750 9700 50  0001 C CNN
	1    14750 9700
	1    0    0    -1  
$EndComp
Text Notes 14400 8600 0    60   ~ 0
67Ω/0.1µF yields 22kHz Cutoff
$Comp
L GNDD #PWR049
U 1 1 5A445917
P 10100 10550
F 0 "#PWR049" H 10100 10300 50  0001 C CNN
F 1 "GNDD" H 10100 10425 50  0000 C CNN
F 2 "" H 10100 10550 50  0001 C CNN
F 3 "" H 10100 10550 50  0001 C CNN
	1    10100 10550
	1    0    0    -1  
$EndComp
$Comp
L +3V3 #PWR050
U 1 1 5A445C27
P 10100 9600
F 0 "#PWR050" H 10100 9450 50  0001 C CNN
F 1 "+3V3" H 10100 9740 50  0000 C CNN
F 2 "" H 10100 9600 50  0001 C CNN
F 3 "" H 10100 9600 50  0001 C CNN
	1    10100 9600
	1    0    0    -1  
$EndComp
Wire Wire Line
	11350 8050 11450 8050
Wire Wire Line
	9650 7600 9650 7500
Wire Wire Line
	7250 8400 7250 8450
Connection ~ 7250 7700
Wire Wire Line
	7250 8200 7250 7700
Wire Wire Line
	10000 7900 9550 7900
Wire Wire Line
	9550 8100 9600 8100
Connection ~ 2600 3850
Wire Wire Line
	2600 3850 1600 3850
Connection ~ 1700 1850
Connection ~ 1700 1550
Wire Wire Line
	1700 950  1700 1850
Wire Wire Line
	2250 1450 1600 1450
Wire Wire Line
	2250 1350 2250 1450
Wire Wire Line
	2150 1350 2250 1350
Wire Wire Line
	2250 1250 1600 1250
Wire Wire Line
	2250 1150 2250 1250
Wire Wire Line
	2000 1150 2250 1150
Wire Wire Line
	1800 1150 1600 1150
Wire Wire Line
	1600 1350 1950 1350
Connection ~ 2600 1550
Wire Wire Line
	2500 1550 2600 1550
Connection ~ 2600 1850
Wire Wire Line
	2600 1850 2500 1850
Wire Wire Line
	1600 1850 2300 1850
Wire Wire Line
	1600 1550 2300 1550
Wire Wire Line
	1800 2250 1600 2250
Wire Wire Line
	1600 2350 1800 2350
Wire Wire Line
	1800 2450 1600 2450
Wire Wire Line
	1800 2750 1600 2750
Wire Wire Line
	1800 2850 1600 2850
Connection ~ 2600 3550
Wire Wire Line
	2600 3550 1900 3550
Wire Wire Line
	1700 3550 1600 3550
Connection ~ 2600 3750
Wire Wire Line
	2600 3750 2400 3750
Connection ~ 2600 3650
Wire Wire Line
	2600 3650 2150 3650
Wire Wire Line
	1950 3650 1600 3650
Wire Wire Line
	1600 3750 2200 3750
Connection ~ 2600 1750
Wire Wire Line
	2600 1750 1600 1750
Connection ~ 2600 2050
Wire Wire Line
	2600 2050 1600 2050
Connection ~ 2600 2150
Wire Wire Line
	2600 2150 1600 2150
Connection ~ 2600 1950
Wire Wire Line
	2600 1950 1600 1950
Connection ~ 2600 3950
Wire Wire Line
	1600 1050 2600 1050
Wire Wire Line
	2600 1050 2600 4100
Wire Wire Line
	2600 3950 1600 3950
Wire Wire Line
	2100 4700 1600 4700
Wire Wire Line
	2350 4700 2300 4700
Wire Wire Line
	2350 4800 2350 4700
Wire Wire Line
	1600 4800 2350 4800
Wire Wire Line
	2350 4500 2100 4500
Wire Wire Line
	2350 4600 2350 4500
Wire Wire Line
	1600 4600 2350 4600
Wire Wire Line
	1600 4500 1900 4500
Connection ~ 2450 5100
Wire Wire Line
	2450 5100 2300 5100
Connection ~ 2450 5000
Wire Wire Line
	2100 4900 2450 4900
Connection ~ 1750 5100
Connection ~ 2450 5700
Connection ~ 2450 5800
Wire Wire Line
	2450 5800 2100 5800
Connection ~ 2450 5900
Wire Wire Line
	2450 5900 2300 5900
Wire Wire Line
	1600 5800 1900 5800
Wire Wire Line
	2100 5900 1600 5900
Wire Wire Line
	1700 5700 1600 5700
Wire Wire Line
	2450 5700 1900 5700
Wire Wire Line
	2450 4900 2450 6050
Wire Wire Line
	1600 5000 2450 5000
Wire Wire Line
	2600 5600 1600 5600
Wire Wire Line
	1600 5500 2600 5500
Wire Wire Line
	2600 5400 1600 5400
Wire Wire Line
	1600 5300 2600 5300
Wire Wire Line
	2600 5200 1600 5200
Connection ~ 1750 4900
Wire Wire Line
	1600 5100 2100 5100
Wire Wire Line
	1600 4900 1900 4900
Wire Wire Line
	1750 4400 1750 5100
Wire Wire Line
	3900 10500 3900 10350
Connection ~ 3900 9250
Wire Wire Line
	3900 9250 3900 10150
Wire Wire Line
	6200 10750 6200 10650
Connection ~ 5800 10150
Wire Wire Line
	5800 10000 5800 10150
Connection ~ 6200 10150
Wire Wire Line
	5600 9750 5500 9750
Wire Wire Line
	5600 10150 5600 9750
Wire Wire Line
	5600 10150 6200 10150
Wire Wire Line
	6200 10050 6200 10250
Connection ~ 6200 9650
Wire Wire Line
	6200 9500 6200 9750
Connection ~ 5800 9650
Wire Wire Line
	5800 9800 5800 9650
Wire Wire Line
	6600 10450 6600 10250
Wire Wire Line
	6500 10450 6600 10450
Wire Wire Line
	6600 9750 6750 9750
Wire Wire Line
	6600 10050 6600 9750
Connection ~ 12350 7200
Wire Wire Line
	3650 10500 3650 10350
Connection ~ 3650 9250
Wire Wire Line
	3650 9250 3650 10150
Wire Wire Line
	3550 9850 4250 9850
Wire Wire Line
	3050 9350 4250 9350
Wire Wire Line
	4250 9750 3050 9750
Wire Wire Line
	4250 9650 3050 9650
Wire Wire Line
	4250 9550 3050 9550
Wire Wire Line
	4250 9450 3050 9450
Wire Wire Line
	3050 9850 3350 9850
Wire Wire Line
	3050 10050 4250 10050
Wire Wire Line
	4250 9950 3050 9950
Wire Wire Line
	3050 9250 4100 9250
Wire Wire Line
	3150 8850 3150 10500
Wire Wire Line
	3050 10150 3150 10150
Wire Wire Line
	11100 2250 11800 2250
Wire Wire Line
	11100 2650 11100 2250
Wire Wire Line
	10850 2150 11800 2150
Wire Wire Line
	10850 2650 10850 2150
Wire Wire Line
	10850 2950 10850 2850
Wire Wire Line
	11100 2850 11100 2950
Wire Wire Line
	12350 7200 12350 7350
Wire Wire Line
	10950 2050 11800 2050
Wire Wire Line
	10950 1650 10950 2050
Connection ~ 12050 7200
Connection ~ 12350 7700
Wire Wire Line
	12350 7700 12350 7550
Connection ~ 12050 7700
Wire Wire Line
	12050 7700 12550 7700
Wire Wire Line
	12050 7200 12550 7200
Wire Wire Line
	12050 7100 12050 7300
Wire Wire Line
	12050 7600 12050 7850
Wire Wire Line
	11650 8050 11750 8050
Wire Wire Line
	12050 8350 12050 8250
Wire Wire Line
	13100 1150 13100 1350
Wire Wire Line
	13100 1550 13100 1600
Wire Wire Line
	13100 950  13100 900 
Wire Wire Line
	13300 1250 13100 1250
Connection ~ 13100 1250
Wire Wire Line
	13150 2250 13250 2250
Wire Wire Line
	13450 2250 13550 2250
Wire Wire Line
	12650 2050 13550 2050
Wire Wire Line
	12850 2250 12750 2250
Wire Wire Line
	12750 2250 12750 2050
Connection ~ 12750 2050
Wire Wire Line
	14850 1950 15200 1950
Wire Wire Line
	14850 2150 14850 2550
Wire Wire Line
	14350 2150 14550 2150
Wire Wire Line
	14400 2400 14850 2400
Connection ~ 14850 2400
Wire Wire Line
	14350 2250 14400 2250
Wire Wire Line
	14400 2250 14400 2400
Wire Wire Line
	15000 2250 15000 2550
Wire Wire Line
	14750 2150 14850 2150
Connection ~ 15000 1950
Wire Wire Line
	15000 1950 15000 2050
Wire Wire Line
	14400 2050 14350 2050
Wire Wire Line
	14400 1950 14400 2050
Wire Wire Line
	14400 1950 14450 1950
Wire Wire Line
	11750 11850 12050 11850
Wire Wire Line
	11750 12450 12050 12450
Wire Wire Line
	12250 12450 12350 12450
Wire Wire Line
	12250 11850 12350 11850
Wire Wire Line
	11950 11850 11950 12200
Wire Wire Line
	11950 12200 12650 12200
Connection ~ 11950 11850
Wire Wire Line
	11900 12100 11900 12450
Connection ~ 11900 12450
Wire Wire Line
	12650 12050 12650 12100
Wire Wire Line
	12650 12100 11900 12100
Wire Wire Line
	12650 12200 12650 12250
Wire Wire Line
	12650 12650 12650 12750
Wire Wire Line
	12650 12750 13400 12750
Wire Wire Line
	13400 11550 12650 11550
Wire Wire Line
	12650 11550 12650 11650
Wire Wire Line
	13300 12100 13300 12200
Wire Wire Line
	13300 12400 13300 12750
Connection ~ 13300 12750
Wire Wire Line
	9550 8200 10250 8200
Wire Wire Line
	10200 7900 10250 7900
Wire Wire Line
	10250 8000 10000 8000
Wire Wire Line
	9800 8000 9550 8000
Wire Wire Line
	10250 8100 9800 8100
Wire Wire Line
	9550 7600 9650 7600
Wire Wire Line
	8200 8100 8350 8100
Wire Wire Line
	7900 7500 7900 8100
Wire Wire Line
	7800 7700 8000 7700
Wire Wire Line
	7800 8100 8000 8100
Connection ~ 7900 8100
Connection ~ 7900 7700
Wire Wire Line
	7000 7700 7600 7700
Wire Wire Line
	7000 8100 7600 8100
Wire Wire Line
	7500 8400 7500 8450
Wire Wire Line
	8350 7900 8300 7900
Wire Wire Line
	8300 7900 8300 8450
Wire Wire Line
	8200 7700 8350 7700
Wire Wire Line
	7500 8100 7500 8200
Connection ~ 7500 8100
Wire Wire Line
	9200 4950 9350 4950
Wire Wire Line
	9200 4950 9200 5450
Wire Wire Line
	11300 5300 11300 5450
Wire Wire Line
	11300 3950 11300 5100
Wire Wire Line
	10550 4650 10950 4650
Wire Wire Line
	10950 4650 10950 5100
Wire Wire Line
	10950 5300 10950 5450
Wire Wire Line
	11300 4950 10550 4950
Wire Wire Line
	10700 4550 10700 5100
Wire Wire Line
	10700 5450 10700 5300
Connection ~ 11300 4950
Wire Wire Line
	14450 9000 14350 9000
Wire Wire Line
	13100 900  12850 900 
Wire Wire Line
	9000 4350 9350 4350
Wire Wire Line
	9350 4450 9000 4450
Wire Wire Line
	9200 4250 9200 4550
Wire Wire Line
	9200 4050 9200 3950
Wire Wire Line
	9200 3950 11500 3950
Connection ~ 11300 3950
Wire Wire Line
	13700 7300 13700 8200
Wire Wire Line
	13700 7750 13850 7750
Connection ~ 13700 7750
Wire Wire Line
	13700 7300 13850 7300
Wire Wire Line
	14250 7750 14950 7750
Connection ~ 7550 2500
Wire Wire Line
	7800 2500 7800 2600
Connection ~ 7800 2500
Wire Wire Line
	7550 1650 7550 2600
Wire Wire Line
	13750 4200 13650 4200
Wire Wire Line
	13650 4200 13650 4500
Wire Wire Line
	12650 4100 13050 4100
Wire Wire Line
	13000 3900 13000 4200
Connection ~ 13000 4100
Wire Wire Line
	13650 4100 13750 4100
Wire Wire Line
	13000 3900 12950 3900
Wire Wire Line
	13000 4500 13000 4400
Wire Wire Line
	13750 4000 13000 4000
Connection ~ 13000 4000
Wire Wire Line
	14450 4000 15100 4000
Wire Wire Line
	14650 4000 14650 4200
Wire Wire Line
	14900 4000 14900 4200
Connection ~ 14650 4000
Wire Wire Line
	14900 4500 14900 4400
Wire Wire Line
	14650 4500 14650 4400
Connection ~ 14900 4000
Wire Wire Line
	13550 5350 13650 5350
Wire Wire Line
	12650 5350 12750 5350
Wire Wire Line
	13150 5350 13250 5350
Wire Notes Line
	16050 6300 450  6300
Wire Wire Line
	11350 2850 11350 2950
Wire Wire Line
	11650 2850 11650 2950
Wire Wire Line
	11650 2650 11650 2550
Wire Wire Line
	11650 2550 11800 2550
Wire Wire Line
	11350 2650 11350 2450
Wire Wire Line
	11350 2450 11800 2450
Wire Wire Line
	10950 1200 10950 1450
Wire Wire Line
	11200 1350 11200 1450
Connection ~ 10950 1350
Wire Wire Line
	11450 1350 11450 1450
Connection ~ 11200 1350
Wire Wire Line
	11700 1350 11700 1450
Connection ~ 11450 1350
Wire Wire Line
	11800 1750 11700 1750
Wire Wire Line
	11700 1750 11700 1650
Wire Wire Line
	11450 1650 11450 1850
Wire Wire Line
	11450 1850 11800 1850
Wire Wire Line
	11800 1950 11200 1950
Wire Wire Line
	11200 1950 11200 1650
Wire Wire Line
	10400 2500 10600 2500
Wire Wire Line
	10600 2500 10600 2950
Wire Wire Line
	9300 2500 9450 2500
Wire Wire Line
	9450 2500 9450 2950
Wire Wire Line
	14650 9000 15250 9000
Wire Wire Line
	14800 6900 14800 7400
Connection ~ 14500 6900
Wire Wire Line
	14500 7200 14500 7900
Connection ~ 14500 7300
Wire Wire Line
	14800 7600 14800 7900
Connection ~ 14800 7750
Wire Wire Line
	14800 8200 14800 8100
Wire Wire Line
	14500 8100 14500 8200
Wire Wire Line
	14500 6800 14500 7000
Wire Wire Line
	14250 7300 14950 7300
Wire Wire Line
	5500 9650 6200 9650
Wire Wire Line
	14500 6900 14800 6900
Wire Wire Line
	10950 1350 11700 1350
Wire Wire Line
	7550 2950 7550 2800
Wire Wire Line
	7800 2800 7800 2950
Wire Wire Line
	7550 2500 8100 2500
Wire Wire Line
	8100 1800 8100 1800
Wire Wire Line
	9550 2200 9300 2200
Wire Wire Line
	9550 1900 9300 1900
Wire Wire Line
	9300 1800 9550 1800
Wire Wire Line
	15100 4000 15100 3800
Wire Wire Line
	11500 3950 11500 3850
Wire Wire Line
	13950 9700 13950 9200
Wire Wire Line
	4100 9250 4100 9150
Wire Wire Line
	3050 7950 3350 7950
Wire Wire Line
	3350 7950 3350 9250
Connection ~ 3350 9250
Wire Wire Line
	3250 9850 3250 8550
Wire Wire Line
	3250 8550 3050 8550
Connection ~ 3250 9850
Wire Wire Line
	3050 8750 4250 8750
Wire Wire Line
	4250 8650 3050 8650
Wire Wire Line
	3050 8450 4250 8450
Wire Wire Line
	4250 8350 3050 8350
Wire Wire Line
	4250 8250 3050 8250
Wire Wire Line
	4250 8150 3050 8150
Wire Wire Line
	3050 8050 4250 8050
Wire Wire Line
	3150 8850 3050 8850
Connection ~ 3150 10150
Wire Wire Line
	6150 1700 6700 1700
Wire Wire Line
	3300 1000 4150 1000
Wire Wire Line
	3450 1000 3450 1150
Connection ~ 3450 1000
Wire Wire Line
	7000 1600 7000 1800
Wire Wire Line
	6600 1500 6600 1700
Connection ~ 6600 1700
Wire Wire Line
	10550 4550 10700 4550
Wire Wire Line
	9200 4550 9350 4550
Wire Wire Line
	14750 9700 14750 9600
Wire Wire Line
	14750 9400 14750 9000
Connection ~ 14750 9000
Wire Wire Line
	10000 10450 10100 10450
Wire Wire Line
	10100 10450 10100 10550
Wire Wire Line
	10000 9750 10100 9750
Wire Wire Line
	10100 9750 10100 9600
Text GLabel 9000 9750 2    60   UnSpc ~ 0
GND
Text GLabel 9000 9850 2    60   UnSpc ~ 0
3V3
$Comp
L R_Small R32
U 1 1 5A449265
P 14750 8900
F 0 "R32" H 14780 8920 50  0000 L CNN
F 1 "67" H 14780 8860 50  0000 L CNN
F 2 "Resistors_SMD:R_0805" H 14750 8900 50  0001 C CNN
F 3 "" H 14750 8900 50  0001 C CNN
	1    14750 8900
	0    -1   -1   0   
$EndComp
$Comp
L R_Small R33
U 1 1 5A44938D
P 14950 8800
F 0 "R33" H 14980 8820 50  0000 L CNN
F 1 "67" H 14980 8760 50  0000 L CNN
F 2 "Resistors_SMD:R_0805" H 14950 8800 50  0001 C CNN
F 3 "" H 14950 8800 50  0001 C CNN
	1    14950 8800
	0    -1   -1   0   
$EndComp
Wire Wire Line
	14850 8800 14350 8800
Wire Wire Line
	14350 8900 14650 8900
Wire Wire Line
	15050 8800 15250 8800
Wire Wire Line
	14850 8900 15250 8900
$Comp
L C_Small C32
U 1 1 5A449BCF
P 14950 9350
F 0 "C32" H 14960 9420 50  0000 L CNN
F 1 "0.1µF" H 14960 9270 50  0000 L CNN
F 2 "" H 14950 9350 50  0001 C CNN
F 3 "" H 14950 9350 50  0001 C CNN
	1    14950 9350
	1    0    0    -1  
$EndComp
Wire Wire Line
	14950 8900 14950 9250
Connection ~ 14950 8900
$Comp
L C_Small C33
U 1 1 5A449EB9
P 15150 9200
F 0 "C33" H 15160 9270 50  0000 L CNN
F 1 "0.1µF" H 15160 9120 50  0000 L CNN
F 2 "" H 15150 9200 50  0001 C CNN
F 3 "" H 15150 9200 50  0001 C CNN
	1    15150 9200
	1    0    0    -1  
$EndComp
Wire Wire Line
	15150 9100 15150 8800
Connection ~ 15150 8800
$Comp
L GNDA #PWR051
U 1 1 5A44B062
P 14950 9700
F 0 "#PWR051" H 14950 9450 50  0001 C CNN
F 1 "GNDA" H 14950 9550 50  0001 C CNN
F 2 "" H 14950 9700 50  0001 C CNN
F 3 "" H 14950 9700 50  0001 C CNN
	1    14950 9700
	1    0    0    -1  
$EndComp
$Comp
L GNDA #PWR052
U 1 1 5A44B18A
P 15150 9700
F 0 "#PWR052" H 15150 9450 50  0001 C CNN
F 1 "GNDA" H 15150 9550 50  0001 C CNN
F 2 "" H 15150 9700 50  0001 C CNN
F 3 "" H 15150 9700 50  0001 C CNN
	1    15150 9700
	1    0    0    -1  
$EndComp
Wire Wire Line
	15150 9700 15150 9300
Wire Wire Line
	14950 9700 14950 9450
$Comp
L GNDD #PWR053
U 1 1 5A44C63D
P 13700 8200
F 0 "#PWR053" H 13700 7950 50  0001 C CNN
F 1 "GNDD" H 13700 8075 50  0000 C CNN
F 2 "" H 13700 8200 50  0001 C CNN
F 3 "" H 13700 8200 50  0001 C CNN
	1    13700 8200
	1    0    0    -1  
$EndComp
$Comp
L GNDD #PWR054
U 1 1 5A44C765
P 14500 8200
F 0 "#PWR054" H 14500 7950 50  0001 C CNN
F 1 "GNDD" H 14500 8075 50  0000 C CNN
F 2 "" H 14500 8200 50  0001 C CNN
F 3 "" H 14500 8200 50  0001 C CNN
	1    14500 8200
	1    0    0    -1  
$EndComp
$Comp
L GNDD #PWR055
U 1 1 5A44C88D
P 14800 8200
F 0 "#PWR055" H 14800 7950 50  0001 C CNN
F 1 "GNDD" H 14800 8075 50  0000 C CNN
F 2 "" H 14800 8200 50  0001 C CNN
F 3 "" H 14800 8200 50  0001 C CNN
	1    14800 8200
	1    0    0    -1  
$EndComp
NoConn ~ 4150 4000
NoConn ~ 4150 3900
NoConn ~ 4150 3400
$Comp
L Teensy3.2-RESCUE-air_01 U4
U 1 1 5A44EE8A
P 5150 3000
F 0 "U4" H 5150 5275 60  0000 C CNN
F 1 "Teensy3.2-RESCUE-air_01" H 5150 5175 60  0000 C CNN
F 2 "teensy:Teensy30_31_32_LC" H 5150 5050 30  0000 C CNN
F 3 "" H 5150 2700 60  0000 C CNN
	1    5150 3000
	1    0    0    -1  
$EndComp
$Comp
L MCP73831_AIR U6
U 1 1 5A4518AF
P 13950 2150
F 0 "U6" H 13950 2475 45  0000 C CNN
F 1 "MCP73831_AIR" H 13950 2400 45  0000 C CNN
F 2 "TO_SOT_Packages_SMD:SOT-23-5" H 13950 1900 30  0000 C CNN
F 3 "" H 13650 2400 60  0001 C CNN
	1    13950 2150
	1    0    0    -1  
$EndComp
Text Notes 14850 1850 2    41   ~ 0
2.2K = 450mA
Text Notes 14850 1750 2    41   ~ 0
4.3K = 200mA
Text Notes 14850 1650 2    41   ~ 0
6.7K = 100mA
$Comp
L LIPO_JST_PH-S2B-SM4 J6
U 1 1 5A4540A1
P 12950 2900
F 0 "J6" H 12750 3100 45  0000 L BNN
F 1 "LIPO_JST_PH-S2B-SM4" H 12750 2750 45  0000 L BNN
F 2 "Connectors_JST:JST_PH_S2B-PH-SM4-TB_02x2.00mm_Angled" H 12950 3200 30  0001 C CNN
F 3 "" H 12750 3100 50  0001 C CNN
	1    12950 2900
	-1   0    0    1   
$EndComp
Wire Wire Line
	12750 3100 12750 3000
Wire Wire Line
	12750 3000 12850 3000
Wire Wire Line
	12750 2900 12850 2900
$Comp
L LIPO_110mAh BT1
U 1 1 5A454D14
P 13250 2950
F 0 "BT1" H 13075 3000 45  0000 C CNN
F 1 "LIPO_110mAh" H 13250 2900 45  0000 C CNN
F 2 "" H 13250 3150 20  0001 C CNN
F 3 "" H 13250 3100 60  0001 C CNN
	1    13250 2950
	0    -1   -1   0   
$EndComp
Wire Wire Line
	8100 2000 7550 2000
Connection ~ 7550 2000
Wire Wire Line
	7000 1600 6150 1600
$Comp
L PWR_FLAG #FLG056
U 1 1 5A45AC26
P 7000 1600
F 0 "#FLG056" H 7000 1675 50  0001 C CNN
F 1 "PWR_FLAG" H 7000 1750 50  0000 C CNN
F 2 "" H 7000 1600 50  0001 C CNN
F 3 "" H 7000 1600 50  0001 C CNN
	1    7000 1600
	1    0    0    -1  
$EndComp
NoConn ~ 6150 3500
NoConn ~ 4150 3500
$Comp
L PWR_FLAG #FLG057
U 1 1 5A45E94B
P 3450 1000
F 0 "#FLG057" H 3450 1075 50  0001 C CNN
F 1 "PWR_FLAG" H 3450 1150 50  0000 C CNN
F 2 "" H 3450 1000 50  0001 C CNN
F 3 "" H 3450 1000 50  0001 C CNN
	1    3450 1000
	1    0    0    -1  
$EndComp
$EndSCHEMATC
