EESchema Schematic File Version 2
LIBS:power
LIBS:device
LIBS:transistors
LIBS:conn
LIBS:linear
LIBS:regul
LIBS:74xx
LIBS:cmos4000
LIBS:adc-dac
LIBS:memory
LIBS:xilinx
LIBS:microcontrollers
LIBS:dsp
LIBS:microchip
LIBS:analog_switches
LIBS:motorola
LIBS:texas
LIBS:intel
LIBS:audio
LIBS:interface
LIBS:digital-audio
LIBS:philips
LIBS:display
LIBS:cypress
LIBS:siliconi
LIBS:opto
LIBS:atmel
LIBS:contrib
LIBS:valves
LIBS:air
LIBS:teensy
LIBS:SparkFun-IC-Power
LIBS:ESP8266
LIBS:SparkFun-Aesthetics
LIBS:SparkFun-Batteries
LIBS:SparkFun-Boards
LIBS:SparkFun-Capacitors
LIBS:SparkFun-Clocks
LIBS:SparkFun-Coils
LIBS:SparkFun-Connectors
LIBS:SparkFun-DiscreteSemi
LIBS:SparkFun-Displays
LIBS:SparkFun-Electromechanical
LIBS:SparkFun-Fuses
LIBS:SparkFun-GPS
LIBS:SparkFun-Hardware
LIBS:SparkFun-IC-Amplifiers
LIBS:SparkFun-IC-Comms
LIBS:SparkFun-IC-Conversion
LIBS:SparkFun-IC-Logic
LIBS:SparkFun-IC-Memory
LIBS:SparkFun-IC-Microcontroller
LIBS:SparkFun-IC-Special-Function
LIBS:SparkFun-Jumpers
LIBS:SparkFun-LED
LIBS:SparkFun-PowerSymbols
LIBS:SparkFun-Resistors
LIBS:SparkFun-RF
LIBS:SparkFun-Sensors
LIBS:SparkFun-Switches
EELAYER 25 0
EELAYER END
$Descr A3 16535 11693
encoding utf-8
Sheet 1 1
Title "air 0.2 PCB"
Date "2017-12-26"
Rev "1"
Comp "Ylenia Gerold Emil"
Comment1 ""
Comment2 ""
Comment3 ""
Comment4 ""
$EndDescr
$Comp
L LED D1
U 1 1 5A3D750E
P 13000 2250
F 0 "D1" H 13000 2350 50  0000 C CNN
F 1 "LEDGREEN" H 13100 2150 50  0000 C CNN
F 2 "LEDs:LED_0603" H 13000 2250 50  0001 C CNN
F 3 "http://optoelectronics.liteon.com/upload/download/DS22-2000-228/LTST-C191KGKT.PDF" H 13000 2250 50  0001 C CNN
F 4 "160-1446-1-ND" H 13000 2450 50  0001 C CNN "digikey"
	1    13000 2250
	-1   0    0    1   
$EndComp
$Comp
L CONN_TO_SSD1306 J3
U 1 1 5A3EDF7E
P 7900 9750
F 0 "J3" H 7700 10550 45  0000 L BNN
F 1 "SPI" H 7500 9600 45  0000 L BNN
F 2 "air:1X08" V 7600 10100 30  0000 C CNN
F 3 "" H 7900 9750 50  0001 C CNN
F 4 "OLED HEADER" H 7900 10700 60  0000 C CNN "Field4"
	1    7900 9750
	1    0    0    1   
$EndComp
$Comp
L MOMENTARY-SWITCH-SPST-2-SMD-5.2MM S4
U 1 1 5A3F9C2E
P 14050 7300
F 0 "S4" H 13850 7350 45  0000 L BNN
F 1 "SW_SPST_EVQQ2" H 13850 7100 45  0000 L BNN
F 2 "air:SW_SPST_EVQQ2" H 14050 7550 20  0001 C CNN
F 3 "https://industrial.panasonic.com/ac/cdn/e/control/switch/light-touch/catalog/sw_lt_eng_6s_th.pdf" H 14050 7300 50  0001 C CNN
F 4 "P12952SCT-ND" H 13850 7450 50  0001 C CNN "digikey"
	1    14050 7300
	-1   0    0    1   
$EndComp
$Comp
L MPU9250 U2
U 1 1 5A400063
P 9950 4650
F 0 "U2" H 9950 5200 60  0000 C CNN
F 1 "MPU9250" H 9950 4150 60  0000 C CNN
F 2 "Housings_DFN_QFN:QFN-24-1EP_3x3mm_Pitch0.4mm" H 9950 5100 30  0000 C CNN
F 3 "https://store.invensense.com/datasheets/invensense/MPU9250REV1.0.pdf" H 10100 4150 60  0001 C CNN
F 4 "1428-1019-1-ND" H 9950 5300 50  0001 C CNN "digikey"
	1    9950 4650
	1    0    0    -1  
$EndComp
$Comp
L MOMENTARY-SWITCH-SPST-2-SMD-5.2MM S5
U 1 1 5A42FE61
P 14050 7750
F 0 "S5" H 13850 7800 45  0000 L BNN
F 1 "SW_SPST_EVQQ2" H 13850 7550 45  0000 L BNN
F 2 "air:SW_SPST_EVQQ2" H 14050 8000 20  0001 C CNN
F 3 "https://industrial.panasonic.com/ac/cdn/e/control/switch/light-touch/catalog/sw_lt_eng_6s_th.pdf" H 14050 7750 50  0001 C CNN
F 4 "P12952SCT-ND" H 13850 7900 50  0001 C CNN "digikey"
	1    14050 7750
	1    0    0    -1  
$EndComp
$Comp
L CP1_Small C19
U 1 1 5A43D4BB
P 8400 2700
F 0 "C19" H 8410 2770 50  0000 L CNN
F 1 "47µF" H 8410 2620 50  0000 L CNN
F 2 "Capacitors_SMD:C_1206" H 8400 2700 50  0001 C CNN
F 3 "https://www.murata.com/~/media/webrenewal/support/library/catalog/products/capacitor/mlcc/c02e.ashx?la=en-us" H 8400 2700 50  0001 C CNN
F 4 "490-8337-1-ND" H 8410 2870 50  0001 C CNN "digikey"
	1    8400 2700
	1    0    0    -1  
$EndComp
$Comp
L C_Small C18
U 1 1 5A43D69F
P 8000 2700
F 0 "C18" H 8010 2770 50  0000 L CNN
F 1 "0.1µF" H 8010 2620 50  0000 L CNN
F 2 "Capacitors_SMD:C_0603" H 8000 2700 50  0001 C CNN
F 3 "https://www.murata.com/~/media/webrenewal/support/library/catalog/products/capacitor/mlcc/c02e.ashx?la=en-us" H 8000 2700 50  0001 C CNN
F 4 "490-1532-1-ND" H 8010 2870 50  0001 C CNN "digikey"
	1    8000 2700
	1    0    0    -1  
$EndComp
$Comp
L R_Small R28
U 1 1 5A44A81D
P 14650 2150
F 0 "R28" H 14680 2170 50  0000 L CNN
F 1 "4.3K" H 14680 2110 50  0000 L CNN
F 2 "Resistors_SMD:R_0603" H 14650 2150 50  0001 C CNN
F 3 "http://www.yageo.com/documents/recent/PYu-RC_Group_51_RoHS_L_8.pdf" H 14650 2150 50  0001 C CNN
F 4 "311-4.3KGRCT-ND" H 14650 2150 60  0001 C CNN "digikey"
	1    14650 2150
	0    1    1    0   
$EndComp
$Comp
L C_Small C29
U 1 1 5A44ACCA
P 15000 2150
F 0 "C29" H 15010 2220 50  0000 L CNN
F 1 "10µF" H 15010 2070 50  0000 L CNN
F 2 "Capacitors_SMD:C_0805" H 15000 2150 50  0001 C CNN
F 3 "https://www.murata.com/~/media/webrenewal/support/library/catalog/products/capacitor/mlcc/c02e.ashx?la=en-us" H 15000 2150 50  0001 C CNN
F 4 "490-3340-1-ND" H 15010 2320 50  0001 C CNN "digikey"
	1    15000 2150
	1    0    0    -1  
$EndComp
$Comp
L R_Small R21
U 1 1 5A44E1E7
P 13100 1050
F 0 "R21" H 13130 1070 50  0000 L CNN
F 1 "100K" H 13130 1010 50  0000 L CNN
F 2 "Resistors_SMD:R_0603" H 13100 1050 50  0001 C CNN
F 3 "http://www.yageo.com/documents/recent/PYu-RC_Group_51_RoHS_L_8.pdf" H 13100 1050 50  0001 C CNN
F 4 "311-100KGRCT-ND" H 13130 1170 50  0001 C CNN "digikey"
	1    13100 1050
	-1   0    0    1   
$EndComp
$Comp
L R_Small R22
U 1 1 5A44E40E
P 13100 1450
F 0 "R22" H 13130 1470 50  0000 L CNN
F 1 "100K" H 13130 1410 50  0000 L CNN
F 2 "Resistors_SMD:R_0603" H 13100 1450 50  0001 C CNN
F 3 "http://www.yageo.com/documents/recent/PYu-RC_Group_51_RoHS_L_8.pdf" H 13100 1450 50  0001 C CNN
F 4 "311-100KGRCT-ND" H 13130 1570 50  0001 C CNN "digikey"
	1    13100 1450
	-1   0    0    1   
$EndComp
$Comp
L C_Small C22
U 1 1 5A4572EA
P 11350 2750
F 0 "C22" H 11360 2820 50  0000 L CNN
F 1 "0.01µF" H 11360 2670 50  0000 L CNN
F 2 "Capacitors_SMD:C_0603" H 11350 2750 50  0001 C CNN
F 3 "https://www.murata.com/~/media/webrenewal/support/library/catalog/products/capacitor/mlcc/c02e.ashx?la=en-us" H 11350 2750 50  0001 C CNN
F 4 "490-1525-1-ND" H 11360 2920 50  0001 C CNN "digikey"
	1    11350 2750
	1    0    0    -1  
$EndComp
$Comp
L C_Small C23
U 1 1 5A457401
P 11650 2750
F 0 "C23" H 11660 2820 50  0000 L CNN
F 1 "0.01µF" H 11660 2670 50  0000 L CNN
F 2 "Capacitors_SMD:C_0603" H 11650 2750 50  0001 C CNN
F 3 "https://www.murata.com/~/media/webrenewal/support/library/catalog/products/capacitor/mlcc/c02e.ashx?la=en-us" H 11650 2750 50  0001 C CNN
F 4 "490-1525-1-ND" H 11660 2920 50  0001 C CNN "digikey"
	1    11650 2750
	1    0    0    -1  
$EndComp
$Comp
L R_Small R17
U 1 1 5A459EE4
P 11200 1550
F 0 "R17" H 11230 1570 50  0000 L CNN
F 1 "10K" H 11230 1510 50  0000 L CNN
F 2 "Resistors_SMD:R_0603" H 11200 1550 50  0001 C CNN
F 3 "http://www.yageo.com/documents/recent/PYu-RC_Group_51_RoHS_L_8.pdf" H 11200 1550 39  0001 C CNN
F 4 "311-10KGRCT-ND" H 11200 1550 39  0001 C CNN "digikey"
	1    11200 1550
	-1   0    0    1   
$EndComp
$Comp
L C_Small C31
U 1 1 5A46CDB4
P 14800 8000
F 0 "C31" H 14810 8070 50  0000 L CNN
F 1 "0.01µF" H 14810 7920 50  0000 L CNN
F 2 "Capacitors_SMD:C_0603" H 14800 8000 50  0001 C CNN
F 3 "https://www.murata.com/~/media/webrenewal/support/library/catalog/products/capacitor/mlcc/c02e.ashx?la=en-us" H 14800 8000 50  0001 C CNN
F 4 "490-1525-1-ND" H 14810 8170 50  0001 C CNN "digikey"
	1    14800 8000
	1    0    0    -1  
$EndComp
$Comp
L C_Small C30
U 1 1 5A46CEC1
P 14500 8000
F 0 "C30" H 14510 8070 50  0000 L CNN
F 1 "0.01µF" H 14510 7920 50  0000 L CNN
F 2 "Capacitors_SMD:C_0603" H 14500 8000 50  0001 C CNN
F 3 "https://www.murata.com/~/media/webrenewal/support/library/catalog/products/capacitor/mlcc/c02e.ashx?la=en-us" H 14500 8000 50  0001 C CNN
F 4 "490-1525-1-ND" H 14510 8170 50  0001 C CNN "digikey"
	1    14500 8000
	1    0    0    -1  
$EndComp
$Comp
L Conn_01x10 J2
U 1 1 5A4834A2
P 1900 9750
F 0 "J2" H 1900 10250 50  0000 C CNN
F 1 "RCPT-MQ212-10" H 1900 9150 50  0000 C CNN
F 2 "air:MQ212_SMD_RCPT" V 2000 9700 30  0000 C CNN
F 3 "" H 1900 9750 50  0001 C CNN
	1    1900 9750
	-1   0    0    1   
$EndComp
$Comp
L R_Small R3
U 1 1 5A485F74
P 2500 9850
F 0 "R3" H 2530 9870 50  0000 L CNN
F 1 "470" H 2530 9810 50  0000 L CNN
F 2 "Resistors_SMD:R_0805" H 2500 9850 50  0001 C CNN
F 3 "http://www.yageo.com/documents/recent/PYu-RC_Group_51_RoHS_L_8.pdf" H 2500 9850 50  0001 C CNN
F 4 "311-470ARCT-ND" H 2530 9970 50  0001 C CNN "digikey"
	1    2500 9850
	0    1    1    0   
$EndComp
$Comp
L C_Small C13
U 1 1 5A486B5C
P 2700 10250
F 0 "C13" H 2710 10320 50  0000 L CNN
F 1 "0.1µF" H 2710 10170 50  0000 L CNN
F 2 "Capacitors_SMD:C_0603" H 2700 10250 50  0001 C CNN
F 3 "https://www.murata.com/~/media/webrenewal/support/library/catalog/products/capacitor/mlcc/c02e.ashx?la=en-us" H 2700 10250 50  0001 C CNN
F 4 "490-1532-1-ND" H 2710 10420 50  0001 C CNN "digikey"
	1    2700 10250
	1    0    0    -1  
$EndComp
$Comp
L PN2222A Q3
U 1 1 5A48994A
P 5400 10450
F 0 "Q3" H 5600 10525 50  0000 L CNN
F 1 "MMBT3904" H 5600 10450 50  0000 L CNN
F 2 "TO_SOT_Packages_SMD:TSOT-23" H 5600 10375 30  0000 L CIN
F 3 "https://media.digikey.com/pdf/Data%20Sheets/Diodes%20PDFs/MMBT3904.pdf" H 5400 10450 50  0001 L CNN
F 4 "MMBT3904-FDICT-ND" H 5600 10625 50  0001 C CNN "digikey"
	1    5400 10450
	-1   0    0    -1  
$EndComp
$Comp
L D_Schottky D2
U 1 1 5A489C6F
P 5300 9900
F 0 "D2" H 5300 10000 50  0000 C CNN
F 1 "MBR120" H 5300 9800 50  0000 C CNN
F 2 "Diodes_SMD:SOD-123" H 5300 9900 50  0001 C CNN
F 3 "http://www.onsemi.com/pub/Collateral/MBR120LSFT1-D.PDF" H 5300 9900 50  0001 C CNN
F 4 "MBR120LSFT3GOSCT-ND" H 5300 10100 50  0001 C CNN "digikey"
	1    5300 9900
	0    1    1    0   
$EndComp
$Comp
L C_Small C15
U 1 1 5A489D92
P 4900 9900
F 0 "C15" H 4910 9970 50  0000 L CNN
F 1 "0.1µF" H 4910 9820 50  0000 L CNN
F 2 "Capacitors_SMD:C_0603" H 4900 9900 50  0001 C CNN
F 3 "https://www.murata.com/~/media/webrenewal/support/library/catalog/products/capacitor/mlcc/c02e.ashx?la=en-us" H 4900 9900 50  0001 C CNN
F 4 "490-1532-1-ND" H 4910 10070 50  0001 C CNN "digikey"
	1    4900 9900
	1    0    0    -1  
$EndComp
$Comp
L CP1_Small C14
U 1 1 5A48C21B
P 2950 10250
F 0 "C14" H 2960 10320 50  0000 L CNN
F 1 "100µF" H 2960 10170 50  0000 L CNN
F 2 "Capacitors_SMD:C_1206" H 2950 10250 30  0001 C CNN
F 3 "https://www.murata.com/~/media/webrenewal/support/library/catalog/products/capacitor/mlcc/c02e.ashx?la=en-us" H 2950 10250 50  0001 C CNN
F 4 "490-13982-1-ND" H 2960 10420 50  0001 C CNN "digikey"
	1    2950 10250
	1    0    0    -1  
$EndComp
$Comp
L R_Small R2
U 1 1 5A496632
P 1800 5700
F 0 "R2" H 1830 5720 50  0000 L CNN
F 1 "390K" H 1830 5660 50  0000 L CNN
F 2 "Resistors_SMD:R_0805" H 1800 5700 50  0001 C CNN
F 3 "http://www.yageo.com/documents/recent/PYu-RC_Group_51_RoHS_L_8.pdf" H 1800 5700 50  0001 C CNN
F 4 "311-390KARCT-ND" H 1830 5820 50  0001 C CNN "digikey"
	1    1800 5700
	0    -1   -1   0   
$EndComp
$Comp
L C_Small C4
U 1 1 5A49847E
P 2000 5800
F 0 "C4" H 2010 5870 50  0000 L CNN
F 1 "2.2µF" H 2010 5720 50  0000 L CNN
F 2 "Capacitors_SMD:C_0805" H 2000 5800 50  0001 C CNN
F 3 "https://www.murata.com/~/media/webrenewal/support/library/catalog/products/capacitor/mlcc/c02e.ashx?la=en-us" H 2000 5800 50  0001 C CNN
F 4 "490-3296-1-ND" H 2010 5970 50  0001 C CNN "digikey"
	1    2000 5800
	0    -1   -1   0   
$EndComp
$Comp
L C_Small C9
U 1 1 5A498879
P 2200 5900
F 0 "C9" H 2210 5970 50  0000 L CNN
F 1 "2.2µF" H 2210 5820 50  0000 L CNN
F 2 "Capacitors_SMD:C_0805" H 2200 5900 50  0001 C CNN
F 3 "https://www.murata.com/~/media/webrenewal/support/library/catalog/products/capacitor/mlcc/c02e.ashx?la=en-us" H 2200 5900 50  0001 C CNN
F 4 "490-3296-1-ND" H 2210 6070 50  0001 C CNN "digikey"
	1    2200 5900
	0    -1   -1   0   
$EndComp
$Comp
L C_Small C3
U 1 1 5A4A4A10
P 2000 4900
F 0 "C3" H 2010 4970 50  0000 L CNN
F 1 "1µF" H 2010 4820 50  0000 L CNN
F 2 "Capacitors_SMD:C_0603" H 2000 4900 50  0001 C CNN
F 3 "https://www.murata.com/~/media/webrenewal/support/library/catalog/products/capacitor/mlcc/c02e.ashx?la=en-us" H 2000 4900 50  0001 C CNN
F 4 "490-1543-1-ND" H 2010 5070 50  0001 C CNN "digikey"
	1    2000 4900
	0    -1   -1   0   
$EndComp
$Comp
L C_Small C8
U 1 1 5A4A4B40
P 2200 5100
F 0 "C8" H 2210 5170 50  0000 L CNN
F 1 "1µF" H 2210 5020 50  0000 L CNN
F 2 "Capacitors_SMD:C_0603" H 2200 5100 50  0001 C CNN
F 3 "https://www.murata.com/~/media/webrenewal/support/library/catalog/products/capacitor/mlcc/c02e.ashx?la=en-us" H 2200 5100 50  0001 C CNN
F 4 "490-1543-1-ND" H 2210 5270 50  0001 C CNN "digikey"
	1    2200 5100
	0    -1   -1   0   
$EndComp
$Comp
L C_Small C2
U 1 1 5A4A56CC
P 2000 4500
F 0 "C2" H 2010 4570 50  0000 L CNN
F 1 "1µF" H 2010 4420 50  0000 L CNN
F 2 "Capacitors_SMD:C_0603" H 2000 4500 50  0001 C CNN
F 3 "https://www.murata.com/~/media/webrenewal/support/library/catalog/products/capacitor/mlcc/c02e.ashx?la=en-us" H 2000 4500 50  0001 C CNN
F 4 "490-11597-1-ND" H 2010 4670 50  0001 C CNN "digikey"
	1    2000 4500
	0    -1   -1   0   
$EndComp
$Comp
L C_Small C7
U 1 1 5A4A5800
P 2200 4700
F 0 "C7" H 2210 4770 50  0000 L CNN
F 1 "1µF" H 2210 4620 50  0000 L CNN
F 2 "Capacitors_SMD:C_0603" H 2200 4700 50  0001 C CNN
F 3 "https://www.murata.com/~/media/webrenewal/support/library/catalog/products/capacitor/mlcc/c02e.ashx?la=en-us" H 2200 4700 50  0001 C CNN
F 4 "490-1543-1-ND" H 2210 4870 50  0001 C CNN "digikey"
	1    2200 4700
	0    -1   -1   0   
$EndComp
$Comp
L UG-2832HSWEG04 U3
U 1 1 5A4B3A31
P 1500 5900
F 0 "U3" H 1225 7500 60  0000 C CNN
F 1 "UG-2832HSWEG04" H 1200 5700 60  0000 C CNN
F 2 "air:UG-2832HSWEG04_TIGHT" V 850 6625 30  0000 C CNN
F 3 "" H 1500 7500 60  0001 C CNN
	1    1500 5900
	1    0    0    -1  
$EndComp
$Comp
L ESP8266-12E U5
U 1 1 5A42F77D
P 9150 2050
F 0 "U5" H 9150 2650 50  0000 C CNN
F 1 "ESP8266-12E" H 9150 2550 50  0000 C CNN
F 2 "ESP8266:ESP-12E_SMD" H 9150 2425 30  0000 C CNN
F 3 "" H 9150 2050 50  0001 C CNN
	1    9150 2050
	1    0    0    -1  
$EndComp
$Comp
L R_Small R10
U 1 1 5A437136
P 9700 8100
F 0 "R10" H 9730 8120 50  0000 L CNN
F 1 "220" H 9730 8060 50  0000 L CNN
F 2 "Resistors_SMD:R_0805" H 9700 8100 50  0001 C CNN
F 3 "http://www.yageo.com/documents/recent/PYu-RC_Group_51_RoHS_L_8.pdf" H 9700 8100 50  0001 C CNN
F 4 "311-220ARCT-ND" H 9730 8220 50  0001 C CNN "digikey"
	1    9700 8100
	0    -1   -1   0   
$EndComp
$Comp
L R_Small R11
U 1 1 5A437C5D
P 9900 8000
F 0 "R11" H 9930 8020 50  0000 L CNN
F 1 "220" H 9930 7960 50  0000 L CNN
F 2 "Resistors_SMD:R_0805" H 9900 8000 50  0001 C CNN
F 3 "http://www.yageo.com/documents/recent/PYu-RC_Group_51_RoHS_L_8.pdf" H 9900 8000 50  0001 C CNN
F 4 "311-220ARCT-ND" H 9930 8120 50  0001 C CNN "digikey"
	1    9900 8000
	0    -1   -1   0   
$EndComp
$Comp
L R_Small R12
U 1 1 5A437D9C
P 10100 7900
F 0 "R12" H 10130 7920 50  0000 L CNN
F 1 "220" H 10130 7860 50  0000 L CNN
F 2 "Resistors_SMD:R_0805" H 10100 7900 50  0001 C CNN
F 3 "http://www.yageo.com/documents/recent/PYu-RC_Group_51_RoHS_L_8.pdf" H 10100 7900 50  0001 C CNN
F 4 "311-220ARCT-ND" H 10130 8020 50  0001 C CNN "digikey"
	1    10100 7900
	0    -1   -1   0   
$EndComp
$Comp
L C_Small C17
U 1 1 5A438393
P 7500 8300
F 0 "C17" H 7510 8370 50  0000 L CNN
F 1 "0.01µF" H 7510 8220 50  0000 L CNN
F 2 "Capacitors_SMD:C_0603" H 7500 8300 50  0001 C CNN
F 3 "https://www.murata.com/~/media/webrenewal/support/library/catalog/products/capacitor/mlcc/c02e.ashx?la=en-us" H 7500 8300 50  0001 C CNN
F 4 "490-1525-1-ND" H 7510 8470 50  0001 C CNN "digikey"
	1    7500 8300
	1    0    0    -1  
$EndComp
$Comp
L C_Small C16
U 1 1 5A438822
P 7250 8300
F 0 "C16" H 7260 8370 50  0000 L CNN
F 1 "0.01µF" H 7260 8220 50  0000 L CNN
F 2 "Capacitors_SMD:C_0603" H 7250 8300 50  0001 C CNN
F 3 "https://www.murata.com/~/media/webrenewal/support/library/catalog/products/capacitor/mlcc/c02e.ashx?la=en-us" H 7250 8300 50  0001 C CNN
F 4 "490-1525-1-ND" H 7260 8470 50  0001 C CNN "digikey"
	1    7250 8300
	-1   0    0    -1  
$EndComp
$Comp
L GNDD #PWR01
U 1 1 5A438F81
P 7500 8450
F 0 "#PWR01" H 7500 8200 50  0001 C CNN
F 1 "GNDD" H 7500 8325 50  0000 C CNN
F 2 "" H 7500 8450 50  0001 C CNN
F 3 "" H 7500 8450 50  0001 C CNN
	1    7500 8450
	1    0    0    -1  
$EndComp
$Comp
L GNDD #PWR02
U 1 1 5A43932C
P 8300 8450
F 0 "#PWR02" H 8300 8200 50  0001 C CNN
F 1 "GNDD" H 8300 8325 50  0000 C CNN
F 2 "" H 8300 8450 50  0001 C CNN
F 3 "" H 8300 8450 50  0001 C CNN
	1    8300 8450
	1    0    0    -1  
$EndComp
$Comp
L +3V3 #PWR03
U 1 1 5A4398CB
P 7900 7500
F 0 "#PWR03" H 7900 7350 50  0001 C CNN
F 1 "+3V3" H 7900 7640 50  0000 C CNN
F 2 "" H 7900 7500 50  0001 C CNN
F 3 "" H 7900 7500 50  0001 C CNN
	1    7900 7500
	1    0    0    -1  
$EndComp
$Comp
L GNDD #PWR04
U 1 1 5A439A0C
P 7250 8450
F 0 "#PWR04" H 7250 8200 50  0001 C CNN
F 1 "GNDD" H 7250 8325 50  0000 C CNN
F 2 "" H 7250 8450 50  0001 C CNN
F 3 "" H 7250 8450 50  0001 C CNN
	1    7250 8450
	1    0    0    -1  
$EndComp
$Comp
L +3V3 #PWR05
U 1 1 5A43BE66
P 9650 7500
F 0 "#PWR05" H 9650 7350 50  0001 C CNN
F 1 "+3V3" H 9650 7640 50  0000 C CNN
F 2 "" H 9650 7500 50  0001 C CNN
F 3 "" H 9650 7500 50  0001 C CNN
	1    9650 7500
	1    0    0    -1  
$EndComp
$Comp
L +3V3 #PWR06
U 1 1 5A43E6D5
P 5300 9500
F 0 "#PWR06" H 5300 9350 50  0001 C CNN
F 1 "+3V3" H 5300 9640 50  0000 C CNN
F 2 "" H 5300 9500 50  0001 C CNN
F 3 "" H 5300 9500 50  0001 C CNN
	1    5300 9500
	1    0    0    -1  
$EndComp
$Comp
L GNDD #PWR07
U 1 1 5A43EE0B
P 5300 10750
F 0 "#PWR07" H 5300 10500 50  0001 C CNN
F 1 "GNDD" H 5300 10625 50  0000 C CNN
F 2 "" H 5300 10750 50  0001 C CNN
F 3 "" H 5300 10750 50  0001 C CNN
	1    5300 10750
	1    0    0    -1  
$EndComp
$Comp
L ENCODER_SW_RGB S1
U 1 1 5A442891
P 8950 7900
F 0 "S1" H 8950 8425 45  0000 C CNN
F 1 "ENCODER_SW_RGB" H 8950 8350 45  0000 C CNN
F 2 "air:BOURNS_PEC11L_HYBRID" H 8950 7550 30  0000 C CNN
F 3 "http://www.bourns.com/docs/Product-Datasheets/PEC11R.pdf" H 8925 8350 50  0001 C CNN
F 4 "PEC11R-4115K-S0018-ND" H 8950 8525 50  0001 C CNN "digikey"
	1    8950 7900
	1    0    0    -1  
$EndComp
$Comp
L +3V3 #PWR08
U 1 1 5A446286
P 14500 6800
F 0 "#PWR08" H 14500 6650 50  0001 C CNN
F 1 "+3V3" H 14500 6940 50  0000 C CNN
F 2 "" H 14500 6800 50  0001 C CNN
F 3 "" H 14500 6800 50  0001 C CNN
	1    14500 6800
	1    0    0    -1  
$EndComp
$Comp
L GNDD #PWR09
U 1 1 5A4482DF
P 11100 2950
F 0 "#PWR09" H 11100 2700 50  0001 C CNN
F 1 "GNDD" H 11100 2825 50  0000 C CNN
F 2 "" H 11100 2950 50  0001 C CNN
F 3 "" H 11100 2950 50  0001 C CNN
	1    11100 2950
	1    0    0    -1  
$EndComp
$Comp
L GNDD #PWR010
U 1 1 5A4488E7
P 10850 2950
F 0 "#PWR010" H 10850 2700 50  0001 C CNN
F 1 "GNDD" H 10850 2825 50  0000 C CNN
F 2 "" H 10850 2950 50  0001 C CNN
F 3 "" H 10850 2950 50  0001 C CNN
	1    10850 2950
	1    0    0    -1  
$EndComp
$Comp
L GNDD #PWR011
U 1 1 5A448AED
P 11650 2950
F 0 "#PWR011" H 11650 2700 50  0001 C CNN
F 1 "GNDD" H 11650 2825 50  0000 C CNN
F 2 "" H 11650 2950 50  0001 C CNN
F 3 "" H 11650 2950 50  0001 C CNN
	1    11650 2950
	1    0    0    -1  
$EndComp
$Comp
L GNDD #PWR012
U 1 1 5A448C27
P 11350 2950
F 0 "#PWR012" H 11350 2700 50  0001 C CNN
F 1 "GNDD" H 11350 2825 50  0000 C CNN
F 2 "" H 11350 2950 50  0001 C CNN
F 3 "" H 11350 2950 50  0001 C CNN
	1    11350 2950
	1    0    0    -1  
$EndComp
$Comp
L +3V3 #PWR013
U 1 1 5A448D61
P 10950 1200
F 0 "#PWR013" H 10950 1050 50  0001 C CNN
F 1 "+3V3" H 10950 1340 50  0000 C CNN
F 2 "" H 10950 1200 50  0001 C CNN
F 3 "" H 10950 1200 50  0001 C CNN
	1    10950 1200
	1    0    0    -1  
$EndComp
$Comp
L GNDD #PWR014
U 1 1 5A44A365
P 9850 2950
F 0 "#PWR014" H 9850 2700 50  0001 C CNN
F 1 "GNDD" H 9850 2825 50  0000 C CNN
F 2 "" H 9850 2950 50  0001 C CNN
F 3 "" H 9850 2950 50  0001 C CNN
	1    9850 2950
	1    0    0    -1  
$EndComp
$Comp
L GNDD #PWR015
U 1 1 5A44A8AC
P 8400 2950
F 0 "#PWR015" H 8400 2700 50  0001 C CNN
F 1 "GNDD" H 8400 2825 50  0000 C CNN
F 2 "" H 8400 2950 50  0001 C CNN
F 3 "" H 8400 2950 50  0001 C CNN
	1    8400 2950
	1    0    0    -1  
$EndComp
$Comp
L GNDD #PWR016
U 1 1 5A44A9E6
P 8000 2950
F 0 "#PWR016" H 8000 2700 50  0001 C CNN
F 1 "GNDD" H 8000 2825 50  0000 C CNN
F 2 "" H 8000 2950 50  0001 C CNN
F 3 "" H 8000 2950 50  0001 C CNN
	1    8000 2950
	1    0    0    -1  
$EndComp
$Comp
L +3V3 #PWR017
U 1 1 5A44B58F
P 8000 1400
F 0 "#PWR017" H 8000 1250 50  0001 C CNN
F 1 "+3V3" H 8000 1540 50  0000 C CNN
F 2 "" H 8000 1400 50  0001 C CNN
F 3 "" H 8000 1400 50  0001 C CNN
	1    8000 1400
	1    0    0    -1  
$EndComp
$Comp
L GNDD #PWR018
U 1 1 5A44DAFB
P 12750 3300
F 0 "#PWR018" H 12750 3050 50  0001 C CNN
F 1 "GNDD" H 12750 3175 50  0000 C CNN
F 2 "" H 12750 3300 50  0001 C CNN
F 3 "" H 12750 3300 50  0001 C CNN
	1    12750 3300
	1    0    0    -1  
$EndComp
$Comp
L GNDD #PWR019
U 1 1 5A44E034
P 14850 2550
F 0 "#PWR019" H 14850 2300 50  0001 C CNN
F 1 "GNDD" H 14850 2425 50  0000 C CNN
F 2 "" H 14850 2550 50  0001 C CNN
F 3 "" H 14850 2550 50  0001 C CNN
	1    14850 2550
	1    0    0    -1  
$EndComp
$Comp
L GNDD #PWR020
U 1 1 5A44E16E
P 15000 2550
F 0 "#PWR020" H 15000 2300 50  0001 C CNN
F 1 "GNDD" H 15000 2425 50  0000 C CNN
F 2 "" H 15000 2550 50  0001 C CNN
F 3 "" H 15000 2550 50  0001 C CNN
	1    15000 2550
	1    0    0    -1  
$EndComp
$Comp
L GNDD #PWR021
U 1 1 5A44FF59
P 13100 1600
F 0 "#PWR021" H 13100 1350 50  0001 C CNN
F 1 "GNDD" H 13100 1475 50  0000 C CNN
F 2 "" H 13100 1600 50  0001 C CNN
F 3 "" H 13100 1600 50  0001 C CNN
	1    13100 1600
	1    0    0    -1  
$EndComp
$Comp
L D_Schottky D5
U 1 1 5A45579F
P 13400 5350
F 0 "D5" H 13400 5450 50  0000 C CNN
F 1 "MBR120" H 13400 5250 50  0000 C CNN
F 2 "Diodes_SMD:SOD-123" H 13400 5350 50  0001 C CNN
F 3 "http://www.onsemi.com/pub/Collateral/MBR120ESFT1-D.PDF" H 13400 5350 50  0001 C CNN
F 4 "MBR120ESFT3GOSCT-ND" H 13400 5550 50  0001 C CNN "digikey"
	1    13400 5350
	-1   0    0    1   
$EndComp
$Comp
L C_Small C21
U 1 1 5A45813D
P 11300 5200
F 0 "C21" H 11310 5270 50  0000 L CNN
F 1 "0.1µF" H 11310 5120 50  0000 L CNN
F 2 "Capacitors_SMD:C_0603" H 11300 5200 50  0001 C CNN
F 3 "https://www.murata.com/~/media/webrenewal/support/library/catalog/products/capacitor/mlcc/c02e.ashx?la=en-us" H 11300 5200 50  0001 C CNN
F 4 "490-1532-1-ND" H 11310 5370 50  0001 C CNN "digikey"
	1    11300 5200
	1    0    0    -1  
$EndComp
$Comp
L C_Small C20
U 1 1 5A458498
P 10950 5200
F 0 "C20" H 10960 5270 50  0000 L CNN
F 1 "0.1µF" H 10960 5120 50  0000 L CNN
F 2 "Capacitors_SMD:C_0603" H 10950 5200 50  0001 C CNN
F 3 "https://www.murata.com/~/media/webrenewal/support/library/catalog/products/capacitor/mlcc/c02e.ashx?la=en-us" H 10950 5200 50  0001 C CNN
F 4 "490-1532-1-ND" H 10960 5370 50  0001 C CNN "digikey"
	1    10950 5200
	1    0    0    -1  
$EndComp
$Comp
L GNDD #PWR022
U 1 1 5A458A95
P 11300 5450
F 0 "#PWR022" H 11300 5200 50  0001 C CNN
F 1 "GNDD" H 11300 5325 50  0000 C CNN
F 2 "" H 11300 5450 50  0001 C CNN
F 3 "" H 11300 5450 50  0001 C CNN
	1    11300 5450
	1    0    0    -1  
$EndComp
$Comp
L GNDD #PWR023
U 1 1 5A458BCF
P 10950 5450
F 0 "#PWR023" H 10950 5200 50  0001 C CNN
F 1 "GNDD" H 10950 5325 50  0000 C CNN
F 2 "" H 10950 5450 50  0001 C CNN
F 3 "" H 10950 5450 50  0001 C CNN
	1    10950 5450
	1    0    0    -1  
$EndComp
$Comp
L GNDD #PWR024
U 1 1 5A458EA8
P 10700 5450
F 0 "#PWR024" H 10700 5200 50  0001 C CNN
F 1 "GNDD" H 10700 5325 50  0000 C CNN
F 2 "" H 10700 5450 50  0001 C CNN
F 3 "" H 10700 5450 50  0001 C CNN
	1    10700 5450
	1    0    0    -1  
$EndComp
$Comp
L GNDD #PWR025
U 1 1 5A458FE2
P 9200 5450
F 0 "#PWR025" H 9200 5200 50  0001 C CNN
F 1 "GNDD" H 9200 5325 50  0000 C CNN
F 2 "" H 9200 5450 50  0001 C CNN
F 3 "" H 9200 5450 50  0001 C CNN
	1    9200 5450
	1    0    0    -1  
$EndComp
$Comp
L +3V3 #PWR026
U 1 1 5A459181
P 11500 3850
F 0 "#PWR026" H 11500 3700 50  0001 C CNN
F 1 "+3V3" H 11500 3990 50  0000 C CNN
F 2 "" H 11500 3850 50  0001 C CNN
F 3 "" H 11500 3850 50  0001 C CNN
	1    11500 3850
	1    0    0    -1  
$EndComp
$Comp
L R_Small R9
U 1 1 5A459575
P 9200 4150
F 0 "R9" H 9230 4170 50  0000 L CNN
F 1 "10K" H 9230 4110 50  0000 L CNN
F 2 "Resistors_SMD:R_0603" H 9200 4150 50  0001 C CNN
F 3 "http://www.yageo.com/documents/recent/PYu-RC_Group_51_RoHS_L_8.pdf" H 9200 4150 50  0001 C CNN
F 4 "311-10KGRCT-ND" H 9230 4270 50  0001 C CNN "digikey"
	1    9200 4150
	-1   0    0    1   
$EndComp
$Comp
L GNDA #PWR027
U 1 1 5A45C8BE
P 13400 9400
F 0 "#PWR027" H 13400 9150 50  0001 C CNN
F 1 "GNDA" H 13400 9250 50  0000 C CNN
F 2 "" H 13400 9400 50  0001 C CNN
F 3 "" H 13400 9400 50  0001 C CNN
	1    13400 9400
	1    0    0    -1  
$EndComp
$Comp
L GNDD #PWR028
U 1 1 5A460F1E
P 2950 10500
F 0 "#PWR028" H 2950 10250 50  0001 C CNN
F 1 "GNDD" H 2950 10375 50  0000 C CNN
F 2 "" H 2950 10500 50  0001 C CNN
F 3 "" H 2950 10500 50  0001 C CNN
	1    2950 10500
	1    0    0    -1  
$EndComp
$Comp
L GNDD #PWR029
U 1 1 5A4612C3
P 2700 10500
F 0 "#PWR029" H 2700 10250 50  0001 C CNN
F 1 "GNDD" H 2700 10375 50  0000 C CNN
F 2 "" H 2700 10500 50  0001 C CNN
F 3 "" H 2700 10500 50  0001 C CNN
	1    2700 10500
	1    0    0    -1  
$EndComp
$Comp
L GNDD #PWR030
U 1 1 5A4613FD
P 2200 10500
F 0 "#PWR030" H 2200 10250 50  0001 C CNN
F 1 "GNDD" H 2200 10375 50  0000 C CNN
F 2 "" H 2200 10500 50  0001 C CNN
F 3 "" H 2200 10500 50  0001 C CNN
	1    2200 10500
	1    0    0    -1  
$EndComp
$Comp
L +3V3 #PWR031
U 1 1 5A461537
P 3150 9150
F 0 "#PWR031" H 3150 9000 50  0001 C CNN
F 1 "+3V3" H 3150 9290 50  0000 C CNN
F 2 "" H 3150 9150 50  0001 C CNN
F 3 "" H 3150 9150 50  0001 C CNN
	1    3150 9150
	1    0    0    -1  
$EndComp
$Comp
L Conn_01x10 J1
U 1 1 5A461DD3
P 1900 8450
F 0 "J1" H 1900 8950 50  0000 C CNN
F 1 "Air" H 1900 7850 50  0000 C CNN
F 2 "air:1X10" V 2000 8400 30  0000 C CNN
F 3 "" H 1900 8450 50  0001 C CNN
	1    1900 8450
	-1   0    0    1   
$EndComp
$Comp
L +3V3 #PWR032
U 1 1 5A4657A5
P 6750 1200
F 0 "#PWR032" H 6750 1050 50  0001 C CNN
F 1 "+3V3" H 6750 1340 50  0000 C CNN
F 2 "" H 6750 1200 50  0001 C CNN
F 3 "" H 6750 1200 50  0001 C CNN
	1    6750 1200
	1    0    0    -1  
$EndComp
$Comp
L GNDD #PWR033
U 1 1 5A465C01
P 3450 1150
F 0 "#PWR033" H 3450 900 50  0001 C CNN
F 1 "GNDD" H 3450 1025 50  0000 C CNN
F 2 "" H 3450 1150 50  0001 C CNN
F 3 "" H 3450 1150 50  0001 C CNN
	1    3450 1150
	1    0    0    -1  
$EndComp
$Comp
L +3V3 #PWR034
U 1 1 5A468B17
P 1750 4400
F 0 "#PWR034" H 1750 4250 50  0001 C CNN
F 1 "+3V3" H 1750 4540 50  0000 C CNN
F 2 "" H 1750 4400 50  0001 C CNN
F 3 "" H 1750 4400 50  0001 C CNN
	1    1750 4400
	1    0    0    -1  
$EndComp
$Comp
L GNDA #PWR035
U 1 1 5A46C62D
P 7250 1800
F 0 "#PWR035" H 7250 1550 50  0001 C CNN
F 1 "GNDA" H 7250 1650 50  0000 C CNN
F 2 "" H 7250 1800 50  0001 C CNN
F 3 "" H 7250 1800 50  0001 C CNN
	1    7250 1800
	1    0    0    -1  
$EndComp
$Comp
L GNDD #PWR036
U 1 1 5A43A99F
P 2450 6050
F 0 "#PWR036" H 2450 5800 50  0001 C CNN
F 1 "GNDD" H 2450 5925 50  0000 C CNN
F 2 "" H 2450 6050 50  0001 C CNN
F 3 "" H 2450 6050 50  0001 C CNN
	1    2450 6050
	1    0    0    -1  
$EndComp
$Comp
L C_Small C27
U 1 1 5A43E325
P 13750 9600
F 0 "C27" H 13760 9670 50  0000 L CNN
F 1 "0.1µF" H 13760 9520 50  0000 L CNN
F 2 "Capacitors_SMD:C_0603" H 13750 9600 50  0001 C CNN
F 3 "https://www.murata.com/~/media/webrenewal/support/library/catalog/products/capacitor/mlcc/c02e.ashx?la=en-us" H 13750 9600 50  0001 C CNN
F 4 "490-1532-1-ND" H 13760 9770 50  0001 C CNN "digikey"
	1    13750 9600
	1    0    0    -1  
$EndComp
$Comp
L R_Small R31
U 1 1 5A43E7E9
P 13550 9200
F 0 "R31" H 13580 9220 50  0000 L CNN
F 1 "67" H 13580 9160 50  0000 L CNN
F 2 "Resistors_SMD:R_0603" H 13550 9200 50  0001 C CNN
F 3 "http://www.yageo.com/documents/recent/PYu-RC_Group_51_RoHS_L_8.pdf" H 13550 9200 50  0001 C CNN
F 4 "311-68GRCT-ND" H 13580 9320 50  0001 C CNN "digikey"
	1    13550 9200
	0    -1   -1   0   
$EndComp
$Comp
L GNDA #PWR037
U 1 1 5A43EAEB
P 13750 9750
F 0 "#PWR037" H 13750 9500 50  0001 C CNN
F 1 "GNDA" H 13750 9600 50  0001 C CNN
F 2 "" H 13750 9750 50  0001 C CNN
F 3 "" H 13750 9750 50  0001 C CNN
	1    13750 9750
	1    0    0    -1  
$EndComp
$Comp
L R_Small R32
U 1 1 5A449265
P 13750 9000
F 0 "R32" H 13780 9020 50  0000 L CNN
F 1 "67" H 13780 8960 50  0000 L CNN
F 2 "Resistors_SMD:R_0603" H 13750 9000 50  0001 C CNN
F 3 "http://www.yageo.com/documents/recent/PYu-RC_Group_51_RoHS_L_8.pdf" H 13750 9000 50  0001 C CNN
F 4 "311-68GRCT-ND" H 13780 9120 50  0001 C CNN "digikey"
	1    13750 9000
	0    -1   -1   0   
$EndComp
$Comp
L R_Small R33
U 1 1 5A44938D
P 13950 8900
F 0 "R33" H 13980 8920 50  0000 L CNN
F 1 "67" H 13980 8860 50  0000 L CNN
F 2 "Resistors_SMD:R_0603" H 13950 8900 50  0001 C CNN
F 3 "http://www.yageo.com/documents/recent/PYu-RC_Group_51_RoHS_L_8.pdf" H 13950 8900 50  0001 C CNN
F 4 "311-68GRCT-ND" H 13980 9020 50  0001 C CNN "digikey"
	1    13950 8900
	0    -1   -1   0   
$EndComp
$Comp
L C_Small C32
U 1 1 5A449BCF
P 13950 9450
F 0 "C32" H 13960 9520 50  0000 L CNN
F 1 "0.1µF" H 13960 9370 50  0000 L CNN
F 2 "Capacitors_SMD:C_0603" H 13950 9450 50  0001 C CNN
F 3 "https://www.murata.com/~/media/webrenewal/support/library/catalog/products/capacitor/mlcc/c02e.ashx?la=en-us" H 13950 9450 50  0001 C CNN
F 4 "490-1532-1-ND" H 13960 9620 50  0001 C CNN "digikey"
	1    13950 9450
	1    0    0    -1  
$EndComp
$Comp
L C_Small C33
U 1 1 5A449EB9
P 14150 9300
F 0 "C33" H 14160 9370 50  0000 L CNN
F 1 "0.1µF" H 14160 9220 50  0000 L CNN
F 2 "Capacitors_SMD:C_0603" H 14150 9300 50  0001 C CNN
F 3 "https://www.murata.com/~/media/webrenewal/support/library/catalog/products/capacitor/mlcc/c02e.ashx?la=en-us" H 14150 9300 50  0001 C CNN
F 4 "490-1532-1-ND" H 14160 9470 50  0001 C CNN "digikey"
	1    14150 9300
	1    0    0    -1  
$EndComp
$Comp
L GNDA #PWR038
U 1 1 5A44B062
P 13950 9750
F 0 "#PWR038" H 13950 9500 50  0001 C CNN
F 1 "GNDA" H 13950 9600 50  0001 C CNN
F 2 "" H 13950 9750 50  0001 C CNN
F 3 "" H 13950 9750 50  0001 C CNN
	1    13950 9750
	1    0    0    -1  
$EndComp
$Comp
L GNDA #PWR039
U 1 1 5A44B18A
P 14150 9750
F 0 "#PWR039" H 14150 9500 50  0001 C CNN
F 1 "GNDA" H 14150 9600 50  0001 C CNN
F 2 "" H 14150 9750 50  0001 C CNN
F 3 "" H 14150 9750 50  0001 C CNN
	1    14150 9750
	1    0    0    -1  
$EndComp
$Comp
L GNDD #PWR040
U 1 1 5A44C63D
P 13700 8200
F 0 "#PWR040" H 13700 7950 50  0001 C CNN
F 1 "GNDD" H 13700 8075 50  0000 C CNN
F 2 "" H 13700 8200 50  0001 C CNN
F 3 "" H 13700 8200 50  0001 C CNN
	1    13700 8200
	1    0    0    -1  
$EndComp
$Comp
L GNDD #PWR041
U 1 1 5A44C765
P 14500 8200
F 0 "#PWR041" H 14500 7950 50  0001 C CNN
F 1 "GNDD" H 14500 8075 50  0000 C CNN
F 2 "" H 14500 8200 50  0001 C CNN
F 3 "" H 14500 8200 50  0001 C CNN
	1    14500 8200
	1    0    0    -1  
$EndComp
$Comp
L GNDD #PWR042
U 1 1 5A44C88D
P 14800 8200
F 0 "#PWR042" H 14800 7950 50  0001 C CNN
F 1 "GNDD" H 14800 8075 50  0000 C CNN
F 2 "" H 14800 8200 50  0001 C CNN
F 3 "" H 14800 8200 50  0001 C CNN
	1    14800 8200
	1    0    0    -1  
$EndComp
$Comp
L Teensy3.2-RESCUE-air_01 U4
U 1 1 5A44EE8A
P 5150 3000
F 0 "U4" H 5150 5275 60  0000 C CNN
F 1 "Teensy3.2" H 5150 5175 60  0000 C CNN
F 2 "air:Teensy30_31_32_LC" H 5150 5050 30  0000 C CNN
F 3 "" H 5150 2700 60  0000 C CNN
	1    5150 3000
	1    0    0    -1  
$EndComp
$Comp
L MCP73831_AIR U6
U 1 1 5A4518AF
P 13950 2150
F 0 "U6" H 13950 2475 45  0000 C CNN
F 1 "MCP73831_AIR" H 13950 2400 45  0000 C CNN
F 2 "TO_SOT_Packages_SMD:SOT-23-5" H 13950 1900 30  0000 C CNN
F 3 "http://ww1.microchip.com/downloads/en/DeviceDoc/20001984g.pdf" H 13650 2400 60  0001 C CNN
F 4 "MCP73831T-2ATI/OTCT-ND" H 13950 2575 50  0001 C CNN "digikey"
	1    13950 2150
	1    0    0    -1  
$EndComp
$Comp
L LIPO_JST_PH-S2B-SM4 J6
U 1 1 5A4540A1
P 12950 3100
F 0 "J6" H 12750 3300 45  0000 L BNN
F 1 "LIPO_JST_PH-S2B-SM4" H 12150 2950 45  0000 L BNN
F 2 "Connectors_JST:JST_PH_S2B-PH-SM4-TB_02x2.00mm_Angled" H 12950 3400 30  0001 C CNN
F 3 "http://www.jst-mfg.com/product/pdf/eng/ePH.pdf" H 12750 3300 50  0001 C CNN
F 4 "455-1749-1-ND" H 12750 3400 50  0001 C CNN "digikey"
	1    12950 3100
	-1   0    0    1   
$EndComp
$Comp
L PWR_FLAG #FLG043
U 1 1 5A45AC26
P 7250 1500
F 0 "#FLG043" H 7250 1575 50  0001 C CNN
F 1 "PWR_FLAG" H 7250 1650 50  0000 C CNN
F 2 "" H 7250 1500 50  0001 C CNN
F 3 "" H 7250 1500 50  0001 C CNN
	1    7250 1500
	1    0    0    -1  
$EndComp
$Comp
L PWR_FLAG #FLG044
U 1 1 5A466D2B
P 13650 5250
F 0 "#FLG044" H 13650 5325 50  0001 C CNN
F 1 "PWR_FLAG" H 13650 5400 50  0000 C CNN
F 2 "" H 13650 5250 50  0001 C CNN
F 3 "" H 13650 5250 50  0001 C CNN
	1    13650 5250
	1    0    0    -1  
$EndComp
$Comp
L TRRS_Audio-Jack J7
U 1 1 5A46C13D
P 13150 9000
F 0 "J7" H 13150 9400 50  0000 C CNN
F 1 "TRRS_Audio-Jack" H 13150 9325 50  0000 C CNN
F 2 "air:TRRS_SJ2-35364B-SMT" H 13325 9250 50  0001 C CNN
F 3 "http://www.cui.com/product/resource/digikeypdf/sj2-35364b-smt-tr.pdf" H 13325 9250 50  0001 C CNN
F 4 "CP-SJ2-35364B-SMT-CT-ND" H 13150 9500 50  0001 C CNN "digikey"
	1    13150 9000
	1    0    0    -1  
$EndComp
$Comp
L Conn_01x10 J8
U 1 1 5A477277
P 1250 9750
F 0 "J8" H 1250 10250 50  0000 C CNN
F 1 "RCPT-MQ212-10" H 1250 9150 50  0000 C CNN
F 2 "air:MQ212_SMD_RCPT" V 1350 9700 30  0000 C CNN
F 3 "https://media.digikey.com/pdf/Data%20Sheets/Hirose%20PDFs/MQ212-10PT%20RoHS.pdf" H 1250 9750 50  0001 C CNN
F 4 "H11457CT-ND" H 1250 10350 50  0001 C CNN "digikey"
	1    1250 9750
	-1   0    0    1   
$EndComp
$Comp
L LED D3
U 1 1 5A48528F
P 13000 2500
F 0 "D3" H 13000 2600 50  0000 C CNN
F 1 "LEDRED" H 13050 2400 50  0000 C CNN
F 2 "LEDs:LED_0603" H 13000 2500 50  0001 C CNN
F 3 "http://optoelectronics.liteon.com/upload/download/DS-22-99-0151/LTST-C190KRKT.pdf" H 13000 2500 50  0001 C CNN
F 4 "160-1436-1-ND" H 13000 2700 50  0001 C CNN "digikey"
	1    13000 2500
	1    0    0    -1  
$EndComp
$Comp
L GNDD #PWR045
U 1 1 5A485383
P 12750 2600
F 0 "#PWR045" H 12750 2350 50  0001 C CNN
F 1 "GNDD" H 12750 2475 50  0000 C CNN
F 2 "" H 12750 2600 50  0001 C CNN
F 3 "" H 12750 2600 50  0001 C CNN
	1    12750 2600
	1    0    0    -1  
$EndComp
$Comp
L SK6812RGBW_NEOPIXEL U1
U 1 1 5A488D28
P 4300 5600
F 0 "U1" H 4300 6000 60  0000 C CNN
F 1 "SK6812RGBW_NEOPIXEL" H 4300 5900 60  0000 C CNN
F 2 "LEDs:LED_WS2812B-PLCC4" H 4300 5300 30  0000 C CNN
F 3 "https://cdn-shop.adafruit.com/product-files/2757/p2757_SK6812RGBW_REV01.pdf" H 4050 5700 60  0001 C CNN
F 4 "1528-2386-ND" H 4300 6100 50  0001 C CNN "digikey"
	1    4300 5600
	-1   0    0    -1  
$EndComp
$Comp
L +3V3 #PWR046
U 1 1 5A48934A
P 5150 5350
F 0 "#PWR046" H 5150 5200 50  0001 C CNN
F 1 "+3V3" H 5150 5490 50  0000 C CNN
F 2 "" H 5150 5350 50  0001 C CNN
F 3 "" H 5150 5350 50  0001 C CNN
	1    5150 5350
	1    0    0    -1  
$EndComp
$Comp
L C_Small C1
U 1 1 5A489433
P 5150 5950
F 0 "C1" H 5160 6020 50  0000 L CNN
F 1 "1µF" H 5160 5870 50  0000 L CNN
F 2 "Capacitors_SMD:C_0603" H 5150 5950 50  0001 C CNN
F 3 "https://www.murata.com/~/media/webrenewal/support/library/catalog/products/capacitor/mlcc/c02e.ashx?la=en-us" H 5150 5950 50  0001 C CNN
F 4 "490-1543-1-ND" H 5160 6120 50  0001 C CNN "digikey"
	1    5150 5950
	1    0    0    -1  
$EndComp
$Comp
L GNDD #PWR047
U 1 1 5A489D01
P 5150 6150
F 0 "#PWR047" H 5150 5900 50  0001 C CNN
F 1 "GNDD" H 5150 6025 50  0000 C CNN
F 2 "" H 5150 6150 50  0001 C CNN
F 3 "" H 5150 6150 50  0001 C CNN
	1    5150 6150
	1    0    0    -1  
$EndComp
$Comp
L GNDD #PWR048
U 1 1 5A48A9D8
P 4950 6150
F 0 "#PWR048" H 4950 5900 50  0001 C CNN
F 1 "GNDD" H 4950 6025 50  0000 C CNN
F 2 "" H 4950 6150 50  0001 C CNN
F 3 "" H 4950 6150 50  0001 C CNN
	1    4950 6150
	1    0    0    -1  
$EndComp
$Comp
L SK6812RGBW_NEOPIXEL U7
U 1 1 5A48C65B
P 6400 5600
F 0 "U7" H 6400 6000 60  0000 C CNN
F 1 "SK6812RGBW_NEOPIXEL" H 6400 5900 60  0000 C CNN
F 2 "LEDs:LED_WS2812B-PLCC4" H 6400 5300 30  0000 C CNN
F 3 "https://cdn-shop.adafruit.com/product-files/2757/p2757_SK6812RGBW_REV01.pdf" H 6150 5700 60  0001 C CNN
F 4 "1528-2386-ND" H 6400 6100 50  0001 C CNN "digikey"
	1    6400 5600
	-1   0    0    -1  
$EndComp
$Comp
L +3V3 #PWR049
U 1 1 5A48C661
P 7250 5350
F 0 "#PWR049" H 7250 5200 50  0001 C CNN
F 1 "+3V3" H 7250 5490 50  0000 C CNN
F 2 "" H 7250 5350 50  0001 C CNN
F 3 "" H 7250 5350 50  0001 C CNN
	1    7250 5350
	1    0    0    -1  
$EndComp
$Comp
L C_Small C5
U 1 1 5A48C667
P 7250 5950
F 0 "C5" H 7260 6020 50  0000 L CNN
F 1 "1µF" H 7260 5870 50  0000 L CNN
F 2 "Capacitors_SMD:C_0603" H 7250 5950 50  0001 C CNN
F 3 "https://www.murata.com/~/media/webrenewal/support/library/catalog/products/capacitor/mlcc/c02e.ashx?la=en-us" H 7250 5950 50  0001 C CNN
F 4 "490-1543-1-ND" H 7260 6120 50  0001 C CNN "digikey"
	1    7250 5950
	1    0    0    -1  
$EndComp
$Comp
L GNDD #PWR050
U 1 1 5A48C670
P 7250 6150
F 0 "#PWR050" H 7250 5900 50  0001 C CNN
F 1 "GNDD" H 7250 6025 50  0000 C CNN
F 2 "" H 7250 6150 50  0001 C CNN
F 3 "" H 7250 6150 50  0001 C CNN
	1    7250 6150
	1    0    0    -1  
$EndComp
$Comp
L GNDD #PWR051
U 1 1 5A48C679
P 7050 6150
F 0 "#PWR051" H 7050 5900 50  0001 C CNN
F 1 "GNDD" H 7050 6025 50  0000 C CNN
F 2 "" H 7050 6150 50  0001 C CNN
F 3 "" H 7050 6150 50  0001 C CNN
	1    7050 6150
	1    0    0    -1  
$EndComp
$Comp
L +BATT #PWR052
U 1 1 5A490A0B
P 15000 1850
F 0 "#PWR052" H 15000 1700 50  0001 C CNN
F 1 "+BATT" H 15000 1990 50  0000 C CNN
F 2 "" H 15000 1850 50  0001 C CNN
F 3 "" H 15000 1850 50  0001 C CNN
	1    15000 1850
	1    0    0    -1  
$EndComp
$Comp
L VBUS #PWR053
U 1 1 5A490E7E
P 12750 1850
F 0 "#PWR053" H 12750 1700 50  0001 C CNN
F 1 "VBUS" H 12750 2000 50  0000 C CNN
F 2 "" H 12750 1850 50  0001 C CNN
F 3 "" H 12750 1850 50  0001 C CNN
	1    12750 1850
	1    0    0    -1  
$EndComp
$Comp
L +BATT #PWR054
U 1 1 5A4917AA
P 13100 900
F 0 "#PWR054" H 13100 750 50  0001 C CNN
F 1 "+BATT" H 13100 1040 50  0000 C CNN
F 2 "" H 13100 900 50  0001 C CNN
F 3 "" H 13100 900 50  0001 C CNN
	1    13100 900 
	1    0    0    -1  
$EndComp
$Comp
L VBUS #PWR055
U 1 1 5A492414
P 6900 1100
F 0 "#PWR055" H 6900 950 50  0001 C CNN
F 1 "VBUS" H 6900 1250 50  0000 C CNN
F 2 "" H 6900 1100 50  0001 C CNN
F 3 "" H 6900 1100 50  0001 C CNN
	1    6900 1100
	1    0    0    -1  
$EndComp
$Comp
L +BATT #PWR056
U 1 1 5A494735
P 12650 5350
F 0 "#PWR056" H 12650 5200 50  0001 C CNN
F 1 "+BATT" H 12650 5490 50  0000 C CNN
F 2 "" H 12650 5350 50  0001 C CNN
F 3 "" H 12650 5350 50  0001 C CNN
	1    12650 5350
	1    0    0    -1  
$EndComp
$Comp
L PWR_FLAG #FLG057
U 1 1 5A45E94B
P 3450 1000
F 0 "#FLG057" H 3450 1075 50  0001 C CNN
F 1 "PWR_FLAG" H 3450 1150 50  0000 C CNN
F 2 "" H 3450 1000 50  0001 C CNN
F 3 "" H 3450 1000 50  0001 C CNN
	1    3450 1000
	1    0    0    -1  
$EndComp
$Comp
L +3V3 #PWR058
U 1 1 5A49E04E
P 9850 1400
F 0 "#PWR058" H 9850 1250 50  0001 C CNN
F 1 "+3V3" H 9850 1540 50  0000 C CNN
F 2 "" H 9850 1400 50  0001 C CNN
F 3 "" H 9850 1400 50  0001 C CNN
	1    9850 1400
	1    0    0    -1  
$EndComp
$Comp
L GNDD #PWR059
U 1 1 5A49ED35
P 10100 2950
F 0 "#PWR059" H 10100 2700 50  0001 C CNN
F 1 "GNDD" H 10100 2825 50  0000 C CNN
F 2 "" H 10100 2950 50  0001 C CNN
F 3 "" H 10100 2950 50  0001 C CNN
	1    10100 2950
	1    0    0    -1  
$EndComp
$Comp
L LED D4
U 1 1 5A4A6A8E
P 7750 2050
F 0 "D4" H 7750 2150 50  0000 C CNN
F 1 "LEDYELLOW" H 7800 1950 50  0000 C CNN
F 2 "LEDs:LED_0603" H 7750 2050 50  0001 C CNN
F 3 "http://optoelectronics.liteon.com/upload/download/DS22-2000-224/LTST-C191KSKT.PDF" H 7750 2050 50  0001 C CNN
F 4 "160-1448-1-ND" H 7750 2250 50  0001 C CNN "digikey"
	1    7750 2050
	0    -1   -1   0   
$EndComp
$Comp
L R_Small R19
U 1 1 5A4A7725
P 7750 2400
F 0 "R19" H 7780 2430 39  0000 L CNN
F 1 "1K" H 7780 2360 39  0000 L CNN
F 2 "Resistors_SMD:R_0603" H 7750 2400 39  0001 C CNN
F 3 "http://www.yageo.com/documents/recent/PYu-RC_Group_51_RoHS_L_8.pdf" H 7750 2400 39  0001 C CNN
F 4 "311-1.0KGRCT-ND" H 7750 2400 39  0001 C CNN "digikey"
	1    7750 2400
	-1   0    0    1   
$EndComp
$Comp
L +3V3 #PWR060
U 1 1 5A4AA1D2
P 7750 1400
F 0 "#PWR060" H 7750 1250 50  0001 C CNN
F 1 "+3V3" H 7750 1540 50  0000 C CNN
F 2 "" H 7750 1400 50  0001 C CNN
F 3 "" H 7750 1400 50  0001 C CNN
	1    7750 1400
	1    0    0    -1  
$EndComp
$Comp
L Conn_01x05 J9
U 1 1 5A4B855B
P 8800 1050
F 0 "J9" H 8800 1350 50  0000 C CNN
F 1 "ESP" H 8800 750 50  0000 C CNN
F 2 "Connectors_Sparkfun:1X05_NO_SILK" V 8900 1050 30  0000 C CNN
F 3 "" H 8800 1050 50  0001 C CNN
	1    8800 1050
	-1   0    0    1   
$EndComp
$Comp
L PWR_FLAG #FLG061
U 1 1 5A4C108F
P 12800 3000
F 0 "#FLG061" H 12800 3075 50  0001 C CNN
F 1 "PWR_FLAG" H 12800 3150 50  0000 C CNN
F 2 "" H 12800 3000 50  0001 C CNN
F 3 "" H 12800 3000 50  0001 C CNN
	1    12800 3000
	1    0    0    -1  
$EndComp
$Comp
L GS2 J10
U 1 1 5A4CCD26
P 5600 4900
F 0 "J10" V 5400 4900 50  0000 C CNN
F 1 "GS2" V 5500 4900 50  0000 C CNN
F 2 "Connectors:GS2" V 5674 4900 30  0000 C CNN
F 3 "" H 5600 4900 50  0001 C CNN
	1    5600 4900
	0    1    1    0   
$EndComp
$Comp
L GS2 J11
U 1 1 5A4CF29D
P 6200 4900
F 0 "J11" V 6000 4900 50  0000 C CNN
F 1 "GS2" V 6100 4900 50  0000 C CNN
F 2 "Connectors:GS2" V 6274 4900 30  0000 C CNN
F 3 "" H 6200 4900 50  0001 C CNN
	1    6200 4900
	0    1    1    0   
$EndComp
$Comp
L SWITCH-SPDT S2
U 1 1 5A4DAF37
P 12950 5450
F 0 "S2" H 12950 5600 45  0000 C CNN
F 1 "SWITCH-SPDT" H 12950 5275 45  0000 C CNN
F 2 "air:SW_SPDT_PCM12SMTR" H 12950 5200 30  0001 C CNN
F 3 "http://www.ckswitches.com/media/1424/pcm.pdf" H 12850 5600 50  0001 C CNN
F 4 "401-2016-1-ND" H 12950 5700 50  0001 C CNN "digikey"
	1    12950 5450
	1    0    0    -1  
$EndComp
$Comp
L GNDD #PWR062
U 1 1 5A4E0A8A
P 10900 10400
F 0 "#PWR062" H 10900 10150 50  0001 C CNN
F 1 "GNDD" H 10900 10275 50  0000 C CNN
F 2 "" H 10900 10400 50  0001 C CNN
F 3 "" H 10900 10400 50  0001 C CNN
	1    10900 10400
	1    0    0    -1  
$EndComp
$Comp
L Conn_01x04 J5
U 1 1 5A4E4B18
P 9300 10100
F 0 "J5" H 9300 10300 50  0000 C CNN
F 1 "GPIO" H 9300 9800 50  0000 C CNN
F 2 "air:1X04" H 9300 10100 50  0001 C CNN
F 3 "" H 9300 10100 50  0001 C CNN
	1    9300 10100
	-1   0    0    1   
$EndComp
$Comp
L R_Small R15
U 1 1 5A484280
P 10950 1550
F 0 "R15" H 10980 1570 50  0000 L CNN
F 1 "10K" H 10980 1510 50  0000 L CNN
F 2 "Resistors_SMD:R_0603" H 10950 1550 50  0001 C CNN
F 3 "http://www.yageo.com/documents/recent/PYu-RC_Group_51_RoHS_L_8.pdf" H 10950 1550 39  0001 C CNN
F 4 "311-10KGRCT-ND" H 10950 1550 39  0001 C CNN "digikey"
	1    10950 1550
	-1   0    0    1   
$EndComp
$Comp
L R_Small R18
U 1 1 5A48459D
P 11450 1550
F 0 "R18" H 11480 1570 50  0000 L CNN
F 1 "10K" H 11480 1510 50  0000 L CNN
F 2 "Resistors_SMD:R_0603" H 11450 1550 50  0001 C CNN
F 3 "http://www.yageo.com/documents/recent/PYu-RC_Group_51_RoHS_L_8.pdf" H 11450 1550 39  0001 C CNN
F 4 "311-10KGRCT-ND" H 11450 1550 39  0001 C CNN "digikey"
	1    11450 1550
	-1   0    0    1   
$EndComp
$Comp
L R_Small R20
U 1 1 5A4846AA
P 11700 1550
F 0 "R20" H 11730 1570 50  0000 L CNN
F 1 "10K" H 11730 1510 50  0000 L CNN
F 2 "Resistors_SMD:R_0603" H 11700 1550 50  0001 C CNN
F 3 "http://www.yageo.com/documents/recent/PYu-RC_Group_51_RoHS_L_8.pdf" H 11700 1550 39  0001 C CNN
F 4 "311-10KGRCT-ND" H 11700 1550 39  0001 C CNN "digikey"
	1    11700 1550
	-1   0    0    1   
$EndComp
$Comp
L R_Small R14
U 1 1 5A48507C
P 10850 2750
F 0 "R14" H 10880 2770 50  0000 L CNN
F 1 "10K" H 10880 2710 50  0000 L CNN
F 2 "Resistors_SMD:R_0603" H 10850 2750 50  0001 C CNN
F 3 "http://www.yageo.com/documents/recent/PYu-RC_Group_51_RoHS_L_8.pdf" H 10850 2750 39  0001 C CNN
F 4 "311-10KGRCT-ND" H 10850 2750 39  0001 C CNN "digikey"
	1    10850 2750
	-1   0    0    1   
$EndComp
$Comp
L R_Small R16
U 1 1 5A485403
P 11100 2750
F 0 "R16" H 11130 2770 50  0000 L CNN
F 1 "10K" H 11130 2710 50  0000 L CNN
F 2 "Resistors_SMD:R_0603" H 11100 2750 50  0001 C CNN
F 3 "http://www.yageo.com/documents/recent/PYu-RC_Group_51_RoHS_L_8.pdf" H 11100 2750 39  0001 C CNN
F 4 "311-10KGRCT-ND" H 11100 2750 39  0001 C CNN "digikey"
	1    11100 2750
	-1   0    0    1   
$EndComp
$Comp
L R_Small R25
U 1 1 5A4859D1
P 10100 2600
F 0 "R25" H 10130 2620 50  0000 L CNN
F 1 "10K" H 10130 2560 50  0000 L CNN
F 2 "Resistors_SMD:R_0603" H 10100 2600 50  0001 C CNN
F 3 "http://www.yageo.com/documents/recent/PYu-RC_Group_51_RoHS_L_8.pdf" H 10100 2600 39  0001 C CNN
F 4 "311-10KGRCT-ND" H 10100 2600 39  0001 C CNN "digikey"
	1    10100 2600
	-1   0    0    1   
$EndComp
$Comp
L R_Small R24
U 1 1 5A485DA4
P 9850 1600
F 0 "R24" H 9880 1620 50  0000 L CNN
F 1 "10K" H 9880 1560 50  0000 L CNN
F 2 "Resistors_SMD:R_0603" H 9850 1600 50  0001 C CNN
F 3 "http://www.yageo.com/documents/recent/PYu-RC_Group_51_RoHS_L_8.pdf" H 9850 1600 39  0001 C CNN
F 4 "311-10KGRCT-ND" H 9850 1600 39  0001 C CNN "digikey"
	1    9850 1600
	-1   0    0    1   
$EndComp
$Comp
L R_Small R13
U 1 1 5A486221
P 10700 5200
F 0 "R13" H 10730 5220 50  0000 L CNN
F 1 "10K" H 10730 5160 50  0000 L CNN
F 2 "Resistors_SMD:R_0603" H 10700 5200 50  0001 C CNN
F 3 "http://www.yageo.com/documents/recent/PYu-RC_Group_51_RoHS_L_8.pdf" H 10700 5200 39  0001 C CNN
F 4 "311-10KGRCT-ND" H 10700 5200 39  0001 C CNN "digikey"
	1    10700 5200
	-1   0    0    1   
$EndComp
$Comp
L R_Small R1
U 1 1 5A48752F
P 13350 2500
F 0 "R1" H 13380 2530 39  0000 L CNN
F 1 "1K" H 13380 2460 39  0000 L CNN
F 2 "Resistors_SMD:R_0603" H 13350 2500 39  0001 C CNN
F 3 "http://www.yageo.com/documents/recent/PYu-RC_Group_51_RoHS_L_8.pdf" H 13350 2500 39  0001 C CNN
F 4 "311-1.0KGRCT-ND" H 13350 2500 39  0001 C CNN "digikey"
	1    13350 2500
	0    -1   -1   0   
$EndComp
$Comp
L R_Small R23
U 1 1 5A487B49
P 13350 2250
F 0 "R23" H 13380 2280 39  0000 L CNN
F 1 "1K" H 13380 2210 39  0000 L CNN
F 2 "Resistors_SMD:R_0603" H 13350 2250 39  0001 C CNN
F 3 "http://www.yageo.com/documents/recent/PYu-RC_Group_51_RoHS_L_8.pdf" H 13350 2250 39  0001 C CNN
F 4 "311-1.0KGRCT-ND" H 13350 2250 39  0001 C CNN "digikey"
	1    13350 2250
	0    -1   -1   0   
$EndComp
$Comp
L R_Small R30
U 1 1 5A4890E7
P 14800 7500
F 0 "R30" H 14830 7520 50  0000 L CNN
F 1 "10K" H 14830 7460 50  0000 L CNN
F 2 "Resistors_SMD:R_0603" H 14800 7500 50  0001 C CNN
F 3 "http://www.yageo.com/documents/recent/PYu-RC_Group_51_RoHS_L_8.pdf" H 14800 7500 39  0001 C CNN
F 4 "311-10KGRCT-ND" H 14800 7500 39  0001 C CNN "digikey"
	1    14800 7500
	-1   0    0    1   
$EndComp
$Comp
L R_Small R29
U 1 1 5A489507
P 14500 7100
F 0 "R29" H 14530 7120 50  0000 L CNN
F 1 "10K" H 14530 7060 50  0000 L CNN
F 2 "Resistors_SMD:R_0603" H 14500 7100 50  0001 C CNN
F 3 "http://www.yageo.com/documents/recent/PYu-RC_Group_51_RoHS_L_8.pdf" H 14500 7100 39  0001 C CNN
F 4 "311-10KGRCT-ND" H 14500 7100 39  0001 C CNN "digikey"
	1    14500 7100
	-1   0    0    1   
$EndComp
$Comp
L R_Small R5
U 1 1 5A489C27
P 7700 7700
F 0 "R5" H 7730 7720 50  0000 L CNN
F 1 "10K" H 7730 7660 50  0000 L CNN
F 2 "Resistors_SMD:R_0603" H 7700 7700 50  0001 C CNN
F 3 "http://www.yageo.com/documents/recent/PYu-RC_Group_51_RoHS_L_8.pdf" H 7700 7700 39  0001 C CNN
F 4 "311-10KGRCT-ND" H 7700 7700 39  0001 C CNN "digikey"
	1    7700 7700
	0    -1   -1   0   
$EndComp
$Comp
L R_Small R7
U 1 1 5A489D78
P 8100 7700
F 0 "R7" H 8130 7720 50  0000 L CNN
F 1 "10K" H 8130 7660 50  0000 L CNN
F 2 "Resistors_SMD:R_0603" H 8100 7700 50  0001 C CNN
F 3 "http://www.yageo.com/documents/recent/PYu-RC_Group_51_RoHS_L_8.pdf" H 8100 7700 39  0001 C CNN
F 4 "311-10KGRCT-ND" H 8100 7700 39  0001 C CNN "digikey"
	1    8100 7700
	0    -1   -1   0   
$EndComp
$Comp
L R_Small R8
U 1 1 5A489E8B
P 8100 8100
F 0 "R8" H 8130 8120 50  0000 L CNN
F 1 "10K" H 8130 8060 50  0000 L CNN
F 2 "Resistors_SMD:R_0603" H 8100 8100 50  0001 C CNN
F 3 "http://www.yageo.com/documents/recent/PYu-RC_Group_51_RoHS_L_8.pdf" H 8100 8100 39  0001 C CNN
F 4 "311-10KGRCT-ND" H 8100 8100 39  0001 C CNN "digikey"
	1    8100 8100
	0    -1   -1   0   
$EndComp
$Comp
L R_Small R6
U 1 1 5A489FA7
P 7700 8100
F 0 "R6" H 7730 8120 50  0000 L CNN
F 1 "10K" H 7730 8060 50  0000 L CNN
F 2 "Resistors_SMD:R_0603" H 7700 8100 50  0001 C CNN
F 3 "http://www.yageo.com/documents/recent/PYu-RC_Group_51_RoHS_L_8.pdf" H 7700 8100 39  0001 C CNN
F 4 "311-10KGRCT-ND" H 7700 8100 39  0001 C CNN "digikey"
	1    7700 8100
	0    -1   -1   0   
$EndComp
$Comp
L R_Small R4
U 1 1 5A48B13D
P 5700 10150
F 0 "R4" H 5730 10170 50  0000 L CNN
F 1 "10K" H 5730 10110 50  0000 L CNN
F 2 "Resistors_SMD:R_0603" H 5700 10150 50  0001 C CNN
F 3 "http://www.yageo.com/documents/recent/PYu-RC_Group_51_RoHS_L_8.pdf" H 5700 10150 39  0001 C CNN
F 4 "311-10KGRCT-ND" H 5700 10150 39  0001 C CNN "digikey"
	1    5700 10150
	1    0    0    -1  
$EndComp
$Comp
L GNDD #PWR063
U 1 1 5A490B65
P 9700 8650
F 0 "#PWR063" H 9700 8400 50  0001 C CNN
F 1 "GNDD" H 9700 8525 50  0000 C CNN
F 2 "" H 9700 8650 50  0001 C CNN
F 3 "" H 9700 8650 50  0001 C CNN
	1    9700 8650
	1    0    0    -1  
$EndComp
$Comp
L R_Small R26
U 1 1 5A49140B
P 9700 8450
F 0 "R26" H 9730 8470 50  0000 L CNN
F 1 "10K" H 9730 8410 50  0000 L CNN
F 2 "Resistors_SMD:R_0603" H 9700 8450 50  0001 C CNN
F 3 "http://www.yageo.com/documents/recent/PYu-RC_Group_51_RoHS_L_8.pdf" H 9700 8450 39  0001 C CNN
F 4 "311-10KGRCT-ND" H 9700 8450 39  0001 C CNN "digikey"
	1    9700 8450
	-1   0    0    1   
$EndComp
$Comp
L GS2 J4
U 1 1 5A492257
P 10000 7600
F 0 "J4" H 10100 7750 50  0000 C CNN
F 1 "GS2" H 10100 7451 50  0000 C CNN
F 2 "Connectors:GS2" V 10074 7600 50  0001 C CNN
F 3 "" H 10000 7600 50  0001 C CNN
	1    10000 7600
	0    1    -1   0   
$EndComp
Text GLabel 4150 1100 0    60   Input ~ 0
TeensyRX1
Text GLabel 4150 1200 0    60   Output ~ 0
TeensyTX1
Text GLabel 4150 1300 0    60   Input ~ 0
ENCSW
Text GLabel 4150 1400 0    60   Output ~ 0
ENCRed
Text GLabel 4150 1700 0    60   Output ~ 0
NEODATA_0
Text GLabel 4150 1600 0    60   Output ~ 0
ENCBlue
Text GLabel 9950 1900 2    60   Input ~ 0
TeensyTX1
Text GLabel 9950 1800 2    60   Output ~ 0
TeensyRX1
Text GLabel 6150 3900 2    60   BiDi ~ 0
SDA1
Text GLabel 6150 4000 2    60   BiDi ~ 0
SCL1
Text GLabel 9000 4450 0    60   BiDi ~ 0
SCL1
Text GLabel 9000 4350 0    60   BiDi ~ 0
SDA1
Text GLabel 4150 2200 0    60   Output ~ 0
SPI_MOSI
Text GLabel 6150 2700 2    60   Output ~ 0
SPI_SCLK
Text GLabel 4150 2100 0    60   Output ~ 0
SPI_CS
Text GLabel 8000 9850 2    60   Input ~ 0
SPI_SCLK
Text GLabel 8000 9750 2    60   Input ~ 0
SPI_MOSI
Text GLabel 8000 10050 2    60   Input ~ 0
SPI_RST
Text GLabel 8000 10150 2    60   Input ~ 0
SPI_CS
Text GLabel 4150 2000 0    60   Output ~ 0
SPI_DC
Text GLabel 8000 9950 2    60   Input ~ 0
SPI_DC
Text GLabel 6150 2600 2    60   Output ~ 0
SPI_RST
Text GLabel 8000 10450 2    60   UnSpc ~ 0
GND
Text GLabel 8000 10350 2    60   UnSpc ~ 0
3V3
Text GLabel 4150 1500 0    60   Output ~ 0
ENCGreen
Text GLabel 10450 7900 2    60   Input ~ 0
ENCRed
Text GLabel 10450 8000 2    60   Input ~ 0
ENCGreen
Text GLabel 10450 8100 2    60   Input ~ 0
ENCBlue
Text GLabel 10450 8200 2    60   Output ~ 0
ENCSW
Text GLabel 4150 1800 0    60   Input ~ 0
ENCA
Text GLabel 4150 1900 0    60   Input ~ 0
ENCB
Text GLabel 7000 8100 0    60   Output ~ 0
ENCB
Text GLabel 7000 7700 0    60   Output ~ 0
ENCA
Text GLabel 6150 2100 2    60   BiDi ~ 0
PHONE_R2
Text GLabel 6150 2000 2    60   BiDi ~ 0
PHONE_R1
Text GLabel 14400 9000 2    60   BiDi ~ 0
PHONE_R1
Text GLabel 14400 8900 2    60   BiDi ~ 0
PHONE_R2
Text GLabel 6150 2300 2    60   BiDi ~ 0
SDA0
Text GLabel 6150 2200 2    60   BiDi ~ 0
SCL0
Text GLabel 6150 2500 2    60   Input ~ 0
SW0
Text GLabel 6150 2400 2    60   Input ~ 0
SW1
Text GLabel 3300 8750 2    60   BiDi ~ 0
SCL0
Text GLabel 3300 8650 2    60   BiDi ~ 0
SDA0
Text GLabel 3300 8450 2    60   Output ~ 0
HAPTIC_DRV
Text GLabel 3300 8250 2    60   Output ~ 0
SW0
Text GLabel 3300 8150 2    60   Output ~ 0
SW1
Text GLabel 13300 1250 2    60   Output ~ 0
VSENSE
Text GLabel 6150 1000 2    60   Input ~ 0
VSENSE
Text GLabel 4150 3600 0    60   Input ~ 0
MINSW0
Text GLabel 6150 3600 2    60   Input ~ 0
MINSW1
Text GLabel 4150 2900 0    60   Output ~ 0
DAC
Text GLabel 14400 9200 2    60   Input ~ 0
DAC
Text GLabel 14950 7300 2    60   Output ~ 0
MINSW1
Text GLabel 14950 7750 2    60   Output ~ 0
MINSW0
Text Notes 14450 1050 2    60   ~ 0
BATTERY CHARGING
Text Notes 1100 6650 2    121  ~ 0
I/O
Text Notes 9050 1200 2    60   ~ 0
WIFI
Text Notes 14350 5000 2    60   ~ 0
POWER AND FILTERING (ONLY FOR TEENSY 3.2)\n
Text GLabel 11800 1950 2    60   UnSpc ~ 0
SDA1
Text GLabel 11800 1850 2    60   UnSpc ~ 0
SCL0
Text GLabel 11800 1750 2    60   UnSpc ~ 0
SDA0
Text GLabel 11800 2450 2    60   UnSpc ~ 0
SW0
Text GLabel 11800 2550 2    60   UnSpc ~ 0
SW1
Text Notes 11650 900  2    60   ~ 0
PULLUP & INPUT DEBOUNCE
Text GLabel 6150 3800 2    60   BiDi ~ 0
GPIO3
Text GLabel 9500 10200 2    60   BiDi ~ 0
GPIO0
Text GLabel 9500 10100 2    60   BiDi ~ 0
GPIO1
Text GLabel 9500 10000 2    60   BiDi ~ 0
GPIO2
Text GLabel 9500 9900 2    60   BiDi ~ 0
GPIO3
Text GLabel 6150 1900 2    60   BiDi ~ 0
GPIO0
Text GLabel 6150 1800 2    60   BiDi ~ 0
GPIO1
Text Notes 2250 7700 2    60   ~ 0
MQ212 MIRROR
Text Notes 9800 9450 2    60   ~ 0
GPIO
Text Notes 8100 9450 2    60   ~ 0
OLED 128x64
Text GLabel 11800 2050 2    60   UnSpc ~ 0
SCL1
Text GLabel 11800 2250 2    60   UnSpc ~ 0
SW1
Text GLabel 11800 2150 2    60   UnSpc ~ 0
SW0
Text GLabel 3300 9450 2    60   Output ~ 0
SW1
Text GLabel 3300 9550 2    60   Output ~ 0
SW0
Text GLabel 3300 9750 2    60   Input ~ 0
HAPTIC_DRV
Text GLabel 3300 9850 2    60   Input ~ 0
NEODATA_2
Text GLabel 3300 9950 2    60   BiDi ~ 0
SDA0
Text GLabel 3300 10050 2    60   BiDi ~ 0
SCL0
Text GLabel 3300 9350 2    60   BiDi ~ 0
GPIO0
Text GLabel 4600 9750 0    60   Output ~ 0
HAPTIC_DRV
Text Notes 5800 9250 2    60   ~ 0
VIBRATION MOTOR DRIVER
Text GLabel 4600 9650 0    60   Output ~ 0
3V3_DRV
Text GLabel 5850 9750 2    60   Input ~ 0
HAPTIC
Text GLabel 3300 8050 2    60   BiDi ~ 0
GPIO0
Text GLabel 3300 8350 2    60   Input ~ 0
3V3_DRV
Text GLabel 2600 5600 2    60   Input ~ 0
SPI_MOSI
Text GLabel 2600 5500 2    60   Input ~ 0
SPI_SCLK
Text GLabel 2600 5400 2    60   Input ~ 0
SPI_DC
Text GLabel 2600 5300 2    60   Input ~ 0
SPI_RST
Text GLabel 2600 5200 2    60   Input ~ 0
SPI_CS
Text GLabel 6950 1700 2    60   UnSpc ~ 0
3V3
Text Notes 9350 7050 2    60   ~ 0
ENCODER FILTER
Text Notes 14200 6750 2    60   ~ 0
MINI BUTTONS
Text Notes 13200 8600 2    60   ~ 0
PHONE JACK
Text Notes 10050 3700 2    60   ~ 0
ONBOARD IMU
Text Notes 13400 8600 0    60   ~ 0
67Ω/0.1µF yields 22kHz Cutoff
Text Notes 14850 1850 2    41   ~ 0
2.2K = 450mA
Text Notes 14850 1750 2    41   ~ 0
4.3K = 200mA
Text Notes 14850 1650 2    41   ~ 0
6.7K = 100mA
Text GLabel 13750 5350 2    60   Output ~ 0
VIN
Text GLabel 4150 3900 0    60   Input ~ 0
ESP_EN
Text GLabel 6150 3700 2    60   Input ~ 0
HAPTIC
Text GLabel 5400 5750 2    60   Input ~ 0
NEODATA_0
Text GLabel 5400 5550 2    60   Output ~ 0
NEODATA_1
Text GLabel 7350 5750 2    60   Input ~ 0
NEODATA_1
Text GLabel 7350 5550 2    60   Output ~ 0
NEODATA_2
Text GLabel 3300 9650 2    60   Input ~ 0
3V3_DRV
Text GLabel 6150 1500 2    60   Input ~ 0
VIN
Text GLabel 8550 2000 0    60   Input ~ 0
ESP_EN
Text GLabel 8550 1800 0    60   Input ~ 0
ESP_REST
Text GLabel 4150 3800 0    60   Input ~ 0
ESP_REST
Text GLabel 7750 2700 3    60   Input ~ 0
ESP_GPIO0
Text GLabel 9950 2200 2    60   Input ~ 0
ESP_GPIO0
Text GLabel 4150 4000 0    60   Input ~ 0
ESP_GPIO0
Text GLabel 4150 3700 0    60   BiDi ~ 0
GPIO2
Text GLabel 9000 1050 2    60   Input ~ 0
ESP_EN
Text GLabel 9000 950  2    60   Input ~ 0
ESP_REST
Text GLabel 9000 850  2    60   Input ~ 0
ESP_GPIO0
Text GLabel 9000 1250 2    60   Input ~ 0
TeensyTX1
Text GLabel 9000 1150 2    60   Output ~ 0
TeensyRX1
Text GLabel 12750 3100 0    60   Output ~ 0
LIPO
Text GLabel 15200 1950 2    60   Input ~ 0
LIPO
Text GLabel 6550 4900 2    60   Output ~ 0
NEODATA_2
Text GLabel 5300 4900 0    60   Input ~ 0
NEODATA_0
Text GLabel 5300 4750 0    60   Input ~ 0
NEODATA_1
Text GLabel 14400 9100 2    60   Output ~ 0
GPIO3
Text GLabel 11000 10300 2    60   UnSpc ~ 0
GND
Wire Wire Line
	9650 7600 9650 7500
Wire Wire Line
	7250 8400 7250 8450
Wire Wire Line
	7250 8200 7250 7700
Wire Wire Line
	10000 7900 9550 7900
Wire Wire Line
	9550 8100 9600 8100
Wire Wire Line
	2100 4700 1600 4700
Wire Wire Line
	2350 4700 2300 4700
Wire Wire Line
	2350 4800 2350 4700
Wire Wire Line
	1600 4800 2350 4800
Wire Wire Line
	2350 4500 2100 4500
Wire Wire Line
	2350 4600 2350 4500
Wire Wire Line
	1600 4600 2350 4600
Wire Wire Line
	1600 4500 1900 4500
Wire Wire Line
	2450 5100 2300 5100
Wire Wire Line
	2100 4900 2450 4900
Wire Wire Line
	2450 5800 2100 5800
Wire Wire Line
	2450 5900 2300 5900
Wire Wire Line
	1600 5800 1900 5800
Wire Wire Line
	2100 5900 1600 5900
Wire Wire Line
	1700 5700 1600 5700
Wire Wire Line
	2450 5700 1900 5700
Wire Wire Line
	2450 4900 2450 6050
Wire Wire Line
	1600 5000 2450 5000
Wire Wire Line
	2600 5600 1600 5600
Wire Wire Line
	1600 5500 2600 5500
Wire Wire Line
	2600 5400 1600 5400
Wire Wire Line
	1600 5300 2600 5300
Wire Wire Line
	2600 5200 1600 5200
Wire Wire Line
	1600 5100 2100 5100
Wire Wire Line
	1600 4900 1900 4900
Wire Wire Line
	1750 4400 1750 5100
Wire Wire Line
	2950 10500 2950 10350
Wire Wire Line
	2950 9250 2950 10150
Wire Wire Line
	5300 10750 5300 10650
Wire Wire Line
	4900 10000 4900 10150
Wire Wire Line
	4700 9750 4600 9750
Wire Wire Line
	4700 10150 4700 9750
Wire Wire Line
	4700 10150 5300 10150
Wire Wire Line
	5300 10050 5300 10250
Wire Wire Line
	5300 9500 5300 9750
Wire Wire Line
	4900 9800 4900 9650
Wire Wire Line
	5700 10450 5700 10250
Wire Wire Line
	5600 10450 5700 10450
Wire Wire Line
	5700 9750 5850 9750
Wire Wire Line
	5700 10050 5700 9750
Wire Wire Line
	2700 10500 2700 10350
Wire Wire Line
	2700 9250 2700 10150
Wire Wire Line
	2600 9850 3300 9850
Wire Wire Line
	1450 9350 3300 9350
Wire Wire Line
	1450 9750 3300 9750
Wire Wire Line
	1450 9650 3300 9650
Wire Wire Line
	1450 9550 3300 9550
Wire Wire Line
	1450 9450 3300 9450
Wire Wire Line
	1450 9850 2400 9850
Wire Wire Line
	1450 10050 3300 10050
Wire Wire Line
	1450 9950 3300 9950
Wire Wire Line
	1450 9250 3150 9250
Wire Wire Line
	2200 8850 2200 10500
Wire Wire Line
	1450 10150 2200 10150
Wire Wire Line
	11100 2250 11800 2250
Wire Wire Line
	11100 2650 11100 2250
Wire Wire Line
	10850 2150 11800 2150
Wire Wire Line
	10850 2650 10850 2150
Wire Wire Line
	10850 2950 10850 2850
Wire Wire Line
	11100 2850 11100 2950
Wire Wire Line
	10950 2050 11800 2050
Wire Wire Line
	10950 1650 10950 2050
Wire Wire Line
	13100 1150 13100 1350
Wire Wire Line
	13100 1550 13100 1600
Wire Wire Line
	13100 950  13100 900 
Wire Wire Line
	13300 1250 13100 1250
Wire Wire Line
	13150 2250 13250 2250
Wire Wire Line
	13450 2250 13550 2250
Wire Wire Line
	12750 2250 12850 2250
Wire Wire Line
	12750 1850 12750 2250
Wire Wire Line
	14400 1950 15200 1950
Wire Wire Line
	14850 2150 14850 2550
Wire Wire Line
	14350 2150 14550 2150
Wire Wire Line
	14400 2400 14850 2400
Wire Wire Line
	14350 2250 14400 2250
Wire Wire Line
	14400 2250 14400 2400
Wire Wire Line
	15000 2250 15000 2550
Wire Wire Line
	14750 2150 14850 2150
Wire Wire Line
	15000 1850 15000 2050
Wire Wire Line
	14400 2050 14350 2050
Wire Wire Line
	14400 1950 14400 2050
Wire Wire Line
	9550 8200 10450 8200
Wire Wire Line
	10200 7900 10450 7900
Wire Wire Line
	10000 8000 10450 8000
Wire Wire Line
	9800 8000 9550 8000
Wire Wire Line
	9800 8100 10450 8100
Wire Wire Line
	9550 7600 9800 7600
Wire Wire Line
	8200 8100 8350 8100
Wire Wire Line
	7900 7500 7900 8100
Wire Wire Line
	7800 7700 8000 7700
Wire Wire Line
	7800 8100 8000 8100
Wire Wire Line
	7000 7700 7600 7700
Wire Wire Line
	7000 8100 7600 8100
Wire Wire Line
	7500 8400 7500 8450
Wire Wire Line
	8350 7900 8300 7900
Wire Wire Line
	8300 7900 8300 8450
Wire Wire Line
	8200 7700 8350 7700
Wire Wire Line
	7500 8100 7500 8200
Wire Wire Line
	9200 4950 9350 4950
Wire Wire Line
	9200 4950 9200 5450
Wire Wire Line
	11300 5300 11300 5450
Wire Wire Line
	11300 3950 11300 5100
Wire Wire Line
	10550 4650 10950 4650
Wire Wire Line
	10950 4650 10950 5100
Wire Wire Line
	10950 5300 10950 5450
Wire Wire Line
	11300 4950 10550 4950
Wire Wire Line
	10700 4550 10700 5100
Wire Wire Line
	10700 5450 10700 5300
Wire Wire Line
	13450 9200 13300 9200
Wire Wire Line
	9000 4350 9350 4350
Wire Wire Line
	9350 4450 9000 4450
Wire Wire Line
	9200 4250 9200 4550
Wire Wire Line
	9200 4050 9200 3950
Wire Wire Line
	9200 3950 11500 3950
Wire Wire Line
	13700 7300 13700 8200
Wire Wire Line
	13700 7750 13850 7750
Wire Wire Line
	14250 7750 14950 7750
Wire Wire Line
	8400 2500 8400 2600
Wire Wire Line
	12650 5450 12850 5450
Wire Wire Line
	13150 5350 13250 5350
Wire Wire Line
	11350 2850 11350 2950
Wire Wire Line
	11650 2850 11650 2950
Wire Wire Line
	11650 2650 11650 2550
Wire Wire Line
	11650 2550 11800 2550
Wire Wire Line
	11350 2650 11350 2450
Wire Wire Line
	11350 2450 11800 2450
Wire Wire Line
	10950 1200 10950 1450
Wire Wire Line
	11200 1350 11200 1450
Wire Wire Line
	11450 1350 11450 1450
Wire Wire Line
	11700 1350 11700 1450
Wire Wire Line
	11800 1750 11700 1750
Wire Wire Line
	11700 1750 11700 1650
Wire Wire Line
	11450 1650 11450 1850
Wire Wire Line
	11450 1850 11800 1850
Wire Wire Line
	11800 1950 11200 1950
Wire Wire Line
	11200 1950 11200 1650
Wire Wire Line
	9750 2500 9850 2500
Wire Wire Line
	9850 2500 9850 2950
Wire Wire Line
	13650 9200 14400 9200
Wire Wire Line
	14800 6900 14800 7400
Wire Wire Line
	14500 7200 14500 7900
Wire Wire Line
	14800 7600 14800 7900
Wire Wire Line
	14800 8200 14800 8100
Wire Wire Line
	14500 8100 14500 8200
Wire Wire Line
	14500 6800 14500 7000
Wire Wire Line
	4600 9650 5300 9650
Wire Wire Line
	14500 6900 14800 6900
Wire Wire Line
	10950 1350 11700 1350
Wire Wire Line
	8000 2950 8000 2800
Wire Wire Line
	8400 2800 8400 2950
Wire Wire Line
	8000 2500 8550 2500
Wire Wire Line
	9950 1900 9750 1900
Wire Wire Line
	9750 1800 9950 1800
Wire Wire Line
	11500 3950 11500 3850
Wire Wire Line
	3150 9250 3150 9150
Wire Wire Line
	2100 7950 2400 7950
Wire Wire Line
	2400 7950 2400 9250
Wire Wire Line
	2300 9850 2300 8550
Wire Wire Line
	2300 8550 2100 8550
Wire Wire Line
	2100 8750 3300 8750
Wire Wire Line
	3300 8650 2100 8650
Wire Wire Line
	2100 8450 3300 8450
Wire Wire Line
	3300 8350 2100 8350
Wire Wire Line
	3300 8250 2100 8250
Wire Wire Line
	3300 8150 2100 8150
Wire Wire Line
	2100 8050 3300 8050
Wire Wire Line
	2200 8850 2100 8850
Wire Wire Line
	6150 1700 6950 1700
Wire Wire Line
	3450 1000 4150 1000
Wire Wire Line
	3450 1000 3450 1150
Wire Wire Line
	7250 1500 7250 1800
Wire Wire Line
	6750 1200 6750 1700
Wire Wire Line
	10550 4550 10700 4550
Wire Wire Line
	9200 4550 9350 4550
Wire Wire Line
	13750 9750 13750 9700
Wire Wire Line
	13750 9500 13750 9200
Wire Wire Line
	13850 8900 13300 8900
Wire Wire Line
	13300 9000 13650 9000
Wire Wire Line
	14050 8900 14400 8900
Wire Wire Line
	13850 9000 14400 9000
Wire Wire Line
	13950 9000 13950 9350
Wire Wire Line
	14150 9200 14150 8900
Wire Wire Line
	14150 9750 14150 9400
Wire Wire Line
	13950 9750 13950 9550
Wire Wire Line
	12750 3300 12750 3200
Wire Wire Line
	12750 3200 12850 3200
Wire Wire Line
	8550 2000 8550 2000
Wire Wire Line
	7250 1600 6150 1600
Wire Wire Line
	13550 5350 13750 5350
Wire Wire Line
	12750 3100 12850 3100
Wire Wire Line
	13650 5250 13650 5350
Wire Wire Line
	13400 9400 13400 8800
Wire Wire Line
	13400 8800 13300 8800
Wire Wire Line
	13700 7300 13850 7300
Wire Wire Line
	14250 7300 14950 7300
Wire Wire Line
	12750 2600 12750 2500
Wire Wire Line
	12750 2500 12850 2500
Wire Wire Line
	13150 2500 13250 2500
Wire Wire Line
	13450 2500 13500 2500
Wire Wire Line
	13500 2500 13500 2250
Wire Wire Line
	5150 5350 5150 5850
Wire Wire Line
	4750 5450 5150 5450
Wire Wire Line
	5150 6150 5150 6050
Wire Wire Line
	5400 5750 4750 5750
Wire Wire Line
	4950 6150 4950 5650
Wire Wire Line
	4950 5650 4750 5650
Wire Wire Line
	4750 5550 5400 5550
Wire Wire Line
	7250 5350 7250 5850
Wire Wire Line
	6850 5450 7250 5450
Wire Wire Line
	7250 6150 7250 6050
Wire Wire Line
	7350 5750 6850 5750
Wire Wire Line
	7050 6150 7050 5650
Wire Wire Line
	7050 5650 6850 5650
Wire Wire Line
	6850 5550 7350 5550
Wire Wire Line
	12750 2050 13550 2050
Wire Wire Line
	6150 1300 6900 1300
Wire Wire Line
	6900 1300 6900 1100
Wire Wire Line
	12650 5350 12650 5450
Wire Wire Line
	8000 1400 8000 2600
Wire Wire Line
	9850 1700 9850 2300
Wire Wire Line
	9850 2300 9750 2300
Wire Wire Line
	9850 1400 9850 1500
Wire Wire Line
	10100 2950 10100 2700
Wire Wire Line
	10100 2500 10100 2400
Wire Wire Line
	10100 2400 9750 2400
Wire Wire Line
	7750 2200 7750 2300
Wire Wire Line
	7750 1400 7750 1900
Wire Wire Line
	7750 2500 7750 2700
Wire Wire Line
	9950 2200 9750 2200
Wire Wire Line
	12800 3000 12800 3100
Wire Wire Line
	6400 4900 6550 4900
Wire Wire Line
	5800 4900 6000 4900
Wire Wire Line
	5300 4900 5400 4900
Wire Wire Line
	5300 4750 5900 4750
Wire Wire Line
	5900 4750 5900 4900
Wire Wire Line
	13300 9100 14400 9100
Wire Wire Line
	11000 10300 10900 10300
Wire Wire Line
	10900 10300 10900 10400
Wire Wire Line
	9700 8650 9700 8550
Wire Wire Line
	9700 8350 9700 8200
Wire Wire Line
	10200 7600 10300 7600
Wire Wire Line
	10300 7600 10300 7700
Wire Wire Line
	10300 7700 9650 7700
Wire Wire Line
	9650 7700 9650 8000
Connection ~ 7250 7700
Connection ~ 2450 5100
Connection ~ 2450 5000
Connection ~ 1750 5100
Connection ~ 2450 5700
Connection ~ 2450 5800
Connection ~ 2450 5900
Connection ~ 1750 4900
Connection ~ 2950 9250
Connection ~ 4900 10150
Connection ~ 5300 10150
Connection ~ 5300 9650
Connection ~ 4900 9650
Connection ~ 2700 9250
Connection ~ 13100 1250
Connection ~ 12750 2050
Connection ~ 14850 2400
Connection ~ 15000 1950
Connection ~ 7900 8100
Connection ~ 7900 7700
Connection ~ 7500 8100
Connection ~ 11300 4950
Connection ~ 11300 3950
Connection ~ 13700 7750
Connection ~ 8000 2500
Connection ~ 8400 2500
Connection ~ 10950 1350
Connection ~ 11200 1350
Connection ~ 11450 1350
Connection ~ 14500 6900
Connection ~ 14500 7300
Connection ~ 14800 7750
Connection ~ 2400 9250
Connection ~ 2300 9850
Connection ~ 2200 10150
Connection ~ 3450 1000
Connection ~ 6750 1700
Connection ~ 13750 9200
Connection ~ 13950 9000
Connection ~ 14150 8900
Connection ~ 13650 5350
Connection ~ 2100 9250
Connection ~ 2100 9350
Connection ~ 2100 9450
Connection ~ 2100 9550
Connection ~ 2100 9650
Connection ~ 2100 9750
Connection ~ 2100 9850
Connection ~ 2100 9950
Connection ~ 2100 10050
Connection ~ 2100 10150
Connection ~ 13500 2250
Connection ~ 5150 5450
Connection ~ 7250 5450
Connection ~ 7250 1600
Connection ~ 12800 3100
Connection ~ 5900 4900
Connection ~ 9700 8200
Connection ~ 9650 7600
Connection ~ 9650 8000
NoConn ~ 8000 10250
NoConn ~ 9350 4850
NoConn ~ 9350 4750
NoConn ~ 6150 2800
NoConn ~ 4150 2300
NoConn ~ 6150 3200
NoConn ~ 4150 3200
NoConn ~ 13850 7850
NoConn ~ 14250 7850
NoConn ~ 4150 2700
NoConn ~ 4150 2600
NoConn ~ 4150 2500
NoConn ~ 4150 2800
NoConn ~ 6150 1200
NoConn ~ 8900 3050
NoConn ~ 9000 3050
NoConn ~ 9100 3050
NoConn ~ 9200 3050
NoConn ~ 9300 3050
NoConn ~ 9400 3050
NoConn ~ 9750 2100
NoConn ~ 9750 2000
NoConn ~ 8550 2400
NoConn ~ 8550 2300
NoConn ~ 8550 2200
NoConn ~ 8550 2100
NoConn ~ 8550 1900
NoConn ~ 6150 1100
NoConn ~ 10550 4450
NoConn ~ 10550 4750
NoConn ~ 10550 4350
NoConn ~ 10550 4850
NoConn ~ 9350 4650
NoConn ~ 6150 3400
NoConn ~ 4150 3400
NoConn ~ 6150 3500
NoConn ~ 4150 3500
NoConn ~ 14250 7200
NoConn ~ 13850 7200
NoConn ~ 4150 3100
$Comp
L TEST TP1
U 1 1 5A4B9215
P 7500 4000
F 0 "TP1" H 7500 4300 50  0000 C BNN
F 1 "TEST" H 7500 4250 50  0000 C CNN
F 2 "Measurement_Points:Measurement_Point_Round-SMD-Pad_Small" H 7500 4000 50  0001 C CNN
F 3 "" H 7500 4000 50  0001 C CNN
	1    7500 4000
	1    0    0    -1  
$EndComp
$Comp
L TEST TP2
U 1 1 5A4B9BAE
P 7750 4000
F 0 "TP2" H 7750 4300 50  0000 C BNN
F 1 "TEST" H 7750 4250 50  0000 C CNN
F 2 "Measurement_Points:Measurement_Point_Round-SMD-Pad_Small" H 7750 4000 50  0001 C CNN
F 3 "" H 7750 4000 50  0001 C CNN
	1    7750 4000
	1    0    0    -1  
$EndComp
$Comp
L TEST TP3
U 1 1 5A4B9CC6
P 8000 4000
F 0 "TP3" H 8000 4300 50  0000 C BNN
F 1 "TEST" H 8000 4250 50  0000 C CNN
F 2 "Measurement_Points:Measurement_Point_Round-SMD-Pad_Small" H 8000 4000 50  0001 C CNN
F 3 "" H 8000 4000 50  0001 C CNN
	1    8000 4000
	1    0    0    -1  
$EndComp
$Comp
L GNDD #PWR064
U 1 1 5A4B9DE6
P 7500 4200
F 0 "#PWR064" H 7500 3950 50  0001 C CNN
F 1 "GNDD" H 7500 4075 50  0000 C CNN
F 2 "" H 7500 4200 50  0001 C CNN
F 3 "" H 7500 4200 50  0001 C CNN
	1    7500 4200
	1    0    0    -1  
$EndComp
Wire Wire Line
	7500 4200 7500 4000
$Comp
L +3V3 #PWR065
U 1 1 5A4BA1FC
P 8200 4000
F 0 "#PWR065" H 8200 3850 50  0001 C CNN
F 1 "+3V3" H 8200 4140 50  0000 C CNN
F 2 "" H 8200 4000 50  0001 C CNN
F 3 "" H 8200 4000 50  0001 C CNN
	1    8200 4000
	1    0    0    -1  
$EndComp
Wire Wire Line
	8000 4000 8000 4100
Wire Wire Line
	8000 4100 8200 4100
Wire Wire Line
	8200 4100 8200 4000
Text GLabel 7850 4250 2    60   Input ~ 0
HAPTIC_DRV
Wire Wire Line
	7850 4250 7750 4250
Wire Wire Line
	7750 4250 7750 4000
$EndSCHEMATC
