(kicad_pcb (version 4) (host pcbnew 4.0.7)

  (general
    (links 0)
    (no_connects 0)
    (area 45.38 20.84 181.371905 106.840001)
    (thickness 1.6)
    (drawings 19)
    (tracks 0)
    (zones 0)
    (modules 15)
    (nets 1)
  )

  (page A4)
  (layers
    (0 F.Cu signal)
    (31 B.Cu signal)
    (32 B.Adhes user)
    (33 F.Adhes user)
    (34 B.Paste user)
    (35 F.Paste user)
    (36 B.SilkS user)
    (37 F.SilkS user)
    (38 B.Mask user)
    (39 F.Mask user)
    (40 Dwgs.User user)
    (41 Cmts.User user)
    (42 Eco1.User user)
    (43 Eco2.User user)
    (44 Edge.Cuts user)
    (45 Margin user)
    (46 B.CrtYd user)
    (47 F.CrtYd user)
    (48 B.Fab user)
    (49 F.Fab user)
  )

  (setup
    (last_trace_width 0.25)
    (trace_clearance 0.2)
    (zone_clearance 0.508)
    (zone_45_only no)
    (trace_min 0.2)
    (segment_width 0.2)
    (edge_width 0.15)
    (via_size 0.6)
    (via_drill 0.4)
    (via_min_size 0.4)
    (via_min_drill 0.3)
    (uvia_size 0.3)
    (uvia_drill 0.1)
    (uvias_allowed no)
    (uvia_min_size 0.2)
    (uvia_min_drill 0.1)
    (pcb_text_width 0.3)
    (pcb_text_size 1.5 1.5)
    (mod_edge_width 0.15)
    (mod_text_size 1 1)
    (mod_text_width 0.15)
    (pad_size 1.524 1.524)
    (pad_drill 0.762)
    (pad_to_mask_clearance 0.2)
    (aux_axis_origin 0 0)
    (visible_elements FFFFFFFF)
    (pcbplotparams
      (layerselection 0x00030_80000001)
      (usegerberextensions false)
      (excludeedgelayer true)
      (linewidth 0.100000)
      (plotframeref false)
      (viasonmask false)
      (mode 1)
      (useauxorigin false)
      (hpglpennumber 1)
      (hpglpenspeed 20)
      (hpglpendiameter 15)
      (hpglpenoverlay 2)
      (psnegative false)
      (psa4output false)
      (plotreference true)
      (plotvalue true)
      (plotinvisibletext false)
      (padsonsilk false)
      (subtractmaskfromsilk false)
      (outputformat 1)
      (mirror false)
      (drillshape 1)
      (scaleselection 1)
      (outputdirectory ""))
  )

  (net 0 "")

  (net_class Default "This is the default net class."
    (clearance 0.2)
    (trace_width 0.25)
    (via_dia 0.6)
    (via_drill 0.4)
    (uvia_dia 0.3)
    (uvia_drill 0.1)
  )

  (module Connectors:USB_Micro-B (layer F.Cu) (tedit 5543E447) (tstamp 5B0D3805)
    (at 116.84 106.68 270)
    (descr "Micro USB Type B Receptacle")
    (tags "USB USB_B USB_micro USB_OTG")
    (attr smd)
    (fp_text reference REF** (at 0 -3.45 270) (layer F.SilkS)
      (effects (font (size 1 1) (thickness 0.15)))
    )
    (fp_text value USB_Micro-B (at 0 4.8 270) (layer F.Fab)
      (effects (font (size 1 1) (thickness 0.15)))
    )
    (fp_line (start -4.6 -2.8) (end 4.6 -2.8) (layer F.CrtYd) (width 0.05))
    (fp_line (start 4.6 -2.8) (end 4.6 4.05) (layer F.CrtYd) (width 0.05))
    (fp_line (start 4.6 4.05) (end -4.6 4.05) (layer F.CrtYd) (width 0.05))
    (fp_line (start -4.6 4.05) (end -4.6 -2.8) (layer F.CrtYd) (width 0.05))
    (fp_line (start -4.3509 3.81746) (end 4.3491 3.81746) (layer F.SilkS) (width 0.15))
    (fp_line (start -4.3509 -2.58754) (end 4.3491 -2.58754) (layer F.SilkS) (width 0.15))
    (fp_line (start 4.3491 -2.58754) (end 4.3491 3.81746) (layer F.SilkS) (width 0.15))
    (fp_line (start 4.3491 2.58746) (end -4.3509 2.58746) (layer F.SilkS) (width 0.15))
    (fp_line (start -4.3509 3.81746) (end -4.3509 -2.58754) (layer F.SilkS) (width 0.15))
    (pad 1 smd rect (at -1.3009 -1.56254) (size 1.35 0.4) (layers F.Cu F.Paste F.Mask))
    (pad 2 smd rect (at -0.6509 -1.56254) (size 1.35 0.4) (layers F.Cu F.Paste F.Mask))
    (pad 3 smd rect (at -0.0009 -1.56254) (size 1.35 0.4) (layers F.Cu F.Paste F.Mask))
    (pad 4 smd rect (at 0.6491 -1.56254) (size 1.35 0.4) (layers F.Cu F.Paste F.Mask))
    (pad 5 smd rect (at 1.2991 -1.56254) (size 1.35 0.4) (layers F.Cu F.Paste F.Mask))
    (pad 6 thru_hole oval (at -2.5009 -1.56254) (size 0.95 1.25) (drill oval 0.55 0.85) (layers *.Cu *.Mask))
    (pad 6 thru_hole oval (at 2.4991 -1.56254) (size 0.95 1.25) (drill oval 0.55 0.85) (layers *.Cu *.Mask))
    (pad 6 thru_hole oval (at -3.5009 1.13746) (size 1.55 1) (drill oval 1.15 0.5) (layers *.Cu *.Mask))
    (pad 6 thru_hole oval (at 3.4991 1.13746) (size 1.55 1) (drill oval 1.15 0.5) (layers *.Cu *.Mask))
  )

  (module Buttons_Switches_THT:SW_PUSH_6mm (layer F.Cu) (tedit 58134C96) (tstamp 5AE021F3)
    (at 120.65 116.84)
    (descr https://www.omron.com/ecb/products/pdf/en-b3f.pdf)
    (tags "tact sw push 6mm")
    (fp_text reference REF** (at 3.25 -2) (layer F.SilkS)
      (effects (font (size 1 1) (thickness 0.15)))
    )
    (fp_text value SW_PUSH_6mm (at 3.75 6.7) (layer F.Fab)
      (effects (font (size 1 1) (thickness 0.15)))
    )
    (fp_line (start 3.25 -0.75) (end 6.25 -0.75) (layer F.Fab) (width 0.1))
    (fp_line (start 6.25 -0.75) (end 6.25 5.25) (layer F.Fab) (width 0.1))
    (fp_line (start 6.25 5.25) (end 0.25 5.25) (layer F.Fab) (width 0.1))
    (fp_line (start 0.25 5.25) (end 0.25 -0.75) (layer F.Fab) (width 0.1))
    (fp_line (start 0.25 -0.75) (end 3.25 -0.75) (layer F.Fab) (width 0.1))
    (fp_line (start 7.75 6) (end 8 6) (layer F.CrtYd) (width 0.05))
    (fp_line (start 8 6) (end 8 5.75) (layer F.CrtYd) (width 0.05))
    (fp_line (start 7.75 -1.5) (end 8 -1.5) (layer F.CrtYd) (width 0.05))
    (fp_line (start 8 -1.5) (end 8 -1.25) (layer F.CrtYd) (width 0.05))
    (fp_line (start -1.5 -1.25) (end -1.5 -1.5) (layer F.CrtYd) (width 0.05))
    (fp_line (start -1.5 -1.5) (end -1.25 -1.5) (layer F.CrtYd) (width 0.05))
    (fp_line (start -1.5 5.75) (end -1.5 6) (layer F.CrtYd) (width 0.05))
    (fp_line (start -1.5 6) (end -1.25 6) (layer F.CrtYd) (width 0.05))
    (fp_line (start -1.25 -1.5) (end 7.75 -1.5) (layer F.CrtYd) (width 0.05))
    (fp_line (start -1.5 5.75) (end -1.5 -1.25) (layer F.CrtYd) (width 0.05))
    (fp_line (start 7.75 6) (end -1.25 6) (layer F.CrtYd) (width 0.05))
    (fp_line (start 8 -1.25) (end 8 5.75) (layer F.CrtYd) (width 0.05))
    (fp_line (start 1 5.5) (end 5.5 5.5) (layer F.SilkS) (width 0.15))
    (fp_line (start -0.25 1.5) (end -0.25 3) (layer F.SilkS) (width 0.15))
    (fp_line (start 5.5 -1) (end 1 -1) (layer F.SilkS) (width 0.15))
    (fp_line (start 6.75 3) (end 6.75 1.5) (layer F.SilkS) (width 0.15))
    (fp_circle (center 3.25 2.25) (end 1.25 2.5) (layer F.Fab) (width 0.1))
    (pad 2 thru_hole circle (at 0 4.5 90) (size 2 2) (drill 1.1) (layers *.Cu *.Mask))
    (pad 1 thru_hole circle (at 0 0 90) (size 2 2) (drill 1.1) (layers *.Cu *.Mask))
    (pad 2 thru_hole circle (at 6.5 4.5 90) (size 2 2) (drill 1.1) (layers *.Cu *.Mask))
    (pad 1 thru_hole circle (at 6.5 0 90) (size 2 2) (drill 1.1) (layers *.Cu *.Mask))
    (model Buttons_Switches_ThroughHole.3dshapes/SW_PUSH_6mm.wrl
      (at (xyz 0.005 0 0))
      (scale (xyz 0.3937 0.3937 0.3937))
      (rotate (xyz 0 0 0))
    )
  )

  (module RF_Modules:ESP-12E (layer B.Cu) (tedit 59E32322) (tstamp 5A36C8DF)
    (at 172.72 110.49 180)
    (descr "Wi-Fi Module, http://wiki.ai-thinker.com/_media/esp8266/docs/aithinker_esp_12f_datasheet_en.pdf")
    (tags "Wi-Fi Module")
    (attr smd)
    (fp_text reference REF** (at -10.56 5.26 180) (layer B.SilkS)
      (effects (font (size 1 1) (thickness 0.15)) (justify mirror))
    )
    (fp_text value ESP-12E (at -0.06 12.78 180) (layer B.Fab)
      (effects (font (size 1 1) (thickness 0.15)) (justify mirror))
    )
    (fp_text user Antenna (at -0.06 7 360) (layer Cmts.User)
      (effects (font (size 1 1) (thickness 0.15)))
    )
    (fp_text user "KEEP-OUT ZONE" (at 0.03 9.55 360) (layer Cmts.User)
      (effects (font (size 1 1) (thickness 0.15)))
    )
    (fp_text user %R (at 0.49 0.8 180) (layer B.Fab)
      (effects (font (size 1 1) (thickness 0.15)) (justify mirror))
    )
    (fp_line (start -8 12) (end 8 12) (layer B.Fab) (width 0.12))
    (fp_line (start 8 12) (end 8 -12) (layer B.Fab) (width 0.12))
    (fp_line (start 8 -12) (end -8 -12) (layer B.Fab) (width 0.12))
    (fp_line (start -8 -12) (end -8 3) (layer B.Fab) (width 0.12))
    (fp_line (start -8 3) (end -7.5 3.5) (layer B.Fab) (width 0.12))
    (fp_line (start -7.5 3.5) (end -8 4) (layer B.Fab) (width 0.12))
    (fp_line (start -8 4) (end -8 12) (layer B.Fab) (width 0.12))
    (fp_line (start -9.05 12.2) (end 9.05 12.2) (layer B.CrtYd) (width 0.05))
    (fp_line (start 9.05 12.2) (end 9.05 -13.1) (layer B.CrtYd) (width 0.05))
    (fp_line (start 9.05 -13.1) (end -9.05 -13.1) (layer B.CrtYd) (width 0.05))
    (fp_line (start -9.05 -13.1) (end -9.05 12.2) (layer B.CrtYd) (width 0.05))
    (fp_line (start -8.12 12.12) (end 8.12 12.12) (layer B.SilkS) (width 0.12))
    (fp_line (start 8.12 12.12) (end 8.12 4.5) (layer B.SilkS) (width 0.12))
    (fp_line (start 8.12 -11.5) (end 8.12 -12.12) (layer B.SilkS) (width 0.12))
    (fp_line (start 8.12 -12.12) (end 6 -12.12) (layer B.SilkS) (width 0.12))
    (fp_line (start -6 -12.12) (end -8.12 -12.12) (layer B.SilkS) (width 0.12))
    (fp_line (start -8.12 -12.12) (end -8.12 -11.5) (layer B.SilkS) (width 0.12))
    (fp_line (start -8.12 4.5) (end -8.12 12.12) (layer B.SilkS) (width 0.12))
    (fp_line (start -8.12 4.5) (end -8.73 4.5) (layer B.SilkS) (width 0.12))
    (fp_line (start -8.12 12.12) (end 8.12 12.12) (layer Dwgs.User) (width 0.12))
    (fp_line (start 8.12 12.12) (end 8.12 4.8) (layer Dwgs.User) (width 0.12))
    (fp_line (start 8.12 4.8) (end -8.12 4.8) (layer Dwgs.User) (width 0.12))
    (fp_line (start -8.12 4.8) (end -8.12 12.12) (layer Dwgs.User) (width 0.12))
    (fp_line (start -8.12 9.12) (end -5.12 12.12) (layer Dwgs.User) (width 0.12))
    (fp_line (start -8.12 6.12) (end -2.12 12.12) (layer Dwgs.User) (width 0.12))
    (fp_line (start -6.44 4.8) (end 0.88 12.12) (layer Dwgs.User) (width 0.12))
    (fp_line (start -3.44 4.8) (end 3.88 12.12) (layer Dwgs.User) (width 0.12))
    (fp_line (start -0.44 4.8) (end 6.88 12.12) (layer Dwgs.User) (width 0.12))
    (fp_line (start 2.56 4.8) (end 8.12 10.36) (layer Dwgs.User) (width 0.12))
    (fp_line (start 5.56 4.8) (end 8.12 7.36) (layer Dwgs.User) (width 0.12))
    (pad 1 smd rect (at -7.6 3.5 180) (size 2.5 1) (layers B.Cu B.Paste B.Mask))
    (pad 2 smd rect (at -7.6 1.5 180) (size 2.5 1) (layers B.Cu B.Paste B.Mask))
    (pad 3 smd rect (at -7.6 -0.5 180) (size 2.5 1) (layers B.Cu B.Paste B.Mask))
    (pad 4 smd rect (at -7.6 -2.5 180) (size 2.5 1) (layers B.Cu B.Paste B.Mask))
    (pad 5 smd rect (at -7.6 -4.5 180) (size 2.5 1) (layers B.Cu B.Paste B.Mask))
    (pad 6 smd rect (at -7.6 -6.5 180) (size 2.5 1) (layers B.Cu B.Paste B.Mask))
    (pad 7 smd rect (at -7.6 -8.5 180) (size 2.5 1) (layers B.Cu B.Paste B.Mask))
    (pad 8 smd rect (at -7.6 -10.5 180) (size 2.5 1) (layers B.Cu B.Paste B.Mask))
    (pad 9 smd rect (at -5 -12 180) (size 1 1.8) (layers B.Cu B.Paste B.Mask))
    (pad 10 smd rect (at -3 -12 180) (size 1 1.8) (layers B.Cu B.Paste B.Mask))
    (pad 11 smd rect (at -1 -12 180) (size 1 1.8) (layers B.Cu B.Paste B.Mask))
    (pad 12 smd rect (at 1 -12 180) (size 1 1.8) (layers B.Cu B.Paste B.Mask))
    (pad 13 smd rect (at 3 -12 180) (size 1 1.8) (layers B.Cu B.Paste B.Mask))
    (pad 14 smd rect (at 5 -12 180) (size 1 1.8) (layers B.Cu B.Paste B.Mask))
    (pad 15 smd rect (at 7.6 -10.5 180) (size 2.5 1) (layers B.Cu B.Paste B.Mask))
    (pad 16 smd rect (at 7.6 -8.5 180) (size 2.5 1) (layers B.Cu B.Paste B.Mask))
    (pad 17 smd rect (at 7.6 -6.5 180) (size 2.5 1) (layers B.Cu B.Paste B.Mask))
    (pad 18 smd rect (at 7.6 -4.5 180) (size 2.5 1) (layers B.Cu B.Paste B.Mask))
    (pad 19 smd rect (at 7.6 -2.5 180) (size 2.5 1) (layers B.Cu B.Paste B.Mask))
    (pad 20 smd rect (at 7.6 -0.5 180) (size 2.5 1) (layers B.Cu B.Paste B.Mask))
    (pad 21 smd rect (at 7.6 1.5 180) (size 2.5 1) (layers B.Cu B.Paste B.Mask))
    (pad 22 smd rect (at 7.6 3.5 180) (size 2.5 1) (layers B.Cu B.Paste B.Mask))
    (model ${KISYS3DMOD}/RF_Modules.3dshapes/ESP-12E.wrl
      (at (xyz 0 0 0))
      (scale (xyz 1 1 1))
      (rotate (xyz 0 0 0))
    )
  )

  (module teensy:Teensy30_31_32_LC (layer F.Cu) (tedit 5A29202F) (tstamp 5A52B652)
    (at 152.4 105.41 270)
    (fp_text reference REF** (at 0 -10.16 270) (layer F.SilkS)
      (effects (font (size 1 1) (thickness 0.15)))
    )
    (fp_text value Teensy3.0/3.1/3.2/LC (at 0 10.16 270) (layer F.Fab)
      (effects (font (size 1 1) (thickness 0.15)))
    )
    (fp_text user T3.2 (at -10.16 -2.54 360) (layer F.SilkS)
      (effects (font (size 1 1) (thickness 0.15)))
    )
    (fp_text user T3.1 (at -6.35 -2.54 360) (layer F.SilkS)
      (effects (font (size 1 1) (thickness 0.15)))
    )
    (fp_line (start -17.78 3.81) (end -19.05 3.81) (layer F.SilkS) (width 0.15))
    (fp_line (start -19.05 3.81) (end -19.05 -3.81) (layer F.SilkS) (width 0.15))
    (fp_line (start -19.05 -3.81) (end -17.78 -3.81) (layer F.SilkS) (width 0.15))
    (fp_line (start -6.35 5.08) (end -2.54 5.08) (layer F.SilkS) (width 0.15))
    (fp_line (start -2.54 5.08) (end -2.54 2.54) (layer F.SilkS) (width 0.15))
    (fp_line (start -2.54 2.54) (end -6.35 2.54) (layer F.SilkS) (width 0.15))
    (fp_line (start -6.35 2.54) (end -6.35 5.08) (layer F.SilkS) (width 0.15))
    (fp_line (start -12.7 3.81) (end -12.7 -3.81) (layer F.SilkS) (width 0.15))
    (fp_line (start -12.7 -3.81) (end -17.78 -3.81) (layer F.SilkS) (width 0.15))
    (fp_line (start -12.7 3.81) (end -17.78 3.81) (layer F.SilkS) (width 0.15))
    (fp_line (start -11.43 5.08) (end -8.89 5.08) (layer F.SilkS) (width 0.15))
    (fp_line (start -8.89 5.08) (end -8.89 2.54) (layer F.SilkS) (width 0.15))
    (fp_line (start -8.89 2.54) (end -11.43 2.54) (layer F.SilkS) (width 0.15))
    (fp_line (start -11.43 2.54) (end -11.43 5.08) (layer F.SilkS) (width 0.15))
    (fp_line (start 15.24 -2.54) (end 15.24 2.54) (layer F.SilkS) (width 0.15))
    (fp_line (start 15.24 2.54) (end 12.7 2.54) (layer F.SilkS) (width 0.15))
    (fp_line (start 12.7 2.54) (end 12.7 -2.54) (layer F.SilkS) (width 0.15))
    (fp_line (start 12.7 -2.54) (end 15.24 -2.54) (layer F.SilkS) (width 0.15))
    (fp_line (start 8.89 5.08) (end 8.89 -5.08) (layer F.SilkS) (width 0.15))
    (fp_line (start 0 -5.08) (end 0 5.08) (layer F.SilkS) (width 0.15))
    (fp_line (start 8.89 -5.08) (end 0 -5.08) (layer F.SilkS) (width 0.15))
    (fp_line (start 8.89 5.08) (end 0 5.08) (layer F.SilkS) (width 0.15))
    (fp_line (start -17.78 -8.89) (end 17.78 -8.89) (layer F.SilkS) (width 0.15))
    (fp_line (start 17.78 -8.89) (end 17.78 8.89) (layer F.SilkS) (width 0.15))
    (fp_line (start 17.78 8.89) (end -17.78 8.89) (layer F.SilkS) (width 0.15))
    (fp_line (start -17.78 8.89) (end -17.78 -8.89) (layer F.SilkS) (width 0.15))
    (pad 17 thru_hole circle (at 16.51 0 270) (size 1.6 1.6) (drill 1.1) (layers *.Cu *.Mask F.SilkS))
    (pad 18 thru_hole circle (at 16.51 -2.54 270) (size 1.6 1.6) (drill 1.1) (layers *.Cu *.Mask F.SilkS))
    (pad 19 thru_hole circle (at 16.51 -5.08 270) (size 1.6 1.6) (drill 1.1) (layers *.Cu *.Mask F.SilkS))
    (pad 20 thru_hole circle (at 16.51 -7.62 270) (size 1.6 1.6) (drill 1.1) (layers *.Cu *.Mask F.SilkS))
    (pad 16 thru_hole circle (at 16.51 2.54 270) (size 1.6 1.6) (drill 1.1) (layers *.Cu *.Mask F.SilkS))
    (pad 15 thru_hole circle (at 16.51 5.08 270) (size 1.6 1.6) (drill 1.1) (layers *.Cu *.Mask F.SilkS))
    (pad 14 thru_hole circle (at 16.51 7.62 270) (size 1.6 1.6) (drill 1.1) (layers *.Cu *.Mask F.SilkS))
    (pad 21 thru_hole circle (at 13.97 -7.62 270) (size 1.6 1.6) (drill 1.1) (layers *.Cu *.Mask F.SilkS))
    (pad 22 thru_hole circle (at 11.43 -7.62 270) (size 1.6 1.6) (drill 1.1) (layers *.Cu *.Mask F.SilkS))
    (pad 23 thru_hole circle (at 8.89 -7.62 270) (size 1.6 1.6) (drill 1.1) (layers *.Cu *.Mask F.SilkS))
    (pad 24 thru_hole circle (at 6.35 -7.62 270) (size 1.6 1.6) (drill 1.1) (layers *.Cu *.Mask F.SilkS))
    (pad 25 thru_hole circle (at 3.81 -7.62 270) (size 1.6 1.6) (drill 1.1) (layers *.Cu *.Mask F.SilkS))
    (pad 26 thru_hole circle (at 1.27 -7.62 270) (size 1.6 1.6) (drill 1.1) (layers *.Cu *.Mask F.SilkS))
    (pad 27 thru_hole circle (at -1.27 -7.62 270) (size 1.6 1.6) (drill 1.1) (layers *.Cu *.Mask F.SilkS))
    (pad 28 thru_hole circle (at -3.81 -7.62 270) (size 1.6 1.6) (drill 1.1) (layers *.Cu *.Mask F.SilkS))
    (pad 29 thru_hole circle (at -6.35 -7.62 270) (size 1.6 1.6) (drill 1.1) (layers *.Cu *.Mask F.SilkS))
    (pad 30 thru_hole circle (at -8.89 -7.62 270) (size 1.6 1.6) (drill 1.1) (layers *.Cu *.Mask F.SilkS))
    (pad 31 thru_hole circle (at -11.43 -7.62 270) (size 1.6 1.6) (drill 1.1) (layers *.Cu *.Mask F.SilkS))
    (pad 32 thru_hole circle (at -13.97 -7.62 270) (size 1.6 1.6) (drill 1.1) (layers *.Cu *.Mask F.SilkS))
    (pad 33 thru_hole circle (at -16.51 -7.62 270) (size 1.6 1.6) (drill 1.1) (layers *.Cu *.Mask F.SilkS))
    (pad 34 thru_hole circle (at -13.97 -5.08 270) (size 1.6 1.6) (drill 1.1) (layers *.Cu *.Mask F.SilkS))
    (pad 35 thru_hole circle (at -8.89 -5.08 270) (size 1.6 1.6) (drill 1.1) (layers *.Cu *.Mask F.SilkS))
    (pad 36 thru_hole circle (at -6.35 -5.08 270) (size 1.6 1.6) (drill 1.1) (layers *.Cu *.Mask F.SilkS))
    (pad 37 thru_hole circle (at -3.81 -5.08 270) (size 1.6 1.6) (drill 1.1) (layers *.Cu *.Mask F.SilkS))
    (pad 13 thru_hole circle (at 13.97 7.62 270) (size 1.6 1.6) (drill 1.1) (layers *.Cu *.Mask F.SilkS))
    (pad 12 thru_hole circle (at 11.43 7.62 270) (size 1.6 1.6) (drill 1.1) (layers *.Cu *.Mask F.SilkS))
    (pad 11 thru_hole circle (at 8.89 7.62 270) (size 1.6 1.6) (drill 1.1) (layers *.Cu *.Mask F.SilkS))
    (pad 10 thru_hole circle (at 6.35 7.62 270) (size 1.6 1.6) (drill 1.1) (layers *.Cu *.Mask F.SilkS))
    (pad 9 thru_hole circle (at 3.81 7.62 270) (size 1.6 1.6) (drill 1.1) (layers *.Cu *.Mask F.SilkS))
    (pad 8 thru_hole circle (at 1.27 7.62 270) (size 1.6 1.6) (drill 1.1) (layers *.Cu *.Mask F.SilkS))
    (pad 7 thru_hole circle (at -1.27 7.62 270) (size 1.6 1.6) (drill 1.1) (layers *.Cu *.Mask F.SilkS))
    (pad 6 thru_hole circle (at -3.81 7.62 270) (size 1.6 1.6) (drill 1.1) (layers *.Cu *.Mask F.SilkS))
    (pad 5 thru_hole circle (at -6.35 7.62 270) (size 1.6 1.6) (drill 1.1) (layers *.Cu *.Mask F.SilkS))
    (pad 4 thru_hole circle (at -8.89 7.62 270) (size 1.6 1.6) (drill 1.1) (layers *.Cu *.Mask F.SilkS))
    (pad 3 thru_hole circle (at -11.43 7.62 270) (size 1.6 1.6) (drill 1.1) (layers *.Cu *.Mask F.SilkS))
    (pad 2 thru_hole circle (at -13.97 7.62 270) (size 1.6 1.6) (drill 1.1) (layers *.Cu *.Mask F.SilkS))
    (pad 1 thru_hole rect (at -16.51 7.62 270) (size 1.6 1.6) (drill 1.1) (layers *.Cu *.Mask F.SilkS))
    (pad 38 thru_hole circle (at -1.27 0 270) (size 1.6 1.6) (drill 1.1) (layers *.Cu *.Mask))
    (pad 39 thru_hole circle (at 1.27 0 270) (size 1.6 1.6) (drill 1.1) (layers *.Cu *.Mask))
    (pad 40 thru_hole circle (at 3.81 0 270) (size 1.6 1.6) (drill 1.1) (layers *.Cu *.Mask))
    (pad 41 thru_hole circle (at 6.35 0 270) (size 1.6 1.6) (drill 1.1) (layers *.Cu *.Mask))
    (pad 42 thru_hole circle (at 8.89 0 270) (size 1.6 1.6) (drill 1.1) (layers *.Cu *.Mask))
    (pad 43 thru_hole circle (at 11.43 0 270) (size 1.6 1.6) (drill 1.1) (layers *.Cu *.Mask))
    (pad 44 thru_hole circle (at 13.97 0 270) (size 1.6 1.6) (drill 1.1) (layers *.Cu *.Mask))
    (pad 45 thru_hole circle (at 13.97 -2.54 270) (size 1.6 1.6) (drill 1.1) (layers *.Cu *.Mask))
    (pad 46 thru_hole circle (at 11.43 -2.54 270) (size 1.6 1.6) (drill 1.1) (layers *.Cu *.Mask))
    (pad 47 thru_hole circle (at 8.89 -2.54 270) (size 1.6 1.6) (drill 1.1) (layers *.Cu *.Mask))
    (pad 48 thru_hole circle (at 6.35 -2.54 270) (size 1.6 1.6) (drill 1.1) (layers *.Cu *.Mask))
    (pad 49 thru_hole circle (at 3.81 -2.54 270) (size 1.6 1.6) (drill 1.1) (layers *.Cu *.Mask))
    (pad 50 thru_hole circle (at 1.27 -2.54 270) (size 1.6 1.6) (drill 1.1) (layers *.Cu *.Mask))
    (pad 51 thru_hole circle (at -1.27 -2.54 270) (size 1.6 1.6) (drill 1.1) (layers *.Cu *.Mask))
    (pad 52 thru_hole circle (at -6.35 0 270) (size 1.9 1.9) (drill 0.5) (layers *.Cu *.Mask F.SilkS))
    (pad 52 thru_hole circle (at -10.16 0 270) (size 1.9 1.9) (drill 0.5) (layers *.Cu *.Mask F.SilkS))
  )

  (module Connectors:USB_Micro-B (layer F.Cu) (tedit 5543E447) (tstamp 5A76E5FB)
    (at 116.84 92.71 270)
    (descr "Micro USB Type B Receptacle")
    (tags "USB USB_B USB_micro USB_OTG")
    (attr smd)
    (fp_text reference REF** (at 0 -3.45 270) (layer F.SilkS)
      (effects (font (size 1 1) (thickness 0.15)))
    )
    (fp_text value USB_Micro-B (at 0 4.8 270) (layer F.Fab)
      (effects (font (size 1 1) (thickness 0.15)))
    )
    (fp_line (start -4.6 -2.8) (end 4.6 -2.8) (layer F.CrtYd) (width 0.05))
    (fp_line (start 4.6 -2.8) (end 4.6 4.05) (layer F.CrtYd) (width 0.05))
    (fp_line (start 4.6 4.05) (end -4.6 4.05) (layer F.CrtYd) (width 0.05))
    (fp_line (start -4.6 4.05) (end -4.6 -2.8) (layer F.CrtYd) (width 0.05))
    (fp_line (start -4.3509 3.81746) (end 4.3491 3.81746) (layer F.SilkS) (width 0.15))
    (fp_line (start -4.3509 -2.58754) (end 4.3491 -2.58754) (layer F.SilkS) (width 0.15))
    (fp_line (start 4.3491 -2.58754) (end 4.3491 3.81746) (layer F.SilkS) (width 0.15))
    (fp_line (start 4.3491 2.58746) (end -4.3509 2.58746) (layer F.SilkS) (width 0.15))
    (fp_line (start -4.3509 3.81746) (end -4.3509 -2.58754) (layer F.SilkS) (width 0.15))
    (pad 1 smd rect (at -1.3009 -1.56254) (size 1.35 0.4) (layers F.Cu F.Paste F.Mask))
    (pad 2 smd rect (at -0.6509 -1.56254) (size 1.35 0.4) (layers F.Cu F.Paste F.Mask))
    (pad 3 smd rect (at -0.0009 -1.56254) (size 1.35 0.4) (layers F.Cu F.Paste F.Mask))
    (pad 4 smd rect (at 0.6491 -1.56254) (size 1.35 0.4) (layers F.Cu F.Paste F.Mask))
    (pad 5 smd rect (at 1.2991 -1.56254) (size 1.35 0.4) (layers F.Cu F.Paste F.Mask))
    (pad 6 thru_hole oval (at -2.5009 -1.56254) (size 0.95 1.25) (drill oval 0.55 0.85) (layers *.Cu *.Mask))
    (pad 6 thru_hole oval (at 2.4991 -1.56254) (size 0.95 1.25) (drill oval 0.55 0.85) (layers *.Cu *.Mask))
    (pad 6 thru_hole oval (at -3.5009 1.13746) (size 1.55 1) (drill oval 1.15 0.5) (layers *.Cu *.Mask))
    (pad 6 thru_hole oval (at 3.4991 1.13746) (size 1.55 1) (drill oval 1.15 0.5) (layers *.Cu *.Mask))
  )

  (module Buttons_Switches_THT:SW_PUSH_6mm (layer F.Cu) (tedit 58134C96) (tstamp 5A8A300B)
    (at 134.62 116.84)
    (descr https://www.omron.com/ecb/products/pdf/en-b3f.pdf)
    (tags "tact sw push 6mm")
    (fp_text reference REF** (at 3.25 -2) (layer F.SilkS)
      (effects (font (size 1 1) (thickness 0.15)))
    )
    (fp_text value SW_PUSH_6mm (at 3.75 6.7) (layer F.Fab)
      (effects (font (size 1 1) (thickness 0.15)))
    )
    (fp_line (start 3.25 -0.75) (end 6.25 -0.75) (layer F.Fab) (width 0.1))
    (fp_line (start 6.25 -0.75) (end 6.25 5.25) (layer F.Fab) (width 0.1))
    (fp_line (start 6.25 5.25) (end 0.25 5.25) (layer F.Fab) (width 0.1))
    (fp_line (start 0.25 5.25) (end 0.25 -0.75) (layer F.Fab) (width 0.1))
    (fp_line (start 0.25 -0.75) (end 3.25 -0.75) (layer F.Fab) (width 0.1))
    (fp_line (start 7.75 6) (end 8 6) (layer F.CrtYd) (width 0.05))
    (fp_line (start 8 6) (end 8 5.75) (layer F.CrtYd) (width 0.05))
    (fp_line (start 7.75 -1.5) (end 8 -1.5) (layer F.CrtYd) (width 0.05))
    (fp_line (start 8 -1.5) (end 8 -1.25) (layer F.CrtYd) (width 0.05))
    (fp_line (start -1.5 -1.25) (end -1.5 -1.5) (layer F.CrtYd) (width 0.05))
    (fp_line (start -1.5 -1.5) (end -1.25 -1.5) (layer F.CrtYd) (width 0.05))
    (fp_line (start -1.5 5.75) (end -1.5 6) (layer F.CrtYd) (width 0.05))
    (fp_line (start -1.5 6) (end -1.25 6) (layer F.CrtYd) (width 0.05))
    (fp_line (start -1.25 -1.5) (end 7.75 -1.5) (layer F.CrtYd) (width 0.05))
    (fp_line (start -1.5 5.75) (end -1.5 -1.25) (layer F.CrtYd) (width 0.05))
    (fp_line (start 7.75 6) (end -1.25 6) (layer F.CrtYd) (width 0.05))
    (fp_line (start 8 -1.25) (end 8 5.75) (layer F.CrtYd) (width 0.05))
    (fp_line (start 1 5.5) (end 5.5 5.5) (layer F.SilkS) (width 0.15))
    (fp_line (start -0.25 1.5) (end -0.25 3) (layer F.SilkS) (width 0.15))
    (fp_line (start 5.5 -1) (end 1 -1) (layer F.SilkS) (width 0.15))
    (fp_line (start 6.75 3) (end 6.75 1.5) (layer F.SilkS) (width 0.15))
    (fp_circle (center 3.25 2.25) (end 1.25 2.5) (layer F.Fab) (width 0.1))
    (pad 2 thru_hole circle (at 0 4.5 90) (size 2 2) (drill 1.1) (layers *.Cu *.Mask))
    (pad 1 thru_hole circle (at 0 0 90) (size 2 2) (drill 1.1) (layers *.Cu *.Mask))
    (pad 2 thru_hole circle (at 6.5 4.5 90) (size 2 2) (drill 1.1) (layers *.Cu *.Mask))
    (pad 1 thru_hole circle (at 6.5 0 90) (size 2 2) (drill 1.1) (layers *.Cu *.Mask))
    (model Buttons_Switches_ThroughHole.3dshapes/SW_PUSH_6mm.wrl
      (at (xyz 0.005 0 0))
      (scale (xyz 0.3937 0.3937 0.3937))
      (rotate (xyz 0 0 0))
    )
  )

  (module Rotary-Encoders:ALPS_STEC12E08 (layer F.Cu) (tedit 55435E75) (tstamp 5AB27954)
    (at 130.81 106.68 270)
    (tags "rotary, encoder, ALPS")
    (fp_text reference R-ENC? (at 0 -9.1 270) (layer F.SilkS)
      (effects (font (size 1 1) (thickness 0.2)))
    )
    (fp_text value VAL** (at 0 -4.8 270) (layer F.SilkS) hide
      (effects (font (size 1 1) (thickness 0.2)))
    )
    (fp_circle (center 0 0) (end 3.75 0) (layer F.Fab) (width 0.05))
    (fp_circle (center -4.1 5.15) (end -3.6 5.15) (layer F.SilkS) (width 0.2))
    (fp_circle (center 4.1 5.15) (end 4.6 5.15) (layer F.SilkS) (width 0.2))
    (fp_circle (center 4.1 -5.05) (end 4.6 -5.05) (layer F.SilkS) (width 0.2))
    (fp_circle (center -4.1 -5.05) (end -3.6 -5.05) (layer F.SilkS) (width 0.2))
    (fp_line (start -6.2 5.8) (end -6.2 -5.8) (layer F.SilkS) (width 0.2))
    (fp_line (start 6.2 -5.8) (end 6.2 5.8) (layer F.SilkS) (width 0.2))
    (fp_line (start -5.4 -6.6) (end 5.4 -6.6) (layer F.SilkS) (width 0.2))
    (fp_line (start -5.4 6.6) (end 5.4 6.6) (layer F.SilkS) (width 0.2))
    (fp_arc (start -5.4 -5.8) (end -6.2 -5.8) (angle 90) (layer F.SilkS) (width 0.2))
    (fp_arc (start -5.4 5.8) (end -5.4 6.6) (angle 90) (layer F.SilkS) (width 0.2))
    (fp_arc (start 5.4 5.8) (end 6.2 5.8) (angle 90) (layer F.SilkS) (width 0.2))
    (fp_arc (start 5.4 -5.8) (end 5.4 -6.6) (angle 90) (layer F.SilkS) (width 0.2))
    (fp_line (start -2.6 -1.5) (end 2.6 -1.5) (layer F.SilkS) (width 0.2))
    (fp_circle (center 0 0) (end 3 0) (layer F.SilkS) (width 0.2))
    (pad A thru_hole circle (at -2.5 7.5 270) (size 1.75 1.75) (drill 1.1) (layers *.Cu *.Mask))
    (pad B thru_hole circle (at 2.5 7.5 270) (size 1.75 1.75) (drill 1.1) (layers *.Cu *.Mask))
    (pad C thru_hole circle (at 0 7.5 270) (size 1.75 1.75) (drill 1.1) (layers *.Cu *.Mask))
    (pad SW2 thru_hole circle (at 2.5 -7 270) (size 1.75 1.75) (drill 1.1) (layers *.Cu *.Mask))
    (pad SW1 thru_hole circle (at -2.5 -7 270) (size 1.75 1.75) (drill 1.1) (layers *.Cu *.Mask))
    (pad body thru_hole oval (at 6.2 0 270) (size 4 4) (drill 2.5) (layers *.Cu *.Mask))
    (pad body thru_hole oval (at -6.2 0 270) (size 4 4) (drill 2.5) (layers *.Cu *.Mask))
  )

  (module Housings_QFP:LQFP-64_14x14mm_Pitch0.8mm (layer B.Cu) (tedit 54130A77) (tstamp 5AB27AAC)
    (at 318.77 115.57)
    (descr "LQFP64: plastic low profile quad flat package; 64 leads; body 14 x 14 x 1.4 mm(see NXP sot791-1_po.pdf and sot791-1_fr.pdf)")
    (tags "QFP 0.8")
    (attr smd)
    (fp_text reference REF** (at 0 9.65) (layer B.SilkS)
      (effects (font (size 1 1) (thickness 0.15)) (justify mirror))
    )
    (fp_text value LQFP-64_14x14mm_Pitch0.8mm (at 0 -9.65) (layer B.Fab)
      (effects (font (size 1 1) (thickness 0.15)) (justify mirror))
    )
    (fp_text user %R (at 0 0) (layer B.Fab)
      (effects (font (size 1 1) (thickness 0.15)) (justify mirror))
    )
    (fp_line (start -6 7) (end 7 7) (layer B.Fab) (width 0.15))
    (fp_line (start 7 7) (end 7 -7) (layer B.Fab) (width 0.15))
    (fp_line (start 7 -7) (end -7 -7) (layer B.Fab) (width 0.15))
    (fp_line (start -7 -7) (end -7 6) (layer B.Fab) (width 0.15))
    (fp_line (start -7 6) (end -6 7) (layer B.Fab) (width 0.15))
    (fp_line (start -8.9 8.9) (end -8.9 -8.9) (layer B.CrtYd) (width 0.05))
    (fp_line (start 8.9 8.9) (end 8.9 -8.9) (layer B.CrtYd) (width 0.05))
    (fp_line (start -8.9 8.9) (end 8.9 8.9) (layer B.CrtYd) (width 0.05))
    (fp_line (start -8.9 -8.9) (end 8.9 -8.9) (layer B.CrtYd) (width 0.05))
    (fp_line (start -7.125 7.125) (end -7.125 6.6) (layer B.SilkS) (width 0.15))
    (fp_line (start 7.125 7.125) (end 7.125 6.525) (layer B.SilkS) (width 0.15))
    (fp_line (start 7.125 -7.125) (end 7.125 -6.525) (layer B.SilkS) (width 0.15))
    (fp_line (start -7.125 -7.125) (end -7.125 -6.525) (layer B.SilkS) (width 0.15))
    (fp_line (start -7.125 7.125) (end -6.525 7.125) (layer B.SilkS) (width 0.15))
    (fp_line (start -7.125 -7.125) (end -6.525 -7.125) (layer B.SilkS) (width 0.15))
    (fp_line (start 7.125 -7.125) (end 6.525 -7.125) (layer B.SilkS) (width 0.15))
    (fp_line (start 7.125 7.125) (end 6.525 7.125) (layer B.SilkS) (width 0.15))
    (fp_line (start -7.125 6.6) (end -8.65 6.6) (layer B.SilkS) (width 0.15))
    (pad 1 smd rect (at -7.9 6) (size 1.5 0.6) (layers B.Cu B.Paste B.Mask))
    (pad 2 smd rect (at -7.9 5.2) (size 1.5 0.6) (layers B.Cu B.Paste B.Mask))
    (pad 3 smd rect (at -7.9 4.4) (size 1.5 0.6) (layers B.Cu B.Paste B.Mask))
    (pad 4 smd rect (at -7.9 3.6) (size 1.5 0.6) (layers B.Cu B.Paste B.Mask))
    (pad 5 smd rect (at -7.9 2.8) (size 1.5 0.6) (layers B.Cu B.Paste B.Mask))
    (pad 6 smd rect (at -7.9 2) (size 1.5 0.6) (layers B.Cu B.Paste B.Mask))
    (pad 7 smd rect (at -7.9 1.2) (size 1.5 0.6) (layers B.Cu B.Paste B.Mask))
    (pad 8 smd rect (at -7.9 0.4) (size 1.5 0.6) (layers B.Cu B.Paste B.Mask))
    (pad 9 smd rect (at -7.9 -0.4) (size 1.5 0.6) (layers B.Cu B.Paste B.Mask))
    (pad 10 smd rect (at -7.9 -1.2) (size 1.5 0.6) (layers B.Cu B.Paste B.Mask))
    (pad 11 smd rect (at -7.9 -2) (size 1.5 0.6) (layers B.Cu B.Paste B.Mask))
    (pad 12 smd rect (at -7.9 -2.8) (size 1.5 0.6) (layers B.Cu B.Paste B.Mask))
    (pad 13 smd rect (at -7.9 -3.6) (size 1.5 0.6) (layers B.Cu B.Paste B.Mask))
    (pad 14 smd rect (at -7.9 -4.4) (size 1.5 0.6) (layers B.Cu B.Paste B.Mask))
    (pad 15 smd rect (at -7.9 -5.2) (size 1.5 0.6) (layers B.Cu B.Paste B.Mask))
    (pad 16 smd rect (at -7.9 -6) (size 1.5 0.6) (layers B.Cu B.Paste B.Mask))
    (pad 17 smd rect (at -6 -7.9 270) (size 1.5 0.6) (layers B.Cu B.Paste B.Mask))
    (pad 18 smd rect (at -5.2 -7.9 270) (size 1.5 0.6) (layers B.Cu B.Paste B.Mask))
    (pad 19 smd rect (at -4.4 -7.9 270) (size 1.5 0.6) (layers B.Cu B.Paste B.Mask))
    (pad 20 smd rect (at -3.6 -7.9 270) (size 1.5 0.6) (layers B.Cu B.Paste B.Mask))
    (pad 21 smd rect (at -2.8 -7.9 270) (size 1.5 0.6) (layers B.Cu B.Paste B.Mask))
    (pad 22 smd rect (at -2 -7.9 270) (size 1.5 0.6) (layers B.Cu B.Paste B.Mask))
    (pad 23 smd rect (at -1.2 -7.9 270) (size 1.5 0.6) (layers B.Cu B.Paste B.Mask))
    (pad 24 smd rect (at -0.4 -7.9 270) (size 1.5 0.6) (layers B.Cu B.Paste B.Mask))
    (pad 25 smd rect (at 0.4 -7.9 270) (size 1.5 0.6) (layers B.Cu B.Paste B.Mask))
    (pad 26 smd rect (at 1.2 -7.9 270) (size 1.5 0.6) (layers B.Cu B.Paste B.Mask))
    (pad 27 smd rect (at 2 -7.9 270) (size 1.5 0.6) (layers B.Cu B.Paste B.Mask))
    (pad 28 smd rect (at 2.8 -7.9 270) (size 1.5 0.6) (layers B.Cu B.Paste B.Mask))
    (pad 29 smd rect (at 3.6 -7.9 270) (size 1.5 0.6) (layers B.Cu B.Paste B.Mask))
    (pad 30 smd rect (at 4.4 -7.9 270) (size 1.5 0.6) (layers B.Cu B.Paste B.Mask))
    (pad 31 smd rect (at 5.2 -7.9 270) (size 1.5 0.6) (layers B.Cu B.Paste B.Mask))
    (pad 32 smd rect (at 6 -7.9 270) (size 1.5 0.6) (layers B.Cu B.Paste B.Mask))
    (pad 33 smd rect (at 7.9 -6) (size 1.5 0.6) (layers B.Cu B.Paste B.Mask))
    (pad 34 smd rect (at 7.9 -5.2) (size 1.5 0.6) (layers B.Cu B.Paste B.Mask))
    (pad 35 smd rect (at 7.9 -4.4) (size 1.5 0.6) (layers B.Cu B.Paste B.Mask))
    (pad 36 smd rect (at 7.9 -3.6) (size 1.5 0.6) (layers B.Cu B.Paste B.Mask))
    (pad 37 smd rect (at 7.9 -2.8) (size 1.5 0.6) (layers B.Cu B.Paste B.Mask))
    (pad 38 smd rect (at 7.9 -2) (size 1.5 0.6) (layers B.Cu B.Paste B.Mask))
    (pad 39 smd rect (at 7.9 -1.2) (size 1.5 0.6) (layers B.Cu B.Paste B.Mask))
    (pad 40 smd rect (at 7.9 -0.4) (size 1.5 0.6) (layers B.Cu B.Paste B.Mask))
    (pad 41 smd rect (at 7.9 0.4) (size 1.5 0.6) (layers B.Cu B.Paste B.Mask))
    (pad 42 smd rect (at 7.9 1.2) (size 1.5 0.6) (layers B.Cu B.Paste B.Mask))
    (pad 43 smd rect (at 7.9 2) (size 1.5 0.6) (layers B.Cu B.Paste B.Mask))
    (pad 44 smd rect (at 7.9 2.8) (size 1.5 0.6) (layers B.Cu B.Paste B.Mask))
    (pad 45 smd rect (at 7.9 3.6) (size 1.5 0.6) (layers B.Cu B.Paste B.Mask))
    (pad 46 smd rect (at 7.9 4.4) (size 1.5 0.6) (layers B.Cu B.Paste B.Mask))
    (pad 47 smd rect (at 7.9 5.2) (size 1.5 0.6) (layers B.Cu B.Paste B.Mask))
    (pad 48 smd rect (at 7.9 6) (size 1.5 0.6) (layers B.Cu B.Paste B.Mask))
    (pad 49 smd rect (at 6 7.9 270) (size 1.5 0.6) (layers B.Cu B.Paste B.Mask))
    (pad 50 smd rect (at 5.2 7.9 270) (size 1.5 0.6) (layers B.Cu B.Paste B.Mask))
    (pad 51 smd rect (at 4.4 7.9 270) (size 1.5 0.6) (layers B.Cu B.Paste B.Mask))
    (pad 52 smd rect (at 3.6 7.9 270) (size 1.5 0.6) (layers B.Cu B.Paste B.Mask))
    (pad 53 smd rect (at 2.8 7.9 270) (size 1.5 0.6) (layers B.Cu B.Paste B.Mask))
    (pad 54 smd rect (at 2 7.9 270) (size 1.5 0.6) (layers B.Cu B.Paste B.Mask))
    (pad 55 smd rect (at 1.2 7.9 270) (size 1.5 0.6) (layers B.Cu B.Paste B.Mask))
    (pad 56 smd rect (at 0.4 7.9 270) (size 1.5 0.6) (layers B.Cu B.Paste B.Mask))
    (pad 57 smd rect (at -0.4 7.9 270) (size 1.5 0.6) (layers B.Cu B.Paste B.Mask))
    (pad 58 smd rect (at -1.2 7.9 270) (size 1.5 0.6) (layers B.Cu B.Paste B.Mask))
    (pad 59 smd rect (at -2 7.9 270) (size 1.5 0.6) (layers B.Cu B.Paste B.Mask))
    (pad 60 smd rect (at -2.8 7.9 270) (size 1.5 0.6) (layers B.Cu B.Paste B.Mask))
    (pad 61 smd rect (at -3.6 7.9 270) (size 1.5 0.6) (layers B.Cu B.Paste B.Mask))
    (pad 62 smd rect (at -4.4 7.9 270) (size 1.5 0.6) (layers B.Cu B.Paste B.Mask))
    (pad 63 smd rect (at -5.2 7.9 270) (size 1.5 0.6) (layers B.Cu B.Paste B.Mask))
    (pad 64 smd rect (at -6 7.9 270) (size 1.5 0.6) (layers B.Cu B.Paste B.Mask))
    (model Housings_QFP.3dshapes/LQFP-64_14x14mm_Pitch0.8mm.wrl
      (at (xyz 0 0 0))
      (scale (xyz 1 1 1))
      (rotate (xyz 0 0 0))
    )
  )

  (module Housings_SON:WSON6_1.5x1.5mm_Pitch0.5mm (layer F.Cu) (tedit 5A3861DC) (tstamp 5A6EC18B)
    (at 314.96 77.47)
    (descr "WSON6, http://www.ti.com/lit/ds/symlink/tlv702.pdf")
    (tags WSON6_1.5x1.5mm_Pitch0.5mm)
    (attr smd)
    (fp_text reference LP38691 (at 0 -2) (layer F.SilkS)
      (effects (font (size 1 1) (thickness 0.15)))
    )
    (fp_text value WSON6_1.5x1.5mm_Pitch0.5mm (at 0 2) (layer F.Fab)
      (effects (font (size 1 1) (thickness 0.15)))
    )
    (fp_text user %R (at 0.005 0) (layer F.Fab)
      (effects (font (size 0.4 0.4) (thickness 0.05)))
    )
    (fp_line (start -0.945 -0.85) (end 0.755 -0.85) (layer F.SilkS) (width 0.12))
    (fp_line (start -0.795 0.85) (end 0.755 0.85) (layer F.SilkS) (width 0.12))
    (fp_line (start -0.495 -0.78) (end -0.775 -0.5) (layer F.Fab) (width 0.1))
    (fp_line (start 0.785 -0.78) (end -0.495 -0.78) (layer F.Fab) (width 0.1))
    (fp_line (start -0.775 -0.5) (end -0.775 0.78) (layer F.Fab) (width 0.1))
    (fp_line (start -0.775 0.78) (end 0.785 0.78) (layer F.Fab) (width 0.1))
    (fp_line (start 0.785 -0.78) (end 0.785 0.78) (layer F.Fab) (width 0.1))
    (fp_line (start 1.2 -1.02) (end 1.2 1.02) (layer F.CrtYd) (width 0.05))
    (fp_line (start 1.2 -1.02) (end -1.2 -1.02) (layer F.CrtYd) (width 0.05))
    (fp_line (start -1.2 1.02) (end 1.2 1.02) (layer F.CrtYd) (width 0.05))
    (fp_line (start -1.2 1.02) (end -1.2 -1.02) (layer F.CrtYd) (width 0.05))
    (pad 1 smd rect (at -0.525 -0.5 270) (size 0.28 0.85) (layers F.Cu F.Paste F.Mask))
    (pad 2 smd rect (at -0.575 0 270) (size 0.28 0.75) (layers F.Cu F.Paste F.Mask))
    (pad 3 smd rect (at -0.575 0.5 270) (size 0.28 0.75) (layers F.Cu F.Paste F.Mask))
    (pad 4 smd rect (at 0.575 0.5 270) (size 0.28 0.75) (layers F.Cu F.Paste F.Mask))
    (pad 5 smd rect (at 0.575 0 270) (size 0.28 0.75) (layers F.Cu F.Paste F.Mask))
    (pad 6 smd rect (at 0.575 -0.5 270) (size 0.28 0.75) (layers F.Cu F.Paste F.Mask))
    (model ${KISYS3DMOD}/Housings_SON.3dshapes/WSON6_1.5x1.5mm_Pitch0.5mm.wrl
      (at (xyz 0.0001968504 0 0))
      (scale (xyz 1 1 1))
      (rotate (xyz 0 0 0))
    )
  )

  (module air:SSD1306_128_32 (layer F.Cu) (tedit 5A3BB2C6) (tstamp 5AD71B26)
    (at 194.31 105.41 90)
    (descr "SSD1306 128x32 OLED")
    (tags "Through hole pin header THT 1x08 2.54mm single row oled ssd1306 display")
    (fp_text reference SSD1306 (at 0 -6.096 90) (layer F.SilkS)
      (effects (font (size 1 1) (thickness 0.15)))
    )
    (fp_text value "SSD1306 128x32" (at 0 7.62 90) (layer F.Fab)
      (effects (font (size 1 1) (thickness 0.15)))
    )
    (fp_line (start 10.414 -10.414) (end -10.414 -10.414) (layer F.SilkS) (width 0.05))
    (fp_line (start 10.414 -7.366) (end 10.414 -10.414) (layer F.SilkS) (width 0.05))
    (fp_line (start -10.414 -7.366) (end 10.414 -7.366) (layer F.SilkS) (width 0.05))
    (fp_line (start -10.414 -10.414) (end -10.414 -7.366) (layer F.SilkS) (width 0.05))
    (fp_line (start -10.16 -10.16) (end 10.16 -10.16) (layer F.CrtYd) (width 0.05))
    (fp_line (start -10.16 -7.62) (end -10.16 -10.16) (layer F.CrtYd) (width 0.05))
    (fp_line (start 10.16 -7.62) (end -10.16 -7.62) (layer F.CrtYd) (width 0.05))
    (fp_line (start 10.16 -10.16) (end 10.16 -7.62) (layer F.CrtYd) (width 0.05))
    (fp_line (start -13.97 11.43) (end 13.97 11.43) (layer F.CrtYd) (width 0.05))
    (fp_line (start -16.51 -8.89) (end -16.51 8.89) (layer F.CrtYd) (width 0.05))
    (fp_line (start 16.51 8.89) (end 16.51 -8.89) (layer F.CrtYd) (width 0.05))
    (fp_arc (start 13.97 8.89) (end 16.51 8.89) (angle 90) (layer F.CrtYd) (width 0.05))
    (fp_arc (start -13.97 8.89) (end -13.97 11.43) (angle 90) (layer F.CrtYd) (width 0.05))
    (fp_arc (start -13.97 -8.89) (end -16.51 -8.89) (angle 90) (layer F.CrtYd) (width 0.05))
    (fp_arc (start 13.97 -8.89) (end 13.97 -11.43) (angle 90) (layer F.CrtYd) (width 0.05))
    (fp_line (start 13.97 -11.43) (end -13.97 -11.43) (layer F.CrtYd) (width 0.05))
    (pad 1 thru_hole rect (at -8.89 -8.89 90) (size 1.7 1.7) (drill 1) (layers *.Cu *.Mask))
    (pad 2 thru_hole oval (at -6.35 -8.89 90) (size 1.7 1.7) (drill 1) (layers *.Cu *.Mask))
    (pad 3 thru_hole oval (at -3.81 -8.89 90) (size 1.7 1.7) (drill 1) (layers *.Cu *.Mask))
    (pad 4 thru_hole oval (at -1.27 -8.89 90) (size 1.7 1.7) (drill 1) (layers *.Cu *.Mask))
    (pad 5 thru_hole oval (at 1.27 -8.89 90) (size 1.7 1.7) (drill 1) (layers *.Cu *.Mask))
    (pad 6 thru_hole oval (at 3.81 -8.89 90) (size 1.7 1.7) (drill 1) (layers *.Cu *.Mask))
    (pad 7 thru_hole oval (at 6.35 -8.89 90) (size 1.7 1.7) (drill 1) (layers *.Cu *.Mask))
    (pad 8 thru_hole oval (at 8.89 -8.89 90) (size 1.7 1.7) (drill 1) (layers *.Cu *.Mask))
    (model ${KISYS3DMOD}/Pin_Headers.3dshapes/Pin_Header_Straight_1x08_Pitch2.54mm.wrl
      (at (xyz 0 0 0))
      (scale (xyz 1 1 1))
      (rotate (xyz 0 0 0))
    )
  )

  (module air:MPU9250 (layer F.Cu) (tedit 5A3BA934) (tstamp 5AC50847)
    (at 133.35 91.44)
    (descr "MPU9250 Breakout Headers")
    (tags "Through hole pin header THT Breakout 2.54mm")
    (fp_text reference MPU9250 (at -0.254 1.524) (layer F.SilkS)
      (effects (font (size 1 1) (thickness 0.15)))
    )
    (fp_text value MPU9250 (at 0 -2.54) (layer F.Fab)
      (effects (font (size 1 1) (thickness 0.15)))
    )
    (fp_line (start -9.398 -4.064) (end -9.398 6.604) (layer F.CrtYd) (width 0.05))
    (fp_line (start -9.398 6.604) (end 8.89 6.604) (layer F.CrtYd) (width 0.05))
    (fp_line (start 8.89 6.604) (end 8.89 -4.064) (layer F.CrtYd) (width 0.05))
    (fp_line (start 8.89 -4.064) (end -9.398 -4.064) (layer F.CrtYd) (width 0.05))
    (fp_line (start 8.636 6.35) (end -9.144 6.35) (layer F.SilkS) (width 0.15))
    (fp_line (start -9.144 6.35) (end -9.144 -3.81) (layer F.SilkS) (width 0.15))
    (fp_line (start -9.144 -3.81) (end 8.636 -3.81) (layer F.SilkS) (width 0.15))
    (fp_line (start 8.636 -3.81) (end 8.636 6.35) (layer F.SilkS) (width 0.15))
    (pad 1 thru_hole rect (at -7.874 -2.54) (size 1.7 1.7) (drill 1) (layers *.Cu *.Mask))
    (pad 2 thru_hole oval (at -7.874 0) (size 1.7 1.7) (drill 1) (layers *.Cu *.Mask))
    (pad 3 thru_hole oval (at -7.874 2.54) (size 1.7 1.7) (drill 1) (layers *.Cu *.Mask))
    (pad 4 thru_hole oval (at -7.874 5.08) (size 1.7 1.7) (drill 1) (layers *.Cu *.Mask))
    (pad 5 thru_hole oval (at 7.366 -2.54) (size 1.7 1.7) (drill 1) (layers *.Cu *.Mask))
    (pad 6 thru_hole oval (at 7.366 0) (size 1.7 1.7) (drill 1) (layers *.Cu *.Mask))
    (pad 7 thru_hole oval (at 7.366 2.54) (size 1.7 1.7) (drill 1) (layers *.Cu *.Mask))
    (pad 8 thru_hole oval (at 7.366 5.08) (size 1.7 1.7) (drill 1) (layers *.Cu *.Mask))
    (model ${KISYS3DMOD}/Pin_Headers.3dshapes/Pin_Header_Straight_1x08_Pitch2.54mm.wrl
      (at (xyz 0 0 0))
      (scale (xyz 1 1 1))
      (rotate (xyz 0 0 0))
    )
  )

  (module ESP8266:ESP-07v2 (layer F.Cu) (tedit 59068204) (tstamp 5AF228AB)
    (at 208.28 147.32 180)
    (descr "Module, ESP-8266, ESP-07v2, 16 pad, SMD")
    (tags "Module ESP-8266 ESP8266")
    (fp_text reference REF** (at -3.5 -1.5 180) (layer F.SilkS)
      (effects (font (size 1 1) (thickness 0.15)))
    )
    (fp_text value ESP-07v2 (at 7.25 2.25 180) (layer F.Fab)
      (effects (font (size 1 1) (thickness 0.15)))
    )
    (fp_line (start -2.25 -0.5) (end -2.25 -6.65) (layer F.CrtYd) (width 0.05))
    (fp_line (start -2.25 -6.65) (end 16.25 -6.65) (layer F.CrtYd) (width 0.05))
    (fp_line (start 16.25 -6.65) (end 16.25 16) (layer F.CrtYd) (width 0.05))
    (fp_line (start 16.25 16) (end -2.25 16) (layer F.CrtYd) (width 0.05))
    (fp_line (start -2.25 16) (end -2.25 -0.5) (layer F.CrtYd) (width 0.05))
    (fp_line (start -1 -6.4) (end 15 -6.4) (layer F.SilkS) (width 0.1524))
    (fp_line (start 15 -6.4) (end 15 -1) (layer F.SilkS) (width 0.1524))
    (fp_line (start -1 -6.4) (end -1 -1) (layer F.SilkS) (width 0.1524))
    (fp_line (start -1 14.8) (end -1 15.6) (layer F.SilkS) (width 0.1524))
    (fp_line (start -1 15.6) (end 15 15.6) (layer F.SilkS) (width 0.1524))
    (fp_line (start 15 15.6) (end 15 14.8) (layer F.SilkS) (width 0.1524))
    (fp_line (start 15 -6.4) (end -1 -2.6) (layer F.SilkS) (width 0.1524))
    (fp_line (start -1 -6.4) (end 15 -2.6) (layer F.SilkS) (width 0.1524))
    (fp_text user "No Copper" (at 6.892 -5.4 180) (layer F.SilkS)
      (effects (font (size 1 1) (thickness 0.15)))
    )
    (fp_line (start -1.008 -2.6) (end 14.992 -2.6) (layer F.SilkS) (width 0.1524))
    (fp_line (start 15 -6.4) (end 15 15.6) (layer F.Fab) (width 0.05))
    (fp_line (start 15 15.6) (end -1 15.6) (layer F.Fab) (width 0.05))
    (fp_line (start -1.008 15.6) (end -1.008 -6.4) (layer F.Fab) (width 0.05))
    (fp_line (start -1 -6.4) (end 15 -6.4) (layer F.Fab) (width 0.05))
    (pad 1 thru_hole rect (at 0 0 180) (size 2.5 1.1) (drill 0.65 (offset -0.7 0)) (layers *.Cu *.Mask F.Paste F.SilkS))
    (pad 2 thru_hole oval (at 0 2 180) (size 2.5 1.1) (drill 0.65 (offset -0.7 0)) (layers *.Cu *.Mask F.Paste F.SilkS))
    (pad 3 thru_hole oval (at 0 4 180) (size 2.5 1.1) (drill 0.65 (offset -0.7 0)) (layers *.Cu *.Mask F.Paste F.SilkS))
    (pad 4 thru_hole oval (at 0 6 180) (size 2.5 1.1) (drill 0.65 (offset -0.7 0)) (layers *.Cu *.Mask F.Paste F.SilkS))
    (pad 5 thru_hole oval (at 0 8 180) (size 2.5 1.1) (drill 0.65 (offset -0.7 0)) (layers *.Cu *.Mask F.Paste F.SilkS))
    (pad 6 thru_hole oval (at 0 10 180) (size 2.5 1.1) (drill 0.65 (offset -0.7 0)) (layers *.Cu *.Mask F.Paste F.SilkS))
    (pad 7 thru_hole oval (at 0 12 180) (size 2.5 1.1) (drill 0.65 (offset -0.7 0)) (layers *.Cu *.Mask F.Paste F.SilkS))
    (pad 8 thru_hole oval (at 0 14 180) (size 2.5 1.1) (drill 0.65 (offset -0.7 0)) (layers *.Cu *.Mask F.Paste F.SilkS))
    (pad 9 thru_hole oval (at 14 14 180) (size 2.5 1.1) (drill 0.65 (offset 0.7 0)) (layers *.Cu *.Mask F.Paste F.SilkS))
    (pad 10 thru_hole oval (at 14 12 180) (size 2.5 1.1) (drill 0.65 (offset 0.6 0)) (layers *.Cu *.Mask F.Paste F.SilkS))
    (pad 11 thru_hole oval (at 14 10 180) (size 2.5 1.1) (drill 0.65 (offset 0.7 0)) (layers *.Cu *.Mask F.Paste F.SilkS))
    (pad 12 thru_hole oval (at 14 8 180) (size 2.5 1.1) (drill 0.65 (offset 0.7 0)) (layers *.Cu *.Mask F.Paste F.SilkS))
    (pad 13 thru_hole oval (at 14 6 180) (size 2.5 1.1) (drill 0.65 (offset 0.7 0)) (layers *.Cu *.Mask F.Paste F.SilkS))
    (pad 14 thru_hole oval (at 14 4 180) (size 2.5 1.1) (drill 0.65 (offset 0.7 0)) (layers *.Cu *.Mask F.Paste F.SilkS))
    (pad 15 thru_hole oval (at 14 2 180) (size 2.5 1.1) (drill 0.65 (offset 0.7 0)) (layers *.Cu *.Mask F.Paste F.SilkS))
    (pad 16 thru_hole oval (at 14 0 180) (size 2.5 1.1) (drill 0.65 (offset 0.7 0)) (layers *.Cu *.Mask F.Paste F.SilkS))
    (model ${ESPLIB}/ESP8266.3dshapes/ESP-07v2.wrl
      (at (xyz 0 0 0))
      (scale (xyz 0.3937 0.3937 0.3937))
      (rotate (xyz 0 0 0))
    )
  )

  (module ESP8266:ESP-01 (layer F.Cu) (tedit 577EF889) (tstamp 5B0430EC)
    (at 162.56 138.43)
    (descr "Module, ESP-8266, ESP-01, 8 pin")
    (tags "Module ESP-8266 ESP8266")
    (fp_text reference REF** (at 0.254 -4.572) (layer F.SilkS)
      (effects (font (size 1 1) (thickness 0.15)))
    )
    (fp_text value ESP-01_2x04 (at 12.192 3.556) (layer F.Fab)
      (effects (font (size 1 1) (thickness 0.15)))
    )
    (fp_line (start -1.778 -3.302) (end 22.86 -3.302) (layer F.SilkS) (width 0.254))
    (fp_line (start 22.86 -3.302) (end 22.86 10.922) (layer F.SilkS) (width 0.254))
    (fp_line (start 22.86 10.922) (end -1.778 10.922) (layer F.SilkS) (width 0.254))
    (fp_line (start -1.778 10.922) (end -1.778 -3.302) (layer F.SilkS) (width 0.254))
    (fp_line (start -1.778 -3.302) (end 22.86 -3.302) (layer F.Fab) (width 0.05))
    (fp_line (start 22.86 -3.302) (end 22.86 10.922) (layer F.Fab) (width 0.05))
    (fp_line (start 22.86 10.922) (end -1.778 10.922) (layer F.Fab) (width 0.05))
    (fp_line (start -1.778 10.922) (end -1.778 -3.302) (layer F.Fab) (width 0.05))
    (fp_line (start 1.27 -1.27) (end -1.27 -1.27) (layer F.SilkS) (width 0.1524))
    (fp_line (start -1.27 -1.27) (end -1.27 1.27) (layer F.SilkS) (width 0.1524))
    (fp_line (start -1.75 -1.75) (end -1.75 9.4) (layer F.CrtYd) (width 0.05))
    (fp_line (start 4.3 -1.75) (end 4.3 9.4) (layer F.CrtYd) (width 0.05))
    (fp_line (start -1.75 -1.75) (end 4.3 -1.75) (layer F.CrtYd) (width 0.05))
    (fp_line (start -1.75 9.4) (end 4.3 9.4) (layer F.CrtYd) (width 0.05))
    (fp_line (start -1.27 1.27) (end -1.27 8.89) (layer F.SilkS) (width 0.1524))
    (fp_line (start -1.27 8.89) (end 3.81 8.89) (layer F.SilkS) (width 0.1524))
    (fp_line (start 3.81 8.89) (end 3.81 -1.27) (layer F.SilkS) (width 0.1524))
    (fp_line (start 3.81 -1.27) (end 1.27 -1.27) (layer F.SilkS) (width 0.1524))
    (pad 1 thru_hole rect (at 0 0) (size 1.7272 1.7272) (drill 1.016) (layers *.Cu *.Mask F.SilkS))
    (pad 2 thru_hole oval (at 2.54 0) (size 1.7272 1.7272) (drill 1.016) (layers *.Cu *.Mask F.SilkS))
    (pad 3 thru_hole oval (at 0 2.54) (size 1.7272 1.7272) (drill 1.016) (layers *.Cu *.Mask F.SilkS))
    (pad 4 thru_hole oval (at 2.54 2.54) (size 1.7272 1.7272) (drill 1.016) (layers *.Cu *.Mask F.SilkS))
    (pad 5 thru_hole oval (at 0 5.08) (size 1.7272 1.7272) (drill 1.016) (layers *.Cu *.Mask F.SilkS))
    (pad 6 thru_hole oval (at 2.54 5.08) (size 1.7272 1.7272) (drill 1.016) (layers *.Cu *.Mask F.SilkS))
    (pad 7 thru_hole oval (at 0 7.62) (size 1.7272 1.7272) (drill 1.016) (layers *.Cu *.Mask F.SilkS))
    (pad 8 thru_hole oval (at 2.54 7.62) (size 1.7272 1.7272) (drill 1.016) (layers *.Cu *.Mask F.SilkS))
  )

  (module ESP8266:ESP-03 (layer F.Cu) (tedit 584770AC) (tstamp 5B0D35E5)
    (at 143.51 135.89)
    (descr "Module, ESP-8266, ESP-03, 14 pad, SMD")
    (tags "Module ESP-8266 ESP8266")
    (attr smd)
    (fp_text reference >NAME (at 3.17628 -4.36498) (layer F.SilkS)
      (effects (font (size 1.27 1.27) (thickness 0.1016)))
    )
    (fp_text value >VALUE (at 3.81128 14.36498) (layer F.SilkS)
      (effects (font (size 1.27 1.27) (thickness 0.1016)))
    )
    (fp_line (start 0.60072 -0.99948) (end 3.00102 -0.99948) (layer F.SilkS) (width 0.06604))
    (fp_line (start 3.00102 -0.99948) (end 3.00102 -3.39978) (layer F.SilkS) (width 0.06604))
    (fp_line (start 0.60072 -3.39978) (end 3.00102 -3.39978) (layer F.SilkS) (width 0.06604))
    (fp_line (start 0.60072 -0.99948) (end 0.60072 -3.39978) (layer F.SilkS) (width 0.06604))
    (fp_line (start 8.79984 -0.79882) (end 11.1976 -0.79882) (layer F.SilkS) (width 0.06604))
    (fp_line (start 11.1976 -0.79882) (end 11.1976 -3.5979) (layer F.SilkS) (width 0.06604))
    (fp_line (start 8.79984 -3.5979) (end 11.1976 -3.5979) (layer F.SilkS) (width 0.06604))
    (fp_line (start 8.79984 -0.79882) (end 8.79984 -3.5979) (layer F.SilkS) (width 0.06604))
    (fp_line (start 0.00128 13.5979) (end 12.19836 13.5979) (layer F.SilkS) (width 0.127))
    (fp_line (start 0.00128 -3.79856) (end 12.19836 -3.79856) (layer F.SilkS) (width 0.127))
    (fp_line (start 12.19836 -3.79856) (end 12.19836 -0.59816) (layer F.SilkS) (width 0.127))
    (fp_line (start 12.19836 -0.59816) (end 12.19836 13.5979) (layer F.SilkS) (width 0.127))
    (fp_line (start 0.00128 -3.79856) (end 0.00128 -0.59816) (layer F.SilkS) (width 0.127))
    (fp_line (start 0.00128 -0.59816) (end 0.00128 13.5979) (layer F.SilkS) (width 0.127))
    (fp_line (start 7.39776 2.00026) (end 2.60224 2.00026) (layer F.SilkS) (width 0.127))
    (fp_line (start 2.60224 2.00026) (end 2.60224 6.99898) (layer F.SilkS) (width 0.127))
    (fp_line (start 2.60224 6.99898) (end 7.39776 6.99898) (layer F.SilkS) (width 0.127))
    (fp_line (start 7.39776 6.99898) (end 7.39776 2.00026) (layer F.SilkS) (width 0.127))
    (fp_line (start 10.79882 7.19964) (end 8.39852 7.19964) (layer F.SilkS) (width 0.127))
    (fp_line (start 8.39852 7.19964) (end 8.39852 9.79806) (layer F.SilkS) (width 0.127))
    (fp_line (start 8.39852 9.79806) (end 10.79882 9.79806) (layer F.SilkS) (width 0.127))
    (fp_line (start 10.79882 9.79806) (end 10.79882 7.19964) (layer F.SilkS) (width 0.127))
    (fp_line (start 7.39776 8.39852) (end 2.60224 8.39852) (layer F.SilkS) (width 0.127))
    (fp_line (start 2.60224 8.39852) (end 2.60224 13.39978) (layer F.SilkS) (width 0.127))
    (fp_line (start 2.60224 13.39978) (end 7.39776 13.39978) (layer F.SilkS) (width 0.127))
    (fp_line (start 7.39776 13.39978) (end 7.39776 8.39852) (layer F.SilkS) (width 0.127))
    (pad 7 smd rect (at 12.2 0.20194) (size 1.5 1) (layers F.Cu F.Paste F.Mask))
    (pad 6 smd rect (at 12.2 2.20092) (size 1.5 1) (layers F.Cu F.Paste F.Mask))
    (pad 1 smd rect (at 12.2 12.19836) (size 1.5 1) (layers F.Cu F.Paste F.Mask))
    (pad 14 smd rect (at 0 12.19836) (size 1.5 1) (layers F.Cu F.Paste F.Mask))
    (pad 13 smd rect (at 0 10.19938) (size 1.5 1) (layers F.Cu F.Paste F.Mask))
    (pad 10 smd rect (at 0 4.20244) (size 1.5 1) (layers F.Cu F.Paste F.Mask))
    (pad 11 smd rect (at 0 6.19888) (size 1.5 1) (layers F.Cu F.Paste F.Mask))
    (pad 9 smd rect (at 0 2.20092) (size 1.5 1) (layers F.Cu F.Paste F.Mask))
    (pad 12 smd rect (at 0 8.19786) (size 1.5 1) (layers F.Cu F.Paste F.Mask))
    (pad 5 smd rect (at 12.2 4.20244) (size 1.5 1) (layers F.Cu F.Paste F.Mask))
    (pad 2 smd rect (at 12.2 10.19938) (size 1.5 1) (layers F.Cu F.Paste F.Mask))
    (pad 4 smd rect (at 12.2 6.19888) (size 1.5 1) (layers F.Cu F.Paste F.Mask))
    (pad 3 smd rect (at 12.2 8.19786) (size 1.5 1) (layers F.Cu F.Paste F.Mask))
    (pad 8 smd rect (at 0 0.20194) (size 1.5 1) (layers F.Cu F.Paste F.Mask))
  )

  (module Connectors_JST:JST_PH_S2B-PH-SM4-TB_02x2.00mm_Angled (layer F.Cu) (tedit 56B07788) (tstamp 5B2022D1)
    (at 168.91 92.71 180)
    (descr http://www.jst-mfg.com/product/pdf/eng/ePH.pdf)
    (tags "connector jst ph")
    (attr smd)
    (fp_text reference REF** (at -1.5 -6 180) (layer F.SilkS)
      (effects (font (size 1 1) (thickness 0.15)))
    )
    (fp_text value JST_PH_S2B-PH-SM4-TB_02x2.00mm_Angled (at 0 6 180) (layer F.Fab)
      (effects (font (size 1 1) (thickness 0.15)))
    )
    (fp_circle (center -2.4 -2.525) (end -2.15 -2.525) (layer F.SilkS) (width 0.15))
    (fp_line (start -0.5 4.225) (end -0.5 3.225) (layer F.SilkS) (width 0.15))
    (fp_line (start -0.5 3.225) (end 0.5 3.225) (layer F.SilkS) (width 0.15))
    (fp_line (start 0.5 3.225) (end 0.5 4.225) (layer F.SilkS) (width 0.15))
    (fp_line (start -1.9 -1.775) (end -3.15 -1.775) (layer F.SilkS) (width 0.15))
    (fp_line (start -3.15 -1.775) (end -3.15 -3.375) (layer F.SilkS) (width 0.15))
    (fp_line (start -3.15 -3.375) (end -3.95 -3.375) (layer F.SilkS) (width 0.15))
    (fp_line (start -3.95 -3.375) (end -3.95 0.725) (layer F.SilkS) (width 0.15))
    (fp_line (start -3.15 -1.775) (end -3.95 -1.775) (layer F.SilkS) (width 0.15))
    (fp_line (start 1.9 -1.775) (end 3.15 -1.775) (layer F.SilkS) (width 0.15))
    (fp_line (start 3.15 -1.775) (end 3.15 -3.375) (layer F.SilkS) (width 0.15))
    (fp_line (start 3.15 -3.375) (end 3.95 -3.375) (layer F.SilkS) (width 0.15))
    (fp_line (start 3.95 -3.375) (end 3.95 0.725) (layer F.SilkS) (width 0.15))
    (fp_line (start 3.15 -1.775) (end 3.95 -1.775) (layer F.SilkS) (width 0.15))
    (fp_line (start -2.2 4.225) (end 2.2 4.225) (layer F.SilkS) (width 0.15))
    (fp_line (start -2.2 -0.675) (end -2.2 2.725) (layer F.SilkS) (width 0.15))
    (fp_line (start -2.2 2.725) (end -1.2 2.725) (layer F.SilkS) (width 0.15))
    (fp_line (start -1.2 2.725) (end -1.2 -0.675) (layer F.SilkS) (width 0.15))
    (fp_line (start -1.2 -0.675) (end -2.2 -0.675) (layer F.SilkS) (width 0.15))
    (fp_line (start 2.2 -0.675) (end 2.2 2.725) (layer F.SilkS) (width 0.15))
    (fp_line (start 2.2 2.725) (end 1.2 2.725) (layer F.SilkS) (width 0.15))
    (fp_line (start 1.2 2.725) (end 1.2 -0.675) (layer F.SilkS) (width 0.15))
    (fp_line (start 1.2 -0.675) (end 2.2 -0.675) (layer F.SilkS) (width 0.15))
    (fp_line (start -0.1 -1.775) (end 0.1 -1.775) (layer F.SilkS) (width 0.15))
    (fp_line (start -4.7 5) (end -4.7 -5.05) (layer F.CrtYd) (width 0.05))
    (fp_line (start -4.7 -5.05) (end 4.7 -5.05) (layer F.CrtYd) (width 0.05))
    (fp_line (start 4.7 -5.05) (end 4.7 5) (layer F.CrtYd) (width 0.05))
    (fp_line (start 4.7 5) (end -4.7 5) (layer F.CrtYd) (width 0.05))
    (pad 1 smd rect (at -1 -2.775 180) (size 1 3.5) (layers F.Cu F.Paste F.Mask))
    (pad 2 smd rect (at 1 -2.775 180) (size 1 3.5) (layers F.Cu F.Paste F.Mask))
    (pad "" smd rect (at -3.4 2.775 180) (size 1.6 3.4) (layers F.Cu F.Paste F.Mask))
    (pad "" smd rect (at 3.4 2.775 180) (size 1.6 3.4) (layers F.Cu F.Paste F.Mask))
  )

  (dimension 35.56 (width 0.3) (layer Margin)
    (gr_text "35.560 mm" (at 100.25 105.41 270) (layer Margin)
      (effects (font (size 1.5 1.5) (thickness 0.3)))
    )
    (feature1 (pts (xy 114.3 123.19) (xy 98.9 123.19)))
    (feature2 (pts (xy 114.3 87.63) (xy 98.9 87.63)))
    (crossbar (pts (xy 101.6 87.63) (xy 101.6 123.19)))
    (arrow1a (pts (xy 101.6 123.19) (xy 101.013579 122.063496)))
    (arrow1b (pts (xy 101.6 123.19) (xy 102.186421 122.063496)))
    (arrow2a (pts (xy 101.6 87.63) (xy 101.013579 88.756504)))
    (arrow2b (pts (xy 101.6 87.63) (xy 102.186421 88.756504)))
  )
  (dimension 73.66 (width 0.3) (layer Margin)
    (gr_text "73.660 mm" (at 151.13 73.58) (layer Margin)
      (effects (font (size 1.5 1.5) (thickness 0.3)))
    )
    (feature1 (pts (xy 187.96 87.63) (xy 187.96 72.23)))
    (feature2 (pts (xy 114.3 87.63) (xy 114.3 72.23)))
    (crossbar (pts (xy 114.3 74.93) (xy 187.96 74.93)))
    (arrow1a (pts (xy 187.96 74.93) (xy 186.833496 75.516421)))
    (arrow1b (pts (xy 187.96 74.93) (xy 186.833496 74.343579)))
    (arrow2a (pts (xy 114.3 74.93) (xy 115.426504 75.516421)))
    (arrow2b (pts (xy 114.3 74.93) (xy 115.426504 74.343579)))
  )
  (dimension 81.28 (width 0.3) (layer Margin)
    (gr_text "81.280 mm" (at 266.7 76.12) (layer Margin)
      (effects (font (size 1.5 1.5) (thickness 0.3)))
    )
    (feature1 (pts (xy 307.34 97.79) (xy 307.34 74.77)))
    (feature2 (pts (xy 226.06 97.79) (xy 226.06 74.77)))
    (crossbar (pts (xy 226.06 77.47) (xy 307.34 77.47)))
    (arrow1a (pts (xy 307.34 77.47) (xy 306.213496 78.056421)))
    (arrow1b (pts (xy 307.34 77.47) (xy 306.213496 76.883579)))
    (arrow2a (pts (xy 226.06 77.47) (xy 227.186504 78.056421)))
    (arrow2b (pts (xy 226.06 77.47) (xy 227.186504 76.883579)))
  )
  (gr_line (start 302.26 128.27) (end 302.26 102.87) (angle 90) (layer Edge.Cuts) (width 0.15))
  (gr_line (start 304.8 102.87) (end 304.8 128.27) (angle 90) (layer Edge.Cuts) (width 0.15))
  (gr_arc (start 303.53 102.87) (end 304.8 102.87) (angle -90) (layer Edge.Cuts) (width 0.15))
  (gr_arc (start 303.53 102.87) (end 303.53 101.6) (angle -90) (layer Edge.Cuts) (width 0.15))
  (gr_arc (start 303.53 128.27) (end 303.53 129.54) (angle -90) (layer Edge.Cuts) (width 0.15))
  (gr_arc (start 303.53 128.27) (end 302.26 128.27) (angle -90) (layer Edge.Cuts) (width 0.15))
  (gr_line (start 226.06 133.35) (end 226.06 128.27) (angle 90) (layer Edge.Cuts) (width 0.15))
  (gr_line (start 307.34 133.35) (end 307.34 128.27) (angle 90) (layer Edge.Cuts) (width 0.15))
  (gr_line (start 228.6 135.89) (end 304.8 135.89) (angle 90) (layer Edge.Cuts) (width 0.15))
  (gr_line (start 226.06 97.79) (end 226.06 128.27) (angle 90) (layer Edge.Cuts) (width 0.15))
  (gr_line (start 304.8 95.25) (end 228.6 95.25) (angle 90) (layer Edge.Cuts) (width 0.15))
  (gr_line (start 307.34 128.27) (end 307.34 97.79) (angle 90) (layer Edge.Cuts) (width 0.15))
  (gr_arc (start 228.6 133.35) (end 226.06 133.35) (angle -90) (layer Edge.Cuts) (width 0.15))
  (gr_arc (start 228.6 97.79) (end 228.6 95.25) (angle -90) (layer Edge.Cuts) (width 0.15))
  (gr_arc (start 304.8 97.79) (end 307.34 97.79) (angle -90) (layer Edge.Cuts) (width 0.15))
  (gr_arc (start 304.8 133.35) (end 304.8 135.89) (angle -90) (layer Edge.Cuts) (width 0.15))

)
