(export (version D)
  (design
    (source /Users/gs/Dropbox/FU/5_IXD/_source/pcb/proto_03D/air_fi_03E.sch)
    (date "2018 February 16, Friday 16:47:21")
    (tool "Eeschema 4.0.7")
    (sheet (number 1) (name /) (tstamps /)
      (title_block
        (title)
        (company)
        (rev)
        (date)
        (source air_fi_03E.sch)
        (comment (number 1) (value ""))
        (comment (number 2) (value ""))
        (comment (number 3) (value ""))
        (comment (number 4) (value "")))))
  (components
    (comp (ref U1)
      (value MPU9250)
      (footprint Housings_DFN_QFN:QFN-24-1EP_3x3mm_Pitch0.4mm)
      (libsource (lib air_fi_03D-cache) (part MPU9250-RESCUE-air_fi_03))
      (sheetpath (names /) (tstamps /))
      (tstamp 5A50FFCC))
    (comp (ref C2)
      (value 0.1µF)
      (footprint Capacitors_SMD:C_0603)
      (libsource (lib device) (part C_Small))
      (sheetpath (names /) (tstamps /))
      (tstamp 5A510ABA))
    (comp (ref R2)
      (value 10K)
      (footprint Resistors_SMD:R_0603)
      (libsource (lib device) (part R_Small))
      (sheetpath (names /) (tstamps /))
      (tstamp 5A510EFB))
    (comp (ref C1)
      (value 0.1µF)
      (footprint Capacitors_SMD:C_0603)
      (libsource (lib device) (part C_Small))
      (sheetpath (names /) (tstamps /))
      (tstamp 5A5111E7))
    (comp (ref S2)
      (value AIR12)
      (footprint air:SW_AIR12)
      (libsource (lib air) (part SW_SPST_SMD))
      (sheetpath (names /) (tstamps /))
      (tstamp 5A526E14))
    (comp (ref S1)
      (value AIR12)
      (footprint air:SW_AIR12)
      (libsource (lib air) (part SW_SPST_SMD))
      (sheetpath (names /) (tstamps /))
      (tstamp 5A526F1A))
    (comp (ref J2)
      (value Conn_01x02)
      (footprint Wire_Connections_Bridges:WireConnection_0.80mmDrill)
      (libsource (lib conn) (part Conn_01x02))
      (sheetpath (names /) (tstamps /))
      (tstamp 5A568D09))
    (comp (ref J1)
      (value Air_Conn_01x10)
      (footprint air:conn_IDC_10pin_1.27_SMD)
      (libsource (lib air) (part Air_Conn_01x06))
      (sheetpath (names /) (tstamps /))
      (tstamp 5A510815))
    (comp (ref S3)
      (value AIR12)
      (footprint air:SW_AIR12)
      (libsource (lib air) (part SW_SPST_SMD))
      (sheetpath (names /) (tstamps /))
      (tstamp 5A796B56))
    (comp (ref R5)
      (value 10K)
      (footprint Resistors_SMD:R_0603)
      (libsource (lib device) (part R_Small))
      (sheetpath (names /) (tstamps /))
      (tstamp 5A797CB4))
    (comp (ref C3)
      (value 0.1µF)
      (footprint Capacitors_SMD:C_0603)
      (libsource (lib device) (part C_Small))
      (sheetpath (names /) (tstamps /))
      (tstamp 5A79977F))
    (comp (ref C4)
      (value 0.1µF)
      (footprint Capacitors_SMD:C_0603)
      (libsource (lib device) (part C_Small))
      (sheetpath (names /) (tstamps /))
      (tstamp 5A79A037))
    (comp (ref C5)
      (value 0.1µF)
      (footprint Capacitors_SMD:C_0603)
      (libsource (lib device) (part C_Small))
      (sheetpath (names /) (tstamps /))
      (tstamp 5A79A096))
    (comp (ref R6)
      (value 10K)
      (footprint Resistors_SMD:R_0603)
      (libsource (lib device) (part R_Small))
      (sheetpath (names /) (tstamps /))
      (tstamp 5A79A134))
    (comp (ref R7)
      (value 10K)
      (footprint Resistors_SMD:R_0603)
      (libsource (lib device) (part R_Small))
      (sheetpath (names /) (tstamps /))
      (tstamp 5A79A199))
    (comp (ref R4)
      (value 10K)
      (footprint Resistors_SMD:R_0603)
      (libsource (lib device) (part R_Small))
      (sheetpath (names /) (tstamps /))
      (tstamp 5A798D0C))
    (comp (ref R3)
      (value 10K)
      (footprint Resistors_SMD:R_0603)
      (libsource (lib device) (part R_Small))
      (sheetpath (names /) (tstamps /))
      (tstamp 5A798CB7))
    (comp (ref R1)
      (value 10K)
      (footprint Resistors_SMD:R_0603)
      (libsource (lib device) (part R_Small))
      (sheetpath (names /) (tstamps /))
      (tstamp 5A798797)))
  (libparts
    (libpart (lib air) (part Air_Conn_01x06)
      (description "Generic connector, single row, 01x10")
      (docs ~)
      (footprints
        (fp Connector*:*_??x*mm*)
        (fp Connector*:*1x??x*mm*)
        (fp Pin?Header?Straight?1X*)
        (fp Pin?Header?Angled?1X*)
        (fp Socket?Strip?Straight?1X*)
        (fp Socket?Strip?Angled?1X*))
      (fields
        (field (name Reference) J)
        (field (name Value) Air_Conn_01x06)
        (field (name Footprint) air:wire_1X10))
      (pins
        (pin (num 1) (name GND) (type passive))
        (pin (num 2) (name SCL) (type passive))
        (pin (num 3) (name SDA) (type passive))
        (pin (num 4) (name NEO) (type passive))
        (pin (num 5) (name LRA-) (type input))
        (pin (num 6) (name LRA+) (type input))
        (pin (num 7) (name SW0) (type input))
        (pin (num 8) (name SW1) (type input))
        (pin (num 9) (name HAPTIC) (type input))
        (pin (num 10) (name 3V3) (type input))))
    (libpart (lib device) (part C_Small)
      (description "Unpolarized capacitor")
      (footprints
        (fp C_*))
      (fields
        (field (name Reference) C)
        (field (name Value) C_Small))
      (pins
        (pin (num 1) (name ~) (type passive))
        (pin (num 2) (name ~) (type passive))))
    (libpart (lib conn) (part Conn_01x02)
      (description "Generic connector, single row, 01x02")
      (docs ~)
      (footprints
        (fp Connector*:*_??x*mm*)
        (fp Connector*:*1x??x*mm*)
        (fp Pin?Header?Straight?1X*)
        (fp Pin?Header?Angled?1X*)
        (fp Socket?Strip?Straight?1X*)
        (fp Socket?Strip?Angled?1X*))
      (fields
        (field (name Reference) J)
        (field (name Value) Conn_01x02))
      (pins
        (pin (num 1) (name Pin_1) (type passive))
        (pin (num 2) (name Pin_2) (type passive))))
    (libpart (lib air_fi_03D-cache) (part MPU9250-RESCUE-air_fi_03)
      (fields
        (field (name Reference) U)
        (field (name Value) MPU9250-RESCUE-air_fi_03))
      (pins
        (pin (num 7) (name AUX_CL) (type BiDi))
        (pin (num 8) (name VDDIO) (type power_out))
        (pin (num 9) (name AD0/SDO) (type output))
        (pin (num 10) (name REGOUT) (type output))
        (pin (num 11) (name FSYNC) (type BiDi))
        (pin (num 12) (name INT) (type output))
        (pin (num 13) (name VDD) (type power_in))
        (pin (num 18) (name GND) (type power_in))
        (pin (num 19) (name RESV) (type passive))
        (pin (num 20) (name RESV) (type passive))
        (pin (num 21) (name AUX_DA) (type BiDi))
        (pin (num 22) (name nCS) (type BiDi))
        (pin (num 23) (name SCL/SCLK) (type BiDi))
        (pin (num 24) (name SDA/SDI) (type BiDi))))
    (libpart (lib device) (part R_Small)
      (description "Resistor, small symbol")
      (footprints
        (fp R_*))
      (fields
        (field (name Reference) R)
        (field (name Value) R_Small))
      (pins
        (pin (num 1) (name ~) (type passive))
        (pin (num 2) (name ~) (type passive))))
    (libpart (lib air) (part SW_SPST_SMD)
      (description "Momentary Switch (Pushbutton) - SPST - Two Circuits Normally-open (NO) SPST momentary switches (buttons, pushbuttons). Schematic symbol includes two switch circuits. <h4>Variants</h4><ul><li><b>SMD-4.6MMX2.8MM</b> -  4.60mm x 2.80mm Tactile Momentary Button Switch  - Used on <a href=\"https://www.sparkfun.com/products/13664\">SparkFun SAMD21 Mini Breakout</a></li><li><b>SMD-5.2MM</b> - <a href=\"https://www.sparkfun.com/products/8720\">Mini Pushbutton Switch - SMD</a> - Used on <a href=\"https://www.sparkfun.com/products/11114\">Arduino Pro Mini</a></li></ul>")
      (footprints
        (fp *TACTILE_SWITCH_SMD_5.2MM*))
      (fields
        (field (name Reference) S)
        (field (name Value) SW_SPST_SMD)
        (field (name Footprint) air:SW_SPST_EVQQ2))
      (pins
        (pin (num 1) (name 1) (type passive))
        (pin (num 2) (name 2) (type passive))
        (pin (num 3) (name 3) (type passive))
        (pin (num 4) (name 4) (type passive)))))
  (libraries
    (library (logical air)
      (uri "/Library/Application Support/kicad/library/air.lib"))
    (library (logical air_fi_03D-cache)
      (uri /Users/gs/Dropbox/FU/5_IXD/_source/pcb/proto_03D/air_fi_03D-cache.lib))
    (library (logical conn)
      (uri "/Library/Application Support/kicad/library/conn.lib"))
    (library (logical device)
      (uri "/Library/Application Support/kicad/library/device.lib")))
  (nets
    (net (code 1) (name "Net-(C1-Pad1)")
      (node (ref U1) (pin 10))
      (node (ref C1) (pin 1)))
    (net (code 2) (name "Net-(R2-Pad2)")
      (node (ref R2) (pin 2))
      (node (ref U1) (pin 9))
      (node (ref U1) (pin 22)))
    (net (code 3) (name +3V3)
      (node (ref J1) (pin 10))
      (node (ref C2) (pin 1))
      (node (ref U1) (pin 13))
      (node (ref R1) (pin 1))
      (node (ref R3) (pin 1))
      (node (ref R2) (pin 1))
      (node (ref R4) (pin 1)))
    (net (code 4) (name "Net-(S3-Pad4)")
      (node (ref S3) (pin 4)))
    (net (code 5) (name "Net-(S3-Pad2)")
      (node (ref S3) (pin 2)))
    (net (code 6) (name "Net-(S2-Pad4)")
      (node (ref S2) (pin 4)))
    (net (code 7) (name "Net-(S2-Pad2)")
      (node (ref S2) (pin 2)))
    (net (code 8) (name GNDD)
      (node (ref J1) (pin 1))
      (node (ref S1) (pin 3))
      (node (ref S2) (pin 3))
      (node (ref C5) (pin 2))
      (node (ref C4) (pin 2))
      (node (ref C3) (pin 2))
      (node (ref S3) (pin 3))
      (node (ref C1) (pin 2))
      (node (ref C2) (pin 2))
      (node (ref U1) (pin 20))
      (node (ref U1) (pin 18)))
    (net (code 9) (name "Net-(R1-Pad2)")
      (node (ref R5) (pin 1))
      (node (ref R1) (pin 2))
      (node (ref S1) (pin 1)))
    (net (code 10) (name "Net-(S1-Pad4)")
      (node (ref S1) (pin 4)))
    (net (code 11) (name "Net-(S1-Pad2)")
      (node (ref S1) (pin 2)))
    (net (code 12) (name "Net-(R3-Pad2)")
      (node (ref R3) (pin 2))
      (node (ref R6) (pin 1))
      (node (ref S2) (pin 1)))
    (net (code 13) (name "Net-(R4-Pad2)")
      (node (ref S3) (pin 1))
      (node (ref R7) (pin 1))
      (node (ref R4) (pin 2)))
    (net (code 14) (name "Net-(U1-Pad7)")
      (node (ref U1) (pin 7)))
    (net (code 15) (name "Net-(U1-Pad8)")
      (node (ref U1) (pin 8)))
    (net (code 16) (name "Net-(U1-Pad11)")
      (node (ref U1) (pin 11)))
    (net (code 17) (name "Net-(U1-Pad19)")
      (node (ref U1) (pin 19)))
    (net (code 18) (name "Net-(U1-Pad21)")
      (node (ref U1) (pin 21)))
    (net (code 19) (name "Net-(U1-Pad12)")
      (node (ref U1) (pin 12)))
    (net (code 20) (name SW1)
      (node (ref R6) (pin 2))
      (node (ref C4) (pin 1))
      (node (ref J1) (pin 8)))
    (net (code 21) (name SW2)
      (node (ref J1) (pin 9))
      (node (ref C5) (pin 1))
      (node (ref R7) (pin 2)))
    (net (code 22) (name "Net-(J1-Pad4)")
      (node (ref J1) (pin 4)))
    (net (code 23) (name SCL)
      (node (ref J1) (pin 2))
      (node (ref U1) (pin 23)))
    (net (code 24) (name SDA)
      (node (ref J1) (pin 3))
      (node (ref U1) (pin 24)))
    (net (code 25) (name OUT-)
      (node (ref J1) (pin 5))
      (node (ref J2) (pin 2)))
    (net (code 26) (name OUT+)
      (node (ref J2) (pin 1))
      (node (ref J1) (pin 6)))
    (net (code 27) (name SW0)
      (node (ref J1) (pin 7))
      (node (ref R5) (pin 2))
      (node (ref C3) (pin 1)))))