EESchema Schematic File Version 2
LIBS:power
LIBS:device
LIBS:transistors
LIBS:conn
LIBS:linear
LIBS:regul
LIBS:74xx
LIBS:cmos4000
LIBS:adc-dac
LIBS:memory
LIBS:xilinx
LIBS:microcontrollers
LIBS:dsp
LIBS:microchip
LIBS:analog_switches
LIBS:motorola
LIBS:texas
LIBS:intel
LIBS:audio
LIBS:interface
LIBS:digital-audio
LIBS:philips
LIBS:display
LIBS:cypress
LIBS:siliconi
LIBS:opto
LIBS:atmel
LIBS:contrib
LIBS:valves
LIBS:air
LIBS:air_fi_03D-cache
EELAYER 25 0
EELAYER END
$Descr A4 11693 8268
encoding utf-8
Sheet 1 1
Title ""
Date ""
Rev ""
Comp ""
Comment1 ""
Comment2 ""
Comment3 ""
Comment4 ""
$EndDescr
$Comp
L DRV2650L U2
U 1 1 5A567EA1
P 8050 1100
F 0 "U2" H 8050 1275 60  0000 C CNN
F 1 "DRV2650L" H 8050 1175 60  0000 C CNN
F 2 "Housings_SSOP:TSSOP-10_3x3mm_Pitch0.5mm" H 8050 1100 60  0001 C CNN
F 3 "" H 8050 1100 60  0001 C CNN
	1    8050 1100
	1    0    0    -1  
$EndComp
Text GLabel 7600 1400 0    60   BiDi ~ 0
SDA
Text GLabel 7600 1300 0    60   BiDi ~ 0
SCL
$Comp
L C_Small C4
U 1 1 5A567FDB
P 9250 1450
F 0 "C4" H 9260 1520 50  0000 L CNN
F 1 "0.1µF" H 9260 1370 50  0000 L CNN
F 2 "Capacitors_SMD:C_0603" H 9250 1450 50  0001 C CNN
F 3 "" H 9250 1450 50  0001 C CNN
	1    9250 1450
	1    0    0    -1  
$EndComp
$Comp
L C_Small C3
U 1 1 5A56806D
P 6950 1450
F 0 "C3" H 6960 1520 50  0000 L CNN
F 1 "1µF" H 6960 1370 50  0000 L CNN
F 2 "Capacitors_SMD:C_0603" H 6950 1450 50  0001 C CNN
F 3 "" H 6950 1450 50  0001 C CNN
	1    6950 1450
	-1   0    0    1   
$EndComp
$Comp
L GNDD #PWR011
U 1 1 5A568879
P 9250 1700
F 0 "#PWR011" H 9250 1450 50  0001 C CNN
F 1 "GNDD" H 9250 1575 50  0000 C CNN
F 2 "" H 9250 1700 50  0001 C CNN
F 3 "" H 9250 1700 50  0001 C CNN
	1    9250 1700
	1    0    0    -1  
$EndComp
$Comp
L GNDD #PWR012
U 1 1 5A5688D4
P 6950 1700
F 0 "#PWR012" H 6950 1450 50  0001 C CNN
F 1 "GNDD" H 6950 1575 50  0000 C CNN
F 2 "" H 6950 1700 50  0001 C CNN
F 3 "" H 6950 1700 50  0001 C CNN
	1    6950 1700
	1    0    0    -1  
$EndComp
$Comp
L +3V3 #PWR013
U 1 1 5A568A21
P 7150 1100
F 0 "#PWR013" H 7150 950 50  0001 C CNN
F 1 "+3V3" H 7150 1240 50  0000 C CNN
F 2 "" H 7150 1100 50  0001 C CNN
F 3 "" H 7150 1100 50  0001 C CNN
	1    7150 1100
	1    0    0    -1  
$EndComp
$Comp
L GNDD #PWR014
U 1 1 5A568B72
P 9000 1700
F 0 "#PWR014" H 9000 1450 50  0001 C CNN
F 1 "GNDD" H 9000 1575 50  0000 C CNN
F 2 "" H 9000 1700 50  0001 C CNN
F 3 "" H 9000 1700 50  0001 C CNN
	1    9000 1700
	1    0    0    -1  
$EndComp
$Comp
L Conn_01x02 J2
U 1 1 5A568D09
P 10100 1700
F 0 "J2" H 10100 1800 50  0000 C CNN
F 1 "Conn_01x02" H 10100 1500 50  0000 C CNN
F 2 "Wire_Connections_Bridges:WireConnection_0.80mmDrill" H 10100 1700 50  0001 C CNN
F 3 "" H 10100 1700 50  0001 C CNN
	1    10100 1700
	1    0    0    1   
$EndComp
Text GLabel 8550 1300 2    60   Output ~ 0
OUT-
Text GLabel 8550 1500 2    60   Output ~ 0
OUT+
$Comp
L +3V3 #PWR015
U 1 1 5A569139
P 9250 1050
F 0 "#PWR015" H 9250 900 50  0001 C CNN
F 1 "+3V3" H 9250 1190 50  0000 C CNN
F 2 "" H 9250 1050 50  0001 C CNN
F 3 "" H 9250 1050 50  0001 C CNN
	1    9250 1050
	1    0    0    -1  
$EndComp
Text GLabel 9900 1600 0    60   Input ~ 0
OUT-
Text GLabel 9900 1700 0    60   Input ~ 0
OUT+
$Comp
L GNDD #PWR017
U 1 1 5A56A748
P 7450 1700
F 0 "#PWR017" H 7450 1450 50  0001 C CNN
F 1 "GNDD" H 7450 1575 50  0000 C CNN
F 2 "" H 7450 1700 50  0001 C CNN
F 3 "" H 7450 1700 50  0001 C CNN
	1    7450 1700
	1    0    0    -1  
$EndComp
Wire Wire Line
	7450 1500 7600 1500
Wire Wire Line
	7450 1700 7450 1500
Connection ~ 8900 1200
Wire Wire Line
	8900 1600 8900 1200
Wire Wire Line
	8550 1600 8900 1600
Wire Wire Line
	7150 1100 7150 1600
Wire Wire Line
	6950 1200 7600 1200
Wire Wire Line
	6950 1350 6950 1200
Wire Wire Line
	6950 1550 6950 1700
Wire Wire Line
	8550 1200 9250 1200
Wire Wire Line
	9250 1550 9250 1700
Connection ~ 9250 1200
Wire Wire Line
	9250 1050 9250 1350
Wire Wire Line
	9000 1400 9000 1700
Wire Wire Line
	8550 1400 9000 1400
Wire Wire Line
	7150 1600 7600 1600
$EndSCHEMATC
