EESchema Schematic File Version 2
LIBS:power
LIBS:device
LIBS:transistors
LIBS:conn
LIBS:linear
LIBS:regul
LIBS:74xx
LIBS:cmos4000
LIBS:adc-dac
LIBS:memory
LIBS:xilinx
LIBS:microcontrollers
LIBS:dsp
LIBS:microchip
LIBS:analog_switches
LIBS:motorola
LIBS:texas
LIBS:intel
LIBS:audio
LIBS:interface
LIBS:digital-audio
LIBS:philips
LIBS:display
LIBS:cypress
LIBS:siliconi
LIBS:opto
LIBS:atmel
LIBS:contrib
LIBS:valves
LIBS:air
LIBS:air_03C-cache
EELAYER 25 0
EELAYER END
$Descr A3 16535 11693
encoding utf-8
Sheet 1 1
Title "air 0.2 PCB"
Date "2017-12-26"
Rev "1"
Comp "Ylenia Gerold Emil"
Comment1 ""
Comment2 ""
Comment3 ""
Comment4 ""
$EndDescr
$Comp
L LED D1
U 1 1 5A3D750E
P 13000 2250
F 0 "D1" H 13000 2350 50  0000 C CNN
F 1 "LEDGREEN" H 13100 2150 50  0000 C CNN
F 2 "LEDs:LED_0603" H 13000 2250 50  0001 C CNN
F 3 "http://optoelectronics.liteon.com/upload/download/DS22-2000-228/LTST-C191KGKT.PDF" H 13000 2250 50  0001 C CNN
F 4 "160-1446-1-ND" H 13000 2450 50  0001 C CNN "digikey"
	1    13000 2250
	-1   0    0    1   
$EndComp
$Comp
L CONN_TO_SSD1306 J3
U 1 1 5A3EDF7E
P 2150 6050
F 0 "J3" H 1950 6850 45  0000 L BNN
F 1 "SPI" H 1750 5900 45  0000 L BNN
F 2 "air:1X08" V 1850 6400 30  0000 C CNN
F 3 "" H 2150 6050 50  0001 C CNN
F 4 "OLED HEADER" H 2150 7000 60  0000 C CNN "Field4"
	1    2150 6050
	1    0    0    1   
$EndComp
$Comp
L MPU9250 U2
U 1 1 5A400063
P 9950 4650
F 0 "U2" H 9950 5200 60  0000 C CNN
F 1 "MPU9250" H 9950 4150 60  0000 C CNN
F 2 "Housings_DFN_QFN:QFN-24-1EP_3x3mm_Pitch0.4mm" H 9950 5100 30  0000 C CNN
F 3 "https://store.invensense.com/datasheets/invensense/MPU9250REV1.0.pdf" H 10100 4150 60  0001 C CNN
F 4 "1428-1019-1-ND" H 9950 5300 50  0001 C CNN "digikey"
	1    9950 4650
	1    0    0    -1  
$EndComp
$Comp
L R_Small R28
U 1 1 5A44A81D
P 14650 2150
F 0 "R28" H 14680 2170 50  0000 L CNN
F 1 "4.3K" H 14680 2110 50  0000 L CNN
F 2 "Resistors_SMD:R_0603" H 14650 2150 50  0001 C CNN
F 3 "http://www.yageo.com/documents/recent/PYu-RC_Group_51_RoHS_L_8.pdf" H 14650 2150 50  0001 C CNN
F 4 "311-4.3KGRCT-ND" H 14650 2150 60  0001 C CNN "digikey"
	1    14650 2150
	0    1    1    0   
$EndComp
$Comp
L C_Small C29
U 1 1 5A44ACCA
P 15000 2150
F 0 "C29" H 15010 2220 50  0000 L CNN
F 1 "10µF" H 15010 2070 50  0000 L CNN
F 2 "Capacitors_SMD:C_0805" H 15000 2150 50  0001 C CNN
F 3 "https://www.murata.com/~/media/webrenewal/support/library/catalog/products/capacitor/mlcc/c02e.ashx?la=en-us" H 15000 2150 50  0001 C CNN
F 4 "490-3340-1-ND" H 15010 2320 50  0001 C CNN "digikey"
	1    15000 2150
	1    0    0    -1  
$EndComp
$Comp
L R_Small R21
U 1 1 5A44E1E7
P 13100 1050
F 0 "R21" H 13130 1070 50  0000 L CNN
F 1 "100K" H 13130 1010 50  0000 L CNN
F 2 "Resistors_SMD:R_0603" H 13100 1050 50  0001 C CNN
F 3 "http://www.yageo.com/documents/recent/PYu-RC_Group_51_RoHS_L_8.pdf" H 13100 1050 50  0001 C CNN
F 4 "311-100KGRCT-ND" H 13130 1170 50  0001 C CNN "digikey"
	1    13100 1050
	-1   0    0    1   
$EndComp
$Comp
L R_Small R22
U 1 1 5A44E40E
P 13100 1450
F 0 "R22" H 13130 1470 50  0000 L CNN
F 1 "100K" H 13130 1410 50  0000 L CNN
F 2 "Resistors_SMD:R_0603" H 13100 1450 50  0001 C CNN
F 3 "http://www.yageo.com/documents/recent/PYu-RC_Group_51_RoHS_L_8.pdf" H 13100 1450 50  0001 C CNN
F 4 "311-100KGRCT-ND" H 13130 1570 50  0001 C CNN "digikey"
	1    13100 1450
	-1   0    0    1   
$EndComp
$Comp
L C_Small C22
U 1 1 5A4572EA
P 11350 2750
F 0 "C22" H 11360 2820 50  0000 L CNN
F 1 "0.01µF" H 11360 2670 50  0000 L CNN
F 2 "Capacitors_SMD:C_0603" H 11350 2750 50  0001 C CNN
F 3 "https://www.murata.com/~/media/webrenewal/support/library/catalog/products/capacitor/mlcc/c02e.ashx?la=en-us" H 11350 2750 50  0001 C CNN
F 4 "490-1525-1-ND" H 11360 2920 50  0001 C CNN "digikey"
	1    11350 2750
	1    0    0    -1  
$EndComp
$Comp
L C_Small C23
U 1 1 5A457401
P 11650 2750
F 0 "C23" H 11660 2820 50  0000 L CNN
F 1 "0.01µF" H 11660 2670 50  0000 L CNN
F 2 "Capacitors_SMD:C_0603" H 11650 2750 50  0001 C CNN
F 3 "https://www.murata.com/~/media/webrenewal/support/library/catalog/products/capacitor/mlcc/c02e.ashx?la=en-us" H 11650 2750 50  0001 C CNN
F 4 "490-1525-1-ND" H 11660 2920 50  0001 C CNN "digikey"
	1    11650 2750
	1    0    0    -1  
$EndComp
$Comp
L C_Small C13
U 1 1 5A486B5C
P 2250 5050
F 0 "C13" H 2260 5120 50  0000 L CNN
F 1 "0.1µF" H 2260 4970 50  0000 L CNN
F 2 "Capacitors_SMD:C_0603" H 2250 5050 50  0001 C CNN
F 3 "https://www.murata.com/~/media/webrenewal/support/library/catalog/products/capacitor/mlcc/c02e.ashx?la=en-us" H 2250 5050 50  0001 C CNN
F 4 "490-1532-1-ND" H 2260 5220 50  0001 C CNN "digikey"
	1    2250 5050
	1    0    0    -1  
$EndComp
$Comp
L PN2222A Q3
U 1 1 5A48994A
P 5100 8100
F 0 "Q3" H 5300 8175 50  0000 L CNN
F 1 "MMBT3904" H 5300 8100 50  0000 L CNN
F 2 "TO_SOT_Packages_SMD:TSOT-23" H 5300 8025 30  0000 L CIN
F 3 "https://media.digikey.com/pdf/Data%20Sheets/Diodes%20PDFs/MMBT3904.pdf" H 5100 8100 50  0001 L CNN
F 4 "MMBT3904-FDICT-ND" H 5300 8275 50  0001 C CNN "digikey"
	1    5100 8100
	-1   0    0    -1  
$EndComp
$Comp
L D_Schottky D2
U 1 1 5A489C6F
P 5000 7550
F 0 "D2" H 5000 7650 50  0000 C CNN
F 1 "MBR120" H 5000 7450 50  0000 C CNN
F 2 "Diodes_SMD:SOD-123" H 5000 7550 50  0001 C CNN
F 3 "http://www.onsemi.com/pub/Collateral/MBR120LSFT1-D.PDF" H 5000 7550 50  0001 C CNN
F 4 "MBR120LSFT3GOSCT-ND" H 5000 7750 50  0001 C CNN "digikey"
	1    5000 7550
	0    1    1    0   
$EndComp
$Comp
L C_Small C15
U 1 1 5A489D92
P 4600 7550
F 0 "C15" H 4610 7620 50  0000 L CNN
F 1 "0.1µF" H 4610 7470 50  0000 L CNN
F 2 "Capacitors_SMD:C_0603" H 4600 7550 50  0001 C CNN
F 3 "https://www.murata.com/~/media/webrenewal/support/library/catalog/products/capacitor/mlcc/c02e.ashx?la=en-us" H 4600 7550 50  0001 C CNN
F 4 "490-1532-1-ND" H 4610 7720 50  0001 C CNN "digikey"
	1    4600 7550
	1    0    0    -1  
$EndComp
$Comp
L CP1_Small C14
U 1 1 5A48C21B
P 2500 5050
F 0 "C14" H 2510 5120 50  0000 L CNN
F 1 "100µF" H 2510 4970 50  0000 L CNN
F 2 "Capacitors_SMD:C_1206" H 2500 5050 30  0001 C CNN
F 3 "https://www.murata.com/~/media/webrenewal/support/library/catalog/products/capacitor/mlcc/c02e.ashx?la=en-us" H 2500 5050 50  0001 C CNN
F 4 "490-13982-1-ND" H 2510 5220 50  0001 C CNN "digikey"
	1    2500 5050
	1    0    0    -1  
$EndComp
$Comp
L C_Small C17
U 1 1 5A438393
P 7450 7500
F 0 "C17" H 7460 7570 50  0000 L CNN
F 1 "0.01µF" H 7460 7420 50  0000 L CNN
F 2 "Capacitors_SMD:C_0603" H 7450 7500 50  0001 C CNN
F 3 "https://www.murata.com/~/media/webrenewal/support/library/catalog/products/capacitor/mlcc/c02e.ashx?la=en-us" H 7450 7500 50  0001 C CNN
F 4 "490-1525-1-ND" H 7460 7670 50  0001 C CNN "digikey"
	1    7450 7500
	1    0    0    -1  
$EndComp
$Comp
L C_Small C16
U 1 1 5A438822
P 7200 7500
F 0 "C16" H 7210 7570 50  0000 L CNN
F 1 "0.01µF" H 7210 7420 50  0000 L CNN
F 2 "Capacitors_SMD:C_0603" H 7200 7500 50  0001 C CNN
F 3 "https://www.murata.com/~/media/webrenewal/support/library/catalog/products/capacitor/mlcc/c02e.ashx?la=en-us" H 7200 7500 50  0001 C CNN
F 4 "490-1525-1-ND" H 7210 7670 50  0001 C CNN "digikey"
	1    7200 7500
	-1   0    0    -1  
$EndComp
$Comp
L GNDD #PWR01
U 1 1 5A438F81
P 7450 7650
F 0 "#PWR01" H 7450 7400 50  0001 C CNN
F 1 "GNDD" H 7450 7525 50  0000 C CNN
F 2 "" H 7450 7650 50  0001 C CNN
F 3 "" H 7450 7650 50  0001 C CNN
	1    7450 7650
	1    0    0    -1  
$EndComp
$Comp
L GNDD #PWR02
U 1 1 5A43932C
P 8250 7650
F 0 "#PWR02" H 8250 7400 50  0001 C CNN
F 1 "GNDD" H 8250 7525 50  0000 C CNN
F 2 "" H 8250 7650 50  0001 C CNN
F 3 "" H 8250 7650 50  0001 C CNN
	1    8250 7650
	1    0    0    -1  
$EndComp
$Comp
L +3V3 #PWR03
U 1 1 5A4398CB
P 7850 6700
F 0 "#PWR03" H 7850 6550 50  0001 C CNN
F 1 "+3V3" H 7850 6840 50  0000 C CNN
F 2 "" H 7850 6700 50  0001 C CNN
F 3 "" H 7850 6700 50  0001 C CNN
	1    7850 6700
	1    0    0    -1  
$EndComp
$Comp
L GNDD #PWR04
U 1 1 5A439A0C
P 7200 7650
F 0 "#PWR04" H 7200 7400 50  0001 C CNN
F 1 "GNDD" H 7200 7525 50  0000 C CNN
F 2 "" H 7200 7650 50  0001 C CNN
F 3 "" H 7200 7650 50  0001 C CNN
	1    7200 7650
	1    0    0    -1  
$EndComp
$Comp
L +3V3 #PWR05
U 1 1 5A43BE66
P 9100 6750
F 0 "#PWR05" H 9100 6600 50  0001 C CNN
F 1 "+3V3" H 9100 6890 50  0000 C CNN
F 2 "" H 9100 6750 50  0001 C CNN
F 3 "" H 9100 6750 50  0001 C CNN
	1    9100 6750
	1    0    0    -1  
$EndComp
$Comp
L GNDD #PWR06
U 1 1 5A43EE0B
P 5000 8400
F 0 "#PWR06" H 5000 8150 50  0001 C CNN
F 1 "GNDD" H 5000 8275 50  0000 C CNN
F 2 "" H 5000 8400 50  0001 C CNN
F 3 "" H 5000 8400 50  0001 C CNN
	1    5000 8400
	1    0    0    -1  
$EndComp
$Comp
L GNDD #PWR07
U 1 1 5A4482DF
P 11100 2950
F 0 "#PWR07" H 11100 2700 50  0001 C CNN
F 1 "GNDD" H 11100 2825 50  0000 C CNN
F 2 "" H 11100 2950 50  0001 C CNN
F 3 "" H 11100 2950 50  0001 C CNN
	1    11100 2950
	1    0    0    -1  
$EndComp
$Comp
L GNDD #PWR08
U 1 1 5A4488E7
P 10850 2950
F 0 "#PWR08" H 10850 2700 50  0001 C CNN
F 1 "GNDD" H 10850 2825 50  0000 C CNN
F 2 "" H 10850 2950 50  0001 C CNN
F 3 "" H 10850 2950 50  0001 C CNN
	1    10850 2950
	1    0    0    -1  
$EndComp
$Comp
L GNDD #PWR09
U 1 1 5A448AED
P 11650 2950
F 0 "#PWR09" H 11650 2700 50  0001 C CNN
F 1 "GNDD" H 11650 2825 50  0000 C CNN
F 2 "" H 11650 2950 50  0001 C CNN
F 3 "" H 11650 2950 50  0001 C CNN
	1    11650 2950
	1    0    0    -1  
$EndComp
$Comp
L GNDD #PWR010
U 1 1 5A448C27
P 11350 2950
F 0 "#PWR010" H 11350 2700 50  0001 C CNN
F 1 "GNDD" H 11350 2825 50  0000 C CNN
F 2 "" H 11350 2950 50  0001 C CNN
F 3 "" H 11350 2950 50  0001 C CNN
	1    11350 2950
	1    0    0    -1  
$EndComp
$Comp
L +3V3 #PWR011
U 1 1 5A448D61
P 11500 950
F 0 "#PWR011" H 11500 800 50  0001 C CNN
F 1 "+3V3" H 11500 1090 50  0000 C CNN
F 2 "" H 11500 950 50  0001 C CNN
F 3 "" H 11500 950 50  0001 C CNN
	1    11500 950 
	1    0    0    -1  
$EndComp
$Comp
L GNDD #PWR012
U 1 1 5A44DAFB
P 12750 3300
F 0 "#PWR012" H 12750 3050 50  0001 C CNN
F 1 "GNDD" H 12750 3175 50  0000 C CNN
F 2 "" H 12750 3300 50  0001 C CNN
F 3 "" H 12750 3300 50  0001 C CNN
	1    12750 3300
	1    0    0    -1  
$EndComp
$Comp
L GNDD #PWR013
U 1 1 5A44E034
P 14850 2550
F 0 "#PWR013" H 14850 2300 50  0001 C CNN
F 1 "GNDD" H 14850 2425 50  0000 C CNN
F 2 "" H 14850 2550 50  0001 C CNN
F 3 "" H 14850 2550 50  0001 C CNN
	1    14850 2550
	1    0    0    -1  
$EndComp
$Comp
L GNDD #PWR014
U 1 1 5A44E16E
P 15000 2550
F 0 "#PWR014" H 15000 2300 50  0001 C CNN
F 1 "GNDD" H 15000 2425 50  0000 C CNN
F 2 "" H 15000 2550 50  0001 C CNN
F 3 "" H 15000 2550 50  0001 C CNN
	1    15000 2550
	1    0    0    -1  
$EndComp
$Comp
L GNDD #PWR015
U 1 1 5A44FF59
P 13100 1600
F 0 "#PWR015" H 13100 1350 50  0001 C CNN
F 1 "GNDD" H 13100 1475 50  0000 C CNN
F 2 "" H 13100 1600 50  0001 C CNN
F 3 "" H 13100 1600 50  0001 C CNN
	1    13100 1600
	1    0    0    -1  
$EndComp
$Comp
L C_Small C21
U 1 1 5A45813D
P 11300 5200
F 0 "C21" H 11310 5270 50  0000 L CNN
F 1 "0.1µF" H 11310 5120 50  0000 L CNN
F 2 "Capacitors_SMD:C_0603" H 11300 5200 50  0001 C CNN
F 3 "https://www.murata.com/~/media/webrenewal/support/library/catalog/products/capacitor/mlcc/c02e.ashx?la=en-us" H 11300 5200 50  0001 C CNN
F 4 "490-1532-1-ND" H 11310 5370 50  0001 C CNN "digikey"
	1    11300 5200
	1    0    0    -1  
$EndComp
$Comp
L C_Small C20
U 1 1 5A458498
P 10950 5200
F 0 "C20" H 10960 5270 50  0000 L CNN
F 1 "0.1µF" H 10960 5120 50  0000 L CNN
F 2 "Capacitors_SMD:C_0603" H 10950 5200 50  0001 C CNN
F 3 "https://www.murata.com/~/media/webrenewal/support/library/catalog/products/capacitor/mlcc/c02e.ashx?la=en-us" H 10950 5200 50  0001 C CNN
F 4 "490-1532-1-ND" H 10960 5370 50  0001 C CNN "digikey"
	1    10950 5200
	1    0    0    -1  
$EndComp
$Comp
L GNDD #PWR016
U 1 1 5A458A95
P 11300 5450
F 0 "#PWR016" H 11300 5200 50  0001 C CNN
F 1 "GNDD" H 11300 5325 50  0000 C CNN
F 2 "" H 11300 5450 50  0001 C CNN
F 3 "" H 11300 5450 50  0001 C CNN
	1    11300 5450
	1    0    0    -1  
$EndComp
$Comp
L GNDD #PWR017
U 1 1 5A458BCF
P 10950 5450
F 0 "#PWR017" H 10950 5200 50  0001 C CNN
F 1 "GNDD" H 10950 5325 50  0000 C CNN
F 2 "" H 10950 5450 50  0001 C CNN
F 3 "" H 10950 5450 50  0001 C CNN
	1    10950 5450
	1    0    0    -1  
$EndComp
$Comp
L GNDD #PWR018
U 1 1 5A458EA8
P 10700 5450
F 0 "#PWR018" H 10700 5200 50  0001 C CNN
F 1 "GNDD" H 10700 5325 50  0000 C CNN
F 2 "" H 10700 5450 50  0001 C CNN
F 3 "" H 10700 5450 50  0001 C CNN
	1    10700 5450
	1    0    0    -1  
$EndComp
$Comp
L GNDD #PWR019
U 1 1 5A458FE2
P 9200 5450
F 0 "#PWR019" H 9200 5200 50  0001 C CNN
F 1 "GNDD" H 9200 5325 50  0000 C CNN
F 2 "" H 9200 5450 50  0001 C CNN
F 3 "" H 9200 5450 50  0001 C CNN
	1    9200 5450
	1    0    0    -1  
$EndComp
$Comp
L +3V3 #PWR020
U 1 1 5A459181
P 11500 3850
F 0 "#PWR020" H 11500 3700 50  0001 C CNN
F 1 "+3V3" H 11500 3990 50  0000 C CNN
F 2 "" H 11500 3850 50  0001 C CNN
F 3 "" H 11500 3850 50  0001 C CNN
	1    11500 3850
	1    0    0    -1  
$EndComp
$Comp
L R_Small R9
U 1 1 5A459575
P 9200 4150
F 0 "R9" H 9230 4170 50  0000 L CNN
F 1 "10K" H 9230 4110 50  0000 L CNN
F 2 "Resistors_SMD:R_0603" H 9200 4150 50  0001 C CNN
F 3 "http://www.yageo.com/documents/recent/PYu-RC_Group_51_RoHS_L_8.pdf" H 9200 4150 50  0001 C CNN
F 4 "311-10KGRCT-ND" H 9230 4270 50  0001 C CNN "digikey"
	1    9200 4150
	-1   0    0    1   
$EndComp
$Comp
L GNDD #PWR021
U 1 1 5A460F1E
P 2500 5300
F 0 "#PWR021" H 2500 5050 50  0001 C CNN
F 1 "GNDD" H 2500 5175 50  0000 C CNN
F 2 "" H 2500 5300 50  0001 C CNN
F 3 "" H 2500 5300 50  0001 C CNN
	1    2500 5300
	1    0    0    -1  
$EndComp
$Comp
L GNDD #PWR022
U 1 1 5A4612C3
P 2250 5300
F 0 "#PWR022" H 2250 5050 50  0001 C CNN
F 1 "GNDD" H 2250 5175 50  0000 C CNN
F 2 "" H 2250 5300 50  0001 C CNN
F 3 "" H 2250 5300 50  0001 C CNN
	1    2250 5300
	1    0    0    -1  
$EndComp
$Comp
L GNDD #PWR023
U 1 1 5A4613FD
P 1750 5300
F 0 "#PWR023" H 1750 5050 50  0001 C CNN
F 1 "GNDD" H 1750 5175 50  0000 C CNN
F 2 "" H 1750 5300 50  0001 C CNN
F 3 "" H 1750 5300 50  0001 C CNN
	1    1750 5300
	1    0    0    -1  
$EndComp
$Comp
L +3V3 #PWR024
U 1 1 5A461537
P 2700 3950
F 0 "#PWR024" H 2700 3800 50  0001 C CNN
F 1 "+3V3" H 2700 4090 50  0000 C CNN
F 2 "" H 2700 3950 50  0001 C CNN
F 3 "" H 2700 3950 50  0001 C CNN
	1    2700 3950
	1    0    0    -1  
$EndComp
$Comp
L +3V3 #PWR025
U 1 1 5A4657A5
P 6750 1200
F 0 "#PWR025" H 6750 1050 50  0001 C CNN
F 1 "+3V3" H 6750 1340 50  0000 C CNN
F 2 "" H 6750 1200 50  0001 C CNN
F 3 "" H 6750 1200 50  0001 C CNN
	1    6750 1200
	1    0    0    -1  
$EndComp
$Comp
L GNDD #PWR026
U 1 1 5A465C01
P 3450 1150
F 0 "#PWR026" H 3450 900 50  0001 C CNN
F 1 "GNDD" H 3450 1025 50  0000 C CNN
F 2 "" H 3450 1150 50  0001 C CNN
F 3 "" H 3450 1150 50  0001 C CNN
	1    3450 1150
	1    0    0    -1  
$EndComp
$Comp
L GNDA #PWR027
U 1 1 5A46C62D
P 7250 1800
F 0 "#PWR027" H 7250 1550 50  0001 C CNN
F 1 "GNDA" H 7250 1650 50  0000 C CNN
F 2 "" H 7250 1800 50  0001 C CNN
F 3 "" H 7250 1800 50  0001 C CNN
	1    7250 1800
	1    0    0    -1  
$EndComp
$Comp
L Teensy3.2-RESCUE-air_01 U4
U 1 1 5A44EE8A
P 5150 3000
F 0 "U4" H 5150 5275 60  0000 C CNN
F 1 "Teensy3.2" H 5150 5175 60  0000 C CNN
F 2 "air:Teensy32_minimal" H 5150 5050 30  0000 C CNN
F 3 "" H 5150 2700 60  0000 C CNN
	1    5150 3000
	1    0    0    -1  
$EndComp
$Comp
L MCP73831_AIR U6
U 1 1 5A4518AF
P 13950 2150
F 0 "U6" H 13950 2475 45  0000 C CNN
F 1 "MCP73831_AIR" H 13950 2400 45  0000 C CNN
F 2 "TO_SOT_Packages_SMD:SOT-23-5" H 13950 1900 30  0000 C CNN
F 3 "http://ww1.microchip.com/downloads/en/DeviceDoc/20001984g.pdf" H 13650 2400 60  0001 C CNN
F 4 "MCP73831T-2ATI/OTCT-ND" H 13950 2575 50  0001 C CNN "digikey"
	1    13950 2150
	1    0    0    -1  
$EndComp
$Comp
L LIPO_JST_PH-S2B-SM4 J6
U 1 1 5A4540A1
P 12950 3100
F 0 "J6" H 12750 3300 45  0000 L BNN
F 1 "LIPO_JST_PH-S2B-SM4" H 12150 2950 45  0000 L BNN
F 2 "Connectors_JST:JST_PH_S2B-PH-SM4-TB_02x2.00mm_Angled" H 12950 3400 30  0001 C CNN
F 3 "http://www.jst-mfg.com/product/pdf/eng/ePH.pdf" H 12750 3300 50  0001 C CNN
F 4 "455-1749-1-ND" H 12750 3400 50  0001 C CNN "digikey"
	1    12950 3100
	-1   0    0    1   
$EndComp
$Comp
L PWR_FLAG #FLG028
U 1 1 5A45AC26
P 7250 1500
F 0 "#FLG028" H 7250 1575 50  0001 C CNN
F 1 "PWR_FLAG" H 7250 1650 50  0000 C CNN
F 2 "" H 7250 1500 50  0001 C CNN
F 3 "" H 7250 1500 50  0001 C CNN
	1    7250 1500
	1    0    0    -1  
$EndComp
$Comp
L LED D3
U 1 1 5A48528F
P 13000 2500
F 0 "D3" H 13000 2600 50  0000 C CNN
F 1 "LEDRED" H 13050 2400 50  0000 C CNN
F 2 "LEDs:LED_0603" H 13000 2500 50  0001 C CNN
F 3 "http://optoelectronics.liteon.com/upload/download/DS-22-99-0151/LTST-C190KRKT.pdf" H 13000 2500 50  0001 C CNN
F 4 "160-1436-1-ND" H 13000 2700 50  0001 C CNN "digikey"
	1    13000 2500
	1    0    0    -1  
$EndComp
$Comp
L GNDD #PWR029
U 1 1 5A485383
P 12750 2600
F 0 "#PWR029" H 12750 2350 50  0001 C CNN
F 1 "GNDD" H 12750 2475 50  0000 C CNN
F 2 "" H 12750 2600 50  0001 C CNN
F 3 "" H 12750 2600 50  0001 C CNN
	1    12750 2600
	1    0    0    -1  
$EndComp
$Comp
L SK6812RGBW_NEOPIXEL U1
U 1 1 5A488D28
P 4300 5600
F 0 "U1" H 4300 6000 60  0000 C CNN
F 1 "SK6812RGBW_NEOPIXEL" H 4300 5900 60  0000 C CNN
F 2 "air:LED_WS2812B-PLCC4" H 4300 5300 30  0000 C CNN
F 3 "https://cdn-shop.adafruit.com/product-files/2757/p2757_SK6812RGBW_REV01.pdf" H 4050 5700 60  0001 C CNN
F 4 "1528-2386-ND" H 4300 6100 50  0001 C CNN "digikey"
	1    4300 5600
	-1   0    0    -1  
$EndComp
$Comp
L +3V3 #PWR030
U 1 1 5A48934A
P 5150 5350
F 0 "#PWR030" H 5150 5200 50  0001 C CNN
F 1 "+3V3" H 5150 5490 50  0000 C CNN
F 2 "" H 5150 5350 50  0001 C CNN
F 3 "" H 5150 5350 50  0001 C CNN
	1    5150 5350
	1    0    0    -1  
$EndComp
$Comp
L C_Small C1
U 1 1 5A489433
P 5150 5950
F 0 "C1" H 5160 6020 50  0000 L CNN
F 1 "1µF" H 5160 5870 50  0000 L CNN
F 2 "Capacitors_SMD:C_0603" H 5150 5950 50  0001 C CNN
F 3 "https://www.murata.com/~/media/webrenewal/support/library/catalog/products/capacitor/mlcc/c02e.ashx?la=en-us" H 5150 5950 50  0001 C CNN
F 4 "490-1543-1-ND" H 5160 6120 50  0001 C CNN "digikey"
	1    5150 5950
	1    0    0    -1  
$EndComp
$Comp
L GNDD #PWR031
U 1 1 5A489D01
P 5150 6150
F 0 "#PWR031" H 5150 5900 50  0001 C CNN
F 1 "GNDD" H 5150 6025 50  0000 C CNN
F 2 "" H 5150 6150 50  0001 C CNN
F 3 "" H 5150 6150 50  0001 C CNN
	1    5150 6150
	1    0    0    -1  
$EndComp
$Comp
L GNDD #PWR032
U 1 1 5A48A9D8
P 4950 6150
F 0 "#PWR032" H 4950 5900 50  0001 C CNN
F 1 "GNDD" H 4950 6025 50  0000 C CNN
F 2 "" H 4950 6150 50  0001 C CNN
F 3 "" H 4950 6150 50  0001 C CNN
	1    4950 6150
	1    0    0    -1  
$EndComp
$Comp
L SK6812RGBW_NEOPIXEL U7
U 1 1 5A48C65B
P 6400 5600
F 0 "U7" H 6400 6000 60  0000 C CNN
F 1 "SK6812RGBW_NEOPIXEL" H 6400 5900 60  0000 C CNN
F 2 "air:LED_WS2812B-PLCC4" H 6400 5300 30  0000 C CNN
F 3 "https://cdn-shop.adafruit.com/product-files/2757/p2757_SK6812RGBW_REV01.pdf" H 6150 5700 60  0001 C CNN
F 4 "1528-2386-ND" H 6400 6100 50  0001 C CNN "digikey"
	1    6400 5600
	-1   0    0    -1  
$EndComp
$Comp
L +3V3 #PWR033
U 1 1 5A48C661
P 7250 5350
F 0 "#PWR033" H 7250 5200 50  0001 C CNN
F 1 "+3V3" H 7250 5490 50  0000 C CNN
F 2 "" H 7250 5350 50  0001 C CNN
F 3 "" H 7250 5350 50  0001 C CNN
	1    7250 5350
	1    0    0    -1  
$EndComp
$Comp
L C_Small C5
U 1 1 5A48C667
P 7250 5950
F 0 "C5" H 7260 6020 50  0000 L CNN
F 1 "1µF" H 7260 5870 50  0000 L CNN
F 2 "Capacitors_SMD:C_0603" H 7250 5950 50  0001 C CNN
F 3 "https://www.murata.com/~/media/webrenewal/support/library/catalog/products/capacitor/mlcc/c02e.ashx?la=en-us" H 7250 5950 50  0001 C CNN
F 4 "490-1543-1-ND" H 7260 6120 50  0001 C CNN "digikey"
	1    7250 5950
	1    0    0    -1  
$EndComp
$Comp
L GNDD #PWR034
U 1 1 5A48C670
P 7250 6150
F 0 "#PWR034" H 7250 5900 50  0001 C CNN
F 1 "GNDD" H 7250 6025 50  0000 C CNN
F 2 "" H 7250 6150 50  0001 C CNN
F 3 "" H 7250 6150 50  0001 C CNN
	1    7250 6150
	1    0    0    -1  
$EndComp
$Comp
L GNDD #PWR035
U 1 1 5A48C679
P 7050 6150
F 0 "#PWR035" H 7050 5900 50  0001 C CNN
F 1 "GNDD" H 7050 6025 50  0000 C CNN
F 2 "" H 7050 6150 50  0001 C CNN
F 3 "" H 7050 6150 50  0001 C CNN
	1    7050 6150
	1    0    0    -1  
$EndComp
$Comp
L +BATT #PWR036
U 1 1 5A490A0B
P 15000 1850
F 0 "#PWR036" H 15000 1700 50  0001 C CNN
F 1 "+BATT" H 15000 1990 50  0000 C CNN
F 2 "" H 15000 1850 50  0001 C CNN
F 3 "" H 15000 1850 50  0001 C CNN
	1    15000 1850
	1    0    0    -1  
$EndComp
$Comp
L VBUS #PWR037
U 1 1 5A490E7E
P 12750 1850
F 0 "#PWR037" H 12750 1700 50  0001 C CNN
F 1 "VBUS" H 12750 2000 50  0000 C CNN
F 2 "" H 12750 1850 50  0001 C CNN
F 3 "" H 12750 1850 50  0001 C CNN
	1    12750 1850
	1    0    0    -1  
$EndComp
$Comp
L +BATT #PWR038
U 1 1 5A4917AA
P 13100 900
F 0 "#PWR038" H 13100 750 50  0001 C CNN
F 1 "+BATT" H 13100 1040 50  0000 C CNN
F 2 "" H 13100 900 50  0001 C CNN
F 3 "" H 13100 900 50  0001 C CNN
	1    13100 900 
	1    0    0    -1  
$EndComp
$Comp
L VBUS #PWR039
U 1 1 5A492414
P 6900 1100
F 0 "#PWR039" H 6900 950 50  0001 C CNN
F 1 "VBUS" H 6900 1250 50  0000 C CNN
F 2 "" H 6900 1100 50  0001 C CNN
F 3 "" H 6900 1100 50  0001 C CNN
	1    6900 1100
	1    0    0    -1  
$EndComp
$Comp
L PWR_FLAG #FLG040
U 1 1 5A45E94B
P 3450 1000
F 0 "#FLG040" H 3450 1075 50  0001 C CNN
F 1 "PWR_FLAG" H 3450 1150 50  0000 C CNN
F 2 "" H 3450 1000 50  0001 C CNN
F 3 "" H 3450 1000 50  0001 C CNN
	1    3450 1000
	1    0    0    -1  
$EndComp
$Comp
L PWR_FLAG #FLG041
U 1 1 5A4C108F
P 12300 3000
F 0 "#FLG041" H 12300 3075 50  0001 C CNN
F 1 "PWR_FLAG" H 12300 3150 50  0000 C CNN
F 2 "" H 12300 3000 50  0001 C CNN
F 3 "" H 12300 3000 50  0001 C CNN
	1    12300 3000
	1    0    0    -1  
$EndComp
$Comp
L GS2 J10
U 1 1 5A4CCD26
P 5300 4900
F 0 "J10" V 5100 4900 50  0000 C CNN
F 1 "GS2" V 5200 4900 50  0000 C CNN
F 2 "Connectors:GS2" V 5374 4900 30  0000 C CNN
F 3 "" H 5300 4900 50  0001 C CNN
	1    5300 4900
	0    1    1    0   
$EndComp
$Comp
L GS2 J11
U 1 1 5A4CF29D
P 6200 4900
F 0 "J11" V 6000 4900 50  0000 C CNN
F 1 "GS2" V 6100 4900 50  0000 C CNN
F 2 "Connectors:GS2" V 6274 4900 30  0000 C CNN
F 3 "" H 6200 4900 50  0001 C CNN
	1    6200 4900
	0    1    1    0   
$EndComp
$Comp
L R_Small R18
U 1 1 5A48459D
P 11400 1500
F 0 "R18" H 11430 1520 50  0000 L CNN
F 1 "10K" H 11430 1460 50  0000 L CNN
F 2 "Resistors_SMD:R_0603" H 11400 1500 50  0001 C CNN
F 3 "http://www.yageo.com/documents/recent/PYu-RC_Group_51_RoHS_L_8.pdf" H 11400 1500 39  0001 C CNN
F 4 "311-10KGRCT-ND" H 11400 1500 39  0001 C CNN "digikey"
	1    11400 1500
	-1   0    0    1   
$EndComp
$Comp
L R_Small R20
U 1 1 5A4846AA
P 11600 1500
F 0 "R20" H 11630 1520 50  0000 L CNN
F 1 "10K" H 11630 1460 50  0000 L CNN
F 2 "Resistors_SMD:R_0603" H 11600 1500 50  0001 C CNN
F 3 "http://www.yageo.com/documents/recent/PYu-RC_Group_51_RoHS_L_8.pdf" H 11600 1500 39  0001 C CNN
F 4 "311-10KGRCT-ND" H 11600 1500 39  0001 C CNN "digikey"
	1    11600 1500
	1    0    0    1   
$EndComp
$Comp
L R_Small R14
U 1 1 5A48507C
P 10850 2750
F 0 "R14" H 10880 2770 50  0000 L CNN
F 1 "10K" H 10880 2710 50  0000 L CNN
F 2 "Resistors_SMD:R_0603" H 10850 2750 50  0001 C CNN
F 3 "http://www.yageo.com/documents/recent/PYu-RC_Group_51_RoHS_L_8.pdf" H 10850 2750 39  0001 C CNN
F 4 "311-10KGRCT-ND" H 10850 2750 39  0001 C CNN "digikey"
	1    10850 2750
	-1   0    0    1   
$EndComp
$Comp
L R_Small R16
U 1 1 5A485403
P 11100 2750
F 0 "R16" H 11130 2770 50  0000 L CNN
F 1 "10K" H 11130 2710 50  0000 L CNN
F 2 "Resistors_SMD:R_0603" H 11100 2750 50  0001 C CNN
F 3 "http://www.yageo.com/documents/recent/PYu-RC_Group_51_RoHS_L_8.pdf" H 11100 2750 39  0001 C CNN
F 4 "311-10KGRCT-ND" H 11100 2750 39  0001 C CNN "digikey"
	1    11100 2750
	-1   0    0    1   
$EndComp
$Comp
L R_Small R13
U 1 1 5A486221
P 10700 5200
F 0 "R13" H 10730 5220 50  0000 L CNN
F 1 "10K" H 10730 5160 50  0000 L CNN
F 2 "Resistors_SMD:R_0603" H 10700 5200 50  0001 C CNN
F 3 "http://www.yageo.com/documents/recent/PYu-RC_Group_51_RoHS_L_8.pdf" H 10700 5200 39  0001 C CNN
F 4 "311-10KGRCT-ND" H 10700 5200 39  0001 C CNN "digikey"
	1    10700 5200
	-1   0    0    1   
$EndComp
$Comp
L R_Small R1
U 1 1 5A48752F
P 13350 2500
F 0 "R1" H 13380 2530 39  0000 L CNN
F 1 "1K" H 13380 2460 39  0000 L CNN
F 2 "Resistors_SMD:R_0603" H 13350 2500 39  0001 C CNN
F 3 "http://www.yageo.com/documents/recent/PYu-RC_Group_51_RoHS_L_8.pdf" H 13350 2500 39  0001 C CNN
F 4 "311-1.0KGRCT-ND" H 13350 2500 39  0001 C CNN "digikey"
	1    13350 2500
	0    -1   -1   0   
$EndComp
$Comp
L R_Small R23
U 1 1 5A487B49
P 13350 2250
F 0 "R23" H 13380 2280 39  0000 L CNN
F 1 "1K" H 13380 2210 39  0000 L CNN
F 2 "Resistors_SMD:R_0603" H 13350 2250 39  0001 C CNN
F 3 "http://www.yageo.com/documents/recent/PYu-RC_Group_51_RoHS_L_8.pdf" H 13350 2250 39  0001 C CNN
F 4 "311-1.0KGRCT-ND" H 13350 2250 39  0001 C CNN "digikey"
	1    13350 2250
	0    -1   -1   0   
$EndComp
$Comp
L R_Small R5
U 1 1 5A489C27
P 7650 6900
F 0 "R5" H 7680 6920 50  0000 L CNN
F 1 "10K" H 7680 6860 50  0000 L CNN
F 2 "Resistors_SMD:R_0603" H 7650 6900 50  0001 C CNN
F 3 "http://www.yageo.com/documents/recent/PYu-RC_Group_51_RoHS_L_8.pdf" H 7650 6900 39  0001 C CNN
F 4 "311-10KGRCT-ND" H 7650 6900 39  0001 C CNN "digikey"
	1    7650 6900
	0    -1   -1   0   
$EndComp
$Comp
L R_Small R7
U 1 1 5A489D78
P 8050 6900
F 0 "R7" H 8080 6920 50  0000 L CNN
F 1 "10K" H 8080 6860 50  0000 L CNN
F 2 "Resistors_SMD:R_0603" H 8050 6900 50  0001 C CNN
F 3 "http://www.yageo.com/documents/recent/PYu-RC_Group_51_RoHS_L_8.pdf" H 8050 6900 39  0001 C CNN
F 4 "311-10KGRCT-ND" H 8050 6900 39  0001 C CNN "digikey"
	1    8050 6900
	0    -1   -1   0   
$EndComp
$Comp
L R_Small R8
U 1 1 5A489E8B
P 8050 7300
F 0 "R8" H 8080 7320 50  0000 L CNN
F 1 "10K" H 8080 7260 50  0000 L CNN
F 2 "Resistors_SMD:R_0603" H 8050 7300 50  0001 C CNN
F 3 "http://www.yageo.com/documents/recent/PYu-RC_Group_51_RoHS_L_8.pdf" H 8050 7300 39  0001 C CNN
F 4 "311-10KGRCT-ND" H 8050 7300 39  0001 C CNN "digikey"
	1    8050 7300
	0    -1   -1   0   
$EndComp
$Comp
L R_Small R6
U 1 1 5A489FA7
P 7650 7300
F 0 "R6" H 7680 7320 50  0000 L CNN
F 1 "10K" H 7680 7260 50  0000 L CNN
F 2 "Resistors_SMD:R_0603" H 7650 7300 50  0001 C CNN
F 3 "http://www.yageo.com/documents/recent/PYu-RC_Group_51_RoHS_L_8.pdf" H 7650 7300 39  0001 C CNN
F 4 "311-10KGRCT-ND" H 7650 7300 39  0001 C CNN "digikey"
	1    7650 7300
	0    -1   -1   0   
$EndComp
$Comp
L R_Small R4
U 1 1 5A48B13D
P 5400 7800
F 0 "R4" H 5430 7820 50  0000 L CNN
F 1 "10K" H 5430 7760 50  0000 L CNN
F 2 "Resistors_SMD:R_0603" H 5400 7800 50  0001 C CNN
F 3 "http://www.yageo.com/documents/recent/PYu-RC_Group_51_RoHS_L_8.pdf" H 5400 7800 39  0001 C CNN
F 4 "311-10KGRCT-ND" H 5400 7800 39  0001 C CNN "digikey"
	1    5400 7800
	1    0    0    -1  
$EndComp
$Comp
L GNDD #PWR042
U 1 1 5A490B65
P 9050 7650
F 0 "#PWR042" H 9050 7400 50  0001 C CNN
F 1 "GNDD" H 9050 7525 50  0000 C CNN
F 2 "" H 9050 7650 50  0001 C CNN
F 3 "" H 9050 7650 50  0001 C CNN
	1    9050 7650
	1    0    0    -1  
$EndComp
$Comp
L R_Small R26
U 1 1 5A49140B
P 9050 7500
F 0 "R26" H 9080 7520 50  0000 L CNN
F 1 "10K" H 9080 7460 50  0000 L CNN
F 2 "Resistors_SMD:R_0603" H 9050 7500 50  0001 C CNN
F 3 "http://www.yageo.com/documents/recent/PYu-RC_Group_51_RoHS_L_8.pdf" H 9050 7500 39  0001 C CNN
F 4 "311-10KGRCT-ND" H 9050 7500 39  0001 C CNN "digikey"
	1    9050 7500
	-1   0    0    1   
$EndComp
Text GLabel 4150 1100 0    60   Input ~ 0
TeensyRX1
Text GLabel 4150 1200 0    60   Output ~ 0
TeensyTX1
Text GLabel 4150 1300 0    60   Input ~ 0
ENCSW
Text GLabel 4150 1700 0    60   Output ~ 0
NEODATA
Text GLabel 9000 4450 0    60   BiDi ~ 0
SCL0
Text GLabel 9000 4350 0    60   BiDi ~ 0
SDA0
Text GLabel 4150 2200 0    60   Output ~ 0
SPI_MOSI
Text GLabel 6150 2700 2    60   Output ~ 0
SPI_SCK
Text GLabel 4150 2100 0    60   Output ~ 0
SPI_CS_OLED
Text GLabel 2250 6150 2    60   Input ~ 0
SPI_SCK
Text GLabel 2250 6050 2    60   Input ~ 0
SPI_MOSI
Text GLabel 2250 6350 2    60   Input ~ 0
SPI_RST
Text GLabel 2250 6450 2    60   Input ~ 0
SPI_CS_OLED
Text GLabel 4150 2000 0    60   Output ~ 0
SPI_DC
Text GLabel 2250 6250 2    60   Input ~ 0
SPI_DC
Text GLabel 6150 2600 2    60   Output ~ 0
SPI_RST
Text GLabel 9200 7300 2    60   Output ~ 0
ENCSW
Text GLabel 4150 1800 0    60   Input ~ 0
ENCA
Text GLabel 4150 1900 0    60   Input ~ 0
ENCB
Text GLabel 6950 7300 0    60   Output ~ 0
ENCB
Text GLabel 6950 6900 0    60   Output ~ 0
ENCA
Text GLabel 6150 2300 2    60   BiDi ~ 0
SDA0
Text GLabel 6150 2200 2    60   BiDi ~ 0
SCL0
Text GLabel 6150 2400 2    60   Input ~ 0
SW1
Text GLabel 13300 1250 2    60   Output ~ 0
VSENSE
Text GLabel 6150 1000 2    60   Input ~ 0
VSENSE
Text Notes 14450 1050 2    60   ~ 0
BATTERY CHARGING
Text Notes 1100 6650 2    121  ~ 0
I/O
Text GLabel 11800 1850 2    60   UnSpc ~ 0
SCL0
Text GLabel 11800 1700 2    60   UnSpc ~ 0
SDA0
Text GLabel 11800 2450 2    60   UnSpc ~ 0
SW0
Text GLabel 11800 2550 2    60   UnSpc ~ 0
SW1
Text Notes 11250 1050 2    60   ~ 0
PULLUP & INPUT DEBOUNCE
Text GLabel 6150 1900 2    60   BiDi ~ 0
GPIO1
Text Notes 2350 5750 2    60   ~ 0
OLED 128x64
Text GLabel 11800 2250 2    60   UnSpc ~ 0
SW1
Text GLabel 11800 2150 2    60   UnSpc ~ 0
SW0
Text GLabel 2850 4250 2    60   Output ~ 0
SW1
Text GLabel 2850 4350 2    60   Output ~ 0
SW0
Text GLabel 2850 4550 2    60   Input ~ 0
HAPTIC_DRV
Text GLabel 2850 4650 2    60   Input ~ 0
NEODATA_2
Text GLabel 2850 4750 2    60   BiDi ~ 0
SDA0
Text GLabel 2850 4850 2    60   BiDi ~ 0
SCL0
Text GLabel 2850 4150 2    60   Output ~ 0
0x69_IRQ
Text GLabel 4100 7800 0    60   Output ~ 0
HAPTIC_DRV
Text Notes 5500 6900 2    60   ~ 0
VIBRATION MOTOR DRIVER
Text GLabel 5550 7400 2    60   Input ~ 0
HAPTIC
Text Notes 8900 6400 2    60   ~ 0
ENCODER FILTER
Text Notes 10100 3700 2    60   ~ 0
ONBOARD IMU
Text Notes 14850 1850 2    41   ~ 0
2.2K = 450mA
Text Notes 14850 1750 2    41   ~ 0
4.3K = 200mA
Text Notes 14850 1650 2    41   ~ 0
6.7K = 100mA
Text GLabel 4150 1500 0    60   Input ~ 0
HF_EN
Text GLabel 6150 2100 2    60   Input ~ 0
HAPTIC
Text GLabel 5400 5750 2    60   Input ~ 0
NEODATA_0
Text GLabel 5400 5550 2    60   Output ~ 0
NEODATA_1
Text GLabel 7350 5750 2    60   Input ~ 0
NEODATA_1
Text GLabel 7350 5550 2    60   Output ~ 0
NEODATA_2
Text GLabel 4150 1400 0    60   Input ~ 0
HF_RST
Text GLabel 4150 1600 0    60   Input ~ 0
GPIO0
Text GLabel 12150 3100 0    60   Output ~ 0
LIPO
Text GLabel 15200 1950 2    60   Input ~ 0
LIPO
Text GLabel 6550 4900 2    60   Output ~ 0
NEODATA_2
Text GLabel 5000 4900 0    60   Input ~ 0
NEODATA_0
Text GLabel 5000 4750 0    60   Input ~ 0
NEODATA_1
NoConn ~ 2250 6550
NoConn ~ 9350 4850
NoConn ~ 6150 2800
NoConn ~ 6150 3200
NoConn ~ 4150 3200
NoConn ~ 4150 2700
NoConn ~ 4150 2600
NoConn ~ 4150 2500
NoConn ~ 4150 2800
NoConn ~ 6150 1200
NoConn ~ 6150 1100
NoConn ~ 10550 4750
NoConn ~ 10550 4350
NoConn ~ 9350 4650
NoConn ~ 6150 3400
NoConn ~ 4150 3400
NoConn ~ 6150 3500
NoConn ~ 4150 3500
NoConn ~ 4150 3100
$Comp
L ENC_SW S1
U 1 1 5A4C1195
P 8600 7100
F 0 "S1" H 8600 7550 45  0000 C CNN
F 1 "ENC_SW" H 8600 7475 45  0000 C CNN
F 2 "air:ENC_EVEU" H 8600 6750 20  0000 C CNN
F 3 "" H 8575 7550 50  0001 C CNN
	1    8600 7100
	1    0    0    -1  
$EndComp
$Comp
L C_Small C2
U 1 1 5A4C2727
P 4300 7550
F 0 "C2" H 4310 7620 50  0000 L CNN
F 1 "1µF" H 4310 7470 50  0000 L CNN
F 2 "Capacitors_SMD:C_0603" H 4300 7550 50  0001 C CNN
F 3 "https://www.murata.com/~/media/webrenewal/support/library/catalog/products/capacitor/mlcc/c02e.ashx?la=en-us" H 4300 7550 50  0001 C CNN
F 4 "490-1532-1-ND" H 4310 7720 50  0001 C CNN "digikey"
	1    4300 7550
	1    0    0    -1  
$EndComp
Text GLabel 6150 2500 2    60   Input ~ 0
SW0
$Comp
L Conn_01x03 J1
U 1 1 5A4CC8BD
P 1900 7450
F 0 "J1" H 1900 7650 50  0001 C CNN
F 1 "GPIO" H 1900 7250 50  0000 C CNN
F 2 "Connectors_Sparkfun:1X03_NO_SILK" H 1900 7450 50  0001 C CNN
F 3 "" H 1900 7450 50  0001 C CNN
	1    1900 7450
	-1   0    0    1   
$EndComp
Text GLabel 2100 7350 2    60   BiDi ~ 0
GPIO0
Text GLabel 2100 7450 2    60   BiDi ~ 0
GPIO1
Text GLabel 2100 7550 2    60   BiDi ~ 0
GPIO2
$Comp
L GNDD #PWR043
U 1 1 5A4D2716
P 11000 7800
F 0 "#PWR043" H 11000 7550 50  0001 C CNN
F 1 "GNDD" H 11000 7675 50  0000 C CNN
F 2 "" H 11000 7800 50  0001 C CNN
F 3 "" H 11000 7800 50  0001 C CNN
	1    11000 7800
	1    0    0    -1  
$EndComp
$Comp
L SW_SPST_SMD S2
U 1 1 5A4D2FB9
P 10700 6750
F 0 "S2" H 10500 6800 45  0000 L BNN
F 1 "SW_SPST_SMD" H 10500 6550 45  0000 L BNN
F 2 "air:SW_SPST_EVQQ2" H 10700 7000 20  0001 C CNN
F 3 "" H 10700 6750 50  0001 C CNN
	1    10700 6750
	1    0    0    -1  
$EndComp
$Comp
L R_Small R2
U 1 1 5A4D3527
P 11000 7100
F 0 "R2" H 11030 7120 50  0000 L CNN
F 1 "10K" H 11030 7060 50  0000 L CNN
F 2 "Resistors_SMD:R_0603" H 11000 7100 50  0001 C CNN
F 3 "http://www.yageo.com/documents/recent/PYu-RC_Group_51_RoHS_L_8.pdf" H 11000 7100 39  0001 C CNN
F 4 "311-10KGRCT-ND" H 11000 7100 39  0001 C CNN "digikey"
	1    11000 7100
	-1   0    0    1   
$EndComp
Text GLabel 11200 6750 2    60   Output ~ 0
GPIO2
$Comp
L +3V3 #PWR044
U 1 1 5A4D45DC
P 10400 6550
F 0 "#PWR044" H 10400 6400 50  0001 C CNN
F 1 "+3V3" H 10400 6690 50  0000 C CNN
F 2 "" H 10400 6550 50  0001 C CNN
F 3 "" H 10400 6550 50  0001 C CNN
	1    10400 6550
	1    0    0    -1  
$EndComp
NoConn ~ 6150 3800
NoConn ~ 6150 3700
NoConn ~ 6150 3600
NoConn ~ 4150 3800
NoConn ~ 4150 3700
NoConn ~ 4150 3600
$Comp
L +3V3 #PWR045
U 1 1 5A4DDCC3
P 3000 5900
F 0 "#PWR045" H 3000 5750 50  0001 C CNN
F 1 "+3V3" H 3000 6040 50  0000 C CNN
F 2 "" H 3000 5900 50  0001 C CNN
F 3 "" H 3000 5900 50  0001 C CNN
	1    3000 5900
	1    0    0    -1  
$EndComp
$Comp
L R_Small R3
U 1 1 5A4ECB81
P 5350 6450
F 0 "R3" H 5380 6470 50  0000 L CNN
F 1 "470" H 5380 6410 50  0000 L CNN
F 2 "Resistors_SMD:R_0805" H 5350 6450 50  0001 C CNN
F 3 "http://www.yageo.com/documents/recent/PYu-RC_Group_51_RoHS_L_8.pdf" H 5350 6450 50  0001 C CNN
F 4 "311-470ARCT-ND" H 5380 6570 50  0001 C CNN "digikey"
	1    5350 6450
	0    1    -1   0   
$EndComp
$Comp
L GNDD #PWR046
U 1 1 5A4F4794
P 2700 6800
F 0 "#PWR046" H 2700 6550 50  0001 C CNN
F 1 "GNDD" H 2700 6675 50  0000 C CNN
F 2 "" H 2700 6800 50  0001 C CNN
F 3 "" H 2700 6800 50  0001 C CNN
	1    2700 6800
	1    0    0    -1  
$EndComp
NoConn ~ 4150 2900
Text GLabel 5650 6450 2    60   Output ~ 0
NEODATA_0
Text GLabel 5100 6450 0    60   Input ~ 0
NEODATA
$Comp
L Conn_01x10 J5
U 1 1 5A4C7E7F
P 1450 3250
F 0 "J5" H 1450 3750 50  0000 C CNN
F 1 "AIR" H 1450 2650 50  0000 C CNN
F 2 "air:2X5_NO_SILK" V 1550 3200 30  0000 C CNN
F 3 "" H 1450 3250 50  0001 C CNN
	1    1450 3250
	-1   0    0    1   
$EndComp
$Comp
L SW_SPST_SMD S3
U 1 1 5A4D3FB4
P 10400 7200
F 0 "S3" H 10200 7250 45  0000 L BNN
F 1 "SW_SPST_SMD" H 10200 7000 45  0000 L BNN
F 2 "air:SW_SPST_EVQQ2" H 10400 7450 20  0001 C CNN
F 3 "" H 10400 7200 50  0001 C CNN
	1    10400 7200
	1    0    0    -1  
$EndComp
$Comp
L GNDD #PWR047
U 1 1 5A4D4418
P 10700 7800
F 0 "#PWR047" H 10700 7550 50  0001 C CNN
F 1 "GNDD" H 10700 7675 50  0000 C CNN
F 2 "" H 10700 7800 50  0001 C CNN
F 3 "" H 10700 7800 50  0001 C CNN
	1    10700 7800
	1    0    0    -1  
$EndComp
$Comp
L R_Small R10
U 1 1 5A4D4694
P 10700 7500
F 0 "R10" H 10730 7520 50  0000 L CNN
F 1 "10K" H 10730 7460 50  0000 L CNN
F 2 "Resistors_SMD:R_0603" H 10700 7500 50  0001 C CNN
F 3 "http://www.yageo.com/documents/recent/PYu-RC_Group_51_RoHS_L_8.pdf" H 10700 7500 39  0001 C CNN
F 4 "311-10KGRCT-ND" H 10700 7500 39  0001 C CNN "digikey"
	1    10700 7500
	-1   0    0    1   
$EndComp
Text GLabel 11200 7200 2    60   Output ~ 0
GPIO1
Text GLabel 6150 1500 2    60   Input ~ 0
VIN
Text GLabel 14600 3800 2    60   Output ~ 0
VIN
$Comp
L SWITCH-SPDT S5
U 1 1 5A4D1760
P 14200 3900
F 0 "S5" H 14200 4025 45  0000 C CNN
F 1 "SWITCH-SPDT" H 14250 3725 45  0000 C CNN
F 2 "air:SW_SPDT_PCM12SMTR" H 14250 3650 30  0001 C CNN
F 3 "" H 14100 4050 50  0001 C CNN
	1    14200 3900
	1    0    0    -1  
$EndComp
NoConn ~ 14400 4000
$Comp
L +BATT #PWR048
U 1 1 5A4D1C6A
P 13500 3750
F 0 "#PWR048" H 13500 3600 50  0001 C CNN
F 1 "+BATT" H 13500 3890 50  0000 C CNN
F 2 "" H 13500 3750 50  0001 C CNN
F 3 "" H 13500 3750 50  0001 C CNN
	1    13500 3750
	1    0    0    -1  
$EndComp
$Comp
L PWR_FLAG #FLG049
U 1 1 5A4D4F14
P 6550 1550
F 0 "#FLG049" H 6550 1625 50  0001 C CNN
F 1 "PWR_FLAG" H 6550 1700 50  0000 C CNN
F 2 "" H 6550 1550 50  0001 C CNN
F 3 "" H 6550 1550 50  0001 C CNN
	1    6550 1550
	1    0    0    -1  
$EndComp
Text GLabel 4100 7300 0    60   Output ~ 0
HAPTIC_3V3
$Comp
L ER-OLED013-1 U3
U 1 1 5A4DCCE9
P 1900 9400
F 0 "U3" H 1375 10900 60  0000 C CNN
F 1 "ER-OLED013-1" H 1625 7700 60  0000 C CNN
F 2 "air:conn_molex_FPC_30x0.5mm_SMD" V 1200 9400 60  0000 C CNN
F 3 "" H 1900 10600 60  0001 C CNN
	1    1900 9400
	-1   0    0    -1  
$EndComp
$Comp
L GNDD #PWR050
U 1 1 5A4DDCEF
P 800 11000
F 0 "#PWR050" H 800 10750 50  0001 C CNN
F 1 "GNDD" H 800 10875 50  0000 C CNN
F 2 "" H 800 11000 50  0001 C CNN
F 3 "" H 800 11000 50  0001 C CNN
	1    800  11000
	1    0    0    -1  
$EndComp
$Comp
L R_Small R12
U 1 1 5A4DEA3C
P 1500 10500
F 0 "R12" H 1530 10520 50  0000 L CNN
F 1 "390K" H 1530 10460 50  0000 L CNN
F 2 "Resistors_SMD:R_0603" H 1500 10500 50  0001 C CNN
F 3 "http://www.yageo.com/documents/recent/PYu-RC_Group_51_RoHS_L_8.pdf" H 1500 10500 39  0001 C CNN
F 4 "311-10KGRCT-ND" H 1500 10500 39  0001 C CNN "digikey"
	1    1500 10500
	0    1    -1   0   
$EndComp
Text GLabel 1700 9700 0    60   Input ~ 0
SPI_SCK
Text GLabel 1700 9800 0    60   Input ~ 0
SPI_MOSI
Text GLabel 1700 9400 0    60   Input ~ 0
SPI_DC
Text GLabel 1700 9300 0    60   Input ~ 0
SPI_RST
Text GLabel 1700 9200 0    60   Input ~ 0
SPI_CS_OLED
$Comp
L R_Small R11
U 1 1 5A4E0561
P 1200 9000
F 0 "R11" H 1230 9020 50  0000 L CNN
F 1 "10K" H 1230 8960 50  0000 L CNN
F 2 "Resistors_SMD:R_0603" H 1200 9000 50  0001 C CNN
F 3 "http://www.yageo.com/documents/recent/PYu-RC_Group_51_RoHS_L_8.pdf" H 1200 9000 39  0001 C CNN
F 4 "311-10KGRCT-ND" H 1200 9000 39  0001 C CNN "digikey"
	1    1200 9000
	0    1    1    0   
$EndComp
$Comp
L C_Small C7
U 1 1 5A4E0D40
P 1500 8300
F 0 "C7" H 1510 8370 50  0000 L CNN
F 1 "2.2µF" H 1510 8220 50  0000 L CNN
F 2 "Capacitors_SMD:C_0603" H 1500 8300 50  0001 C CNN
F 3 "http://search.murata.co.jp/Ceramy/image/img/A01X/G101/ENG/GRM188R61C225KE15-01.pdf" H 1500 8300 50  0001 C CNN
F 4 "490-3296-1-ND " H 1500 8300 60  0001 C CNN "digikey"
	1    1500 8300
	0    1    1    0   
$EndComp
$Comp
L +3V3 #PWR051
U 1 1 5A4E2994
P 1700 7900
F 0 "#PWR051" H 1700 7750 50  0001 C CNN
F 1 "+3V3" H 1700 8040 50  0000 C CNN
F 2 "" H 1700 7900 50  0001 C CNN
F 3 "" H 1700 7900 50  0001 C CNN
	1    1700 7900
	1    0    0    -1  
$EndComp
NoConn ~ 1800 9600
NoConn ~ 1800 9500
NoConn ~ 1800 10400
NoConn ~ 1800 10300
NoConn ~ 1800 10200
NoConn ~ 1800 10100
NoConn ~ 1800 10000
NoConn ~ 1800 9900
NoConn ~ 1800 8600
$Comp
L Conn_01x10 J2
U 1 1 5A4834A2
P 1450 4550
F 0 "J2" H 1450 5050 50  0000 C CNN
F 1 "RCPT-MQ212-10" H 1450 3950 50  0000 C CNN
F 2 "air:MQ212_SMD_RCPT" V 1550 4500 30  0000 C CNN
F 3 "" H 1450 4550 50  0001 C CNN
	1    1450 4550
	-1   0    0    1   
$EndComp
Text GLabel 2850 4450 2    60   Input ~ 0
HAPTIC_3V3
$Comp
L +3V3 #PWR052
U 1 1 5A4EE9F5
P 5400 7150
F 0 "#PWR052" H 5400 7000 50  0001 C CNN
F 1 "+3V3" H 5400 7290 50  0000 C CNN
F 2 "" H 5400 7150 50  0001 C CNN
F 3 "" H 5400 7150 50  0001 C CNN
	1    5400 7150
	1    0    0    -1  
$EndComp
$Comp
L R_Small R15
U 1 1 5A4EED49
P 5200 7150
F 0 "R15" H 5230 7170 50  0000 L CNN
F 1 "0" H 5230 7110 50  0000 L CNN
F 2 "Resistors_SMD:R_0603" H 5200 7150 50  0001 C CNN
F 3 "http://www.yageo.com/documents/recent/PYu-RC_Group_51_RoHS_L_8.pdf" H 5200 7150 39  0001 C CNN
F 4 "311-10KGRCT-ND" H 5200 7150 39  0001 C CNN "digikey"
	1    5200 7150
	0    1    1    0   
$EndComp
$Comp
L C_Small C3
U 1 1 5A4F1323
P 1250 8100
F 0 "C3" H 1260 8170 50  0000 L CNN
F 1 "2.2µF" H 1260 8020 50  0000 L CNN
F 2 "Capacitors_SMD:C_0603" H 1250 8100 50  0001 C CNN
F 3 "http://search.murata.co.jp/Ceramy/image/img/A01X/G101/ENG/GRM188R61C225KE15-01.pdf" H 1250 8100 50  0001 C CNN
F 4 "490-3296-1-ND " H 1250 8100 60  0001 C CNN "digikey"
	1    1250 8100
	0    1    1    0   
$EndComp
$Comp
L C_Small C4
U 1 1 5A4F140C
P 1250 8500
F 0 "C4" H 1260 8570 50  0000 L CNN
F 1 "2.2µF" H 1260 8420 50  0000 L CNN
F 2 "Capacitors_SMD:C_0603" H 1250 8500 50  0001 C CNN
F 3 "http://search.murata.co.jp/Ceramy/image/img/A01X/G101/ENG/GRM188R61C225KE15-01.pdf" H 1250 8500 50  0001 C CNN
F 4 "490-3296-1-ND " H 1250 8500 60  0001 C CNN "digikey"
	1    1250 8500
	0    1    1    0   
$EndComp
$Comp
L C_Small C8
U 1 1 5A4F153E
P 1500 8800
F 0 "C8" H 1510 8870 50  0000 L CNN
F 1 "2.2µF" H 1510 8720 50  0000 L CNN
F 2 "Capacitors_SMD:C_0603" H 1500 8800 50  0001 C CNN
F 3 "http://search.murata.co.jp/Ceramy/image/img/A01X/G101/ENG/GRM188R61C225KE15-01.pdf" H 1500 8800 50  0001 C CNN
F 4 "490-3296-1-ND " H 1500 8800 60  0001 C CNN "digikey"
	1    1500 8800
	0    1    1    0   
$EndComp
$Comp
L C_Small C6
U 1 1 5A4F1675
P 1250 10600
F 0 "C6" H 1260 10670 50  0000 L CNN
F 1 "2.2µF" H 1260 10520 50  0000 L CNN
F 2 "Capacitors_SMD:C_0603" H 1250 10600 50  0001 C CNN
F 3 "http://search.murata.co.jp/Ceramy/image/img/A01X/G101/ENG/GRM188R61C225KE15-01.pdf" H 1250 10600 50  0001 C CNN
F 4 "490-3296-1-ND " H 1250 10600 60  0001 C CNN "digikey"
	1    1250 10600
	0    1    1    0   
$EndComp
$Comp
L C_Small C9
U 1 1 5A4F177E
P 1550 10700
F 0 "C9" H 1560 10770 50  0000 L CNN
F 1 "10µF" H 1560 10620 50  0000 L CNN
F 2 "Capacitors_SMD:C_0603" H 1550 10700 50  0001 C CNN
F 3 "http://search.murata.co.jp/Ceramy/image/img/A01X/G101/ENG/GRM188R61C225KE15-01.pdf" H 1550 10700 50  0001 C CNN
F 4 "490-3296-1-ND " H 1550 10700 60  0001 C CNN "digikey"
	1    1550 10700
	0    1    1    0   
$EndComp
$Comp
L D_Schottky D6
U 1 1 5A4F879B
P 12600 3100
F 0 "D6" H 12600 3200 50  0000 C CNN
F 1 "MBR120" H 12600 3000 50  0000 C CNN
F 2 "Diodes_SMD:SOD-123" H 12600 3100 50  0001 C CNN
F 3 "http://www.onsemi.com/pub/Collateral/MBR120LSFT1-D.PDF" H 12600 3100 50  0001 C CNN
F 4 "MBR120LSFT3GOSCT-ND" H 12600 3300 50  0001 C CNN "digikey"
	1    12600 3100
	1    0    0    -1  
$EndComp
$Comp
L ATWINC15x0 U8
U 1 1 5A4F06A0
P 13550 4700
F 0 "U8" H 13550 4875 60  0000 C CNN
F 1 "ATWINC15x0" H 13550 4775 60  0000 C CNN
F 2 "air:ATWINC15x0_MIN" H 12950 4700 60  0001 C CNN
F 3 "" H 12950 4700 60  0001 C CNN
	1    13550 4700
	1    0    0    -1  
$EndComp
Text GLabel 12700 5800 0    60   Input ~ 0
SPI_SCK
Text GLabel 12700 5500 0    60   Input ~ 0
SPI_MOSI
Text GLabel 12700 5600 0    60   Input ~ 0
SPI_CS_HF
Text GLabel 6150 2000 2    60   Output ~ 0
SPI_CS_HF
Text GLabel 6150 1800 2    60   BiDi ~ 0
GPIO2
Text GLabel 4150 2300 0    60   Input ~ 0
SPI_MISO
Text GLabel 12700 5700 0    60   Input ~ 0
SPI_MISO
Text GLabel 12700 5400 0    60   Output ~ 0
TeensyRX1
Text GLabel 12700 5900 0    60   Input ~ 0
TeensyTX1
Text GLabel 14900 5600 2    60   Input ~ 0
HF_RST
Text GLabel 12700 7300 0    60   Input ~ 0
HF_EN
$Comp
L GNDD #PWR053
U 1 1 5A4F4D63
P 14100 6900
F 0 "#PWR053" H 14100 6650 50  0001 C CNN
F 1 "GNDD" H 14100 6775 50  0000 C CNN
F 2 "" H 14100 6900 50  0001 C CNN
F 3 "" H 14100 6900 50  0001 C CNN
	1    14100 6900
	1    0    0    -1  
$EndComp
$Comp
L +3V3 #PWR054
U 1 1 5A4F51FD
P 12600 4600
F 0 "#PWR054" H 12600 4450 50  0001 C CNN
F 1 "+3V3" H 12600 4740 50  0000 C CNN
F 2 "" H 12600 4600 50  0001 C CNN
F 3 "" H 12600 4600 50  0001 C CNN
	1    12600 4600
	1    0    0    -1  
$EndComp
NoConn ~ 14400 5900
NoConn ~ 13600 6700
$Comp
L +3V3 #PWR055
U 1 1 5A4F5845
P 12700 7100
F 0 "#PWR055" H 12700 6950 50  0001 C CNN
F 1 "+3V3" H 12700 7240 50  0000 C CNN
F 2 "" H 12700 7100 50  0001 C CNN
F 3 "" H 12700 7100 50  0001 C CNN
	1    12700 7100
	1    0    0    -1  
$EndComp
$Comp
L C_Small C11
U 1 1 5A4F5B77
P 13750 8150
F 0 "C11" H 13760 8220 50  0000 L CNN
F 1 "0.01µF" H 13760 8070 50  0000 L CNN
F 2 "Capacitors_SMD:C_0603" H 13750 8150 50  0001 C CNN
F 3 "https://www.murata.com/~/media/webrenewal/support/library/catalog/products/capacitor/mlcc/c02e.ashx?la=en-us" H 13750 8150 50  0001 C CNN
F 4 "490-1525-1-ND" H 13760 8320 50  0001 C CNN "digikey"
	1    13750 8150
	1    0    0    -1  
$EndComp
$Comp
L C_Small C10
U 1 1 5A4F5C9E
P 13500 8150
F 0 "C10" H 13510 8220 50  0000 L CNN
F 1 "10µF" H 13510 8070 50  0000 L CNN
F 2 "Capacitors_SMD:C_0603" H 13500 8150 50  0001 C CNN
F 3 "https://www.murata.com/~/media/webrenewal/support/library/catalog/products/capacitor/mlcc/c02e.ashx?la=en-us" H 13500 8150 50  0001 C CNN
F 4 "490-1543-1-ND" H 13510 8320 50  0001 C CNN "digikey"
	1    13500 8150
	1    0    0    -1  
$EndComp
$Comp
L GNDD #PWR056
U 1 1 5A4F5FD5
P 13750 8250
F 0 "#PWR056" H 13750 8000 50  0001 C CNN
F 1 "GNDD" H 13750 8125 50  0000 C CNN
F 2 "" H 13750 8250 50  0001 C CNN
F 3 "" H 13750 8250 50  0001 C CNN
	1    13750 8250
	1    0    0    -1  
$EndComp
$Comp
L GNDD #PWR057
U 1 1 5A4F623A
P 13500 8250
F 0 "#PWR057" H 13500 8000 50  0001 C CNN
F 1 "GNDD" H 13500 8125 50  0000 C CNN
F 2 "" H 13500 8250 50  0001 C CNN
F 3 "" H 13500 8250 50  0001 C CNN
	1    13500 8250
	1    0    0    -1  
$EndComp
$Comp
L GNDD #PWR058
U 1 1 5A4F6C7A
P 14600 4900
F 0 "#PWR058" H 14600 4650 50  0001 C CNN
F 1 "GNDD" H 14600 4775 50  0000 C CNN
F 2 "" H 14600 4900 50  0001 C CNN
F 3 "" H 14600 4900 50  0001 C CNN
	1    14600 4900
	1    0    0    -1  
$EndComp
$Comp
L GNDD #PWR059
U 1 1 5A4F6F6C
P 12000 5350
F 0 "#PWR059" H 12000 5100 50  0001 C CNN
F 1 "GNDD" H 12000 5225 50  0000 C CNN
F 2 "" H 12000 5350 50  0001 C CNN
F 3 "" H 12000 5350 50  0001 C CNN
	1    12000 5350
	1    0    0    -1  
$EndComp
NoConn ~ 13200 6700
$Comp
L +3V3 #PWR060
U 1 1 5A4F73D3
P 12700 6700
F 0 "#PWR060" H 12700 6550 50  0001 C CNN
F 1 "+3V3" H 12700 6840 50  0000 C CNN
F 2 "" H 12700 6700 50  0001 C CNN
F 3 "" H 12700 6700 50  0001 C CNN
	1    12700 6700
	1    0    0    -1  
$EndComp
$Comp
L R_Small R31
U 1 1 5A4F7BE3
P 14750 5850
F 0 "R31" H 14780 5870 50  0000 L CNN
F 1 "100K" H 14780 5810 50  0000 L CNN
F 2 "Resistors_SMD:R_0603" H 14750 5850 50  0001 C CNN
F 3 "http://www.yageo.com/documents/recent/PYu-RC_Group_51_RoHS_L_8.pdf" H 14750 5850 39  0001 C CNN
F 4 "311-10KGRCT-ND" H 14750 5850 39  0001 C CNN "digikey"
	1    14750 5850
	-1   0    0    1   
$EndComp
$Comp
L GNDD #PWR061
U 1 1 5A4F821A
P 14750 5950
F 0 "#PWR061" H 14750 5700 50  0001 C CNN
F 1 "GNDD" H 14750 5825 50  0000 C CNN
F 2 "" H 14750 5950 50  0001 C CNN
F 3 "" H 14750 5950 50  0001 C CNN
	1    14750 5950
	1    0    0    -1  
$EndComp
$Comp
L R_Small R27
U 1 1 5A4F8684
P 13300 7500
F 0 "R27" H 13330 7520 50  0000 L CNN
F 1 "100K" H 13330 7460 50  0000 L CNN
F 2 "Resistors_SMD:R_0603" H 13300 7500 50  0001 C CNN
F 3 "http://www.yageo.com/documents/recent/PYu-RC_Group_51_RoHS_L_8.pdf" H 13300 7500 39  0001 C CNN
F 4 "311-10KGRCT-ND" H 13300 7500 39  0001 C CNN "digikey"
	1    13300 7500
	-1   0    0    1   
$EndComp
$Comp
L GNDD #PWR062
U 1 1 5A4F87B4
P 13300 7600
F 0 "#PWR062" H 13300 7350 50  0001 C CNN
F 1 "GNDD" H 13300 7475 50  0000 C CNN
F 2 "" H 13300 7600 50  0001 C CNN
F 3 "" H 13300 7600 50  0001 C CNN
	1    13300 7600
	1    0    0    -1  
$EndComp
NoConn ~ 14400 5800
NoConn ~ 14400 5700
$Comp
L R_Small R17
U 1 1 5A4F96A8
P 12600 4800
F 0 "R17" H 12630 4820 50  0000 L CNN
F 1 "100K" H 12630 4760 50  0000 L CNN
F 2 "Resistors_SMD:R_0603" H 12600 4800 50  0001 C CNN
F 3 "http://www.yageo.com/documents/recent/PYu-RC_Group_51_RoHS_L_8.pdf" H 12600 4800 39  0001 C CNN
F 4 "311-10KGRCT-ND" H 12600 4800 39  0001 C CNN "digikey"
	1    12600 4800
	-1   0    0    1   
$EndComp
Text GLabel 4150 3900 0    60   Input ~ 0
HF_IRQ
Text GLabel 4150 4000 0    60   Input ~ 0
HF_WAKE
Text GLabel 12700 5300 0    60   Input ~ 0
HF_IRQ
Text GLabel 12700 5100 0    60   Input ~ 0
HF_WAKE
$Comp
L LED D7
U 1 1 5A4FA924
P 14300 7650
F 0 "D7" H 14300 7750 50  0000 C CNN
F 1 "GREEN" H 14400 7550 50  0000 C CNN
F 2 "LEDs:LED_0603" H 14300 7650 50  0001 C CNN
F 3 "http://optoelectronics.liteon.com/upload/download/DS22-2000-228/LTST-C191KGKT.PDF" H 14300 7650 50  0001 C CNN
F 4 "160-1446-1-ND" H 14300 7850 50  0001 C CNN "digikey"
	1    14300 7650
	-1   0    0    1   
$EndComp
$Comp
L LED D5
U 1 1 5A4FB1E0
P 14300 7350
F 0 "D5" H 14300 7450 50  0000 C CNN
F 1 "YELLOW" H 14350 7250 50  0000 C CNN
F 2 "LEDs:LED_0603" H 14300 7350 50  0001 C CNN
F 3 "http://optoelectronics.liteon.com/upload/download/DS22-2000-224/LTST-C191KSKT.PDF" H 14300 7350 50  0001 C CNN
F 4 "160-1448-1-ND" H 14300 7550 50  0001 C CNN "digikey"
	1    14300 7350
	-1   0    0    1   
$EndComp
$Comp
L R_Small R29
U 1 1 5A4FB6EF
P 13950 7350
F 0 "R29" H 13980 7370 50  0000 L CNN
F 1 "1K" H 13980 7310 50  0000 L CNN
F 2 "Resistors_SMD:R_0603" H 13950 7350 50  0001 C CNN
F 3 "http://www.yageo.com/documents/recent/PYu-RC_Group_51_RoHS_L_8.pdf" H 13950 7350 39  0001 C CNN
F 4 "311-10KGRCT-ND" H 13950 7350 39  0001 C CNN "digikey"
	1    13950 7350
	0    -1   -1   0   
$EndComp
$Comp
L R_Small R30
U 1 1 5A4FB902
P 13950 7650
F 0 "R30" H 13980 7670 50  0000 L CNN
F 1 "1K" H 13980 7610 50  0000 L CNN
F 2 "Resistors_SMD:R_0603" H 13950 7650 50  0001 C CNN
F 3 "http://www.yageo.com/documents/recent/PYu-RC_Group_51_RoHS_L_8.pdf" H 13950 7650 39  0001 C CNN
F 4 "311-10KGRCT-ND" H 13950 7650 39  0001 C CNN "digikey"
	1    13950 7650
	0    -1   -1   0   
$EndComp
$Comp
L +3V3 #PWR063
U 1 1 5A4FC4F9
P 14600 7200
F 0 "#PWR063" H 14600 7050 50  0001 C CNN
F 1 "+3V3" H 14600 7340 50  0000 C CNN
F 2 "" H 14600 7200 50  0001 C CNN
F 3 "" H 14600 7200 50  0001 C CNN
	1    14600 7200
	1    0    0    -1  
$EndComp
Wire Wire Line
	7200 7600 7200 7650
Wire Wire Line
	7200 7400 7200 6900
Wire Wire Line
	2500 5300 2500 5150
Wire Wire Line
	2500 4050 2500 4950
Wire Wire Line
	5000 8400 5000 8300
Wire Wire Line
	4600 7800 4600 7650
Wire Wire Line
	4100 7800 5000 7800
Wire Wire Line
	5000 7700 5000 7900
Wire Wire Line
	5000 7150 5000 7400
Wire Wire Line
	4600 7300 4600 7450
Wire Wire Line
	5400 8100 5400 7900
Wire Wire Line
	5300 8100 5400 8100
Wire Wire Line
	5400 7400 5550 7400
Wire Wire Line
	5400 7700 5400 7400
Wire Wire Line
	2250 5300 2250 5150
Wire Wire Line
	2250 4050 2250 4950
Wire Wire Line
	1650 4650 2850 4650
Wire Wire Line
	1650 4150 2850 4150
Wire Wire Line
	1650 4550 2850 4550
Wire Wire Line
	1650 4350 2850 4350
Wire Wire Line
	1650 4250 2850 4250
Wire Wire Line
	1650 4850 2850 4850
Wire Wire Line
	1650 4750 2850 4750
Wire Wire Line
	1650 4050 2700 4050
Wire Wire Line
	1750 3650 1750 5300
Wire Wire Line
	1650 4950 1750 4950
Wire Wire Line
	11100 2250 11800 2250
Wire Wire Line
	11100 2650 11100 2250
Wire Wire Line
	10850 2150 11800 2150
Wire Wire Line
	10850 2650 10850 2150
Wire Wire Line
	10850 2950 10850 2850
Wire Wire Line
	11100 2850 11100 2950
Wire Wire Line
	13100 1150 13100 1350
Wire Wire Line
	13100 1550 13100 1600
Wire Wire Line
	13100 950  13100 900 
Wire Wire Line
	13300 1250 13100 1250
Wire Wire Line
	13150 2250 13250 2250
Wire Wire Line
	13450 2250 13550 2250
Wire Wire Line
	12750 2250 12850 2250
Wire Wire Line
	12750 1850 12750 2250
Wire Wire Line
	14400 1950 15200 1950
Wire Wire Line
	14850 2150 14850 2550
Wire Wire Line
	14350 2150 14550 2150
Wire Wire Line
	14400 2400 14850 2400
Wire Wire Line
	14350 2250 14400 2250
Wire Wire Line
	14400 2250 14400 2400
Wire Wire Line
	15000 2250 15000 2550
Wire Wire Line
	14750 2150 14850 2150
Wire Wire Line
	15000 1850 15000 2050
Wire Wire Line
	14400 2050 14350 2050
Wire Wire Line
	14400 1950 14400 2050
Wire Wire Line
	8950 7300 9200 7300
Wire Wire Line
	8150 7300 8300 7300
Wire Wire Line
	7850 6700 7850 7300
Wire Wire Line
	7750 6900 7950 6900
Wire Wire Line
	7750 7300 7950 7300
Wire Wire Line
	6950 6900 7550 6900
Wire Wire Line
	6950 7300 7550 7300
Wire Wire Line
	7450 7600 7450 7650
Wire Wire Line
	8300 7100 8250 7100
Wire Wire Line
	8250 7100 8250 7650
Wire Wire Line
	8150 6900 8300 6900
Wire Wire Line
	7450 7300 7450 7400
Wire Wire Line
	9200 4950 9350 4950
Wire Wire Line
	9200 4950 9200 5450
Wire Wire Line
	11300 5300 11300 5450
Wire Wire Line
	11300 3950 11300 5100
Wire Wire Line
	10550 4650 10950 4650
Wire Wire Line
	10950 4650 10950 5100
Wire Wire Line
	10950 5300 10950 5450
Wire Wire Line
	11300 4950 10550 4950
Wire Wire Line
	10700 4550 10700 5100
Wire Wire Line
	10700 5450 10700 5300
Wire Wire Line
	9000 4350 9350 4350
Wire Wire Line
	9350 4450 9000 4450
Wire Wire Line
	9200 4250 9200 4550
Wire Wire Line
	9200 4050 9200 3950
Wire Wire Line
	9200 3950 11500 3950
Wire Wire Line
	11350 2850 11350 2950
Wire Wire Line
	11650 2850 11650 2950
Wire Wire Line
	11650 2650 11650 2550
Wire Wire Line
	11650 2550 11800 2550
Wire Wire Line
	11350 2650 11350 2450
Wire Wire Line
	11350 2450 11800 2450
Wire Wire Line
	11800 1700 11600 1700
Wire Wire Line
	11600 1700 11600 1600
Wire Wire Line
	11400 1600 11400 1850
Wire Wire Line
	11400 1850 11800 1850
Wire Wire Line
	4100 7300 5000 7300
Wire Wire Line
	11500 3950 11500 3850
Wire Wire Line
	2700 4050 2700 3950
Wire Wire Line
	3450 1000 4150 1000
Wire Wire Line
	3450 1000 3450 1150
Wire Wire Line
	7250 1500 7250 1800
Wire Wire Line
	6750 1700 6750 1200
Wire Wire Line
	10550 4550 10700 4550
Wire Wire Line
	9200 4550 9350 4550
Wire Wire Line
	12750 3300 12750 3200
Wire Wire Line
	12750 3200 12850 3200
Wire Wire Line
	7250 1600 6150 1600
Wire Wire Line
	12750 2600 12750 2500
Wire Wire Line
	12750 2500 12850 2500
Wire Wire Line
	13150 2500 13250 2500
Wire Wire Line
	13450 2500 13500 2500
Wire Wire Line
	13500 2500 13500 2250
Wire Wire Line
	5150 5350 5150 5850
Wire Wire Line
	4750 5450 5150 5450
Wire Wire Line
	5150 6150 5150 6050
Wire Wire Line
	4750 5750 5400 5750
Wire Wire Line
	4950 6150 4950 5650
Wire Wire Line
	4950 5650 4750 5650
Wire Wire Line
	4750 5550 5400 5550
Wire Wire Line
	7250 5350 7250 5850
Wire Wire Line
	6850 5450 7250 5450
Wire Wire Line
	7250 6150 7250 6050
Wire Wire Line
	7350 5750 6850 5750
Wire Wire Line
	7050 6150 7050 5650
Wire Wire Line
	7050 5650 6850 5650
Wire Wire Line
	6850 5550 7350 5550
Wire Wire Line
	12750 2050 13550 2050
Wire Wire Line
	6150 1300 6900 1300
Wire Wire Line
	6900 1300 6900 1100
Wire Wire Line
	6400 4900 6550 4900
Wire Wire Line
	5500 4900 6000 4900
Wire Wire Line
	5000 4900 5100 4900
Wire Wire Line
	5000 4750 5900 4750
Wire Wire Line
	5900 4750 5900 4900
Wire Wire Line
	9050 7650 9050 7600
Wire Wire Line
	9050 7400 9050 7300
Connection ~ 7200 6900
Connection ~ 2500 4050
Connection ~ 4600 7800
Connection ~ 5000 7800
Connection ~ 5000 7300
Connection ~ 2250 4050
Connection ~ 13100 1250
Connection ~ 12750 2050
Connection ~ 14850 2400
Connection ~ 15000 1950
Connection ~ 7850 7300
Connection ~ 7850 6900
Connection ~ 7450 7300
Connection ~ 11300 4950
Connection ~ 11300 3950
Connection ~ 3450 1000
Connection ~ 13500 2250
Connection ~ 5150 5450
Connection ~ 7250 5450
Connection ~ 7250 1600
Connection ~ 5900 4900
Connection ~ 9050 7300
Wire Wire Line
	8950 6900 9100 6900
Wire Wire Line
	9100 6900 9100 6750
Wire Wire Line
	4300 7650 4300 7800
Connection ~ 4300 7800
Wire Wire Line
	4300 7450 4300 7300
Connection ~ 4600 7300
Wire Wire Line
	11500 950  11500 1250
Wire Wire Line
	11400 1250 11400 1400
Wire Wire Line
	11600 1250 11600 1400
Wire Wire Line
	10900 6750 11200 6750
Wire Wire Line
	11000 7800 11000 7200
Wire Wire Line
	10900 6850 11000 6850
Wire Wire Line
	11000 6750 11000 7000
Connection ~ 11000 6750
Wire Wire Line
	10050 6750 10500 6750
Wire Wire Line
	10400 6550 10400 6850
Wire Wire Line
	10400 6850 10500 6850
Connection ~ 10400 6750
Connection ~ 11000 6850
Wire Wire Line
	6150 1700 6750 1700
Wire Wire Line
	12300 3000 12300 3100
Connection ~ 12300 3100
Wire Wire Line
	2250 6650 3000 6650
Wire Wire Line
	3000 6650 3000 5900
Wire Wire Line
	2250 6750 2700 6750
Wire Wire Line
	2700 6750 2700 6800
Wire Wire Line
	5100 6450 5250 6450
Wire Wire Line
	5450 6450 5650 6450
Wire Wire Line
	1650 3650 1750 3650
Connection ~ 1750 4950
Wire Wire Line
	1650 3550 1800 3550
Wire Wire Line
	1800 3550 1800 4850
Connection ~ 1800 4850
Wire Wire Line
	1650 3450 1850 3450
Wire Wire Line
	1850 3450 1850 4750
Connection ~ 1850 4750
Wire Wire Line
	1650 3350 1900 3350
Wire Wire Line
	1900 3350 1900 4650
Connection ~ 1900 4650
Wire Wire Line
	1650 3250 1950 3250
Wire Wire Line
	1950 3250 1950 4550
Connection ~ 1950 4550
Wire Wire Line
	1650 3050 2000 3050
Wire Wire Line
	2000 3050 2000 4350
Connection ~ 2000 4350
Wire Wire Line
	1650 2950 2050 2950
Wire Wire Line
	2050 2950 2050 4250
Connection ~ 2050 4250
Wire Wire Line
	1650 2850 2100 2850
Wire Wire Line
	2100 2850 2100 4150
Connection ~ 2100 4150
Wire Wire Line
	1650 2750 2150 2750
Wire Wire Line
	2150 2750 2150 4050
Connection ~ 2150 4050
Wire Wire Line
	10200 7200 10050 7200
Wire Wire Line
	10050 6750 10050 7300
Wire Wire Line
	10050 7300 10200 7300
Connection ~ 10050 7200
Wire Wire Line
	10600 7200 11200 7200
Wire Wire Line
	10700 7200 10700 7400
Wire Wire Line
	10700 7800 10700 7600
Wire Wire Line
	10600 7300 10700 7300
Connection ~ 10700 7300
Connection ~ 10700 7200
Wire Wire Line
	13500 3900 14100 3900
Wire Wire Line
	13500 3750 13500 3900
Wire Wire Line
	12750 3100 12850 3100
Wire Wire Line
	12150 3100 12450 3100
Wire Wire Line
	6550 1550 6550 1700
Connection ~ 6550 1700
Connection ~ 4300 7300
Wire Wire Line
	1350 10600 1800 10600
Wire Wire Line
	1800 10700 1650 10700
Wire Wire Line
	800  10900 1800 10900
Wire Wire Line
	800  8000 800  11000
Wire Wire Line
	800  10800 1800 10800
Connection ~ 800  10900
Wire Wire Line
	1450 10700 800  10700
Connection ~ 800  10800
Wire Wire Line
	1150 10600 800  10600
Connection ~ 800  10700
Wire Wire Line
	1800 10500 1600 10500
Connection ~ 800  10600
Wire Wire Line
	1700 9800 1800 9800
Wire Wire Line
	1800 9700 1700 9700
Wire Wire Line
	1700 9400 1800 9400
Wire Wire Line
	1700 9300 1800 9300
Wire Wire Line
	1700 9200 1800 9200
Wire Wire Line
	1800 8900 800  8900
Wire Wire Line
	1600 8800 1800 8800
Wire Wire Line
	1350 8500 1800 8500
Wire Wire Line
	1800 8100 1350 8100
Wire Wire Line
	1150 8100 1000 8100
Wire Wire Line
	1000 8100 1000 8200
Wire Wire Line
	1000 8200 1800 8200
Wire Wire Line
	1800 8300 1600 8300
Wire Wire Line
	1400 8300 1000 8300
Wire Wire Line
	1000 8300 1000 8400
Wire Wire Line
	1000 8400 1800 8400
Wire Wire Line
	800  8800 1400 8800
Wire Wire Line
	800  8500 1150 8500
Wire Wire Line
	800  8700 1800 8700
Wire Wire Line
	1700 7900 1700 8800
Connection ~ 1700 8500
Connection ~ 1700 8800
Wire Wire Line
	800  8000 1800 8000
Connection ~ 800  8900
Wire Wire Line
	1800 9100 800  9100
Connection ~ 800  9100
Connection ~ 800  8500
Connection ~ 800  8700
Connection ~ 800  8800
Wire Wire Line
	800  10500 1400 10500
Connection ~ 800  10500
Wire Wire Line
	800  9000 1100 9000
Connection ~ 800  9000
Wire Wire Line
	1300 9000 1800 9000
Wire Wire Line
	1650 4450 2850 4450
Wire Wire Line
	5100 7150 5000 7150
Wire Wire Line
	5300 7150 5400 7150
Wire Wire Line
	11400 1250 11600 1250
Connection ~ 11500 1250
Wire Wire Line
	1650 3150 1700 3150
Wire Wire Line
	1700 3150 1700 4450
Connection ~ 1700 4450
Wire Wire Line
	13900 6700 13900 6800
Wire Wire Line
	13900 6800 14100 6800
Wire Wire Line
	14100 6700 14100 6900
Connection ~ 14100 6800
Wire Wire Line
	12600 4900 12600 5000
Wire Wire Line
	12600 5000 12700 5000
Wire Wire Line
	12700 7100 12700 7200
Wire Wire Line
	12700 7200 13400 7200
Wire Wire Line
	13400 7200 13400 6700
Wire Wire Line
	13500 7850 13750 7850
Wire Wire Line
	13750 7850 13750 8050
Connection ~ 13500 7850
Wire Wire Line
	14400 4800 14600 4800
Wire Wire Line
	14600 4800 14600 4900
Wire Wire Line
	12700 5200 12000 5200
Wire Wire Line
	12000 5200 12000 5350
Wire Wire Line
	12700 6700 12700 6800
Wire Wire Line
	12700 6800 13000 6800
Wire Wire Line
	13000 6800 13000 6700
Wire Wire Line
	14400 5600 14900 5600
Wire Wire Line
	14750 5600 14750 5750
Connection ~ 14750 5600
Wire Wire Line
	13300 6700 13300 7400
Wire Wire Line
	12700 7300 13300 7300
Connection ~ 13300 7300
Wire Wire Line
	12600 4600 12600 4700
Wire Wire Line
	14050 7350 14150 7350
Wire Wire Line
	14050 7650 14150 7650
Wire Wire Line
	14450 7350 14600 7350
Wire Wire Line
	14600 7200 14600 7650
Wire Wire Line
	14600 7650 14450 7650
Connection ~ 14600 7350
Wire Wire Line
	13800 6700 13800 7350
Wire Wire Line
	13800 7350 13850 7350
Wire Wire Line
	13700 6700 13700 7650
Wire Wire Line
	13700 7650 13850 7650
Wire Wire Line
	13500 6700 13500 8050
$Comp
L PWR_FLAG #FLG064
U 1 1 5A501747
P 14500 3800
F 0 "#FLG064" H 14500 3875 50  0001 C CNN
F 1 "PWR_FLAG" H 14500 3950 50  0000 C CNN
F 2 "" H 14500 3800 50  0001 C CNN
F 3 "" H 14500 3800 50  0001 C CNN
	1    14500 3800
	1    0    0    -1  
$EndComp
Wire Wire Line
	14400 3800 14600 3800
Connection ~ 14500 3800
Wire Wire Line
	10550 4450 11300 4450
Connection ~ 11300 4450
$Comp
L GNDD #PWR065
U 1 1 5A5119AA
P 8950 5450
F 0 "#PWR065" H 8950 5200 50  0001 C CNN
F 1 "GNDD" H 8950 5325 50  0000 C CNN
F 2 "" H 8950 5450 50  0001 C CNN
F 3 "" H 8950 5450 50  0001 C CNN
	1    8950 5450
	1    0    0    -1  
$EndComp
Wire Wire Line
	8950 5450 8950 4750
Wire Wire Line
	8950 4750 9350 4750
Text Notes 9450 3900 0    60   ~ 0
AD0 pulled to 0V: I2C Addr 0x68\nAD0 pulled to 3V3: I2C Addr 0x69
Text GLabel 10550 4850 2    60   Output ~ 0
0x68_IRQ
Text GLabel 6150 4000 2    60   Input ~ 0
0x68_IRQ
Text GLabel 6150 3900 2    60   Input ~ 0
0x69_IRQ
$EndSCHEMATC
