EESchema Schematic File Version 2
LIBS:power
LIBS:device
LIBS:transistors
LIBS:conn
LIBS:linear
LIBS:regul
LIBS:74xx
LIBS:cmos4000
LIBS:adc-dac
LIBS:memory
LIBS:xilinx
LIBS:microcontrollers
LIBS:dsp
LIBS:microchip
LIBS:analog_switches
LIBS:motorola
LIBS:texas
LIBS:intel
LIBS:audio
LIBS:interface
LIBS:digital-audio
LIBS:philips
LIBS:display
LIBS:cypress
LIBS:siliconi
LIBS:opto
LIBS:atmel
LIBS:contrib
LIBS:valves
LIBS:air
LIBS:air_03E-cache
EELAYER 25 0
EELAYER END
$Descr A3 16535 11693
encoding utf-8
Sheet 1 1
Title ""
Date ""
Rev ""
Comp ""
Comment1 ""
Comment2 ""
Comment3 ""
Comment4 ""
$EndDescr
$Comp
L LED D1
U 1 1 5A3D750E
P 11300 1850
F 0 "D1" H 11300 1950 50  0000 C CNN
F 1 "LEDGREEN" H 11400 1750 50  0000 C CNN
F 2 "LEDs:LED_0603" H 11300 1850 50  0001 C CNN
F 3 "http://optoelectronics.liteon.com/upload/download/DS22-2000-228/LTST-C191KGKT.PDF" H 11300 1850 50  0001 C CNN
F 4 "160-1446-1-ND" H 11300 2050 50  0001 C CNN "digikey"
	1    11300 1850
	-1   0    0    1   
$EndComp
$Comp
L CONN_TO_SSD1306 J3
U 1 1 5A3EDF7E
P 2400 5850
F 0 "J3" H 2200 6650 45  0000 L BNN
F 1 "SPI" H 2000 5700 45  0000 L BNN
F 2 "air:1X08" V 2100 6200 30  0000 C CNN
F 3 "" H 2400 5850 50  0001 C CNN
F 4 "OLED HEADER" H 2400 6800 60  0000 C CNN "Field4"
	1    2400 5850
	1    0    0    1   
$EndComp
$Comp
L MPU9250 U2
U 1 1 5A400063
P 10200 4450
F 0 "U2" H 10200 5000 60  0000 C CNN
F 1 "MPU9250" H 10200 3950 60  0000 C CNN
F 2 "Housings_DFN_QFN:QFN-24-1EP_3x3mm_Pitch0.4mm" H 10200 4900 30  0000 C CNN
F 3 "https://store.invensense.com/datasheets/invensense/MPU9250REV1.0.pdf" H 10350 3950 60  0001 C CNN
F 4 "1428-1019-1-ND" H 10200 5100 50  0001 C CNN "digikey"
	1    10200 4450
	1    0    0    -1  
$EndComp
$Comp
L R_Small R28
U 1 1 5A44A81D
P 12850 1750
F 0 "R28" H 12880 1770 50  0000 L CNN
F 1 "4.3K" H 12880 1710 50  0000 L CNN
F 2 "Resistors_SMD:R_0603" H 12850 1750 50  0001 C CNN
F 3 "http://www.yageo.com/documents/recent/PYu-RC_Group_51_RoHS_L_8.pdf" H 12850 1750 50  0001 C CNN
F 4 "311-4.3KGRCT-ND" H 12850 1750 60  0001 C CNN "digikey"
	1    12850 1750
	0    1    1    0   
$EndComp
$Comp
L C_Small C29
U 1 1 5A44ACCA
P 14650 2050
F 0 "C29" H 14660 2120 50  0000 L CNN
F 1 "10µF" H 14660 1970 50  0000 L CNN
F 2 "Capacitors_SMD:C_0805" H 14650 2050 50  0001 C CNN
F 3 "https://www.murata.com/~/media/webrenewal/support/library/catalog/products/capacitor/mlcc/c02e.ashx?la=en-us" H 14650 2050 50  0001 C CNN
F 4 "490-3340-1-ND" H 14660 2220 50  0001 C CNN "digikey"
	1    14650 2050
	1    0    0    -1  
$EndComp
$Comp
L R_Small R21
U 1 1 5A44E1E7
P 13650 1850
F 0 "R21" H 13680 1870 50  0000 L CNN
F 1 "100K" H 13680 1810 50  0000 L CNN
F 2 "Resistors_SMD:R_0603" H 13650 1850 50  0001 C CNN
F 3 "http://www.yageo.com/documents/recent/PYu-RC_Group_51_RoHS_L_8.pdf" H 13650 1850 50  0001 C CNN
F 4 "311-100KGRCT-ND" H 13680 1970 50  0001 C CNN "digikey"
	1    13650 1850
	-1   0    0    1   
$EndComp
$Comp
L R_Small R22
U 1 1 5A44E40E
P 13650 2250
F 0 "R22" H 13680 2270 50  0000 L CNN
F 1 "100K" H 13680 2210 50  0000 L CNN
F 2 "Resistors_SMD:R_0603" H 13650 2250 50  0001 C CNN
F 3 "http://www.yageo.com/documents/recent/PYu-RC_Group_51_RoHS_L_8.pdf" H 13650 2250 50  0001 C CNN
F 4 "311-100KGRCT-ND" H 13680 2370 50  0001 C CNN "digikey"
	1    13650 2250
	-1   0    0    1   
$EndComp
$Comp
L C_Small C13
U 1 1 5A486B5C
P 2500 4850
F 0 "C13" H 2510 4920 50  0000 L CNN
F 1 "0.1µF" H 2510 4770 50  0000 L CNN
F 2 "Capacitors_SMD:C_0603" H 2500 4850 50  0001 C CNN
F 3 "https://www.murata.com/~/media/webrenewal/support/library/catalog/products/capacitor/mlcc/c02e.ashx?la=en-us" H 2500 4850 50  0001 C CNN
F 4 "490-1532-1-ND" H 2510 5020 50  0001 C CNN "digikey"
	1    2500 4850
	1    0    0    -1  
$EndComp
$Comp
L CP1_Small C14
U 1 1 5A48C21B
P 2750 4850
F 0 "C14" H 2760 4920 50  0000 L CNN
F 1 "100µF" H 2760 4770 50  0000 L CNN
F 2 "Capacitors_SMD:C_1206" H 2750 4850 30  0001 C CNN
F 3 "https://www.murata.com/~/media/webrenewal/support/library/catalog/products/capacitor/mlcc/c02e.ashx?la=en-us" H 2750 4850 50  0001 C CNN
F 4 "490-13982-1-ND" H 2760 5020 50  0001 C CNN "digikey"
	1    2750 4850
	1    0    0    -1  
$EndComp
$Comp
L C_Small C17
U 1 1 5A438393
P 7700 7300
F 0 "C17" H 7710 7370 50  0000 L CNN
F 1 "0.01µF" H 7710 7220 50  0000 L CNN
F 2 "Capacitors_SMD:C_0603" H 7700 7300 50  0001 C CNN
F 3 "https://www.murata.com/~/media/webrenewal/support/library/catalog/products/capacitor/mlcc/c02e.ashx?la=en-us" H 7700 7300 50  0001 C CNN
F 4 "490-1525-1-ND" H 7710 7470 50  0001 C CNN "digikey"
	1    7700 7300
	1    0    0    -1  
$EndComp
$Comp
L C_Small C16
U 1 1 5A438822
P 7450 7300
F 0 "C16" H 7460 7370 50  0000 L CNN
F 1 "0.01µF" H 7460 7220 50  0000 L CNN
F 2 "Capacitors_SMD:C_0603" H 7450 7300 50  0001 C CNN
F 3 "https://www.murata.com/~/media/webrenewal/support/library/catalog/products/capacitor/mlcc/c02e.ashx?la=en-us" H 7450 7300 50  0001 C CNN
F 4 "490-1525-1-ND" H 7460 7470 50  0001 C CNN "digikey"
	1    7450 7300
	-1   0    0    -1  
$EndComp
$Comp
L GNDD #PWR01
U 1 1 5A438F81
P 7700 7450
F 0 "#PWR01" H 7700 7200 50  0001 C CNN
F 1 "GNDD" H 7700 7325 50  0000 C CNN
F 2 "" H 7700 7450 50  0001 C CNN
F 3 "" H 7700 7450 50  0001 C CNN
	1    7700 7450
	1    0    0    -1  
$EndComp
$Comp
L GNDD #PWR02
U 1 1 5A43932C
P 8500 7450
F 0 "#PWR02" H 8500 7200 50  0001 C CNN
F 1 "GNDD" H 8500 7325 50  0000 C CNN
F 2 "" H 8500 7450 50  0001 C CNN
F 3 "" H 8500 7450 50  0001 C CNN
	1    8500 7450
	1    0    0    -1  
$EndComp
$Comp
L +3V3 #PWR03
U 1 1 5A4398CB
P 8100 6500
F 0 "#PWR03" H 8100 6350 50  0001 C CNN
F 1 "+3V3" H 8100 6640 50  0000 C CNN
F 2 "" H 8100 6500 50  0001 C CNN
F 3 "" H 8100 6500 50  0001 C CNN
	1    8100 6500
	1    0    0    -1  
$EndComp
$Comp
L GNDD #PWR04
U 1 1 5A439A0C
P 7450 7450
F 0 "#PWR04" H 7450 7200 50  0001 C CNN
F 1 "GNDD" H 7450 7325 50  0000 C CNN
F 2 "" H 7450 7450 50  0001 C CNN
F 3 "" H 7450 7450 50  0001 C CNN
	1    7450 7450
	1    0    0    -1  
$EndComp
$Comp
L +3V3 #PWR05
U 1 1 5A43BE66
P 9350 6550
F 0 "#PWR05" H 9350 6400 50  0001 C CNN
F 1 "+3V3" H 9350 6690 50  0000 C CNN
F 2 "" H 9350 6550 50  0001 C CNN
F 3 "" H 9350 6550 50  0001 C CNN
	1    9350 6550
	1    0    0    -1  
$EndComp
$Comp
L +3V3 #PWR06
U 1 1 5A448D61
P 8700 1650
F 0 "#PWR06" H 8700 1500 50  0001 C CNN
F 1 "+3V3" H 8700 1790 50  0000 C CNN
F 2 "" H 8700 1650 50  0001 C CNN
F 3 "" H 8700 1650 50  0001 C CNN
	1    8700 1650
	1    0    0    -1  
$EndComp
$Comp
L GNDD #PWR07
U 1 1 5A44DAFB
P 14150 2400
F 0 "#PWR07" H 14150 2150 50  0001 C CNN
F 1 "GNDD" H 14150 2275 50  0000 C CNN
F 2 "" H 14150 2400 50  0001 C CNN
F 3 "" H 14150 2400 50  0001 C CNN
	1    14150 2400
	1    0    0    -1  
$EndComp
$Comp
L GNDD #PWR08
U 1 1 5A44E034
P 13000 2400
F 0 "#PWR08" H 13000 2150 50  0001 C CNN
F 1 "GNDD" H 13000 2275 50  0000 C CNN
F 2 "" H 13000 2400 50  0001 C CNN
F 3 "" H 13000 2400 50  0001 C CNN
	1    13000 2400
	1    0    0    -1  
$EndComp
$Comp
L GNDD #PWR09
U 1 1 5A44E16E
P 14650 2400
F 0 "#PWR09" H 14650 2150 50  0001 C CNN
F 1 "GNDD" H 14650 2275 50  0000 C CNN
F 2 "" H 14650 2400 50  0001 C CNN
F 3 "" H 14650 2400 50  0001 C CNN
	1    14650 2400
	1    0    0    -1  
$EndComp
$Comp
L GNDD #PWR010
U 1 1 5A44FF59
P 13650 2400
F 0 "#PWR010" H 13650 2150 50  0001 C CNN
F 1 "GNDD" H 13650 2275 50  0000 C CNN
F 2 "" H 13650 2400 50  0001 C CNN
F 3 "" H 13650 2400 50  0001 C CNN
	1    13650 2400
	1    0    0    -1  
$EndComp
$Comp
L C_Small C21
U 1 1 5A45813D
P 11350 5000
F 0 "C21" H 11360 5070 50  0000 L CNN
F 1 "0.1µF" H 11360 4920 50  0000 L CNN
F 2 "Capacitors_SMD:C_0603" H 11350 5000 50  0001 C CNN
F 3 "https://www.murata.com/~/media/webrenewal/support/library/catalog/products/capacitor/mlcc/c02e.ashx?la=en-us" H 11350 5000 50  0001 C CNN
F 4 "490-1532-1-ND" H 11360 5170 50  0001 C CNN "digikey"
	1    11350 5000
	1    0    0    -1  
$EndComp
$Comp
L C_Small C20
U 1 1 5A458498
P 11100 5000
F 0 "C20" H 11110 5070 50  0000 L CNN
F 1 "0.1µF" H 11110 4920 50  0000 L CNN
F 2 "Capacitors_SMD:C_0603" H 11100 5000 50  0001 C CNN
F 3 "https://www.murata.com/~/media/webrenewal/support/library/catalog/products/capacitor/mlcc/c02e.ashx?la=en-us" H 11100 5000 50  0001 C CNN
F 4 "490-1532-1-ND" H 11110 5170 50  0001 C CNN "digikey"
	1    11100 5000
	1    0    0    -1  
$EndComp
$Comp
L GNDD #PWR011
U 1 1 5A458A95
P 11350 5250
F 0 "#PWR011" H 11350 5000 50  0001 C CNN
F 1 "GNDD" H 11350 5125 50  0000 C CNN
F 2 "" H 11350 5250 50  0001 C CNN
F 3 "" H 11350 5250 50  0001 C CNN
	1    11350 5250
	1    0    0    -1  
$EndComp
$Comp
L GNDD #PWR012
U 1 1 5A458BCF
P 11100 5250
F 0 "#PWR012" H 11100 5000 50  0001 C CNN
F 1 "GNDD" H 11100 5125 50  0000 C CNN
F 2 "" H 11100 5250 50  0001 C CNN
F 3 "" H 11100 5250 50  0001 C CNN
	1    11100 5250
	1    0    0    -1  
$EndComp
$Comp
L GNDD #PWR013
U 1 1 5A458EA8
P 10850 5250
F 0 "#PWR013" H 10850 5000 50  0001 C CNN
F 1 "GNDD" H 10850 5125 50  0000 C CNN
F 2 "" H 10850 5250 50  0001 C CNN
F 3 "" H 10850 5250 50  0001 C CNN
	1    10850 5250
	1    0    0    -1  
$EndComp
$Comp
L GNDD #PWR014
U 1 1 5A458FE2
P 9550 5250
F 0 "#PWR014" H 9550 5000 50  0001 C CNN
F 1 "GNDD" H 9550 5125 50  0000 C CNN
F 2 "" H 9550 5250 50  0001 C CNN
F 3 "" H 9550 5250 50  0001 C CNN
	1    9550 5250
	1    0    0    -1  
$EndComp
$Comp
L +3V3 #PWR015
U 1 1 5A459181
P 11350 3700
F 0 "#PWR015" H 11350 3550 50  0001 C CNN
F 1 "+3V3" H 11350 3840 50  0000 C CNN
F 2 "" H 11350 3700 50  0001 C CNN
F 3 "" H 11350 3700 50  0001 C CNN
	1    11350 3700
	1    0    0    -1  
$EndComp
$Comp
L R_Small R9
U 1 1 5A459575
P 9550 4000
F 0 "R9" H 9580 4020 50  0000 L CNN
F 1 "10K" H 9580 3960 50  0000 L CNN
F 2 "Resistors_SMD:R_0603" H 9550 4000 50  0001 C CNN
F 3 "http://www.yageo.com/documents/recent/PYu-RC_Group_51_RoHS_L_8.pdf" H 9550 4000 50  0001 C CNN
F 4 "311-10KGRCT-ND" H 9580 4120 50  0001 C CNN "digikey"
	1    9550 4000
	-1   0    0    1   
$EndComp
$Comp
L GNDD #PWR016
U 1 1 5A460F1E
P 2750 5100
F 0 "#PWR016" H 2750 4850 50  0001 C CNN
F 1 "GNDD" H 2750 4975 50  0000 C CNN
F 2 "" H 2750 5100 50  0001 C CNN
F 3 "" H 2750 5100 50  0001 C CNN
	1    2750 5100
	1    0    0    -1  
$EndComp
$Comp
L GNDD #PWR017
U 1 1 5A4612C3
P 2500 5100
F 0 "#PWR017" H 2500 4850 50  0001 C CNN
F 1 "GNDD" H 2500 4975 50  0000 C CNN
F 2 "" H 2500 5100 50  0001 C CNN
F 3 "" H 2500 5100 50  0001 C CNN
	1    2500 5100
	1    0    0    -1  
$EndComp
$Comp
L GNDD #PWR018
U 1 1 5A4613FD
P 2000 5100
F 0 "#PWR018" H 2000 4850 50  0001 C CNN
F 1 "GNDD" H 2000 4975 50  0000 C CNN
F 2 "" H 2000 5100 50  0001 C CNN
F 3 "" H 2000 5100 50  0001 C CNN
	1    2000 5100
	1    0    0    -1  
$EndComp
$Comp
L +3V3 #PWR019
U 1 1 5A461537
P 2950 3750
F 0 "#PWR019" H 2950 3600 50  0001 C CNN
F 1 "+3V3" H 2950 3890 50  0000 C CNN
F 2 "" H 2950 3750 50  0001 C CNN
F 3 "" H 2950 3750 50  0001 C CNN
	1    2950 3750
	1    0    0    -1  
$EndComp
$Comp
L +3V3 #PWR020
U 1 1 5A4657A5
P 7400 900
F 0 "#PWR020" H 7400 750 50  0001 C CNN
F 1 "+3V3" H 7400 1040 50  0000 C CNN
F 2 "" H 7400 900 50  0001 C CNN
F 3 "" H 7400 900 50  0001 C CNN
	1    7400 900 
	1    0    0    -1  
$EndComp
$Comp
L GNDD #PWR021
U 1 1 5A465C01
P 3700 950
F 0 "#PWR021" H 3700 700 50  0001 C CNN
F 1 "GNDD" H 3700 825 50  0000 C CNN
F 2 "" H 3700 950 50  0001 C CNN
F 3 "" H 3700 950 50  0001 C CNN
	1    3700 950 
	1    0    0    -1  
$EndComp
$Comp
L GNDA #PWR022
U 1 1 5A46C62D
P 7150 1600
F 0 "#PWR022" H 7150 1350 50  0001 C CNN
F 1 "GNDA" H 7150 1450 50  0000 C CNN
F 2 "" H 7150 1600 50  0001 C CNN
F 3 "" H 7150 1600 50  0001 C CNN
	1    7150 1600
	1    0    0    -1  
$EndComp
$Comp
L Teensy3.2-RESCUE-air_01 U4
U 1 1 5A44EE8A
P 5400 2800
F 0 "U4" H 5400 5075 60  0000 C CNN
F 1 "Teensy3.2" H 5400 4975 60  0000 C CNN
F 2 "air:Teensy32_minimal" H 5400 4850 30  0000 C CNN
F 3 "" H 5400 2500 60  0000 C CNN
	1    5400 2800
	1    0    0    -1  
$EndComp
$Comp
L MCP73831_AIR U6
U 1 1 5A4518AF
P 12250 1750
F 0 "U6" H 12250 2075 45  0000 C CNN
F 1 "MCP73831_AIR" H 12250 2000 45  0000 C CNN
F 2 "TO_SOT_Packages_SMD:SOT-23-5" H 12250 1500 30  0000 C CNN
F 3 "http://ww1.microchip.com/downloads/en/DeviceDoc/20001984g.pdf" H 11950 2000 60  0001 C CNN
F 4 "MCP73831T-2ATI/OTCT-ND" H 12250 2175 50  0001 C CNN "digikey"
	1    12250 1750
	1    0    0    -1  
$EndComp
$Comp
L LIPO_JST_PH-S2B-SM4 J6
U 1 1 5A4540A1
P 14300 1650
F 0 "J6" H 14100 1850 45  0000 L BNN
F 1 "LIPO_JST_PH-S2B-SM4" H 14100 1500 45  0000 L BNN
F 2 "Connectors_JST:JST_PH_S2B-PH-SM4-TB_02x2.00mm_Angled" H 14300 1950 30  0001 C CNN
F 3 "http://www.jst-mfg.com/product/pdf/eng/ePH.pdf" H 14100 1850 50  0001 C CNN
F 4 "455-1749-1-ND" H 14100 1950 50  0001 C CNN "digikey"
	1    14300 1650
	-1   0    0    1   
$EndComp
$Comp
L LED D3
U 1 1 5A48528F
P 11300 2100
F 0 "D3" H 11300 2200 50  0000 C CNN
F 1 "LEDRED" H 11350 2000 50  0000 C CNN
F 2 "LEDs:LED_0603" H 11300 2100 50  0001 C CNN
F 3 "http://optoelectronics.liteon.com/upload/download/DS-22-99-0151/LTST-C190KRKT.pdf" H 11300 2100 50  0001 C CNN
F 4 "160-1436-1-ND" H 11300 2300 50  0001 C CNN "digikey"
	1    11300 2100
	1    0    0    -1  
$EndComp
$Comp
L GNDD #PWR023
U 1 1 5A485383
P 11050 2400
F 0 "#PWR023" H 11050 2150 50  0001 C CNN
F 1 "GNDD" H 11050 2275 50  0000 C CNN
F 2 "" H 11050 2400 50  0001 C CNN
F 3 "" H 11050 2400 50  0001 C CNN
	1    11050 2400
	1    0    0    -1  
$EndComp
$Comp
L SK6812RGBW_NEOPIXEL U1
U 1 1 5A488D28
P 4550 5400
F 0 "U1" H 4550 5800 60  0000 C CNN
F 1 "SK6812RGBW_NEOPIXEL" H 4550 5700 60  0000 C CNN
F 2 "air:LED_WS2812B-PLCC4" H 4550 5100 30  0000 C CNN
F 3 "https://cdn-shop.adafruit.com/product-files/2757/p2757_SK6812RGBW_REV01.pdf" H 4300 5500 60  0001 C CNN
F 4 "1528-2386-ND" H 4550 5900 50  0001 C CNN "digikey"
	1    4550 5400
	-1   0    0    -1  
$EndComp
$Comp
L +3V3 #PWR024
U 1 1 5A48934A
P 5400 5150
F 0 "#PWR024" H 5400 5000 50  0001 C CNN
F 1 "+3V3" H 5400 5290 50  0000 C CNN
F 2 "" H 5400 5150 50  0001 C CNN
F 3 "" H 5400 5150 50  0001 C CNN
	1    5400 5150
	1    0    0    -1  
$EndComp
$Comp
L C_Small C1
U 1 1 5A489433
P 5400 5750
F 0 "C1" H 5410 5820 50  0000 L CNN
F 1 "1µF" H 5410 5670 50  0000 L CNN
F 2 "Capacitors_SMD:C_0603" H 5400 5750 50  0001 C CNN
F 3 "https://www.murata.com/~/media/webrenewal/support/library/catalog/products/capacitor/mlcc/c02e.ashx?la=en-us" H 5400 5750 50  0001 C CNN
F 4 "490-1543-1-ND" H 5410 5920 50  0001 C CNN "digikey"
	1    5400 5750
	1    0    0    -1  
$EndComp
$Comp
L GNDD #PWR025
U 1 1 5A489D01
P 5400 5950
F 0 "#PWR025" H 5400 5700 50  0001 C CNN
F 1 "GNDD" H 5400 5825 50  0000 C CNN
F 2 "" H 5400 5950 50  0001 C CNN
F 3 "" H 5400 5950 50  0001 C CNN
	1    5400 5950
	1    0    0    -1  
$EndComp
$Comp
L GNDD #PWR026
U 1 1 5A48A9D8
P 5200 5950
F 0 "#PWR026" H 5200 5700 50  0001 C CNN
F 1 "GNDD" H 5200 5825 50  0000 C CNN
F 2 "" H 5200 5950 50  0001 C CNN
F 3 "" H 5200 5950 50  0001 C CNN
	1    5200 5950
	1    0    0    -1  
$EndComp
$Comp
L SK6812RGBW_NEOPIXEL U7
U 1 1 5A48C65B
P 6650 5400
F 0 "U7" H 6650 5800 60  0000 C CNN
F 1 "SK6812RGBW_NEOPIXEL" H 6650 5700 60  0000 C CNN
F 2 "air:LED_WS2812B-PLCC4" H 6650 5100 30  0000 C CNN
F 3 "https://cdn-shop.adafruit.com/product-files/2757/p2757_SK6812RGBW_REV01.pdf" H 6400 5500 60  0001 C CNN
F 4 "1528-2386-ND" H 6650 5900 50  0001 C CNN "digikey"
	1    6650 5400
	-1   0    0    -1  
$EndComp
$Comp
L +3V3 #PWR027
U 1 1 5A48C661
P 7500 5150
F 0 "#PWR027" H 7500 5000 50  0001 C CNN
F 1 "+3V3" H 7500 5290 50  0000 C CNN
F 2 "" H 7500 5150 50  0001 C CNN
F 3 "" H 7500 5150 50  0001 C CNN
	1    7500 5150
	1    0    0    -1  
$EndComp
$Comp
L C_Small C5
U 1 1 5A48C667
P 7500 5750
F 0 "C5" H 7510 5820 50  0000 L CNN
F 1 "1µF" H 7510 5670 50  0000 L CNN
F 2 "Capacitors_SMD:C_0603" H 7500 5750 50  0001 C CNN
F 3 "https://www.murata.com/~/media/webrenewal/support/library/catalog/products/capacitor/mlcc/c02e.ashx?la=en-us" H 7500 5750 50  0001 C CNN
F 4 "490-1543-1-ND" H 7510 5920 50  0001 C CNN "digikey"
	1    7500 5750
	1    0    0    -1  
$EndComp
$Comp
L GNDD #PWR028
U 1 1 5A48C670
P 7500 5950
F 0 "#PWR028" H 7500 5700 50  0001 C CNN
F 1 "GNDD" H 7500 5825 50  0000 C CNN
F 2 "" H 7500 5950 50  0001 C CNN
F 3 "" H 7500 5950 50  0001 C CNN
	1    7500 5950
	1    0    0    -1  
$EndComp
$Comp
L GNDD #PWR029
U 1 1 5A48C679
P 7300 5950
F 0 "#PWR029" H 7300 5700 50  0001 C CNN
F 1 "GNDD" H 7300 5825 50  0000 C CNN
F 2 "" H 7300 5950 50  0001 C CNN
F 3 "" H 7300 5950 50  0001 C CNN
	1    7300 5950
	1    0    0    -1  
$EndComp
$Comp
L VBUS #PWR030
U 1 1 5A490E7E
P 11050 1200
F 0 "#PWR030" H 11050 1050 50  0001 C CNN
F 1 "VBUS" H 11050 1350 50  0000 C CNN
F 2 "" H 11050 1200 50  0001 C CNN
F 3 "" H 11050 1200 50  0001 C CNN
	1    11050 1200
	1    0    0    -1  
$EndComp
$Comp
L VBUS #PWR031
U 1 1 5A492414
P 7150 900
F 0 "#PWR031" H 7150 750 50  0001 C CNN
F 1 "VBUS" H 7150 1050 50  0000 C CNN
F 2 "" H 7150 900 50  0001 C CNN
F 3 "" H 7150 900 50  0001 C CNN
	1    7150 900 
	1    0    0    -1  
$EndComp
$Comp
L GS2 J10
U 1 1 5A4CCD26
P 5550 4700
F 0 "J10" V 5350 4700 50  0000 C CNN
F 1 "GS2" V 5450 4700 50  0000 C CNN
F 2 "Connectors:GS2" V 5624 4700 30  0000 C CNN
F 3 "" H 5550 4700 50  0001 C CNN
	1    5550 4700
	0    1    1    0   
$EndComp
$Comp
L GS2 J11
U 1 1 5A4CF29D
P 6450 4700
F 0 "J11" V 6250 4700 50  0000 C CNN
F 1 "GS2" V 6350 4700 50  0000 C CNN
F 2 "Connectors:GS2" V 6524 4700 30  0000 C CNN
F 3 "" H 6450 4700 50  0001 C CNN
	1    6450 4700
	0    1    1    0   
$EndComp
$Comp
L R_Small R18
U 1 1 5A48459D
P 9200 2200
F 0 "R18" H 9230 2220 50  0000 L CNN
F 1 "10K" H 9230 2160 50  0000 L CNN
F 2 "Resistors_SMD:R_0603" H 9200 2200 50  0001 C CNN
F 3 "http://www.yageo.com/documents/recent/PYu-RC_Group_51_RoHS_L_8.pdf" H 9200 2200 39  0001 C CNN
F 4 "311-10KGRCT-ND" H 9200 2200 39  0001 C CNN "digikey"
	1    9200 2200
	-1   0    0    1   
$EndComp
$Comp
L R_Small R20
U 1 1 5A4846AA
P 9450 2200
F 0 "R20" H 9480 2220 50  0000 L CNN
F 1 "10K" H 9480 2160 50  0000 L CNN
F 2 "Resistors_SMD:R_0603" H 9450 2200 50  0001 C CNN
F 3 "http://www.yageo.com/documents/recent/PYu-RC_Group_51_RoHS_L_8.pdf" H 9450 2200 39  0001 C CNN
F 4 "311-10KGRCT-ND" H 9450 2200 39  0001 C CNN "digikey"
	1    9450 2200
	-1   0    0    1   
$EndComp
$Comp
L R_Small R13
U 1 1 5A486221
P 10850 5000
F 0 "R13" H 10880 5020 50  0000 L CNN
F 1 "10K" H 10880 4960 50  0000 L CNN
F 2 "Resistors_SMD:R_0603" H 10850 5000 50  0001 C CNN
F 3 "http://www.yageo.com/documents/recent/PYu-RC_Group_51_RoHS_L_8.pdf" H 10850 5000 39  0001 C CNN
F 4 "311-10KGRCT-ND" H 10850 5000 39  0001 C CNN "digikey"
	1    10850 5000
	-1   0    0    1   
$EndComp
$Comp
L R_Small R1
U 1 1 5A48752F
P 11650 2100
F 0 "R1" H 11680 2130 39  0000 L CNN
F 1 "1K" H 11680 2060 39  0000 L CNN
F 2 "Resistors_SMD:R_0603" H 11650 2100 39  0001 C CNN
F 3 "http://www.yageo.com/documents/recent/PYu-RC_Group_51_RoHS_L_8.pdf" H 11650 2100 39  0001 C CNN
F 4 "311-1.0KGRCT-ND" H 11650 2100 39  0001 C CNN "digikey"
	1    11650 2100
	0    -1   -1   0   
$EndComp
$Comp
L R_Small R23
U 1 1 5A487B49
P 11650 1850
F 0 "R23" H 11680 1880 39  0000 L CNN
F 1 "1K" H 11680 1810 39  0000 L CNN
F 2 "Resistors_SMD:R_0603" H 11650 1850 39  0001 C CNN
F 3 "http://www.yageo.com/documents/recent/PYu-RC_Group_51_RoHS_L_8.pdf" H 11650 1850 39  0001 C CNN
F 4 "311-1.0KGRCT-ND" H 11650 1850 39  0001 C CNN "digikey"
	1    11650 1850
	0    -1   -1   0   
$EndComp
$Comp
L R_Small R5
U 1 1 5A489C27
P 7900 6700
F 0 "R5" H 7930 6720 50  0000 L CNN
F 1 "10K" H 7930 6660 50  0000 L CNN
F 2 "Resistors_SMD:R_0603" H 7900 6700 50  0001 C CNN
F 3 "http://www.yageo.com/documents/recent/PYu-RC_Group_51_RoHS_L_8.pdf" H 7900 6700 39  0001 C CNN
F 4 "311-10KGRCT-ND" H 7900 6700 39  0001 C CNN "digikey"
	1    7900 6700
	0    -1   -1   0   
$EndComp
$Comp
L R_Small R7
U 1 1 5A489D78
P 8300 6700
F 0 "R7" H 8330 6720 50  0000 L CNN
F 1 "10K" H 8330 6660 50  0000 L CNN
F 2 "Resistors_SMD:R_0603" H 8300 6700 50  0001 C CNN
F 3 "http://www.yageo.com/documents/recent/PYu-RC_Group_51_RoHS_L_8.pdf" H 8300 6700 39  0001 C CNN
F 4 "311-10KGRCT-ND" H 8300 6700 39  0001 C CNN "digikey"
	1    8300 6700
	0    -1   -1   0   
$EndComp
$Comp
L R_Small R8
U 1 1 5A489E8B
P 8300 7100
F 0 "R8" H 8330 7120 50  0000 L CNN
F 1 "10K" H 8330 7060 50  0000 L CNN
F 2 "Resistors_SMD:R_0603" H 8300 7100 50  0001 C CNN
F 3 "http://www.yageo.com/documents/recent/PYu-RC_Group_51_RoHS_L_8.pdf" H 8300 7100 39  0001 C CNN
F 4 "311-10KGRCT-ND" H 8300 7100 39  0001 C CNN "digikey"
	1    8300 7100
	0    -1   -1   0   
$EndComp
$Comp
L R_Small R6
U 1 1 5A489FA7
P 7900 7100
F 0 "R6" H 7930 7120 50  0000 L CNN
F 1 "10K" H 7930 7060 50  0000 L CNN
F 2 "Resistors_SMD:R_0603" H 7900 7100 50  0001 C CNN
F 3 "http://www.yageo.com/documents/recent/PYu-RC_Group_51_RoHS_L_8.pdf" H 7900 7100 39  0001 C CNN
F 4 "311-10KGRCT-ND" H 7900 7100 39  0001 C CNN "digikey"
	1    7900 7100
	0    -1   -1   0   
$EndComp
$Comp
L GNDD #PWR032
U 1 1 5A490B65
P 9300 7450
F 0 "#PWR032" H 9300 7200 50  0001 C CNN
F 1 "GNDD" H 9300 7325 50  0000 C CNN
F 2 "" H 9300 7450 50  0001 C CNN
F 3 "" H 9300 7450 50  0001 C CNN
	1    9300 7450
	1    0    0    -1  
$EndComp
$Comp
L R_Small R26
U 1 1 5A49140B
P 9300 7300
F 0 "R26" H 9330 7320 50  0000 L CNN
F 1 "10K" H 9330 7260 50  0000 L CNN
F 2 "Resistors_SMD:R_0603" H 9300 7300 50  0001 C CNN
F 3 "http://www.yageo.com/documents/recent/PYu-RC_Group_51_RoHS_L_8.pdf" H 9300 7300 39  0001 C CNN
F 4 "311-10KGRCT-ND" H 9300 7300 39  0001 C CNN "digikey"
	1    9300 7300
	-1   0    0    1   
$EndComp
Text GLabel 4400 900  0    60   Input ~ 0
TeensyRX1
Text GLabel 4400 1000 0    60   Output ~ 0
TeensyTX1
Text GLabel 4400 1100 0    60   Input ~ 0
ENCSW
Text GLabel 4400 1500 0    60   Output ~ 0
NEODATA
Text GLabel 9450 4250 0    60   BiDi ~ 0
SCL0
Text GLabel 9450 4150 0    60   BiDi ~ 0
SDA0
Text GLabel 4400 2000 0    60   Output ~ 0
SPI_MOSI
Text GLabel 6400 2500 2    60   Output ~ 0
SPI_SCK
Text GLabel 4400 1900 0    60   Output ~ 0
SPI_CS_OLED
Text GLabel 2500 5950 2    60   Input ~ 0
SPI_SCK
Text GLabel 2500 5850 2    60   Input ~ 0
SPI_MOSI
Text GLabel 2500 6150 2    60   Input ~ 0
SPI_RST
Text GLabel 2500 6250 2    60   Input ~ 0
SPI_CS_OLED
Text GLabel 4400 1800 0    60   Output ~ 0
SPI_DC
Text GLabel 2500 6050 2    60   Input ~ 0
SPI_DC
Text GLabel 6400 2400 2    60   Output ~ 0
SPI_RST
Text GLabel 9450 7100 2    60   Output ~ 0
ENCSW
Text GLabel 4400 1600 0    60   Input ~ 0
ENCA
Text GLabel 4400 1700 0    60   Input ~ 0
ENCB
Text GLabel 7200 7100 0    60   Output ~ 0
ENCB
Text GLabel 7200 6700 0    60   Output ~ 0
ENCA
Text GLabel 6400 2100 2    60   BiDi ~ 0
SDA0
Text GLabel 6400 2000 2    60   BiDi ~ 0
SCL0
Text GLabel 6400 2200 2    60   Input ~ 0
SW1
Text GLabel 13500 2050 0    60   Output ~ 0
VSENSE
Text GLabel 6400 800  2    60   Input ~ 0
VSENSE
Text Notes 13150 1200 2    60   ~ 0
BATTERY CHARGING
Text Notes 1350 6450 2    121  ~ 0
I/O
Text GLabel 9600 2550 2    60   UnSpc ~ 0
SCL0
Text GLabel 9600 2400 2    60   UnSpc ~ 0
SDA0
Text Notes 9900 700  2    60   ~ 0
PULLUP & INPUT DEBOUNCE
Text GLabel 6400 1700 2    60   Input ~ 0
MINSW0
Text Notes 2600 5550 2    60   ~ 0
OLED 128x64
Text GLabel 3100 4050 2    60   Output ~ 0
SW1
Text GLabel 3100 4150 2    60   Output ~ 0
SW0
Text GLabel 3100 4450 2    60   Input ~ 0
NEODATA_2
Text GLabel 3100 4550 2    60   BiDi ~ 0
SDA1
Text GLabel 3100 4650 2    60   BiDi ~ 0
SCL1
Text Notes 5700 7550 2    60   ~ 0
VIBRATION MOTOR DRIVER
Text GLabel 3100 3950 2    60   Output ~ 0
SW2
Text Notes 9150 6200 2    60   ~ 0
ENCODER FILTER
Text Notes 10350 3500 2    60   ~ 0
ONBOARD IMU
Text Notes 13150 1550 2    41   ~ 0
2.2K = 450mA
Text Notes 13150 1450 2    41   ~ 0
4.3K = 200mA
Text Notes 13150 1350 2    41   ~ 0
6.7K = 100mA
Text GLabel 4400 1300 0    60   Input ~ 0
HF_EN
Text GLabel 6400 1900 2    60   Input ~ 0
SW2
Text GLabel 5650 5550 2    60   Input ~ 0
NEODATA_0
Text GLabel 5650 5350 2    60   Output ~ 0
NEODATA_1
Text GLabel 7600 5550 2    60   Input ~ 0
NEODATA_1
Text GLabel 7600 5350 2    60   Output ~ 0
NEODATA_2
Text GLabel 4400 1200 0    60   Input ~ 0
HF_RST
Text GLabel 4400 1400 0    60   Input ~ 0
GPIO0
Text GLabel 6800 4700 2    60   Output ~ 0
NEODATA_2
Text GLabel 5250 4700 0    60   Input ~ 0
NEODATA_0
Text GLabel 5250 4550 0    60   Input ~ 0
NEODATA_1
NoConn ~ 2500 6350
NoConn ~ 9600 4650
NoConn ~ 6400 2600
NoConn ~ 4400 2500
NoConn ~ 4400 2400
NoConn ~ 4400 2300
NoConn ~ 4400 2600
NoConn ~ 6400 1000
NoConn ~ 6400 900 
NoConn ~ 10800 4550
NoConn ~ 10800 4150
NoConn ~ 9600 4450
NoConn ~ 6400 3200
NoConn ~ 4400 3200
NoConn ~ 6400 3300
NoConn ~ 4400 3300
NoConn ~ 4400 2900
$Comp
L ENC_SW S1
U 1 1 5A4C1195
P 8850 6900
F 0 "S1" H 8850 7350 45  0000 C CNN
F 1 "ENC_SW" H 8850 7275 45  0000 C CNN
F 2 "air:ENC_EVEU" H 8850 6550 20  0000 C CNN
F 3 "" H 8825 7350 50  0001 C CNN
	1    8850 6900
	1    0    0    -1  
$EndComp
Text GLabel 6400 2300 2    60   Input ~ 0
SW0
$Comp
L Conn_01x01 J1
U 1 1 5A4CC8BD
P 2150 7250
F 0 "J1" H 2150 7450 50  0001 C CNN
F 1 "GPIO" H 2150 7050 50  0000 C CNN
F 2 "Connectors_Sparkfun:1X01_NO_SILK" H 2150 7250 50  0001 C CNN
F 3 "" H 2150 7250 50  0001 C CNN
	1    2150 7250
	-1   0    0    1   
$EndComp
Text GLabel 2350 7250 2    60   BiDi ~ 0
GPIO0
$Comp
L GNDD #PWR033
U 1 1 5A4D2716
P 11250 7600
F 0 "#PWR033" H 11250 7350 50  0001 C CNN
F 1 "GNDD" H 11250 7475 50  0000 C CNN
F 2 "" H 11250 7600 50  0001 C CNN
F 3 "" H 11250 7600 50  0001 C CNN
	1    11250 7600
	1    0    0    -1  
$EndComp
$Comp
L SW_SPST_SMD S2
U 1 1 5A4D2FB9
P 10950 6550
F 0 "S2" H 10750 6600 45  0000 L BNN
F 1 "SW_SPST_SMD" H 10750 6350 45  0000 L BNN
F 2 "air:SW_SPST_EVQQ2" H 10950 6800 20  0001 C CNN
F 3 "" H 10950 6550 50  0001 C CNN
	1    10950 6550
	1    0    0    -1  
$EndComp
$Comp
L R_Small R2
U 1 1 5A4D3527
P 11250 6900
F 0 "R2" H 11280 6920 50  0000 L CNN
F 1 "10K" H 11280 6860 50  0000 L CNN
F 2 "Resistors_SMD:R_0603" H 11250 6900 50  0001 C CNN
F 3 "http://www.yageo.com/documents/recent/PYu-RC_Group_51_RoHS_L_8.pdf" H 11250 6900 39  0001 C CNN
F 4 "311-10KGRCT-ND" H 11250 6900 39  0001 C CNN "digikey"
	1    11250 6900
	-1   0    0    1   
$EndComp
Text GLabel 11450 6550 2    60   Output ~ 0
MINSW1
$Comp
L +3V3 #PWR034
U 1 1 5A4D45DC
P 10650 6350
F 0 "#PWR034" H 10650 6200 50  0001 C CNN
F 1 "+3V3" H 10650 6490 50  0000 C CNN
F 2 "" H 10650 6350 50  0001 C CNN
F 3 "" H 10650 6350 50  0001 C CNN
	1    10650 6350
	1    0    0    -1  
$EndComp
NoConn ~ 6400 3600
NoConn ~ 6400 3500
NoConn ~ 6400 3400
NoConn ~ 4400 3600
NoConn ~ 4400 3500
NoConn ~ 4400 3400
$Comp
L +3V3 #PWR035
U 1 1 5A4DDCC3
P 3250 5700
F 0 "#PWR035" H 3250 5550 50  0001 C CNN
F 1 "+3V3" H 3250 5840 50  0000 C CNN
F 2 "" H 3250 5700 50  0001 C CNN
F 3 "" H 3250 5700 50  0001 C CNN
	1    3250 5700
	1    0    0    -1  
$EndComp
$Comp
L R_Small R3
U 1 1 5A4ECB81
P 5000 6400
F 0 "R3" H 5030 6420 50  0000 L CNN
F 1 "470" H 5030 6360 50  0000 L CNN
F 2 "Resistors_SMD:R_0805" H 5000 6400 50  0001 C CNN
F 3 "http://www.yageo.com/documents/recent/PYu-RC_Group_51_RoHS_L_8.pdf" H 5000 6400 50  0001 C CNN
F 4 "311-470ARCT-ND" H 5030 6520 50  0001 C CNN "digikey"
	1    5000 6400
	0    1    -1   0   
$EndComp
$Comp
L GNDD #PWR036
U 1 1 5A4F4794
P 2950 6600
F 0 "#PWR036" H 2950 6350 50  0001 C CNN
F 1 "GNDD" H 2950 6475 50  0000 C CNN
F 2 "" H 2950 6600 50  0001 C CNN
F 3 "" H 2950 6600 50  0001 C CNN
	1    2950 6600
	1    0    0    -1  
$EndComp
NoConn ~ 4400 2700
Text GLabel 5300 6400 2    60   Output ~ 0
NEODATA_0
Text GLabel 4750 6400 0    60   Input ~ 0
NEODATA
$Comp
L Conn_01x10 J5
U 1 1 5A4C7E7F
P 1700 3050
F 0 "J5" H 1700 3550 50  0000 C CNN
F 1 "AIR" H 1700 2450 50  0000 C CNN
F 2 "air:2X5_NO_SILK" V 1800 3000 30  0000 C CNN
F 3 "" H 1700 3050 50  0001 C CNN
	1    1700 3050
	-1   0    0    1   
$EndComp
$Comp
L SW_SPST_SMD S3
U 1 1 5A4D3FB4
P 10650 7000
F 0 "S3" H 10450 7050 45  0000 L BNN
F 1 "SW_SPST_SMD" H 10450 6800 45  0000 L BNN
F 2 "air:SW_SPST_EVQQ2" H 10650 7250 20  0001 C CNN
F 3 "" H 10650 7000 50  0001 C CNN
	1    10650 7000
	1    0    0    -1  
$EndComp
$Comp
L GNDD #PWR037
U 1 1 5A4D4418
P 10950 7600
F 0 "#PWR037" H 10950 7350 50  0001 C CNN
F 1 "GNDD" H 10950 7475 50  0000 C CNN
F 2 "" H 10950 7600 50  0001 C CNN
F 3 "" H 10950 7600 50  0001 C CNN
	1    10950 7600
	1    0    0    -1  
$EndComp
$Comp
L R_Small R10
U 1 1 5A4D4694
P 10950 7300
F 0 "R10" H 10980 7320 50  0000 L CNN
F 1 "10K" H 10980 7260 50  0000 L CNN
F 2 "Resistors_SMD:R_0603" H 10950 7300 50  0001 C CNN
F 3 "http://www.yageo.com/documents/recent/PYu-RC_Group_51_RoHS_L_8.pdf" H 10950 7300 39  0001 C CNN
F 4 "311-10KGRCT-ND" H 10950 7300 39  0001 C CNN "digikey"
	1    10950 7300
	-1   0    0    1   
$EndComp
Text GLabel 11450 7000 2    60   Output ~ 0
MINSW0
$Comp
L SWITCH-SPDT S5
U 1 1 5A4D1760
P 14850 1300
F 0 "S5" H 14850 1425 45  0000 C CNN
F 1 "SWITCH-SPDT" H 15000 1100 45  0000 C CNN
F 2 "air:SW_SPDT_PCM12SMTR" H 14900 1050 30  0001 C CNN
F 3 "" H 14750 1450 50  0001 C CNN
	1    14850 1300
	1    0    0    -1  
$EndComp
NoConn ~ 15050 1400
$Comp
L ER-OLED013-1 U3
U 1 1 5A4DCCE9
P 2150 9200
F 0 "U3" H 1625 10700 60  0000 C CNN
F 1 "ER-OLED013-1" H 1875 7500 60  0000 C CNN
F 2 "air:conn_FPC_molex_30x0.5mm_ER-CON30HT-1" V 1450 9200 60  0000 C CNN
F 3 "" H 2150 10400 60  0001 C CNN
	1    2150 9200
	-1   0    0    -1  
$EndComp
$Comp
L GNDD #PWR038
U 1 1 5A4DDCEF
P 1050 10800
F 0 "#PWR038" H 1050 10550 50  0001 C CNN
F 1 "GNDD" H 1050 10675 50  0000 C CNN
F 2 "" H 1050 10800 50  0001 C CNN
F 3 "" H 1050 10800 50  0001 C CNN
	1    1050 10800
	1    0    0    -1  
$EndComp
$Comp
L R_Small R12
U 1 1 5A4DEA3C
P 1750 10300
F 0 "R12" H 1780 10320 50  0000 L CNN
F 1 "390K" H 1780 10260 50  0000 L CNN
F 2 "Resistors_SMD:R_0603" H 1750 10300 50  0001 C CNN
F 3 "http://www.yageo.com/documents/recent/PYu-RC_Group_51_RoHS_L_8.pdf" H 1750 10300 39  0001 C CNN
F 4 "311-10KGRCT-ND" H 1750 10300 39  0001 C CNN "digikey"
	1    1750 10300
	0    1    -1   0   
$EndComp
Text GLabel 1950 9500 0    60   Input ~ 0
SPI_SCK
Text GLabel 1950 9600 0    60   Input ~ 0
SPI_MOSI
Text GLabel 1950 9200 0    60   Input ~ 0
SPI_DC
Text GLabel 1950 9100 0    60   Input ~ 0
SPI_RST
Text GLabel 1950 9000 0    60   Input ~ 0
SPI_CS_OLED
$Comp
L R_Small R11
U 1 1 5A4E0561
P 1450 8800
F 0 "R11" H 1480 8820 50  0000 L CNN
F 1 "10K" H 1480 8760 50  0000 L CNN
F 2 "Resistors_SMD:R_0603" H 1450 8800 50  0001 C CNN
F 3 "http://www.yageo.com/documents/recent/PYu-RC_Group_51_RoHS_L_8.pdf" H 1450 8800 39  0001 C CNN
F 4 "311-10KGRCT-ND" H 1450 8800 39  0001 C CNN "digikey"
	1    1450 8800
	0    1    1    0   
$EndComp
$Comp
L C_Small C7
U 1 1 5A4E0D40
P 1750 8100
F 0 "C7" H 1760 8170 50  0000 L CNN
F 1 "2.2µF" H 1760 8020 50  0000 L CNN
F 2 "Capacitors_SMD:C_0603" H 1750 8100 50  0001 C CNN
F 3 "http://search.murata.co.jp/Ceramy/image/img/A01X/G101/ENG/GRM188R61C225KE15-01.pdf" H 1750 8100 50  0001 C CNN
F 4 "490-3296-1-ND " H 1750 8100 60  0001 C CNN "digikey"
	1    1750 8100
	0    1    1    0   
$EndComp
$Comp
L +3V3 #PWR039
U 1 1 5A4E2994
P 1950 7700
F 0 "#PWR039" H 1950 7550 50  0001 C CNN
F 1 "+3V3" H 1950 7840 50  0000 C CNN
F 2 "" H 1950 7700 50  0001 C CNN
F 3 "" H 1950 7700 50  0001 C CNN
	1    1950 7700
	1    0    0    -1  
$EndComp
NoConn ~ 2050 9400
NoConn ~ 2050 9300
NoConn ~ 2050 10200
NoConn ~ 2050 10100
NoConn ~ 2050 10000
NoConn ~ 2050 9900
NoConn ~ 2050 9800
NoConn ~ 2050 9700
NoConn ~ 2050 8400
$Comp
L Conn_01x10 J2
U 1 1 5A4834A2
P 1700 4350
F 0 "J2" H 1700 4850 50  0000 C CNN
F 1 "RCPT-MQ212-10" H 1700 3750 50  0000 C CNN
F 2 "air:conn_IDC_header_angle_THT_2x10_1.27mm" V 1800 4300 30  0000 C CNN
F 3 "" H 1700 4350 50  0001 C CNN
	1    1700 4350
	-1   0    0    1   
$EndComp
$Comp
L C_Small C3
U 1 1 5A4F1323
P 1500 7900
F 0 "C3" H 1510 7970 50  0000 L CNN
F 1 "2.2µF" H 1510 7820 50  0000 L CNN
F 2 "Capacitors_SMD:C_0603" H 1500 7900 50  0001 C CNN
F 3 "http://search.murata.co.jp/Ceramy/image/img/A01X/G101/ENG/GRM188R61C225KE15-01.pdf" H 1500 7900 50  0001 C CNN
F 4 "490-3296-1-ND " H 1500 7900 60  0001 C CNN "digikey"
	1    1500 7900
	0    1    1    0   
$EndComp
$Comp
L C_Small C4
U 1 1 5A4F140C
P 1500 8300
F 0 "C4" H 1510 8370 50  0000 L CNN
F 1 "2.2µF" H 1510 8220 50  0000 L CNN
F 2 "Capacitors_SMD:C_0603" H 1500 8300 50  0001 C CNN
F 3 "http://search.murata.co.jp/Ceramy/image/img/A01X/G101/ENG/GRM188R61C225KE15-01.pdf" H 1500 8300 50  0001 C CNN
F 4 "490-3296-1-ND " H 1500 8300 60  0001 C CNN "digikey"
	1    1500 8300
	0    1    1    0   
$EndComp
$Comp
L C_Small C8
U 1 1 5A4F153E
P 1750 8600
F 0 "C8" H 1760 8670 50  0000 L CNN
F 1 "2.2µF" H 1760 8520 50  0000 L CNN
F 2 "Capacitors_SMD:C_0603" H 1750 8600 50  0001 C CNN
F 3 "http://search.murata.co.jp/Ceramy/image/img/A01X/G101/ENG/GRM188R61C225KE15-01.pdf" H 1750 8600 50  0001 C CNN
F 4 "490-3296-1-ND " H 1750 8600 60  0001 C CNN "digikey"
	1    1750 8600
	0    1    1    0   
$EndComp
$Comp
L C_Small C6
U 1 1 5A4F1675
P 1500 10400
F 0 "C6" H 1510 10470 50  0000 L CNN
F 1 "2.2µF" H 1510 10320 50  0000 L CNN
F 2 "Capacitors_SMD:C_0603" H 1500 10400 50  0001 C CNN
F 3 "http://search.murata.co.jp/Ceramy/image/img/A01X/G101/ENG/GRM188R61C225KE15-01.pdf" H 1500 10400 50  0001 C CNN
F 4 "490-3296-1-ND " H 1500 10400 60  0001 C CNN "digikey"
	1    1500 10400
	0    1    1    0   
$EndComp
$Comp
L C_Small C9
U 1 1 5A4F177E
P 1800 10500
F 0 "C9" H 1810 10570 50  0000 L CNN
F 1 "10µF" H 1810 10420 50  0000 L CNN
F 2 "Capacitors_SMD:C_0805" H 1800 10500 50  0001 C CNN
F 3 "http://search.murata.co.jp/Ceramy/image/img/A01X/G101/ENG/GRM188R61C225KE15-01.pdf" H 1800 10500 50  0001 C CNN
F 4 "490-3296-1-ND " H 1800 10500 60  0001 C CNN "digikey"
	1    1800 10500
	0    1    1    0   
$EndComp
$Comp
L D_Schottky D6
U 1 1 5A4F879B
P 14400 1300
F 0 "D6" H 14400 1400 50  0000 C CNN
F 1 "MBR120" H 14400 1200 50  0000 C CNN
F 2 "Diodes_SMD:SOD-123" H 14400 1300 50  0001 C CNN
F 3 "http://www.onsemi.com/pub/Collateral/MBR120LSFT1-D.PDF" H 14400 1300 50  0001 C CNN
F 4 "MBR120LSFT3GOSCT-ND" H 14400 1500 50  0001 C CNN "digikey"
	1    14400 1300
	-1   0    0    1   
$EndComp
$Comp
L ATWINC15x0 U8
U 1 1 5A4F06A0
P 13800 4500
F 0 "U8" H 13800 4675 60  0000 C CNN
F 1 "ATWINC15x0" H 13800 4575 60  0000 C CNN
F 2 "air:ATWINC15x0_MIN" H 13200 4500 60  0001 C CNN
F 3 "" H 13200 4500 60  0001 C CNN
	1    13800 4500
	1    0    0    -1  
$EndComp
Text GLabel 12950 5600 0    60   Input ~ 0
SPI_SCK
Text GLabel 12950 5300 0    60   Input ~ 0
SPI_MOSI
Text GLabel 12950 5400 0    60   Input ~ 0
SPI_CS_HF
Text GLabel 6400 1800 2    60   Output ~ 0
SPI_CS_HF
Text GLabel 6400 1600 2    60   Input ~ 0
MINSW1
Text GLabel 4400 2100 0    60   Input ~ 0
SPI_MISO
Text GLabel 12950 5500 0    60   Input ~ 0
SPI_MISO
Text GLabel 12950 5200 0    60   Output ~ 0
TeensyRX1
Text GLabel 12950 5700 0    60   Input ~ 0
TeensyTX1
Text GLabel 15150 5400 2    60   Input ~ 0
HF_RST
Text GLabel 12900 6700 0    60   Input ~ 0
HF_EN
$Comp
L GNDD #PWR040
U 1 1 5A4F4D63
P 14350 6650
F 0 "#PWR040" H 14350 6400 50  0001 C CNN
F 1 "GNDD" H 14350 6525 50  0000 C CNN
F 2 "" H 14350 6650 50  0001 C CNN
F 3 "" H 14350 6650 50  0001 C CNN
	1    14350 6650
	1    0    0    -1  
$EndComp
$Comp
L +3V3 #PWR041
U 1 1 5A4F51FD
P 12850 4400
F 0 "#PWR041" H 12850 4250 50  0001 C CNN
F 1 "+3V3" H 12850 4540 50  0000 C CNN
F 2 "" H 12850 4400 50  0001 C CNN
F 3 "" H 12850 4400 50  0001 C CNN
	1    12850 4400
	1    0    0    -1  
$EndComp
NoConn ~ 14650 5700
NoConn ~ 13850 6500
$Comp
L C_Small C11
U 1 1 5A4F5B77
P 14000 7650
F 0 "C11" H 14010 7720 50  0000 L CNN
F 1 "0.01µF" H 14010 7570 50  0000 L CNN
F 2 "Capacitors_SMD:C_0603" H 14000 7650 50  0001 C CNN
F 3 "https://www.murata.com/~/media/webrenewal/support/library/catalog/products/capacitor/mlcc/c02e.ashx?la=en-us" H 14000 7650 50  0001 C CNN
F 4 "490-1525-1-ND" H 14010 7820 50  0001 C CNN "digikey"
	1    14000 7650
	1    0    0    -1  
$EndComp
$Comp
L C_Small C10
U 1 1 5A4F5C9E
P 13750 7650
F 0 "C10" H 13760 7720 50  0000 L CNN
F 1 "10µF" H 13760 7570 50  0000 L CNN
F 2 "Capacitors_SMD:C_0805" H 13750 7650 50  0001 C CNN
F 3 "https://www.murata.com/~/media/webrenewal/support/library/catalog/products/capacitor/mlcc/c02e.ashx?la=en-us" H 13750 7650 50  0001 C CNN
F 4 "490-1543-1-ND" H 13760 7820 50  0001 C CNN "digikey"
	1    13750 7650
	1    0    0    -1  
$EndComp
$Comp
L GNDD #PWR042
U 1 1 5A4F5FD5
P 14000 7750
F 0 "#PWR042" H 14000 7500 50  0001 C CNN
F 1 "GNDD" H 14000 7625 50  0000 C CNN
F 2 "" H 14000 7750 50  0001 C CNN
F 3 "" H 14000 7750 50  0001 C CNN
	1    14000 7750
	1    0    0    -1  
$EndComp
$Comp
L GNDD #PWR043
U 1 1 5A4F623A
P 13750 7750
F 0 "#PWR043" H 13750 7500 50  0001 C CNN
F 1 "GNDD" H 13750 7625 50  0000 C CNN
F 2 "" H 13750 7750 50  0001 C CNN
F 3 "" H 13750 7750 50  0001 C CNN
	1    13750 7750
	1    0    0    -1  
$EndComp
$Comp
L GNDD #PWR044
U 1 1 5A4F6C7A
P 14850 4700
F 0 "#PWR044" H 14850 4450 50  0001 C CNN
F 1 "GNDD" H 14850 4575 50  0000 C CNN
F 2 "" H 14850 4700 50  0001 C CNN
F 3 "" H 14850 4700 50  0001 C CNN
	1    14850 4700
	1    0    0    -1  
$EndComp
$Comp
L GNDD #PWR045
U 1 1 5A4F6F6C
P 12250 5150
F 0 "#PWR045" H 12250 4900 50  0001 C CNN
F 1 "GNDD" H 12250 5025 50  0000 C CNN
F 2 "" H 12250 5150 50  0001 C CNN
F 3 "" H 12250 5150 50  0001 C CNN
	1    12250 5150
	1    0    0    -1  
$EndComp
NoConn ~ 13450 6500
$Comp
L +3V3 #PWR046
U 1 1 5A4F73D3
P 12950 6500
F 0 "#PWR046" H 12950 6350 50  0001 C CNN
F 1 "+3V3" H 12950 6640 50  0000 C CNN
F 2 "" H 12950 6500 50  0001 C CNN
F 3 "" H 12950 6500 50  0001 C CNN
	1    12950 6500
	1    0    0    -1  
$EndComp
$Comp
L R_Small R31
U 1 1 5A4F7BE3
P 15000 5650
F 0 "R31" H 15030 5670 50  0000 L CNN
F 1 "100K" H 15030 5610 50  0000 L CNN
F 2 "Resistors_SMD:R_0603" H 15000 5650 50  0001 C CNN
F 3 "http://www.yageo.com/documents/recent/PYu-RC_Group_51_RoHS_L_8.pdf" H 15000 5650 39  0001 C CNN
F 4 "311-10KGRCT-ND" H 15000 5650 39  0001 C CNN "digikey"
	1    15000 5650
	-1   0    0    1   
$EndComp
$Comp
L GNDD #PWR047
U 1 1 5A4F821A
P 15000 5750
F 0 "#PWR047" H 15000 5500 50  0001 C CNN
F 1 "GNDD" H 15000 5625 50  0000 C CNN
F 2 "" H 15000 5750 50  0001 C CNN
F 3 "" H 15000 5750 50  0001 C CNN
	1    15000 5750
	1    0    0    -1  
$EndComp
$Comp
L R_Small R27
U 1 1 5A4F8684
P 13550 6900
F 0 "R27" H 13580 6920 50  0000 L CNN
F 1 "100K" H 13580 6860 50  0000 L CNN
F 2 "Resistors_SMD:R_0603" H 13550 6900 50  0001 C CNN
F 3 "http://www.yageo.com/documents/recent/PYu-RC_Group_51_RoHS_L_8.pdf" H 13550 6900 39  0001 C CNN
F 4 "311-10KGRCT-ND" H 13550 6900 39  0001 C CNN "digikey"
	1    13550 6900
	-1   0    0    1   
$EndComp
$Comp
L GNDD #PWR048
U 1 1 5A4F87B4
P 13550 7000
F 0 "#PWR048" H 13550 6750 50  0001 C CNN
F 1 "GNDD" H 13550 6875 50  0000 C CNN
F 2 "" H 13550 7000 50  0001 C CNN
F 3 "" H 13550 7000 50  0001 C CNN
	1    13550 7000
	1    0    0    -1  
$EndComp
NoConn ~ 14650 5600
NoConn ~ 14650 5500
$Comp
L R_Small R17
U 1 1 5A4F96A8
P 12850 4600
F 0 "R17" H 12880 4620 50  0000 L CNN
F 1 "100K" H 12880 4560 50  0000 L CNN
F 2 "Resistors_SMD:R_0603" H 12850 4600 50  0001 C CNN
F 3 "http://www.yageo.com/documents/recent/PYu-RC_Group_51_RoHS_L_8.pdf" H 12850 4600 39  0001 C CNN
F 4 "311-10KGRCT-ND" H 12850 4600 39  0001 C CNN "digikey"
	1    12850 4600
	-1   0    0    1   
$EndComp
Text GLabel 4400 3700 0    60   Input ~ 0
HF_IRQ
Text GLabel 4400 3800 0    60   Input ~ 0
HF_WAKE
Text GLabel 12950 5100 0    60   Input ~ 0
HF_IRQ
Text GLabel 12950 4900 0    60   Input ~ 0
HF_WAKE
$Comp
L LED D7
U 1 1 5A4FA924
P 14550 7350
F 0 "D7" H 14550 7450 50  0000 C CNN
F 1 "GREEN" H 14650 7250 50  0000 C CNN
F 2 "LEDs:LED_0603" H 14550 7350 50  0001 C CNN
F 3 "http://optoelectronics.liteon.com/upload/download/DS22-2000-228/LTST-C191KGKT.PDF" H 14550 7350 50  0001 C CNN
F 4 "160-1446-1-ND" H 14550 7550 50  0001 C CNN "digikey"
	1    14550 7350
	1    0    0    -1  
$EndComp
$Comp
L LED D5
U 1 1 5A4FB1E0
P 14550 7050
F 0 "D5" H 14550 7150 50  0000 C CNN
F 1 "YELLOW" H 14600 6950 50  0000 C CNN
F 2 "LEDs:LED_0603" H 14550 7050 50  0001 C CNN
F 3 "http://optoelectronics.liteon.com/upload/download/DS22-2000-224/LTST-C191KSKT.PDF" H 14550 7050 50  0001 C CNN
F 4 "160-1448-1-ND" H 14550 7250 50  0001 C CNN "digikey"
	1    14550 7050
	1    0    0    -1  
$EndComp
$Comp
L R_Small R29
U 1 1 5A4FB6EF
P 14200 7050
F 0 "R29" H 14230 7070 50  0000 L CNN
F 1 "1K" H 14230 7010 50  0000 L CNN
F 2 "Resistors_SMD:R_0603" H 14200 7050 50  0001 C CNN
F 3 "http://www.yageo.com/documents/recent/PYu-RC_Group_51_RoHS_L_8.pdf" H 14200 7050 39  0001 C CNN
F 4 "311-10KGRCT-ND" H 14200 7050 39  0001 C CNN "digikey"
	1    14200 7050
	0    -1   -1   0   
$EndComp
$Comp
L R_Small R30
U 1 1 5A4FB902
P 14200 7350
F 0 "R30" H 14230 7370 50  0000 L CNN
F 1 "1K" H 14230 7310 50  0000 L CNN
F 2 "Resistors_SMD:R_0603" H 14200 7350 50  0001 C CNN
F 3 "http://www.yageo.com/documents/recent/PYu-RC_Group_51_RoHS_L_8.pdf" H 14200 7350 39  0001 C CNN
F 4 "311-10KGRCT-ND" H 14200 7350 39  0001 C CNN "digikey"
	1    14200 7350
	0    -1   -1   0   
$EndComp
$Comp
L +3V3 #PWR049
U 1 1 5A4FC4F9
P 14850 6900
F 0 "#PWR049" H 14850 6750 50  0001 C CNN
F 1 "+3V3" H 14850 7040 50  0000 C CNN
F 2 "" H 14850 6900 50  0001 C CNN
F 3 "" H 14850 6900 50  0001 C CNN
	1    14850 6900
	1    0    0    -1  
$EndComp
$Comp
L GNDD #PWR050
U 1 1 5A5119AA
P 9300 5250
F 0 "#PWR050" H 9300 5000 50  0001 C CNN
F 1 "GNDD" H 9300 5125 50  0000 C CNN
F 2 "" H 9300 5250 50  0001 C CNN
F 3 "" H 9300 5250 50  0001 C CNN
	1    9300 5250
	1    0    0    -1  
$EndComp
Text Notes 9700 3700 0    60   ~ 0
AD0 pulled to 0V: I2C Addr 0x68\nAD0 pulled to 3V3: I2C Addr 0x69
Text GLabel 6400 3800 2    60   Input ~ 0
SCL1
Text GLabel 6400 3700 2    60   Input ~ 0
SDA1
$Comp
L DRV2650L U5
U 1 1 5A5B5BD8
P 5000 8100
F 0 "U5" H 5000 8275 60  0000 C CNN
F 1 "DRV2650L" H 5000 8175 60  0000 C CNN
F 2 "Housings_SSOP:TSSOP-10_3x3mm_Pitch0.5mm" H 5000 8100 60  0001 C CNN
F 3 "" H 5000 8100 60  0001 C CNN
	1    5000 8100
	1    0    0    -1  
$EndComp
Text GLabel 4550 8400 0    60   BiDi ~ 0
SDA1
Text GLabel 4550 8300 0    60   BiDi ~ 0
SCL1
$Comp
L C_Small C12
U 1 1 5A5B5BD9
P 6200 8450
F 0 "C12" H 6210 8520 50  0000 L CNN
F 1 "0.1µF" H 6210 8370 50  0000 L CNN
F 2 "Capacitors_SMD:C_0603" H 6200 8450 50  0001 C CNN
F 3 "" H 6200 8450 50  0001 C CNN
	1    6200 8450
	1    0    0    -1  
$EndComp
$Comp
L C_Small C2
U 1 1 5A5B5BDA
P 3900 8450
F 0 "C2" H 3910 8520 50  0000 L CNN
F 1 "1µF" H 3910 8370 50  0000 L CNN
F 2 "Capacitors_SMD:C_0603" H 3900 8450 50  0001 C CNN
F 3 "" H 3900 8450 50  0001 C CNN
	1    3900 8450
	-1   0    0    1   
$EndComp
$Comp
L GNDD #PWR051
U 1 1 5A5B5BDB
P 6200 8700
F 0 "#PWR051" H 6200 8450 50  0001 C CNN
F 1 "GNDD" H 6200 8575 50  0000 C CNN
F 2 "" H 6200 8700 50  0001 C CNN
F 3 "" H 6200 8700 50  0001 C CNN
	1    6200 8700
	1    0    0    -1  
$EndComp
$Comp
L GNDD #PWR052
U 1 1 5A5B5BDC
P 3900 8700
F 0 "#PWR052" H 3900 8450 50  0001 C CNN
F 1 "GNDD" H 3900 8575 50  0000 C CNN
F 2 "" H 3900 8700 50  0001 C CNN
F 3 "" H 3900 8700 50  0001 C CNN
	1    3900 8700
	1    0    0    -1  
$EndComp
$Comp
L +3V3 #PWR053
U 1 1 5A5B5BDD
P 4100 8100
F 0 "#PWR053" H 4100 7950 50  0001 C CNN
F 1 "+3V3" H 4100 8240 50  0000 C CNN
F 2 "" H 4100 8100 50  0001 C CNN
F 3 "" H 4100 8100 50  0001 C CNN
	1    4100 8100
	1    0    0    -1  
$EndComp
$Comp
L GNDD #PWR054
U 1 1 5A5B5BDE
P 5950 8700
F 0 "#PWR054" H 5950 8450 50  0001 C CNN
F 1 "GNDD" H 5950 8575 50  0000 C CNN
F 2 "" H 5950 8700 50  0001 C CNN
F 3 "" H 5950 8700 50  0001 C CNN
	1    5950 8700
	1    0    0    -1  
$EndComp
Text GLabel 5500 8300 2    60   Output ~ 0
OUT-
Text GLabel 5500 8500 2    60   Output ~ 0
OUT+
$Comp
L +3V3 #PWR055
U 1 1 5A5B5BE0
P 6200 8050
F 0 "#PWR055" H 6200 7900 50  0001 C CNN
F 1 "+3V3" H 6200 8190 50  0000 C CNN
F 2 "" H 6200 8050 50  0001 C CNN
F 3 "" H 6200 8050 50  0001 C CNN
	1    6200 8050
	1    0    0    -1  
$EndComp
$Comp
L GNDD #PWR056
U 1 1 5A5B5BE1
P 4400 8700
F 0 "#PWR056" H 4400 8450 50  0001 C CNN
F 1 "GNDD" H 4400 8575 50  0000 C CNN
F 2 "" H 4400 8700 50  0001 C CNN
F 3 "" H 4400 8700 50  0001 C CNN
	1    4400 8700
	1    0    0    -1  
$EndComp
Text GLabel 3100 4250 2    60   Input ~ 0
OUT+
Text GLabel 3100 4350 2    60   Input ~ 0
OUT-
NoConn ~ 10800 4650
Text GLabel 9600 2700 2    60   UnSpc ~ 0
SDA1
Text GLabel 9600 2850 2    60   UnSpc ~ 0
SCL1
$Comp
L R_Small R15
U 1 1 5A5BAE14
P 8950 2200
F 0 "R15" H 8980 2220 50  0000 L CNN
F 1 "10K" H 8980 2160 50  0000 L CNN
F 2 "Resistors_SMD:R_0603" H 8950 2200 50  0001 C CNN
F 3 "http://www.yageo.com/documents/recent/PYu-RC_Group_51_RoHS_L_8.pdf" H 8950 2200 39  0001 C CNN
F 4 "311-10KGRCT-ND" H 8950 2200 39  0001 C CNN "digikey"
	1    8950 2200
	-1   0    0    1   
$EndComp
$Comp
L R_Small R4
U 1 1 5A5BAF50
P 8700 2200
F 0 "R4" H 8730 2220 50  0000 L CNN
F 1 "10K" H 8730 2160 50  0000 L CNN
F 2 "Resistors_SMD:R_0603" H 8700 2200 50  0001 C CNN
F 3 "http://www.yageo.com/documents/recent/PYu-RC_Group_51_RoHS_L_8.pdf" H 8700 2200 39  0001 C CNN
F 4 "311-10KGRCT-ND" H 8700 2200 39  0001 C CNN "digikey"
	1    8700 2200
	-1   0    0    1   
$EndComp
$Comp
L USB_OTG J7
U 1 1 5A5F503C
P 7500 3200
F 0 "J7" H 7300 3650 50  0000 L CNN
F 1 "USB_OTG" H 7300 3550 50  0000 L CNN
F 2 "air:USB_Micro-B_FCI" H 7650 3150 50  0001 C CNN
F 3 "" H 7650 3150 50  0001 C CNN
	1    7500 3200
	1    0    0    -1  
$EndComp
Text GLabel 7800 3300 2    60   BiDi ~ 0
D-
Text GLabel 7800 3200 2    60   BiDi ~ 0
D+
NoConn ~ 7800 3400
NoConn ~ 7400 3600
$Comp
L VBUS #PWR057
U 1 1 5A5F55FE
P 7950 2850
F 0 "#PWR057" H 7950 2700 50  0001 C CNN
F 1 "VBUS" H 7950 3000 50  0000 C CNN
F 2 "" H 7950 2850 50  0001 C CNN
F 3 "" H 7950 2850 50  0001 C CNN
	1    7950 2850
	1    0    0    -1  
$EndComp
$Comp
L GNDD #PWR058
U 1 1 5A5F5874
P 7500 3700
F 0 "#PWR058" H 7500 3450 50  0001 C CNN
F 1 "GNDD" H 7500 3575 50  0000 C CNN
F 2 "" H 7500 3700 50  0001 C CNN
F 3 "" H 7500 3700 50  0001 C CNN
	1    7500 3700
	1    0    0    -1  
$EndComp
Text GLabel 6400 3000 2    60   BiDi ~ 0
D-
Text GLabel 4400 3000 0    60   BiDi ~ 0
D+
$Comp
L C_Small C15
U 1 1 5A77E649
P 13900 2050
F 0 "C15" H 13910 2120 50  0000 L CNN
F 1 "10µF" H 13910 1970 50  0000 L CNN
F 2 "Capacitors_SMD:C_0805" H 13900 2050 50  0001 C CNN
F 3 "https://www.murata.com/~/media/webrenewal/support/library/catalog/products/capacitor/mlcc/c02e.ashx?la=en-us" H 13900 2050 50  0001 C CNN
F 4 "490-3340-1-ND" H 13910 2220 50  0001 C CNN "digikey"
	1    13900 2050
	1    0    0    -1  
$EndComp
$Comp
L GNDD #PWR059
U 1 1 5A77E73D
P 13900 2400
F 0 "#PWR059" H 13900 2150 50  0001 C CNN
F 1 "GNDD" H 13900 2275 50  0000 C CNN
F 2 "" H 13900 2400 50  0001 C CNN
F 3 "" H 13900 2400 50  0001 C CNN
	1    13900 2400
	1    0    0    -1  
$EndComp
Text GLabel 15100 1200 2    60   Output ~ 0
VIN
Wire Wire Line
	7450 7400 7450 7450
Wire Wire Line
	7450 7200 7450 6700
Wire Wire Line
	2750 5100 2750 4950
Wire Wire Line
	2750 3850 2750 4750
Wire Wire Line
	2500 5100 2500 4950
Wire Wire Line
	2500 3850 2500 4750
Wire Wire Line
	1900 4450 3100 4450
Wire Wire Line
	1900 3950 3100 3950
Wire Wire Line
	1900 4350 3100 4350
Wire Wire Line
	1900 4150 3100 4150
Wire Wire Line
	1900 4050 3100 4050
Wire Wire Line
	1900 4650 3100 4650
Wire Wire Line
	1900 4550 3100 4550
Wire Wire Line
	1900 3850 2950 3850
Wire Wire Line
	2000 3450 2000 5100
Wire Wire Line
	1900 4750 2000 4750
Wire Wire Line
	13650 1950 13650 2150
Wire Wire Line
	13650 2350 13650 2400
Wire Wire Line
	13500 2050 13650 2050
Wire Wire Line
	11450 1850 11550 1850
Wire Wire Line
	11750 1850 11850 1850
Wire Wire Line
	11050 1850 11150 1850
Wire Wire Line
	11050 1200 11050 1850
Wire Wire Line
	13000 1750 13000 2400
Wire Wire Line
	12650 1750 12750 1750
Wire Wire Line
	12700 2000 13000 2000
Wire Wire Line
	12650 1850 12700 1850
Wire Wire Line
	12700 1850 12700 2000
Wire Wire Line
	14650 2150 14650 2400
Wire Wire Line
	12950 1750 13000 1750
Wire Wire Line
	9200 7100 9450 7100
Wire Wire Line
	8400 7100 8550 7100
Wire Wire Line
	8100 6500 8100 7100
Wire Wire Line
	8000 6700 8200 6700
Wire Wire Line
	8000 7100 8200 7100
Wire Wire Line
	7200 6700 7800 6700
Wire Wire Line
	7200 7100 7800 7100
Wire Wire Line
	7700 7400 7700 7450
Wire Wire Line
	8550 6900 8500 6900
Wire Wire Line
	8500 6900 8500 7450
Wire Wire Line
	8400 6700 8550 6700
Wire Wire Line
	7700 7100 7700 7200
Wire Wire Line
	9550 4750 9600 4750
Wire Wire Line
	9550 4750 9550 5250
Wire Wire Line
	11350 5100 11350 5250
Wire Wire Line
	11350 3700 11350 4900
Wire Wire Line
	10800 4450 11100 4450
Wire Wire Line
	11100 4450 11100 4900
Wire Wire Line
	11100 5100 11100 5250
Wire Wire Line
	11350 4750 10800 4750
Wire Wire Line
	10850 4350 10850 4900
Wire Wire Line
	10850 5250 10850 5100
Wire Wire Line
	9450 4150 9600 4150
Wire Wire Line
	9600 4250 9450 4250
Wire Wire Line
	9550 4100 9550 4350
Wire Wire Line
	9550 3900 9550 3800
Wire Wire Line
	9550 3800 11500 3800
Wire Wire Line
	9600 2400 9450 2400
Wire Wire Line
	9450 2400 9450 2300
Wire Wire Line
	9200 2300 9200 2550
Wire Wire Line
	9200 2550 9600 2550
Wire Wire Line
	2950 3850 2950 3750
Wire Wire Line
	3700 800  4400 800 
Wire Wire Line
	3700 800  3700 950 
Wire Wire Line
	7400 1500 7400 900 
Wire Wire Line
	10800 4350 10850 4350
Wire Wire Line
	9550 4350 9600 4350
Wire Wire Line
	14150 2400 14150 1750
Wire Wire Line
	14150 1750 14200 1750
Wire Wire Line
	6400 1400 7150 1400
Wire Wire Line
	11050 2400 11050 2100
Wire Wire Line
	11050 2100 11150 2100
Wire Wire Line
	11450 2100 11550 2100
Wire Wire Line
	11750 2100 11800 2100
Wire Wire Line
	11800 2100 11800 1850
Wire Wire Line
	5400 5150 5400 5650
Wire Wire Line
	5000 5250 5400 5250
Wire Wire Line
	5400 5950 5400 5850
Wire Wire Line
	5000 5550 5650 5550
Wire Wire Line
	5200 5950 5200 5450
Wire Wire Line
	5200 5450 5000 5450
Wire Wire Line
	5000 5350 5650 5350
Wire Wire Line
	7500 5150 7500 5650
Wire Wire Line
	7100 5250 7500 5250
Wire Wire Line
	7500 5950 7500 5850
Wire Wire Line
	7600 5550 7100 5550
Wire Wire Line
	7300 5950 7300 5450
Wire Wire Line
	7300 5450 7100 5450
Wire Wire Line
	7100 5350 7600 5350
Wire Wire Line
	11050 1650 11850 1650
Wire Wire Line
	6400 1100 7150 1100
Wire Wire Line
	7150 1100 7150 900 
Wire Wire Line
	6650 4700 6800 4700
Wire Wire Line
	5750 4700 6250 4700
Wire Wire Line
	5250 4700 5350 4700
Wire Wire Line
	5250 4550 6150 4550
Wire Wire Line
	6150 4550 6150 4700
Wire Wire Line
	9300 7450 9300 7400
Wire Wire Line
	9300 7200 9300 7100
Connection ~ 7450 6700
Connection ~ 2750 3850
Connection ~ 2500 3850
Connection ~ 13650 2050
Connection ~ 11050 1650
Connection ~ 13000 2000
Connection ~ 8100 7100
Connection ~ 8100 6700
Connection ~ 7700 7100
Connection ~ 11350 4750
Connection ~ 11350 3800
Connection ~ 11800 1850
Connection ~ 5400 5250
Connection ~ 7500 5250
Connection ~ 6150 4700
Connection ~ 9300 7100
Wire Wire Line
	9200 6700 9350 6700
Wire Wire Line
	9350 6700 9350 6550
Wire Wire Line
	8700 1650 8700 2100
Wire Wire Line
	9200 1950 9200 2100
Wire Wire Line
	9450 1950 9450 2100
Wire Wire Line
	11150 6550 11450 6550
Wire Wire Line
	11250 7600 11250 7000
Wire Wire Line
	11150 6650 11250 6650
Wire Wire Line
	11250 6550 11250 6800
Connection ~ 11250 6550
Wire Wire Line
	10300 6550 10750 6550
Wire Wire Line
	10650 6350 10650 6650
Wire Wire Line
	10650 6650 10750 6650
Connection ~ 10650 6550
Connection ~ 11250 6650
Wire Wire Line
	6400 1500 7400 1500
Wire Wire Line
	2500 6450 3250 6450
Wire Wire Line
	3250 6450 3250 5700
Wire Wire Line
	2500 6550 2950 6550
Wire Wire Line
	2950 6550 2950 6600
Wire Wire Line
	4750 6400 4900 6400
Wire Wire Line
	5100 6400 5300 6400
Wire Wire Line
	1900 3450 2000 3450
Connection ~ 2000 4750
Wire Wire Line
	1900 3350 2050 3350
Wire Wire Line
	2050 3350 2050 4650
Connection ~ 2050 4650
Wire Wire Line
	1900 3250 2100 3250
Wire Wire Line
	2100 3250 2100 4550
Connection ~ 2100 4550
Wire Wire Line
	1900 3150 2150 3150
Wire Wire Line
	2150 3150 2150 4450
Connection ~ 2150 4450
Wire Wire Line
	1900 3050 2200 3050
Wire Wire Line
	2200 3050 2200 4350
Connection ~ 2200 4350
Wire Wire Line
	1900 2850 2250 2850
Wire Wire Line
	2250 2850 2250 4150
Connection ~ 2250 4150
Wire Wire Line
	1900 2750 2300 2750
Wire Wire Line
	2300 2750 2300 4050
Connection ~ 2300 4050
Wire Wire Line
	1900 2650 2350 2650
Wire Wire Line
	2350 2650 2350 3950
Connection ~ 2350 3950
Wire Wire Line
	1900 2550 2400 2550
Wire Wire Line
	2400 2550 2400 3850
Connection ~ 2400 3850
Wire Wire Line
	10450 7000 10300 7000
Wire Wire Line
	10300 6550 10300 7100
Wire Wire Line
	10300 7100 10450 7100
Connection ~ 10300 7000
Wire Wire Line
	10850 7000 11450 7000
Wire Wire Line
	10950 7000 10950 7200
Wire Wire Line
	10950 7600 10950 7400
Wire Wire Line
	10850 7100 10950 7100
Connection ~ 10950 7100
Connection ~ 10950 7000
Wire Wire Line
	12650 1650 14200 1650
Wire Wire Line
	1600 10400 2050 10400
Wire Wire Line
	2050 10500 1900 10500
Wire Wire Line
	1050 10700 2050 10700
Wire Wire Line
	1050 7800 1050 10800
Wire Wire Line
	1050 10600 2050 10600
Connection ~ 1050 10700
Wire Wire Line
	1700 10500 1050 10500
Connection ~ 1050 10600
Wire Wire Line
	1400 10400 1050 10400
Connection ~ 1050 10500
Wire Wire Line
	2050 10300 1850 10300
Connection ~ 1050 10400
Wire Wire Line
	1950 9600 2050 9600
Wire Wire Line
	2050 9500 1950 9500
Wire Wire Line
	1950 9200 2050 9200
Wire Wire Line
	1950 9100 2050 9100
Wire Wire Line
	1950 9000 2050 9000
Wire Wire Line
	2050 8700 1050 8700
Wire Wire Line
	1850 8600 2050 8600
Wire Wire Line
	1600 8300 2050 8300
Wire Wire Line
	2050 7900 1600 7900
Wire Wire Line
	1400 7900 1250 7900
Wire Wire Line
	1250 7900 1250 8000
Wire Wire Line
	1250 8000 2050 8000
Wire Wire Line
	2050 8100 1850 8100
Wire Wire Line
	1650 8100 1250 8100
Wire Wire Line
	1250 8100 1250 8200
Wire Wire Line
	1250 8200 2050 8200
Wire Wire Line
	1050 8600 1650 8600
Wire Wire Line
	1050 8300 1400 8300
Wire Wire Line
	1050 8500 2050 8500
Wire Wire Line
	1950 7700 1950 8600
Connection ~ 1950 8300
Connection ~ 1950 8600
Wire Wire Line
	1050 7800 2050 7800
Connection ~ 1050 8700
Wire Wire Line
	2050 8900 1050 8900
Connection ~ 1050 8900
Connection ~ 1050 8300
Connection ~ 1050 8500
Connection ~ 1050 8600
Wire Wire Line
	1050 10300 1650 10300
Connection ~ 1050 10300
Wire Wire Line
	1050 8800 1350 8800
Connection ~ 1050 8800
Wire Wire Line
	1550 8800 2050 8800
Wire Wire Line
	1900 4250 3100 4250
Connection ~ 8700 1950
Wire Wire Line
	1900 2950 1950 2950
Wire Wire Line
	1950 2950 1950 4250
Connection ~ 1950 4250
Wire Wire Line
	14150 6500 14150 6600
Wire Wire Line
	14150 6600 14350 6600
Wire Wire Line
	14350 6500 14350 6650
Connection ~ 14350 6600
Wire Wire Line
	12850 4700 12850 4800
Wire Wire Line
	12850 4800 12950 4800
Wire Wire Line
	13750 7450 14000 7450
Wire Wire Line
	14000 7450 14000 7550
Connection ~ 13750 7450
Wire Wire Line
	14650 4600 14850 4600
Wire Wire Line
	14850 4600 14850 4700
Wire Wire Line
	12950 5000 12250 5000
Wire Wire Line
	12250 5000 12250 5150
Wire Wire Line
	12950 6500 12950 6600
Wire Wire Line
	12950 6600 13650 6600
Wire Wire Line
	13250 6600 13250 6500
Wire Wire Line
	14650 5400 15150 5400
Wire Wire Line
	15000 5400 15000 5550
Connection ~ 15000 5400
Wire Wire Line
	13550 6500 13550 6800
Wire Wire Line
	12900 6700 13550 6700
Connection ~ 13550 6700
Wire Wire Line
	12850 4400 12850 4500
Wire Wire Line
	14300 7050 14400 7050
Wire Wire Line
	14300 7350 14400 7350
Wire Wire Line
	14700 7050 14850 7050
Wire Wire Line
	14850 6900 14850 7350
Wire Wire Line
	14850 7350 14700 7350
Connection ~ 14850 7050
Wire Wire Line
	14050 6500 14050 7050
Wire Wire Line
	14050 7050 14100 7050
Wire Wire Line
	13950 6500 13950 7350
Wire Wire Line
	13950 7350 14100 7350
Wire Wire Line
	13750 6500 13750 7550
Wire Wire Line
	15050 1200 15100 1200
Wire Wire Line
	10800 4250 11350 4250
Connection ~ 11350 4250
Wire Wire Line
	9300 5250 9300 4550
Wire Wire Line
	9300 4550 9600 4550
Wire Wire Line
	4400 8500 4550 8500
Wire Wire Line
	4400 8700 4400 8500
Connection ~ 5850 8200
Wire Wire Line
	5850 8600 5850 8200
Wire Wire Line
	5500 8600 5850 8600
Wire Wire Line
	4100 8100 4100 8600
Wire Wire Line
	3900 8200 4550 8200
Wire Wire Line
	3900 8350 3900 8200
Wire Wire Line
	3900 8550 3900 8700
Wire Wire Line
	5500 8200 6200 8200
Wire Wire Line
	6200 8550 6200 8700
Connection ~ 6200 8200
Wire Wire Line
	6200 8050 6200 8350
Wire Wire Line
	5950 8400 5950 8700
Wire Wire Line
	5500 8400 5950 8400
Wire Wire Line
	4100 8600 4550 8600
Wire Wire Line
	9600 2700 8950 2700
Wire Wire Line
	8950 2700 8950 2300
Wire Wire Line
	9600 2850 8700 2850
Wire Wire Line
	8700 2850 8700 2300
Wire Wire Line
	8950 2100 8950 1950
Wire Wire Line
	8700 1950 9450 1950
Connection ~ 8950 1950
Connection ~ 9200 1950
Wire Wire Line
	7800 3000 7950 3000
Wire Wire Line
	7950 3000 7950 2850
Wire Wire Line
	7500 3700 7500 3600
Wire Wire Line
	14550 1300 14750 1300
Wire Wire Line
	7150 1400 7150 1600
Wire Wire Line
	14650 1200 14650 1950
Wire Wire Line
	13900 2400 13900 2150
Wire Wire Line
	13900 1950 13900 1650
Connection ~ 13900 1650
Wire Wire Line
	13650 1650 13650 1750
Text GLabel 6400 1300 2    60   Input ~ 0
VIN
$Comp
L VBUS #PWR060
U 1 1 5A7828D9
P 14650 1200
F 0 "#PWR060" H 14650 1050 50  0001 C CNN
F 1 "VBUS" H 14650 1350 50  0000 C CNN
F 2 "" H 14650 1200 50  0001 C CNN
F 3 "" H 14650 1200 50  0001 C CNN
	1    14650 1200
	1    0    0    -1  
$EndComp
Connection ~ 14650 1300
Connection ~ 13650 1650
Wire Wire Line
	14150 1650 14150 1300
Wire Wire Line
	14150 1300 14250 1300
Connection ~ 14150 1650
Connection ~ 13250 6600
Wire Wire Line
	13650 6600 13650 6500
$EndSCHEMATC
