(export (version D)
  (design
    (source /Users/gs/Dropbox/FU/5_IXD/_source/pcb/air_03.sch)
    (date "2018 January 03, Wednesday 00:18:43")
    (tool "Eeschema 4.0.7")
    (sheet (number 1) (name /) (tstamps /)
      (title_block
        (title "air 0.2 PCB")
        (company "Ylenia Gerold Emil")
        (rev 1)
        (date 2017-12-26)
        (source air_03.sch)
        (comment (number 1) (value ""))
        (comment (number 2) (value ""))
        (comment (number 3) (value ""))
        (comment (number 4) (value ""))))
    (sheet (number 2) (name /air_03_pwr/) (tstamps /5A4D6CC1/)
      (title_block
        (title "air 0.2 PCB")
        (company "Ylenia Gerold Emil")
        (rev 1)
        (date 2017-12-26)
        (source air_03_pwr.sch)
        (comment (number 1) (value ""))
        (comment (number 2) (value ""))
        (comment (number 3) (value ""))
        (comment (number 4) (value "")))))
  (components
    (comp (ref D1)
      (value LEDGREEN)
      (footprint LEDs:LED_0603)
      (datasheet http://optoelectronics.liteon.com/upload/download/DS22-2000-228/LTST-C191KGKT.PDF)
      (fields
        (field (name digikey) 160-1446-1-ND))
      (libsource (lib device) (part LED))
      (sheetpath (names /) (tstamps /))
      (tstamp 5A3D750E))
    (comp (ref J3)
      (value SPI)
      (footprint air:1X08)
      (fields
        (field (name Field4) "OLED HEADER"))
      (libsource (lib air) (part CONN_TO_SSD1306))
      (sheetpath (names /) (tstamps /))
      (tstamp 5A3EDF7E))
    (comp (ref U2)
      (value MPU9250)
      (footprint Housings_DFN_QFN:QFN-24-1EP_3x3mm_Pitch0.4mm)
      (datasheet https://store.invensense.com/datasheets/invensense/MPU9250REV1.0.pdf)
      (fields
        (field (name digikey) 1428-1019-1-ND))
      (libsource (lib air) (part MPU9250))
      (sheetpath (names /) (tstamps /))
      (tstamp 5A400063))
    (comp (ref C19)
      (value 47µF)
      (footprint Capacitors_SMD:C_1206)
      (datasheet https://www.murata.com/~/media/webrenewal/support/library/catalog/products/capacitor/mlcc/c02e.ashx?la=en-us)
      (fields
        (field (name digikey) 490-8337-1-ND))
      (libsource (lib device) (part CP1_Small))
      (sheetpath (names /) (tstamps /))
      (tstamp 5A43D4BB))
    (comp (ref C18)
      (value 0.1µF)
      (footprint Capacitors_SMD:C_0603)
      (datasheet https://www.murata.com/~/media/webrenewal/support/library/catalog/products/capacitor/mlcc/c02e.ashx?la=en-us)
      (fields
        (field (name digikey) 490-1532-1-ND))
      (libsource (lib device) (part C_Small))
      (sheetpath (names /) (tstamps /))
      (tstamp 5A43D69F))
    (comp (ref R28)
      (value 4.3K)
      (footprint Resistors_SMD:R_0603)
      (datasheet http://www.yageo.com/documents/recent/PYu-RC_Group_51_RoHS_L_8.pdf)
      (fields
        (field (name digikey) 311-4.3KGRCT-ND))
      (libsource (lib device) (part R_Small))
      (sheetpath (names /) (tstamps /))
      (tstamp 5A44A81D))
    (comp (ref C29)
      (value 10µF)
      (footprint Capacitors_SMD:C_0805)
      (datasheet https://www.murata.com/~/media/webrenewal/support/library/catalog/products/capacitor/mlcc/c02e.ashx?la=en-us)
      (fields
        (field (name digikey) 490-3340-1-ND))
      (libsource (lib device) (part C_Small))
      (sheetpath (names /) (tstamps /))
      (tstamp 5A44ACCA))
    (comp (ref R21)
      (value 100K)
      (footprint Resistors_SMD:R_0603)
      (datasheet http://www.yageo.com/documents/recent/PYu-RC_Group_51_RoHS_L_8.pdf)
      (fields
        (field (name digikey) 311-100KGRCT-ND))
      (libsource (lib device) (part R_Small))
      (sheetpath (names /) (tstamps /))
      (tstamp 5A44E1E7))
    (comp (ref R22)
      (value 100K)
      (footprint Resistors_SMD:R_0603)
      (datasheet http://www.yageo.com/documents/recent/PYu-RC_Group_51_RoHS_L_8.pdf)
      (fields
        (field (name digikey) 311-100KGRCT-ND))
      (libsource (lib device) (part R_Small))
      (sheetpath (names /) (tstamps /))
      (tstamp 5A44E40E))
    (comp (ref C22)
      (value 0.01µF)
      (footprint Capacitors_SMD:C_0603)
      (datasheet https://www.murata.com/~/media/webrenewal/support/library/catalog/products/capacitor/mlcc/c02e.ashx?la=en-us)
      (fields
        (field (name digikey) 490-1525-1-ND))
      (libsource (lib device) (part C_Small))
      (sheetpath (names /) (tstamps /))
      (tstamp 5A4572EA))
    (comp (ref C23)
      (value 0.01µF)
      (footprint Capacitors_SMD:C_0603)
      (datasheet https://www.murata.com/~/media/webrenewal/support/library/catalog/products/capacitor/mlcc/c02e.ashx?la=en-us)
      (fields
        (field (name digikey) 490-1525-1-ND))
      (libsource (lib device) (part C_Small))
      (sheetpath (names /) (tstamps /))
      (tstamp 5A457401))
    (comp (ref J2)
      (value RCPT-MQ212-10)
      (footprint air:MQ212_SMD_RCPT)
      (libsource (lib conn) (part Conn_01x10))
      (sheetpath (names /) (tstamps /))
      (tstamp 5A4834A2))
    (comp (ref C13)
      (value 0.1µF)
      (footprint Capacitors_SMD:C_0603)
      (datasheet https://www.murata.com/~/media/webrenewal/support/library/catalog/products/capacitor/mlcc/c02e.ashx?la=en-us)
      (fields
        (field (name digikey) 490-1532-1-ND))
      (libsource (lib device) (part C_Small))
      (sheetpath (names /) (tstamps /))
      (tstamp 5A486B5C))
    (comp (ref Q3)
      (value MMBT3904)
      (footprint TO_SOT_Packages_SMD:TSOT-23)
      (datasheet https://media.digikey.com/pdf/Data%20Sheets/Diodes%20PDFs/MMBT3904.pdf)
      (fields
        (field (name digikey) MMBT3904-FDICT-ND))
      (libsource (lib transistors) (part PN2222A))
      (sheetpath (names /) (tstamps /))
      (tstamp 5A48994A))
    (comp (ref D2)
      (value MBR120)
      (footprint Diodes_SMD:SOD-123)
      (datasheet http://www.onsemi.com/pub/Collateral/MBR120LSFT1-D.PDF)
      (fields
        (field (name digikey) MBR120LSFT3GOSCT-ND))
      (libsource (lib device) (part D_Schottky))
      (sheetpath (names /) (tstamps /))
      (tstamp 5A489C6F))
    (comp (ref C15)
      (value 0.1µF)
      (footprint Capacitors_SMD:C_0603)
      (datasheet https://www.murata.com/~/media/webrenewal/support/library/catalog/products/capacitor/mlcc/c02e.ashx?la=en-us)
      (fields
        (field (name digikey) 490-1532-1-ND))
      (libsource (lib device) (part C_Small))
      (sheetpath (names /) (tstamps /))
      (tstamp 5A489D92))
    (comp (ref C14)
      (value 100µF)
      (footprint Capacitors_SMD:C_1206)
      (datasheet https://www.murata.com/~/media/webrenewal/support/library/catalog/products/capacitor/mlcc/c02e.ashx?la=en-us)
      (fields
        (field (name digikey) 490-13982-1-ND))
      (libsource (lib device) (part CP1_Small))
      (sheetpath (names /) (tstamps /))
      (tstamp 5A48C21B))
    (comp (ref U5)
      (value ESP8266-12E)
      (footprint ESP8266:ESP-12E_SMD)
      (libsource (lib air) (part ESP8266-12E))
      (sheetpath (names /) (tstamps /))
      (tstamp 5A42F77D))
    (comp (ref C17)
      (value 0.01µF)
      (footprint Capacitors_SMD:C_0603)
      (datasheet https://www.murata.com/~/media/webrenewal/support/library/catalog/products/capacitor/mlcc/c02e.ashx?la=en-us)
      (fields
        (field (name digikey) 490-1525-1-ND))
      (libsource (lib device) (part C_Small))
      (sheetpath (names /) (tstamps /))
      (tstamp 5A438393))
    (comp (ref C16)
      (value 0.01µF)
      (footprint Capacitors_SMD:C_0603)
      (datasheet https://www.murata.com/~/media/webrenewal/support/library/catalog/products/capacitor/mlcc/c02e.ashx?la=en-us)
      (fields
        (field (name digikey) 490-1525-1-ND))
      (libsource (lib device) (part C_Small))
      (sheetpath (names /) (tstamps /))
      (tstamp 5A438822))
    (comp (ref C21)
      (value 0.1µF)
      (footprint Capacitors_SMD:C_0603)
      (datasheet https://www.murata.com/~/media/webrenewal/support/library/catalog/products/capacitor/mlcc/c02e.ashx?la=en-us)
      (fields
        (field (name digikey) 490-1532-1-ND))
      (libsource (lib device) (part C_Small))
      (sheetpath (names /) (tstamps /))
      (tstamp 5A45813D))
    (comp (ref C20)
      (value 0.1µF)
      (footprint Capacitors_SMD:C_0603)
      (datasheet https://www.murata.com/~/media/webrenewal/support/library/catalog/products/capacitor/mlcc/c02e.ashx?la=en-us)
      (fields
        (field (name digikey) 490-1532-1-ND))
      (libsource (lib device) (part C_Small))
      (sheetpath (names /) (tstamps /))
      (tstamp 5A458498))
    (comp (ref R9)
      (value 10K)
      (footprint Resistors_SMD:R_0603)
      (datasheet http://www.yageo.com/documents/recent/PYu-RC_Group_51_RoHS_L_8.pdf)
      (fields
        (field (name digikey) 311-10KGRCT-ND))
      (libsource (lib device) (part R_Small))
      (sheetpath (names /) (tstamps /))
      (tstamp 5A459575))
    (comp (ref U4)
      (value Teensy3.2)
      (footprint air:Teensy32_minimal)
      (libsource (lib air) (part Teensy3.2-RESCUE-air_01))
      (sheetpath (names /) (tstamps /))
      (tstamp 5A44EE8A))
    (comp (ref U6)
      (value MCP73831_AIR)
      (footprint TO_SOT_Packages_SMD:SOT-23-5)
      (datasheet http://ww1.microchip.com/downloads/en/DeviceDoc/20001984g.pdf)
      (fields
        (field (name digikey) MCP73831T-2ATI/OTCT-ND))
      (libsource (lib air) (part MCP73831_AIR))
      (sheetpath (names /) (tstamps /))
      (tstamp 5A4518AF))
    (comp (ref J6)
      (value LIPO_JST_PH-S2B-SM4)
      (footprint Connectors_JST:JST_PH_S2B-PH-SM4-TB_02x2.00mm_Angled)
      (datasheet http://www.jst-mfg.com/product/pdf/eng/ePH.pdf)
      (fields
        (field (name digikey) 455-1749-1-ND))
      (libsource (lib air) (part LIPO_JST_PH-S2B-SM4))
      (sheetpath (names /) (tstamps /))
      (tstamp 5A4540A1))
    (comp (ref D3)
      (value LEDRED)
      (footprint LEDs:LED_0603)
      (datasheet http://optoelectronics.liteon.com/upload/download/DS-22-99-0151/LTST-C190KRKT.pdf)
      (fields
        (field (name digikey) 160-1436-1-ND))
      (libsource (lib device) (part LED))
      (sheetpath (names /) (tstamps /))
      (tstamp 5A48528F))
    (comp (ref U1)
      (value SK6812RGBW_NEOPIXEL)
      (footprint LEDs:LED_WS2812B-PLCC4)
      (datasheet https://cdn-shop.adafruit.com/product-files/2757/p2757_SK6812RGBW_REV01.pdf)
      (fields
        (field (name digikey) 1528-2386-ND))
      (libsource (lib conn) (part SK6812RGBW_NEOPIXEL))
      (sheetpath (names /) (tstamps /))
      (tstamp 5A488D28))
    (comp (ref C1)
      (value 1µF)
      (footprint Capacitors_SMD:C_0603)
      (datasheet https://www.murata.com/~/media/webrenewal/support/library/catalog/products/capacitor/mlcc/c02e.ashx?la=en-us)
      (fields
        (field (name digikey) 490-1543-1-ND))
      (libsource (lib device) (part C_Small))
      (sheetpath (names /) (tstamps /))
      (tstamp 5A489433))
    (comp (ref U7)
      (value SK6812RGBW_NEOPIXEL)
      (footprint LEDs:LED_WS2812B-PLCC4)
      (datasheet https://cdn-shop.adafruit.com/product-files/2757/p2757_SK6812RGBW_REV01.pdf)
      (fields
        (field (name digikey) 1528-2386-ND))
      (libsource (lib conn) (part SK6812RGBW_NEOPIXEL))
      (sheetpath (names /) (tstamps /))
      (tstamp 5A48C65B))
    (comp (ref C5)
      (value 1µF)
      (footprint Capacitors_SMD:C_0603)
      (datasheet https://www.murata.com/~/media/webrenewal/support/library/catalog/products/capacitor/mlcc/c02e.ashx?la=en-us)
      (fields
        (field (name digikey) 490-1543-1-ND))
      (libsource (lib device) (part C_Small))
      (sheetpath (names /) (tstamps /))
      (tstamp 5A48C667))
    (comp (ref D4)
      (value LEDYELLOW)
      (footprint LEDs:LED_0603)
      (datasheet http://optoelectronics.liteon.com/upload/download/DS22-2000-224/LTST-C191KSKT.PDF)
      (fields
        (field (name digikey) 160-1448-1-ND))
      (libsource (lib device) (part LED))
      (sheetpath (names /) (tstamps /))
      (tstamp 5A4A6A8E))
    (comp (ref R19)
      (value 1K)
      (footprint Resistors_SMD:R_0603)
      (datasheet http://www.yageo.com/documents/recent/PYu-RC_Group_51_RoHS_L_8.pdf)
      (fields
        (field (name digikey) 311-1.0KGRCT-ND))
      (libsource (lib device) (part R_Small))
      (sheetpath (names /) (tstamps /))
      (tstamp 5A4A7725))
    (comp (ref J10)
      (value GS2)
      (footprint Connectors:GS2)
      (libsource (lib conn) (part GS2))
      (sheetpath (names /) (tstamps /))
      (tstamp 5A4CCD26))
    (comp (ref J11)
      (value GS2)
      (footprint Connectors:GS2)
      (libsource (lib conn) (part GS2))
      (sheetpath (names /) (tstamps /))
      (tstamp 5A4CF29D))
    (comp (ref R18)
      (value 10K)
      (footprint Resistors_SMD:R_0603)
      (datasheet http://www.yageo.com/documents/recent/PYu-RC_Group_51_RoHS_L_8.pdf)
      (fields
        (field (name digikey) 311-10KGRCT-ND))
      (libsource (lib device) (part R_Small))
      (sheetpath (names /) (tstamps /))
      (tstamp 5A48459D))
    (comp (ref R20)
      (value 10K)
      (footprint Resistors_SMD:R_0603)
      (datasheet http://www.yageo.com/documents/recent/PYu-RC_Group_51_RoHS_L_8.pdf)
      (fields
        (field (name digikey) 311-10KGRCT-ND))
      (libsource (lib device) (part R_Small))
      (sheetpath (names /) (tstamps /))
      (tstamp 5A4846AA))
    (comp (ref R14)
      (value 10K)
      (footprint Resistors_SMD:R_0603)
      (datasheet http://www.yageo.com/documents/recent/PYu-RC_Group_51_RoHS_L_8.pdf)
      (fields
        (field (name digikey) 311-10KGRCT-ND))
      (libsource (lib device) (part R_Small))
      (sheetpath (names /) (tstamps /))
      (tstamp 5A48507C))
    (comp (ref R16)
      (value 10K)
      (footprint Resistors_SMD:R_0603)
      (datasheet http://www.yageo.com/documents/recent/PYu-RC_Group_51_RoHS_L_8.pdf)
      (fields
        (field (name digikey) 311-10KGRCT-ND))
      (libsource (lib device) (part R_Small))
      (sheetpath (names /) (tstamps /))
      (tstamp 5A485403))
    (comp (ref R25)
      (value 10K)
      (footprint Resistors_SMD:R_0603)
      (datasheet http://www.yageo.com/documents/recent/PYu-RC_Group_51_RoHS_L_8.pdf)
      (fields
        (field (name digikey) 311-10KGRCT-ND))
      (libsource (lib device) (part R_Small))
      (sheetpath (names /) (tstamps /))
      (tstamp 5A4859D1))
    (comp (ref R24)
      (value 10K)
      (footprint Resistors_SMD:R_0603)
      (datasheet http://www.yageo.com/documents/recent/PYu-RC_Group_51_RoHS_L_8.pdf)
      (fields
        (field (name digikey) 311-10KGRCT-ND))
      (libsource (lib device) (part R_Small))
      (sheetpath (names /) (tstamps /))
      (tstamp 5A485DA4))
    (comp (ref R13)
      (value 10K)
      (footprint Resistors_SMD:R_0603)
      (datasheet http://www.yageo.com/documents/recent/PYu-RC_Group_51_RoHS_L_8.pdf)
      (fields
        (field (name digikey) 311-10KGRCT-ND))
      (libsource (lib device) (part R_Small))
      (sheetpath (names /) (tstamps /))
      (tstamp 5A486221))
    (comp (ref R1)
      (value 1K)
      (footprint Resistors_SMD:R_0603)
      (datasheet http://www.yageo.com/documents/recent/PYu-RC_Group_51_RoHS_L_8.pdf)
      (fields
        (field (name digikey) 311-1.0KGRCT-ND))
      (libsource (lib device) (part R_Small))
      (sheetpath (names /) (tstamps /))
      (tstamp 5A48752F))
    (comp (ref R23)
      (value 1K)
      (footprint Resistors_SMD:R_0603)
      (datasheet http://www.yageo.com/documents/recent/PYu-RC_Group_51_RoHS_L_8.pdf)
      (fields
        (field (name digikey) 311-1.0KGRCT-ND))
      (libsource (lib device) (part R_Small))
      (sheetpath (names /) (tstamps /))
      (tstamp 5A487B49))
    (comp (ref R5)
      (value 10K)
      (footprint Resistors_SMD:R_0603)
      (datasheet http://www.yageo.com/documents/recent/PYu-RC_Group_51_RoHS_L_8.pdf)
      (fields
        (field (name digikey) 311-10KGRCT-ND))
      (libsource (lib device) (part R_Small))
      (sheetpath (names /) (tstamps /))
      (tstamp 5A489C27))
    (comp (ref R7)
      (value 10K)
      (footprint Resistors_SMD:R_0603)
      (datasheet http://www.yageo.com/documents/recent/PYu-RC_Group_51_RoHS_L_8.pdf)
      (fields
        (field (name digikey) 311-10KGRCT-ND))
      (libsource (lib device) (part R_Small))
      (sheetpath (names /) (tstamps /))
      (tstamp 5A489D78))
    (comp (ref R8)
      (value 10K)
      (footprint Resistors_SMD:R_0603)
      (datasheet http://www.yageo.com/documents/recent/PYu-RC_Group_51_RoHS_L_8.pdf)
      (fields
        (field (name digikey) 311-10KGRCT-ND))
      (libsource (lib device) (part R_Small))
      (sheetpath (names /) (tstamps /))
      (tstamp 5A489E8B))
    (comp (ref R6)
      (value 10K)
      (footprint Resistors_SMD:R_0603)
      (datasheet http://www.yageo.com/documents/recent/PYu-RC_Group_51_RoHS_L_8.pdf)
      (fields
        (field (name digikey) 311-10KGRCT-ND))
      (libsource (lib device) (part R_Small))
      (sheetpath (names /) (tstamps /))
      (tstamp 5A489FA7))
    (comp (ref R4)
      (value 10K)
      (footprint Resistors_SMD:R_0603)
      (datasheet http://www.yageo.com/documents/recent/PYu-RC_Group_51_RoHS_L_8.pdf)
      (fields
        (field (name digikey) 311-10KGRCT-ND))
      (libsource (lib device) (part R_Small))
      (sheetpath (names /) (tstamps /))
      (tstamp 5A48B13D))
    (comp (ref R26)
      (value 10K)
      (footprint Resistors_SMD:R_0603)
      (datasheet http://www.yageo.com/documents/recent/PYu-RC_Group_51_RoHS_L_8.pdf)
      (fields
        (field (name digikey) 311-10KGRCT-ND))
      (libsource (lib device) (part R_Small))
      (sheetpath (names /) (tstamps /))
      (tstamp 5A49140B))
    (comp (ref S1)
      (value ENC_SW)
      (footprint air:ENC_EVEU)
      (libsource (lib air) (part ENC_SW))
      (sheetpath (names /) (tstamps /))
      (tstamp 5A4C1195))
    (comp (ref C2)
      (value 1µF)
      (footprint Capacitors_SMD:C_0603)
      (datasheet https://www.murata.com/~/media/webrenewal/support/library/catalog/products/capacitor/mlcc/c02e.ashx?la=en-us)
      (fields
        (field (name digikey) 490-1532-1-ND))
      (libsource (lib device) (part C_Small))
      (sheetpath (names /) (tstamps /))
      (tstamp 5A4C2727))
    (comp (ref J4)
      (value GS3)
      (footprint Connectors:GS3)
      (libsource (lib conn) (part GS3))
      (sheetpath (names /) (tstamps /))
      (tstamp 5A4CA1B0))
    (comp (ref J1)
      (value GPIO)
      (libsource (lib conn) (part Conn_01x03))
      (sheetpath (names /) (tstamps /))
      (tstamp 5A4CC8BD))
    (comp (ref S2)
      (value SW_SPST_SMD)
      (footprint air:SW_SPST_EVQQ2)
      (libsource (lib air) (part SW_SPST_SMD))
      (sheetpath (names /) (tstamps /))
      (tstamp 5A4D2FB9))
    (comp (ref R2)
      (value 10K)
      (footprint Resistors_SMD:R_0603)
      (datasheet http://www.yageo.com/documents/recent/PYu-RC_Group_51_RoHS_L_8.pdf)
      (fields
        (field (name digikey) 311-10KGRCT-ND))
      (libsource (lib device) (part R_Small))
      (sheetpath (names /) (tstamps /))
      (tstamp 5A4D3527))
    (comp (ref R3)
      (value 470)
      (footprint Resistors_SMD:R_0805)
      (datasheet http://www.yageo.com/documents/recent/PYu-RC_Group_51_RoHS_L_8.pdf)
      (fields
        (field (name digikey) 311-470ARCT-ND))
      (libsource (lib device) (part R_Small))
      (sheetpath (names /) (tstamps /))
      (tstamp 5A4ECB81))
    (comp (ref U3)
      (value V_REG_AP2112K-3.3V)
      (footprint TO_SOT_Packages_SMD:SOT-23-5)
      (libsource (lib air) (part V_REG_AP2112K-3.3V))
      (sheetpath (names /air_03_pwr/) (tstamps /5A4D6CC1/))
      (tstamp 5A4D7433))
    (comp (ref C3)
      (value 10µF)
      (footprint Capacitors_SMD:C_0805)
      (libsource (lib device) (part C_Small))
      (sheetpath (names /air_03_pwr/) (tstamps /5A4D6CC1/))
      (tstamp 5A4D7435))
    (comp (ref C4)
      (value 10µF)
      (footprint Capacitors_SMD:C_0805)
      (libsource (lib device) (part C_Small))
      (sheetpath (names /air_03_pwr/) (tstamps /5A4D6CC1/))
      (tstamp 5A4D7436))
    (comp (ref C6)
      (value 1µF)
      (footprint Capacitors_SMD:C_0805)
      (libsource (lib device) (part C_Small))
      (sheetpath (names /air_03_pwr/) (tstamps /5A4D6CC1/))
      (tstamp 5A4D7437))
    (comp (ref R10)
      (value 100K)
      (footprint Resistors_SMD:R_0603)
      (libsource (lib device) (part R_Small))
      (sheetpath (names /air_03_pwr/) (tstamps /5A4D6CC1/))
      (tstamp 5A4D748D))
    (comp (ref S3)
      (value SWITCH-SPDT)
      (footprint air:SW_SPDT_PCM12SMTR)
      (libsource (lib air) (part SWITCH-SPDT))
      (sheetpath (names /air_03_pwr/) (tstamps /5A4D6CC1/))
      (tstamp 5A4D8897))
    (comp (ref R11)
      (value 100K)
      (footprint Resistors_SMD:R_0603)
      (libsource (lib device) (part R_Small))
      (sheetpath (names /air_03_pwr/) (tstamps /5A4D6CC1/))
      (tstamp 5A4D93CC))
    (comp (ref D5)
      (value MBR120)
      (footprint Diodes_SMD:D_SOD-123F)
      (libsource (lib device) (part D_Schottky))
      (sheetpath (names /air_03_pwr/) (tstamps /5A4D6CC1/))
      (tstamp 5A4E7376)))
  (libparts
    (libpart (lib air) (part CONN_TO_SSD1306)
      (description "Multi connection point. Often used as Generic Header-pin footprint for 0.1 inch spaced/style header connections  <b>On any of the 0.1 inch spaced packages, you can populate with these:</b><ul><li><a href=\"https://www.sparkfun.com/products/116\"> Break Away Headers - Straight</a> (PRT-00116)</li><li><a href=\"https://www.sparkfun.com/products/553\"> Break Away Male Headers - Right Angle</a> (PRT-00553)</li><li><a href=\"https://www.sparkfun.com/products/115\"> Female Headers</a> (PRT-00115)</li><li><a href=\"https://www.sparkfun.com/products/117\"> Break Away Headers - Machine Pin</a> (PRT-00117)</li><li><a href=\"https://www.sparkfun.com/products/743\"> Break Away Female Headers - Swiss Machine Pin</a> (PRT-00743)</li><li><a href=\"https://www.sparkfun.com/products/9279\"> Arduino Stackable Header - 8 Pin</a> (PRT-09279)</li></ul> <b> For SCREWTERMINALS and SPRING TERMINALS visit here:</b><ul><li><a href=\"https://www.sparkfun.com/search/results?term=Screw+Terminals\"> Screw Terimnals on SparkFun.com</a> (5mm/3.5mm/2.54mm spacing)</li></ul> <b>This device is also useful as a general connection point to wire up your design to another part of your project. Our various solder wires solder well into these plated through hole pads.</b><ul><li><a href=\"https://www.sparkfun.com/products/11375\"> Hook-Up Wire - Assortment (Stranded, 22 AWG)</a> (PRT-11375)</li><li><a href=\"https://www.sparkfun.com/products/11367\"> Hook-Up Wire - Assortment (Solid Core, 22 AWG)</a> (PRT-11367)</li><li><a href=\"https://www.sparkfun.com/categories/141\"> View the entire wire category on our website here</a></li> </ul> <b>Special notes:</b>   Molex polarized connector foot print use with SKU : PRT-08231 with associated crimp pins and housings. 1MM SMD Version SKU: PRT-10208 NOTES ON THE VARIANTS LOCK and LOCK_LONGPADS...This footprint was designed to help hold the alignment of a through-hole component (i.e.  6-pin header) while soldering it into place. You may notice that each hole has been shifted either up or down by 0.005 of an inch from it's more standard position (which is a perfectly straight line).  This slight alteration caused the pins (the squares in the middle) to touch the edges of the holes.  Because they are alternating, it causes a \"brace\" to hold the component in place.  0.005 has proven to be the perfect amount of \"off-center\" position when using our standard breakaway headers. Although looks a little odd when you look at the bare footprint, once you have a header in there, the alteration is very hard to notice.  Also,if you push a header all the way into place, it is covered up entirely on the bottom side.")
      (footprints
        (fp *1X08_LOCK*))
      (fields
        (field (name Reference) J)
        (field (name Value) CONN_TO_SSD1306)
        (field (name Footprint) 1X08_LOCK)
        (field (name Field4) XXX-00000))
      (pins
        (pin (num 1) (name DATA) (type passive))
        (pin (num 2) (name SCLK) (type passive))
        (pin (num 3) (name DC) (type passive))
        (pin (num 4) (name RST) (type passive))
        (pin (num 5) (name CS) (type passive))
        (pin (num 6) (name 3V3) (type passive))
        (pin (num 7) (name VIN) (type passive))
        (pin (num 8) (name GND) (type passive))))
    (libpart (lib device) (part CP1_Small)
      (description "Polarised capacitor")
      (footprints
        (fp CP_*))
      (fields
        (field (name Reference) C)
        (field (name Value) CP1_Small))
      (pins
        (pin (num 1) (name ~) (type passive))
        (pin (num 2) (name ~) (type passive))))
    (libpart (lib device) (part C_Small)
      (description "Unpolarized capacitor")
      (footprints
        (fp C_*))
      (fields
        (field (name Reference) C)
        (field (name Value) C_Small))
      (pins
        (pin (num 1) (name ~) (type passive))
        (pin (num 2) (name ~) (type passive))))
    (libpart (lib conn) (part Conn_01x03)
      (description "Generic connector, single row, 01x03")
      (docs ~)
      (footprints
        (fp Connector*:*_??x*mm*)
        (fp Connector*:*1x??x*mm*)
        (fp Pin?Header?Straight?1X*)
        (fp Pin?Header?Angled?1X*)
        (fp Socket?Strip?Straight?1X*)
        (fp Socket?Strip?Angled?1X*))
      (fields
        (field (name Reference) J)
        (field (name Value) Conn_01x03))
      (pins
        (pin (num 1) (name Pin_1) (type passive))
        (pin (num 2) (name Pin_2) (type passive))
        (pin (num 3) (name Pin_3) (type passive))))
    (libpart (lib conn) (part Conn_01x10)
      (description "Generic connector, single row, 01x10")
      (docs ~)
      (footprints
        (fp Connector*:*_??x*mm*)
        (fp Connector*:*1x??x*mm*)
        (fp Pin?Header?Straight?1X*)
        (fp Pin?Header?Angled?1X*)
        (fp Socket?Strip?Straight?1X*)
        (fp Socket?Strip?Angled?1X*))
      (fields
        (field (name Reference) J)
        (field (name Value) Conn_01x10))
      (pins
        (pin (num 1) (name Pin_1) (type passive))
        (pin (num 2) (name Pin_2) (type passive))
        (pin (num 3) (name Pin_3) (type passive))
        (pin (num 4) (name Pin_4) (type passive))
        (pin (num 5) (name Pin_5) (type passive))
        (pin (num 6) (name Pin_6) (type passive))
        (pin (num 7) (name Pin_7) (type passive))
        (pin (num 8) (name Pin_8) (type passive))
        (pin (num 9) (name Pin_9) (type passive))
        (pin (num 10) (name Pin_10) (type passive))))
    (libpart (lib device) (part D_Schottky)
      (description "Schottky diode")
      (footprints
        (fp TO-???*)
        (fp *SingleDiode)
        (fp *_Diode_*)
        (fp *SingleDiode*)
        (fp D_*))
      (fields
        (field (name Reference) D)
        (field (name Value) D_Schottky))
      (pins
        (pin (num 1) (name K) (type passive))
        (pin (num 2) (name A) (type passive))))
    (libpart (lib air) (part ENC_SW)
      (description "Rotary Encoder with Switch")
      (footprints
        (fp *ENCODER*)
        (fp *ENC*))
      (fields
        (field (name Reference) S)
        (field (name Value) ENC_SW)
        (field (name Footprint) air:ENC_EVEU))
      (pins
        (pin (num A) (name A) (type BiDi))
        (pin (num B) (name B) (type BiDi))
        (pin (num C) (name C) (type passive))
        (pin (num COM) (name COM) (type passive))
        (pin (num SW) (name SW) (type passive))))
    (libpart (lib air) (part ESP8266-12E)
      (description "Espressif’s ESP8266EX delivers highly integrated Wi-Fi SoC solution to meet users’ continuous demands for efficient power usage, compact design and reliable performance in the Internet of Things industry.")
      (docs http://l0l.org.uk/2014/12/esp8266-modules-hardware-guide-gotta-catch-em-all/)
      (footprints
        (fp ESP-12E)
        (fp ESP-12E_SMD))
      (fields
        (field (name Reference) U)
        (field (name Value) ESP8266-12E)
        (field (name Footprint) ESP8266:ESP-12E_SMD))
      (pins
        (pin (num 1) (name REST) (type input))
        (pin (num 2) (name ADC) (type passive))
        (pin (num 3) (name CH_PD) (type input))
        (pin (num 4) (name GPIO16) (type BiDi))
        (pin (num 5) (name GPIO14) (type BiDi))
        (pin (num 6) (name GPIO12) (type BiDi))
        (pin (num 7) (name GPIO13) (type BiDi))
        (pin (num 8) (name VCC) (type power_in))
        (pin (num 9) (name GND) (type power_in))
        (pin (num 10) (name GPIO15) (type BiDi))
        (pin (num 11) (name GPIO2) (type BiDi))
        (pin (num 12) (name GPIO0) (type BiDi))
        (pin (num 13) (name GPIO4) (type BiDi))
        (pin (num 14) (name GPIO5) (type BiDi))
        (pin (num 15) (name RXD) (type input))
        (pin (num 16) (name TXD) (type output))
        (pin (num 17) (name CS0) (type BiDi))
        (pin (num 18) (name MISO) (type BiDi))
        (pin (num 19) (name GPIO9) (type BiDi))
        (pin (num 20) (name GPIO10) (type BiDi))
        (pin (num 21) (name MOSI) (type BiDi))
        (pin (num 22) (name SCLK) (type BiDi))))
    (libpart (lib conn) (part GS2)
      (description "2-pin jumper/solder bridge")
      (footprints
        (fp GS*))
      (fields
        (field (name Reference) J)
        (field (name Value) GS2)
        (field (name Footprint) Connectors:GS2))
      (pins
        (pin (num 1) (name G1) (type passive))
        (pin (num 2) (name G2) (type passive))))
    (libpart (lib conn) (part GS3)
      (description "3-pin jumper/solder bridge")
      (footprints
        (fp GS*))
      (fields
        (field (name Reference) J)
        (field (name Value) GS3)
        (field (name Footprint) Connectors:GS3))
      (pins
        (pin (num 1) (name G1) (type passive))
        (pin (num 2) (name G2) (type passive))
        (pin (num 3) (name G3) (type passive))))
    (libpart (lib device) (part LED)
      (description "LED generic")
      (footprints
        (fp LED*))
      (fields
        (field (name Reference) D)
        (field (name Value) LED))
      (pins
        (pin (num 1) (name K) (type passive))
        (pin (num 2) (name A) (type passive))))
    (libpart (lib air) (part LIPO_JST_PH-S2B-SM4)
      (description "This is a thin, low-profile 2.0mm pitch connector 8.0mm in height after mounting and 4.5mm in width. It is designed to meet the demand for high-density connection of internal wires to printed circuit boards. It is compact, highly reliable and low in cost.")
      (footprints
        (fp *JST-2-PTH*))
      (fields
        (field (name Reference) J)
        (field (name Value) LIPO_JST_PH-S2B-SM4)
        (field (name Footprint) Connectors_JST:JST_PH_S2B-PH-SM4-TB_02x2.00mm_Angled))
      (pins
        (pin (num 1) (name +) (type passive))
        (pin (num 2) (name -) (type passive))))
    (libpart (lib air) (part MCP73831_AIR)
      (description "MCP73831T Li-Ion, Li-Pol Controller Miniature single cell, fully integrated Li-Ion, Li-polymer charge management controller<li><a href= http://ww1.microchip.com/downloads/en/DeviceDoc/20001984g.pdf >Datasheet</a></li> <b>SparkFun Products:</b><ul><li><a href= https://www.sparkfun.com/products/13907 >SparkFun ESP32 Thing</a></li><li><a href= https://www.sparkfun.com/products/14001 >SparkFun 9DoF Razor IMU M0</a></li></ul> ")
      (footprints
        (fp *SOT23-5*))
      (fields
        (field (name Reference) U)
        (field (name Value) MCP73831_AIR)
        (field (name Footprint) TO_SOT_Packages_SMD:SOT-23-5))
      (pins
        (pin (num 1) (name STAT) (type output))
        (pin (num 2) (name VSS) (type passive))
        (pin (num 3) (name VBAT) (type passive))
        (pin (num 4) (name VIN) (type power_in))
        (pin (num 5) (name PROG) (type input))))
    (libpart (lib air) (part MPU9250)
      (fields
        (field (name Reference) U)
        (field (name Value) MPU9250))
      (pins
        (pin (num 7) (name AUX_CL) (type BiDi))
        (pin (num 8) (name VDDIO) (type power_out))
        (pin (num 9) (name AD0/SDO) (type output))
        (pin (num 10) (name REGOUT) (type output))
        (pin (num 11) (name FSYNC) (type BiDi))
        (pin (num 12) (name INT) (type output))
        (pin (num 13) (name VDD) (type power_in))
        (pin (num 18) (name GND) (type power_in))
        (pin (num 19) (name RESV) (type passive))
        (pin (num 20) (name RESV) (type passive))
        (pin (num 21) (name AUX_DA) (type BiDi))
        (pin (num 22) (name nCS) (type BiDi))
        (pin (num 23) (name SCL/SCLK) (type BiDi))
        (pin (num 24) (name SDA/SDI) (type BiDi))))
    (libpart (lib transistors) (part PN2222A)
      (description "40V Vce, 1A Ic, NPN, General Purpose Transistor, TO-92")
      (docs http://www.fairchildsemi.com/ds/PN/PN2222A.pdf)
      (footprints
        (fp TO?92*))
      (fields
        (field (name Reference) Q)
        (field (name Value) PN2222A)
        (field (name Footprint) TO_SOT_Packages_THT:TO-92_Molded_Narrow))
      (pins
        (pin (num 1) (name E) (type passive))
        (pin (num 2) (name B) (type input))
        (pin (num 3) (name C) (type passive))))
    (libpart (lib device) (part R_Small)
      (description "Resistor, small symbol")
      (footprints
        (fp R_*))
      (fields
        (field (name Reference) R)
        (field (name Value) R_Small))
      (pins
        (pin (num 1) (name ~) (type passive))
        (pin (num 2) (name ~) (type passive))))
    (libpart (lib conn) (part SK6812RGBW_NEOPIXEL)
      (fields
        (field (name Reference) U)
        (field (name Value) SK6812RGBW_NEOPIXEL))
      (pins
        (pin (num 1) (name VDD) (type passive))
        (pin (num 2) (name DOUT) (type output))
        (pin (num 3) (name VSS/GND) (type passive))
        (pin (num 4) (name DIN) (type input))))
    (libpart (lib air) (part SWITCH-SPDT)
      (description "Single Pole, Double Throw (SPDT) Switch")
      (footprints
        (fp *SWITCH_SPST*))
      (fields
        (field (name Reference) S)
        (field (name Value) SWITCH-SPDT)
        (field (name Footprint) air:SW_SPDT_PCM12SMTR))
      (pins
        (pin (num 1) (name O) (type passive))
        (pin (num 2) (name P) (type passive))
        (pin (num 3) (name S) (type passive))))
    (libpart (lib air) (part SW_SPST_SMD)
      (description "Momentary Switch (Pushbutton) - SPST - Two Circuits Normally-open (NO) SPST momentary switches (buttons, pushbuttons). Schematic symbol includes two switch circuits. <h4>Variants</h4><ul><li><b>SMD-4.6MMX2.8MM</b> -  4.60mm x 2.80mm Tactile Momentary Button Switch  - Used on <a href=\"https://www.sparkfun.com/products/13664\">SparkFun SAMD21 Mini Breakout</a></li><li><b>SMD-5.2MM</b> - <a href=\"https://www.sparkfun.com/products/8720\">Mini Pushbutton Switch - SMD</a> - Used on <a href=\"https://www.sparkfun.com/products/11114\">Arduino Pro Mini</a></li></ul>")
      (footprints
        (fp *TACTILE_SWITCH_SMD_5.2MM*))
      (fields
        (field (name Reference) S)
        (field (name Value) SW_SPST_SMD)
        (field (name Footprint) air:SW_SPST_EVQQ2))
      (pins
        (pin (num 1) (name 1) (type passive))
        (pin (num 2) (name 2) (type passive))
        (pin (num 3) (name 3) (type passive))
        (pin (num 4) (name 4) (type passive))))
    (libpart (lib air) (part Teensy3.2-RESCUE-air_01)
      (fields
        (field (name Reference) U)
        (field (name Value) Teensy3.2-RESCUE-air_01)
        (field (name Footprint) teensy:Teensy30_31_32_LC))
      (pins
        (pin (num 1) (name GND) (type power_in))
        (pin (num 2) (name 0_RX1_Touch) (type BiDi))
        (pin (num 3) (name 1_TX1_Touch) (type BiDi))
        (pin (num 4) (name 2) (type BiDi))
        (pin (num 5) (name 3_TX_PWM) (type BiDi))
        (pin (num 6) (name 4_RX_PWM) (type BiDi))
        (pin (num 7) (name 5_TX1_PWM) (type BiDi))
        (pin (num 8) (name 6_PWM) (type BiDi))
        (pin (num 9) (name 7_RX3_DOUT) (type BiDi))
        (pin (num 10) (name 8_TX3_DIN) (type BiDi))
        (pin (num 11) (name 9_RX2_CS_PWM) (type BiDi))
        (pin (num 12) (name 10_TX2_CS_PWM) (type BiDi))
        (pin (num 13) (name 11_DOUT) (type BiDi))
        (pin (num 14) (name 12_DIN) (type BiDi))
        (pin (num 15) (name VBat) (type power_in))
        (pin (num 16) (name 3.3V) (type power_out))
        (pin (num 17) (name GND) (type power_in))
        (pin (num 18) (name Program) (type input))
        (pin (num 19) (name A14/DAC) (type output))
        (pin (num 20) (name 13_LED_SCK) (type BiDi))
        (pin (num 21) (name 14_A0_SCK) (type BiDi))
        (pin (num 22) (name 15_A1_CS_Touch) (type BiDi))
        (pin (num 23) (name 16_A2_SCL0_Touch) (type BiDi))
        (pin (num 24) (name 17_A3_SDA0_Touch) (type BiDi))
        (pin (num 25) (name 18_A4_SDA0_Touch) (type BiDi))
        (pin (num 26) (name 19_A5_SCL0_Touch) (type BiDi))
        (pin (num 27) (name 20_A6_CS_PWM) (type BiDi))
        (pin (num 28) (name 21_A7_RX1_CS_PWM) (type BiDi))
        (pin (num 29) (name 22_A8_Touch_PWM) (type BiDi))
        (pin (num 30) (name 23_A9_Touch_PWM) (type BiDi))
        (pin (num 31) (name 3.3V_max250mA) (type passive))
        (pin (num 32) (name AGND) (type passive))
        (pin (num 33) (name Vin) (type power_in))
        (pin (num 34) (name VUSB) (type power_out))
        (pin (num 35) (name AREF) (type input))
        (pin (num 36) (name A10) (type BiDi))
        (pin (num 37) (name A11) (type BiDi))
        (pin (num 38) (name A12) (type BiDi))
        (pin (num 39) (name GND) (type power_in))
        (pin (num 40) (name 24) (type BiDi))
        (pin (num 41) (name 25_Touch_PWM) (type BiDi))
        (pin (num 42) (name 26_A15_RX2) (type BiDi))
        (pin (num 43) (name 27_A16) (type BiDi))
        (pin (num 44) (name 28_A17) (type BiDi))
        (pin (num 45) (name 29_A18_SCL1) (type BiDi))
        (pin (num 46) (name 30_A19_SDA1) (type BiDi))
        (pin (num 47) (name 31_A20_TX2) (type BiDi))
        (pin (num 48) (name 32_Touch_PWM) (type BiDi))
        (pin (num 49) (name 33_Touch) (type BiDi))
        (pin (num 50) (name 3.3V) (type power_out))
        (pin (num 51) (name A13) (type BiDi))
        (pin (num 52) (name Reset) (type input))
        (pin (num 53) (name D+) (type BiDi))
        (pin (num 54) (name D-) (type BiDi))))
    (libpart (lib air) (part V_REG_AP2112K-3.3V)
      (description "AP2112 - 600mA CMOS LDO Regulator w/ Enable")
      (footprints
        (fp *SOT23-5*)
        (fp *SOT25-5*))
      (fields
        (field (name Reference) U)
        (field (name Value) V_REG_AP2112K-3.3V)
        (field (name Footprint) SOT25-5))
      (pins
        (pin (num 1) (name VIN) (type power_in))
        (pin (num 2) (name GND) (type power_in))
        (pin (num 3) (name EN) (type input))
        (pin (num 4) (name NC) (type NotConnected))
        (pin (num 5) (name VOUT) (type power_out)))))
  (libraries
    (library (logical transistors)
      (uri "/Library/Application Support/kicad/library/transistors.lib"))
    (library (logical air)
      (uri "/Library/Application Support/kicad/library/air.lib"))
    (library (logical device)
      (uri "/Library/Application Support/kicad/library/device.lib"))
    (library (logical conn)
      (uri "/Library/Application Support/kicad/library/conn.lib")))
  (nets
    (net (code 1) (name "Net-(U4-Pad33)")
      (node (ref U4) (pin 33)))
    (net (code 2) (name "Net-(U4-Pad45)")
      (node (ref U4) (pin 45)))
    (net (code 3) (name "Net-(U4-Pad46)")
      (node (ref U4) (pin 46)))
    (net (code 4) (name "Net-(U4-Pad47)")
      (node (ref U4) (pin 47)))
    (net (code 5) (name "Net-(U4-Pad48)")
      (node (ref U4) (pin 48)))
    (net (code 6) (name "Net-(U4-Pad49)")
      (node (ref U4) (pin 49)))
    (net (code 7) (name "Net-(U4-Pad44)")
      (node (ref U4) (pin 44)))
    (net (code 8) (name "Net-(U4-Pad43)")
      (node (ref U4) (pin 43)))
    (net (code 9) (name "Net-(U4-Pad42)")
      (node (ref U4) (pin 42)))
    (net (code 10) (name "Net-(U4-Pad41)")
      (node (ref U4) (pin 41)))
    (net (code 11) (name "Net-(U4-Pad40)")
      (node (ref U4) (pin 40)))
    (net (code 12) (name "Net-(U4-Pad19)")
      (node (ref U4) (pin 19)))
    (net (code 13) (name +3V3)
      (node (ref S1) (pin COM))
      (node (ref C2) (pin 1))
      (node (ref J4) (pin 2))
      (node (ref R7) (pin 1))
      (node (ref D4) (pin 2))
      (node (ref R8) (pin 1))
      (node (ref R6) (pin 2))
      (node (ref U4) (pin 31))
      (node (ref U7) (pin 1))
      (node (ref C5) (pin 1))
      (node (ref C1) (pin 1))
      (node (ref U1) (pin 1))
      (node (ref U3) (pin 5))
      (node (ref C4) (pin 1))
      (node (ref C6) (pin 1))
      (node (ref C21) (pin 1))
      (node (ref R9) (pin 2))
      (node (ref C19) (pin 1))
      (node (ref C18) (pin 1))
      (node (ref J3) (pin 7))
      (node (ref U2) (pin 13))
      (node (ref U5) (pin 8))
      (node (ref J2) (pin 10))
      (node (ref C13) (pin 1))
      (node (ref D2) (pin 1))
      (node (ref C15) (pin 1))
      (node (ref C14) (pin 1))
      (node (ref R24) (pin 2))
      (node (ref R5) (pin 2))
      (node (ref S2) (pin 2))
      (node (ref S2) (pin 1)))
    (net (code 14) (name VBUS)
      (node (ref U4) (pin 34))
      (node (ref C3) (pin 1))
      (node (ref U3) (pin 1))
      (node (ref D5) (pin 1))
      (node (ref S3) (pin 2))
      (node (ref U6) (pin 4))
      (node (ref D1) (pin 2)))
    (net (code 15) (name SDA0)
      (node (ref J2) (pin 3))
      (node (ref U4) (pin 25))
      (node (ref R20) (pin 1))
      (node (ref U2) (pin 24)))
    (net (code 16) (name SW0)
      (node (ref C22) (pin 1))
      (node (ref J2) (pin 7))
      (node (ref U4) (pin 23))
      (node (ref R14) (pin 2)))
    (net (code 17) (name VSENSE)
      (node (ref U4) (pin 36))
      (node (ref R21) (pin 1))
      (node (ref R22) (pin 2)))
    (net (code 18) (name "Net-(D1-Pad1)")
      (node (ref R23) (pin 1))
      (node (ref D1) (pin 1)))
    (net (code 19) (name "Net-(R28-Pad2)")
      (node (ref U6) (pin 5))
      (node (ref R28) (pin 2)))
    (net (code 20) (name "Net-(Q3-Pad2)")
      (node (ref Q3) (pin 2))
      (node (ref R4) (pin 2)))
    (net (code 21) (name HAPTIC)
      (node (ref U4) (pin 27))
      (node (ref R4) (pin 1)))
    (net (code 22) (name HAPTIC_DRV)
      (node (ref C15) (pin 2))
      (node (ref D2) (pin 2))
      (node (ref Q3) (pin 3))
      (node (ref C2) (pin 2))
      (node (ref J2) (pin 5)))
    (net (code 23) (name SCL0)
      (node (ref U2) (pin 23))
      (node (ref J2) (pin 2))
      (node (ref R18) (pin 1))
      (node (ref U4) (pin 26)))
    (net (code 24) (name ESP_GPIO0)
      (node (ref U4) (pin 7))
      (node (ref U5) (pin 12))
      (node (ref R19) (pin 1)))
    (net (code 25) (name NEODATA_2)
      (node (ref J2) (pin 4))
      (node (ref U7) (pin 2))
      (node (ref J11) (pin 1)))
    (net (code 26) (name NEODATA_0)
      (node (ref U1) (pin 4))
      (node (ref J10) (pin 2))
      (node (ref R3) (pin 1)))
    (net (code 27) (name NEODATA_1)
      (node (ref U1) (pin 2))
      (node (ref J10) (pin 1))
      (node (ref J11) (pin 2))
      (node (ref U7) (pin 4)))
    (net (code 28) (name "Net-(J3-Pad6)")
      (node (ref J3) (pin 6)))
    (net (code 29) (name "Net-(U2-Pad19)")
      (node (ref U2) (pin 19)))
    (net (code 30) (name "Net-(U2-Pad20)")
      (node (ref U2) (pin 20)))
    (net (code 31) (name "Net-(U4-Pad20)")
      (node (ref U4) (pin 20)))
    (net (code 32) (name "Net-(U4-Pad14)")
      (node (ref U4) (pin 14)))
    (net (code 33) (name "Net-(U4-Pad54)")
      (node (ref U4) (pin 54)))
    (net (code 34) (name "Net-(U4-Pad53)")
      (node (ref U4) (pin 53)))
    (net (code 35) (name "Net-(U4-Pad17)")
      (node (ref U4) (pin 17)))
    (net (code 36) (name "Net-(U4-Pad16)")
      (node (ref U4) (pin 16)))
    (net (code 37) (name "Net-(U4-Pad15)")
      (node (ref U4) (pin 15)))
    (net (code 38) (name "Net-(U4-Pad18)")
      (node (ref U4) (pin 18)))
    (net (code 39) (name "Net-(U4-Pad38)")
      (node (ref U4) (pin 38)))
    (net (code 40) (name "Net-(U4-Pad50)")
      (node (ref U4) (pin 50)))
    (net (code 41) (name "Net-(U4-Pad39)")
      (node (ref U4) (pin 39)))
    (net (code 42) (name "Net-(U4-Pad52)")
      (node (ref U4) (pin 52)))
    (net (code 43) (name "Net-(R7-Pad2)")
      (node (ref S1) (pin A))
      (node (ref R7) (pin 2)))
    (net (code 44) (name "Net-(R8-Pad2)")
      (node (ref S1) (pin B))
      (node (ref R8) (pin 2)))
    (net (code 45) (name "Net-(J2-Pad6)")
      (node (ref J2) (pin 6)))
    (net (code 46) (name "Net-(J4-Pad1)")
      (node (ref J4) (pin 1))
      (node (ref R18) (pin 2)))
    (net (code 47) (name "Net-(J4-Pad3)")
      (node (ref R20) (pin 2))
      (node (ref J4) (pin 3)))
    (net (code 48) (name GPIO2)
      (node (ref U4) (pin 30))
      (node (ref R2) (pin 2))
      (node (ref S2) (pin 4))
      (node (ref S2) (pin 3))
      (node (ref J1) (pin 1)))
    (net (code 49) (name GPIO1)
      (node (ref J1) (pin 2))
      (node (ref U4) (pin 29)))
    (net (code 50) (name "Net-(U4-Pad35)")
      (node (ref U4) (pin 35)))
    (net (code 51) (name "Net-(U5-Pad17)")
      (node (ref U5) (pin 17)))
    (net (code 52) (name "Net-(U5-Pad18)")
      (node (ref U5) (pin 18)))
    (net (code 53) (name "Net-(U5-Pad19)")
      (node (ref U5) (pin 19)))
    (net (code 54) (name "Net-(U5-Pad20)")
      (node (ref U5) (pin 20)))
    (net (code 55) (name "Net-(U5-Pad21)")
      (node (ref U5) (pin 21)))
    (net (code 56) (name "Net-(U5-Pad22)")
      (node (ref U5) (pin 22)))
    (net (code 57) (name "Net-(U5-Pad13)")
      (node (ref U5) (pin 13)))
    (net (code 58) (name "Net-(U5-Pad14)")
      (node (ref U5) (pin 14)))
    (net (code 59) (name "Net-(U5-Pad7)")
      (node (ref U5) (pin 7)))
    (net (code 60) (name "Net-(U5-Pad6)")
      (node (ref U5) (pin 6)))
    (net (code 61) (name "Net-(U5-Pad5)")
      (node (ref U5) (pin 5)))
    (net (code 62) (name "Net-(U5-Pad4)")
      (node (ref U5) (pin 4)))
    (net (code 63) (name "Net-(U5-Pad2)")
      (node (ref U5) (pin 2)))
    (net (code 64) (name "Net-(U4-Pad37)")
      (node (ref U4) (pin 37)))
    (net (code 65) (name "Net-(U2-Pad8)")
      (node (ref U2) (pin 8)))
    (net (code 66) (name "Net-(U2-Pad11)")
      (node (ref U2) (pin 11)))
    (net (code 67) (name "Net-(U2-Pad7)")
      (node (ref U2) (pin 7)))
    (net (code 68) (name "Net-(U2-Pad12)")
      (node (ref U2) (pin 12)))
    (net (code 69) (name "Net-(U2-Pad21)")
      (node (ref U2) (pin 21)))
    (net (code 70) (name "Net-(U4-Pad51)")
      (node (ref U4) (pin 51)))
    (net (code 71) (name ENCSW)
      (node (ref S1) (pin SW))
      (node (ref U4) (pin 4))
      (node (ref R26) (pin 2)))
    (net (code 72) (name "Net-(R24-Pad1)")
      (node (ref U5) (pin 11))
      (node (ref R24) (pin 1)))
    (net (code 73) (name "Net-(R25-Pad2)")
      (node (ref R25) (pin 2))
      (node (ref U5) (pin 10)))
    (net (code 74) (name "Net-(D4-Pad1)")
      (node (ref D4) (pin 1))
      (node (ref R19) (pin 2)))
    (net (code 75) (name LIPO)
      (node (ref D5) (pin 2))
      (node (ref J6) (pin 1))
      (node (ref U6) (pin 3))
      (node (ref C29) (pin 1))
      (node (ref R21) (pin 2)))
    (net (code 76) (name GNDD)
      (node (ref C16) (pin 2))
      (node (ref C1) (pin 2))
      (node (ref C17) (pin 2))
      (node (ref U7) (pin 3))
      (node (ref R2) (pin 1))
      (node (ref C5) (pin 2))
      (node (ref U4) (pin 1))
      (node (ref R26) (pin 1))
      (node (ref U3) (pin 2))
      (node (ref C3) (pin 2))
      (node (ref C4) (pin 2))
      (node (ref C6) (pin 2))
      (node (ref S1) (pin C))
      (node (ref U6) (pin 2))
      (node (ref J6) (pin 2))
      (node (ref U1) (pin 3))
      (node (ref D3) (pin 1))
      (node (ref R11) (pin 1))
      (node (ref C13) (pin 2))
      (node (ref Q3) (pin 1))
      (node (ref C14) (pin 2))
      (node (ref R14) (pin 1))
      (node (ref R16) (pin 1))
      (node (ref R25) (pin 1))
      (node (ref C20) (pin 2))
      (node (ref R13) (pin 1))
      (node (ref C21) (pin 2))
      (node (ref C23) (pin 2))
      (node (ref J2) (pin 1))
      (node (ref C22) (pin 2))
      (node (ref J3) (pin 8))
      (node (ref R22) (pin 1))
      (node (ref C29) (pin 2))
      (node (ref R28) (pin 1))
      (node (ref C18) (pin 2))
      (node (ref C19) (pin 2))
      (node (ref U2) (pin 18))
      (node (ref U5) (pin 9)))
    (net (code 77) (name NEODATA)
      (node (ref R3) (pin 2))
      (node (ref U4) (pin 8)))
    (net (code 78) (name GNDA)
      (node (ref U4) (pin 32)))
    (net (code 79) (name "Net-(C20-Pad1)")
      (node (ref C20) (pin 1))
      (node (ref U2) (pin 10)))
    (net (code 80) (name "Net-(R13-Pad2)")
      (node (ref R13) (pin 2))
      (node (ref U2) (pin 9)))
    (net (code 81) (name "Net-(R9-Pad1)")
      (node (ref R9) (pin 1))
      (node (ref U2) (pin 22)))
    (net (code 82) (name SW1)
      (node (ref J2) (pin 8))
      (node (ref R16) (pin 2))
      (node (ref U4) (pin 24))
      (node (ref C23) (pin 1)))
    (net (code 83) (name "Net-(D3-Pad2)")
      (node (ref R1) (pin 1))
      (node (ref D3) (pin 2)))
    (net (code 84) (name "Net-(R1-Pad2)")
      (node (ref U6) (pin 1))
      (node (ref R23) (pin 2))
      (node (ref R1) (pin 2)))
    (net (code 85) (name TeensyRX1)
      (node (ref U4) (pin 2))
      (node (ref U5) (pin 16)))
    (net (code 86) (name TeensyTX1)
      (node (ref U5) (pin 15))
      (node (ref U4) (pin 3)))
    (net (code 87) (name ESP_EN)
      (node (ref U5) (pin 3))
      (node (ref U4) (pin 6)))
    (net (code 88) (name ENCA)
      (node (ref U4) (pin 9))
      (node (ref C16) (pin 1))
      (node (ref R5) (pin 1)))
    (net (code 89) (name ENCB)
      (node (ref U4) (pin 10))
      (node (ref R6) (pin 1))
      (node (ref C17) (pin 1)))
    (net (code 90) (name SPI_MOSI)
      (node (ref U4) (pin 13))
      (node (ref J3) (pin 1)))
    (net (code 91) (name SPI_SCLK)
      (node (ref U4) (pin 21))
      (node (ref J3) (pin 2)))
    (net (code 92) (name SPI_RST)
      (node (ref J3) (pin 4))
      (node (ref U4) (pin 22)))
    (net (code 93) (name ESP_REST)
      (node (ref U4) (pin 5))
      (node (ref U5) (pin 1)))
    (net (code 94) (name GPIO0)
      (node (ref J1) (pin 3))
      (node (ref J2) (pin 9))
      (node (ref U4) (pin 28)))
    (net (code 95) (name SPI_DC)
      (node (ref U4) (pin 11))
      (node (ref J3) (pin 3)))
    (net (code 96) (name SPI_CS)
      (node (ref J3) (pin 5))
      (node (ref U4) (pin 12)))
    (net (code 97) (name "Net-(S3-Pad3)")
      (node (ref S3) (pin 3)))
    (net (code 98) (name "Net-(R10-Pad2)")
      (node (ref R10) (pin 2))
      (node (ref S3) (pin 1)))
    (net (code 99) (name "Net-(R10-Pad1)")
      (node (ref R10) (pin 1))
      (node (ref R11) (pin 2))
      (node (ref U3) (pin 3)))
    (net (code 100) (name "Net-(U3-Pad4)")
      (node (ref U3) (pin 4)))))